x,y,z,R
1.428057e-01,1.428057e-01,2.229763e-02,2.019577e-01
1.579570e-01,1.579570e-01,4.990646e-02,2.233849e-01
2.074975e-01,2.074975e-01,-4.107350e-02,2.934457e-01
1.677005e-01,1.677005e-01,-2.682690e-02,2.371643e-01
1.407080e-01,1.407080e-01,2.953812e-02,1.989911e-01
1.642610e-01,1.642610e-01,4.556500e-02,2.323001e-01
