x,y,z,R
1.972375e-01,1.972375e-01,-2.373677e-02,2.789360e-01
1.709831e-01,1.709831e-01,-1.560904e-02,2.418066e-01
1.545707e-01,1.545707e-01,2.754644e-02,2.185960e-01
1.855949e-01,1.855949e-01,6.434322e-03,2.624708e-01
1.853794e-01,1.853794e-01,-3.134981e-02,2.621661e-01
1.563057e-01,1.563057e-01,1.254661e-02,2.210496e-01
1.674433e-01,1.674433e-01,3.000268e-02,2.368005e-01
1.964501e-01,1.964501e-01,-3.306733e-02,2.778224e-01
1.645059e-01,1.645059e-01,-5.867912e-03,2.326465e-01
1.565221e-01,1.565221e-01,3.254030e-02,2.213557e-01
1.936261e-01,1.936261e-01,-1.024779e-02,2.738286e-01
1.777796e-01,1.777796e-01,-2.402375e-02,2.514183e-01
1.545223e-01,1.545223e-01,2.099212e-02,2.185276e-01
1.765171e-01,1.765171e-01,2.014113e-02,2.496329e-01
1.916849e-01,1.916849e-01,-3.483614e-02,2.710834e-01
1.595516e-01,1.595516e-01,3.930857e-03,2.256401e-01
1.610902e-01,1.610902e-01,3.356944e-02,2.278159e-01
1.973804e-01,1.973804e-01,-2.498405e-02,2.791380e-01
1.702762e-01,1.702762e-01,-1.464609e-02,2.408069e-01
1.546667e-01,1.546667e-01,2.817290e-02,2.187318e-01
1.865304e-01,1.865304e-01,4.790483e-03,2.637938e-01
1.846409e-01,1.846409e-01,-3.076028e-02,2.611217e-01
1.560392e-01,1.560392e-01,1.343485e-02,2.206728e-01
1.682470e-01,1.682470e-01,2.931804e-02,2.379372e-01
1.961316e-01,1.961316e-01,-3.356481e-02,2.773720e-01
1.639556e-01,1.639556e-01,-4.910722e-03,2.318682e-01
1.568470e-01,1.568470e-01,3.284094e-02,2.218152e-01
1.942102e-01,1.942102e-01,-1.184459e-02,2.746547e-01
1.770236e-01,1.770236e-01,-2.316295e-02,2.503492e-01
1.544548e-01,1.544548e-01,2.176357e-02,2.184321e-01
1.775072e-01,1.775072e-01,1.882240e-02,2.510331e-01
1.910588e-01,1.910588e-01,-3.465294e-02,2.701979e-01
1.591345e-01,1.591345e-01,4.902153e-03,2.250502e-01
1.616914e-01,1.616914e-01,3.340364e-02,2.286662e-01
1.974720e-01,1.974720e-01,-2.616726e-02,2.792675e-01
1.695821e-01,1.695821e-01,-1.368183e-02,2.398252e-01
1.547819e-01,1.547819e-01,2.877474e-02,2.188947e-01
1.874407e-01,1.874407e-01,3.137453e-03,2.650812e-01
1.838985e-01,1.838985e-01,-3.013785e-02,2.600718e-01
1.557924e-01,1.557924e-01,1.431012e-02,2.203238e-01
1.690715e-01,1.690715e-01,2.857184e-02,2.391032e-01
1.957762e-01,1.957762e-01,-3.398750e-02,2.768693e-01
1.634195e-01,1.634195e-01,-3.952326e-03,2.311101e-01
1.571985e-01,1.571985e-01,3.310158e-02,2.223122e-01
1.947512e-01,1.947512e-01,-1.342204e-02,2.754197e-01
1.762681e-01,1.762681e-01,-2.228277e-02,2.492807e-01
1.544052e-01,1.544052e-01,2.252403e-02,2.183619e-01
1.785069e-01,1.785069e-01,1.744821e-02,2.524469e-01
1.904118e-01,1.904118e-01,-3.441471e-02,2.692829e-01
1.587306e-01,1.587306e-01,5.869995e-03,2.244790e-01
1.623176e-01,1.623176e-01,3.318507e-02,2.295517e-01
1.975128e-01,1.975128e-01,-2.728235e-02,2.793253e-01
1.689019e-01,1.689019e-01,-1.271751e-02,2.388634e-01
1.549169e-01,1.549169e-01,2.935003e-02,2.190856e-01
1.883229e-01,1.883229e-01,1.479340e-03,2.663288e-01
1.831531e-01,1.831531e-01,-2.948417e-02,2.590176e-01
1.555656e-01,1.555656e-01,1.517259e-02,2.200030e-01
1.699167e-01,1.699167e-01,2.776319e-02,2.402985e-01
1.953853e-01,1.953853e-01,-3.433626e-02,2.763166e-01
1.628982e-01,1.628982e-01,-2.991884e-03,2.303729e-01
1.575773e-01,1.575773e-01,3.332100e-02,2.228480e-01
1.952475e-01,1.952475e-01,-1.497651e-02,2.761217e-01
1.755139e-01,1.755139e-01,-2.138494e-02,2.482141e-01
1.543743e-01,1.543743e-01,2.327310e-02,2.183182e-01
1.795131e-01,1.795131e-01,1.602237e-02,2.538699e-01
1.897462e-01,1.897462e-01,-3.412412e-02,2.683417e-01
1.583409e-01,1.583409e-01,6.832809e-03,2.239278e-01
1.629676e-01,1.629676e-01,3.291266e-02,2.304709e-01
1.975040e-01,1.975040e-01,-2.832587e-02,2.793129e-01
1.682368e-01,1.682368e-01,-1.175405e-02,2.379228e-01
1.550722e-01,1.550722e-01,2.989695e-02,2.193053e-01
1.891745e-01,1.891745e-01,-1.803011e-04,2.675332e-01
1.824051e-01,1.824051e-01,-2.880074e-02,2.579597e-01
1.553588e-01,1.553588e-01,1.602254e-02,2.197106e-01
1.707823e-01,1.707823e-01,2.689132e-02,2.415227e-01
1.949603e-01,1.949603e-01,-3.461297e-02,2.757155e-01
1.623903e-01,1.623903e-01,-2.029093e-03,2.296546e-01
1.579841e-01,1.579841e-01,3.349782e-02,2.234232e-01
1.956978e-01,1.956978e-01,-1.650389e-02,2.767584e-01
1.747618e-01,1.747618e-01,-2.047148e-02,2.471505e-01
1.543606e-01,1.543606e-01,2.400960e-02,2.182988e-01
1.805216e-01,1.805216e-01,1.454940e-02,2.552961e-01
1.890642e-01,1.890642e-01,-3.378401e-02,2.673772e-01
1.579661e-01,1.579661e-01,7.788933e-03,2.233978e-01
1.636405e-01,1.636405e-01,3.258542e-02,2.314226e-01
1.974469e-01,1.974469e-01,-2.929561e-02,2.792321e-01
1.675873e-01,1.675873e-01,-1.079202e-02,2.370043e-01
1.552489e-01,1.552489e-01,3.041383e-02,2.195551e-01
1.899935e-01,1.899935e-01,-1.838425e-03,2.686914e-01
1.816552e-01,1.816552e-01,-2.808883e-02,2.568993e-01
1.551722e-01,1.551722e-01,1.686042e-02,2.194467e-01
1.716682e-01,1.716682e-01,2.595565e-02,2.427755e-01
1.945025e-01,1.945025e-01,-3.481898e-02,2.750680e-01
1.618956e-01,1.618956e-01,-1.063630e-03,2.289550e-01
1.584186e-01,1.584186e-01,3.363065e-02,2.240378e-01
1.961005e-01,1.961005e-01,-1.799936e-02,2.773281e-01
1.740132e-01,1.740132e-01,-1.954446e-02,2.460919e-01
1.543652e-01,1.543652e-01,2.473261e-02,2.183053e-01
1.815291e-01,1.815291e-01,1.303432e-02,2.567209e-01
1.883681e-01,1.883681e-01,-3.339691e-02,2.663927e-01
1.576071e-01,1.576071e-01,8.736784e-03,2.228901e-01
1.643362e-01,1.643362e-01,3.220249e-02,2.324065e-01
1.973429e-01,1.973429e-01,-3.018917e-02,2.790850e-01
1.669540e-01,1.669540e-01,-9.831656e-03,2.361087e-01
1.554477e-01,1.554477e-01,3.089907e-02,2.198362e-01
1.907780e-01,1.907780e-01,-3.492411e-03,2.698008e-01
1.809040e-01,1.809040e-01,-2.734958e-02,2.558369e-01
1.550051e-01,1.550051e-01,1.768655e-02,2.192104e-01
1.725741e-01,1.725741e-01,2.495582e-02,2.440566e-01
1.940132e-01,1.940132e-01,-3.495617e-02,2.743760e-01
1.614141e-01,1.614141e-01,-9.541127e-05,2.282740e-01
1.588812e-01,1.588812e-01,3.371815e-02,2.246919e-01
1.964545e-01,1.964545e-01,-1.945779e-02,2.778286e-01
1.732697e-01,1.732697e-01,-1.860599e-02,2.450404e-01
1.543867e-01,1.543867e-01,2.544041e-02,2.183358e-01
1.825308e-01,1.825308e-01,1.148262e-02,2.581375e-01
1.876600e-01,1.876600e-01,-3.296541e-02,2.653913e-01
1.572647e-01,1.572647e-01,9.674949e-03,2.224059e-01
1.650533e-01,1.650533e-01,3.176278e-02,2.334206e-01
1.971937e-01,1.971937e-01,-3.100601e-02,2.788740e-01
1.663374e-01,1.663374e-01,-8.872879e-03,2.352366e-01
1.556688e-01,1.556688e-01,3.135110e-02,2.201490e-01
1.915263e-01,1.915263e-01,-5.139948e-03,2.708591e-01
1.801508e-01,1.801508e-01,-2.658433e-02,2.547717e-01
1.548580e-01,1.548580e-01,1.850151e-02,2.190022e-01
1.734994e-01,1.734994e-01,2.389183e-02,2.453652e-01
1.934938e-01,1.934938e-01,-3.502650e-02,2.736416e-01
1.609448e-01,1.609448e-01,8.751716e-04,2.276103e-01
1.593722e-01,1.593722e-01,3.375904e-02,2.253863e-01
1.967585e-01,1.967585e-01,-2.087388e-02,2.782585e-01
1.725323e-01,1.725323e-01,-1.765840e-02,2.439976e-01
1.544262e-01,1.544262e-01,2.613160e-02,2.183917e-01
1.835229e-01,1.835229e-01,9.899957e-03,2.595406e-01
1.869419e-01,1.869419e-01,-3.249224e-02,2.643757e-01
1.569397e-01,1.569397e-01,1.060223e-02,2.219462e-01
1.657919e-01,1.657919e-01,3.126545e-02,2.344651e-01
1.970010e-01,1.970010e-01,-3.174518e-02,2.786015e-01
1.657370e-01,1.657370e-01,-7.915429e-03,2.343875e-01
1.559139e-01,1.559139e-01,3.176866e-02,2.204956e-01
1.922370e-01,1.922370e-01,-6.778875e-03,2.718642e-01
1.793968e-01,1.793968e-01,-2.579399e-02,2.537053e-01
1.547306e-01,1.547306e-01,1.930577e-02,2.188222e-01
1.744427e-01,1.744427e-01,2.276410e-02,2.466993e-01
1.929459e-01,1.929459e-01,-3.503203e-02,2.728667e-01
1.604877e-01,1.604877e-01,1.847550e-03,2.269639e-01
1.598902e-01,1.598902e-01,3.375183e-02,2.261189e-01
1.970116e-01,1.970116e-01,-2.224198e-02,2.786165e-01
1.718031e-01,1.718031e-01,-1.670379e-02,2.429662e-01
1.544835e-01,1.544835e-01,2.680429e-02,2.184727e-01
1.845011e-01,1.845011e-01,8.292035e-03,2.609240e-01
1.862156e-01,1.862156e-01,-3.197965e-02,2.633486e-01
1.566328e-01,1.566328e-01,1.151770e-02,2.215122e-01
1.665514e-01,1.665514e-01,3.070952e-02,2.355393e-01
1.967665e-01,1.967665e-01,-3.240679e-02,2.782699e-01
1.651527e-01,1.651527e-01,-6.958845e-03,2.335612e-01
1.561836e-01,1.561836e-01,3.215037e-02,2.208770e-01
1.929089e-01,1.929089e-01,-8.407001e-03,2.728144e-01
1.786418e-01,1.786418e-01,-2.497978e-02,2.526377e-01
1.546226e-01,1.546226e-01,2.009952e-02,2.186694e-01
1.754034e-01,1.754034e-01,2.157360e-02,2.480579e-01
1.923711e-01,1.923711e-01,-3.497488e-02,2.720538e-01
1.600432e-01,1.600432e-01,2.820922e-03,2.263352e-01
1.604356e-01,1.604356e-01,3.369543e-02,2.268903e-01
1.972133e-01,1.972133e-01,-2.355658e-02,2.789017e-01
1.710836e-01,1.710836e-01,-1.574418e-02,2.419488e-01
1.545584e-01,1.545584e-01,2.745647e-02,2.185786e-01
1.854616e-01,1.854616e-01,6.664387e-03,2.622823e-01
1.854829e-01,1.854829e-01,-3.142991e-02,2.623124e-01
1.563446e-01,1.563446e-01,1.242069e-02,2.211047e-01
1.673317e-01,1.673317e-01,3.009401e-02,2.366428e-01
1.964918e-01,1.964918e-01,-3.299131e-02,2.778814e-01
1.645847e-01,1.645847e-01,-6.002346e-03,2.327579e-01
1.564786e-01,1.564786e-01,3.249493e-02,2.212942e-01
1.935406e-01,1.935406e-01,-1.002197e-02,2.737078e-01
1.778860e-01,1.778860e-01,-2.414304e-02,2.515688e-01
1.545333e-01,1.545333e-01,2.088283e-02,2.185431e-01
1.763789e-01,1.763789e-01,2.032186e-02,2.494374e-01
1.917712e-01,1.917712e-01,-3.485732e-02,2.712055e-01
1.596112e-01,1.596112e-01,3.794120e-03,2.257243e-01
1.610077e-01,1.610077e-01,3.358857e-02,2.276993e-01
1.973634e-01,1.973634e-01,-2.481250e-02,2.791141e-01
1.703750e-01,1.703750e-01,-1.478152e-02,2.409466e-01
1.546520e-01,1.546520e-01,2.808627e-02,2.187109e-01
1.864004e-01,1.864004e-01,5.022200e-03,2.636100e-01
1.847450e-01,1.847450e-01,-3.084514e-02,2.612689e-01
1.560757e-01,1.560757e-01,1.331082e-02,2.207244e-01
1.681327e-01,1.681327e-01,2.941797e-02,2.377756e-01
1.961786e-01,1.961786e-01,-3.349946e-02,2.774385e-01
1.640318e-01,1.640318e-01,-5.045372e-03,2.319760e-01
1.567995e-01,1.567995e-01,3.280101e-02,2.217480e-01
1.941307e-01,1.941307e-01,-1.162122e-02,2.745422e-01
1.771300e-01,1.771300e-01,-2.328510e-02,2.504997e-01
1.544631e-01,1.544631e-01,2.165577e-02,2.184439e-01
1.773673e-01,1.773673e-01,1.901119e-02,2.508353e-01
1.911481e-01,1.911481e-01,-3.468208e-02,2.703242e-01
1.591922e-01,1.591922e-01,4.765749e-03,2.251317e-01
1.616055e-01,1.616055e-01,3.343012e-02,2.285446e-01
1.974622e-01,1.974622e-01,-2.600497e-02,2.792537e-01
1.696789e-01,1.696789e-01,-1.381738e-02,2.399622e-01
1.547646e-01,1.547646e-01,2.869170e-02,2.188702e-01
1.873144e-01,1.873144e-01,3.370202e-03,2.649026e-01
1.840030e-01,1.840030e-01,-3.022728e-02,2.602195e-01
1.558260e-01,1.558260e-01,1.418790e-02,2.203713e-01
1.689545e-01,1.689545e-01,2.868049e-02,2.389377e-01
1.958283e-01,1.958283e-01,-3.393256e-02,2.769430e-01
1.634941e-01,1.634941e-01,-4.087127e-03,2.312155e-01
1.571472e-01,1.571472e-01,3.306737e-02,2.222398e-01
1.946778e-01,1.946778e-01,-1.320161e-02,2.753160e-01
1.763744e-01,1.763744e-01,-2.240755e-02,2.494311e-01
1.544111e-01,1.544111e-01,2.241782e-02,2.183703e-01
1.783659e-01,1.783659e-01,1.764458e-02,2.522475e-01
1.905040e-01,1.905040e-01,-3.445132e-02,2.694133e-01
1.587866e-01,1.587866e-01,5.734240e-03,2.245582e-01
1.622280e-01,1.622280e-01,3.321900e-02,2.294250e-01
1.975101e-01,1.975101e-01,-2.712983e-02,2.793215e-01
1.689967e-01,1.689967e-01,-1.285301e-02,2.389974e-01
1.548967e-01,1.548967e-01,2.927084e-02,2.190571e-01
1.882007e-01,1.882007e-01,1.712577e-03,2.661560e-01
1.832579e-01,1.832579e-01,-2.957791e-02,2.591659e-01
1.555963e-01,1.555963e-01,1.505213e-02,2.200464e-01
1.697966e-01,1.697966e-01,2.788065e-02,2.401286e-01
1.954423e-01,1.954423e-01,-3.429167e-02,2.763972e-01
1.629705e-01,1.629705e-01,-3.127053e-03,2.304751e-01
1.575222e-01,1.575222e-01,3.329266e-02,2.227701e-01
1.951805e-01,1.951805e-01,-1.475954e-02,2.760269e-01
1.756197e-01,1.756197e-01,-2.151215e-02,2.483638e-01
1.543774e-01,1.543774e-01,2.316850e-02,2.183226e-01
1.793714e-01,1.793714e-01,1.622575e-02,2.536695e-01
1.898408e-01,1.898408e-01,-3.416810e-02,2.684754e-01
1.583949e-01,1.583949e-01,6.697879e-03,2.240043e-01
1.628746e-01,1.628746e-01,3.295420e-02,2.303395e-01
1.975082e-01,1.975082e-01,-2.818361e-02,2.793188e-01
1.683294e-01,1.683294e-01,-1.188940e-02,2.380537e-01
1.550492e-01,1.550492e-01,2.982185e-02,2.192727e-01
1.890568e-01,1.890568e-01,5.295647e-05,2.673666e-01
1.825105e-01,1.825105e-01,-2.889853e-02,2.581088e-01
1.553866e-01,1.553866e-01,1.590380e-02,2.197499e-01
1.706594e-01,1.706594e-01,2.701772e-02,2.413489e-01
1.950220e-01,1.950220e-01,-3.457839e-02,2.758028e-01
1.624611e-01,1.624611e-01,-2.164536e-03,2.297547e-01
1.579250e-01,1.579250e-01,3.347555e-02,2.233397e-01
1.956373e-01,1.956373e-01,-1.629099e-02,2.766729e-01
1.748673e-01,1.748673e-01,-2.060077e-02,2.472997e-01
1.543615e-01,1.543615e-01,2.390688e-02,2.183002e-01
1.803799e-01,1.803799e-01,1.475911e-02,2.550956e-01
1.891610e-01,1.891610e-01,-3.383478e-02,2.675140e-01
1.580179e-01,1.580179e-01,7.655030e-03,2.234711e-01
1.635446e-01,1.635446e-01,3.263479e-02,2.312870e-01
1.974578e-01,1.974578e-01,-2.916387e-02,2.792475e-01
1.676777e-01,1.676777e-01,-1.092713e-02,2.371321e-01
1.552226e-01,1.552226e-01,3.034303e-02,2.195180e-01
1.898804e-01,1.898804e-01,-1.605552e-03,2.685314e-01
1.817609e-01,1.817609e-01,-2.819053e-02,2.570487e-01
1.551971e-01,1.551971e-01,1.674332e-02,2.194818e-01
1.715425e-01,1.715425e-01,2.609104e-02,2.425977e-01
1.945687e-01,1.945687e-01,-3.479418e-02,2.751617e-01
1.619644e-01,1.619644e-01,-1.199504e-03,2.290523e-01
1.583557e-01,1.583557e-01,3.361467e-02,2.239488e-01
1.960469e-01,1.960469e-01,-1.779128e-02,2.772521e-01
1.741185e-01,1.741185e-01,-1.967545e-02,2.462407e-01
1.543633e-01,1.543633e-01,2.463182e-02,2.183027e-01
1.813877e-01,1.813877e-01,1.324963e-02,2.565209e-01
1.884667e-01,1.884667e-01,-3.345411e-02,2.665322e-01
1.576566e-01,1.576566e-01,8.604125e-03,2.229601e-01
1.642369e-01,1.642369e-01,3.225969e-02,2.322661e-01
1.973603e-01,1.973603e-01,-3.006820e-02,2.791095e-01
1.670423e-01,1.670423e-01,-9.966503e-03,2.362334e-01
1.554181e-01,1.554181e-01,3.083279e-02,2.197944e-01
1.906698e-01,1.906698e-01,-3.260265e-03,2.696478e-01
1.810094e-01,1.810094e-01,-2.745515e-02,2.559860e-01
1.550276e-01,1.550276e-01,1.757114e-02,2.192422e-01
1.724457e-01,1.724457e-01,2.510025e-02,2.438750e-01
1.940838e-01,1.940838e-01,-3.494089e-02,2.744759e-01
1.614809e-01,1.614809e-01,-2.316925e-04,2.283685e-01
1.588147e-01,1.588147e-01,3.370868e-02,2.245979e-01
1.964077e-01,1.964077e-01,-1.925525e-02,2.777625e-01
1.733738e-01,1.733738e-01,-1.873853e-02,2.451875e-01
1.543826e-01,1.543826e-01,2.534189e-02,2.183300e-01
1.823905e-01,1.823905e-01,1.170273e-02,2.579391e-01
1.877601e-01,1.877601e-01,-3.302872e-02,2.655329e-01
1.573118e-01,1.573118e-01,9.543717e-03,2.224724e-01
1.649513e-01,1.649513e-01,3.182807e-02,2.332764e-01
1.972173e-01,1.972173e-01,-3.089588e-02,2.789074e-01
1.664232e-01,1.664232e-01,-9.007538e-03,2.353579e-01
1.556365e-01,1.556365e-01,3.128966e-02,2.201033e-01
1.914233e-01,1.914233e-01,-4.908832e-03,2.707134e-01
1.802570e-01,1.802570e-01,-2.669339e-02,2.549218e-01
1.548775e-01,1.548775e-01,1.838763e-02,2.190299e-01
1.733682e-01,1.733682e-01,2.404526e-02,2.451796e-01
1.935686e-01,1.935686e-01,-3.502049e-02,2.737473e-01
1.610101e-01,1.610101e-01,7.386407e-04,2.277027e-01
1.593012e-01,1.593012e-01,3.375612e-02,2.252859e-01
1.967188e-01,1.967188e-01,-2.067756e-02,2.782024e-01
1.726358e-01,1.726358e-01,-1.779203e-02,2.441438e-01
1.544198e-01,1.544198e-01,2.603558e-02,2.183826e-01
1.833843e-01,1.833843e-01,1.012407e-02,2.593445e-01
1.870434e-01,1.870434e-01,-3.256115e-02,2.645193e-01
1.569842e-01,1.569842e-01,1.047258e-02,2.220092e-01
1.656868e-01,1.656868e-01,3.133888e-02,2.343165e-01
1.970307e-01,1.970307e-01,-3.164598e-02,2.786434e-01
1.658203e-01,1.658203e-01,-8.049988e-03,2.345053e-01
1.558780e-01,1.558780e-01,3.171210e-02,2.204448e-01
1.921394e-01,1.921394e-01,-6.549101e-03,2.717262e-01
1.795028e-01,1.795028e-01,-2.590655e-02,2.538553e-01
1.547472e-01,1.547472e-01,1.919333e-02,2.188456e-01
1.743090e-01,1.743090e-01,2.292643e-02,2.465102e-01
1.930246e-01,1.930246e-01,-3.503503e-02,2.729779e-01
1.605513e-01,1.605513e-01,1.710814e-03,2.270539e-01
1.598159e-01,1.598159e-01,3.375582e-02,2.260138e-01
1.969791e-01,1.969791e-01,-2.205276e-02,2.785705e-01
1.719050e-01,1.719050e-01,-1.683831e-02,2.431104e-01
1.544742e-01,1.544742e-01,2.671089e-02,2.184595e-01
1.843648e-01,1.843648e-01,8.519360e-03,2.607312e-01
1.863181e-01,1.863181e-01,-3.205399e-02,2.634936e-01
1.566747e-01,1.566747e-01,1.138974e-02,2.215715e-01
1.664434e-01,1.664434e-01,3.079123e-02,2.353865e-01
1.968019e-01,1.968019e-01,-3.231847e-02,2.783199e-01
1.652339e-01,1.652339e-01,-7.093275e-03,2.336760e-01
1.561443e-01,1.561443e-01,3.209895e-02,2.208213e-01
1.928168e-01,1.928168e-01,-8.178887e-03,2.726842e-01
1.787478e-01,1.787478e-01,-2.509568e-02,2.527876e-01
