x,y,z,R
1.842617e-01,1.842617e-01,-8.015133e-03,2.605853e-01
1.753825e-01,1.753825e-01,-5.800952e-03,2.480282e-01
1.700895e-01,1.700895e-01,1.097636e-02,2.405429e-01
1.827649e-01,1.827649e-01,-3.179177e-03,2.584687e-01
1.783606e-01,1.783606e-01,-9.419956e-03,2.522400e-01
1.693973e-01,1.693973e-01,8.990869e-03,2.395640e-01
1.800718e-01,1.800718e-01,2.216954e-03,2.546600e-01
1.812021e-01,1.812021e-01,-1.174850e-02,2.562585e-01
1.698062e-01,1.698062e-01,5.686780e-03,2.401422e-01
1.768099e-01,1.768099e-01,6.973862e-03,2.500469e-01
1.833869e-01,1.833869e-01,-1.221305e-02,2.593483e-01
1.712226e-01,1.712226e-01,1.567000e-03,2.421454e-01
1.736776e-01,1.736776e-01,1.016015e-02,2.456172e-01
1.844146e-01,1.844146e-01,-1.047781e-02,2.608016e-01
1.734667e-01,1.734667e-01,-2.844253e-03,2.453189e-01
1.712234e-01,1.712234e-01,1.133922e-02,2.421464e-01
1.839615e-01,1.839615e-01,-6.681021e-03,2.601609e-01
1.762697e-01,1.762697e-01,-6.994921e-03,2.492830e-01
1.697622e-01,1.697622e-01,1.054317e-02,2.400800e-01
1.820518e-01,1.820518e-01,-1.549104e-03,2.574601e-01
1.792580e-01,1.792580e-01,-1.028929e-02,2.535091e-01
1.694076e-01,1.694076e-01,8.107616e-03,2.395786e-01
1.791115e-01,1.791115e-01,3.774999e-03,2.533020e-01
1.819569e-01,1.819569e-01,-1.210798e-02,2.573260e-01
1.701353e-01,1.701353e-01,4.502466e-03,2.406077e-01
1.758189e-01,1.758189e-01,8.134146e-03,2.486454e-01
1.838399e-01,1.838399e-01,-1.192484e-02,2.599889e-01
1.718247e-01,1.718247e-01,2.381603e-04,2.429969e-01
1.728442e-01,1.728442e-01,1.073520e-02,2.444386e-01
1.844406e-01,1.844406e-01,-9.524242e-03,2.608385e-01
1.742710e-01,1.742710e-01,-4.154213e-03,2.464564e-01
1.706676e-01,1.706676e-01,1.129552e-02,2.413604e-01
1.835250e-01,1.835250e-01,-5.221494e-03,2.595435e-01
1.771744e-01,1.771744e-01,-8.110763e-03,2.505624e-01
1.695370e-01,1.695370e-01,9.958952e-03,2.397615e-01
1.812423e-01,1.812423e-01,9.862588e-05,2.563153e-01
1.801292e-01,1.801292e-01,-1.102295e-02,2.547411e-01
1.695172e-01,1.695172e-01,7.116967e-03,2.397336e-01
1.781193e-01,1.781193e-01,5.241910e-03,2.518987e-01
1.826368e-01,1.826368e-01,-1.228198e-02,2.582874e-01
1.705528e-01,1.705528e-01,3.257614e-03,2.411980e-01
1.748584e-01,1.748584e-01,9.129653e-03,2.472872e-01
1.841739e-01,1.841739e-01,-1.142970e-02,2.604613e-01
1.724971e-01,1.724971e-01,-1.102597e-03,2.439477e-01
1.720858e-01,1.720858e-01,1.112033e-02,2.433661e-01
1.843251e-01,1.843251e-01,-8.392189e-03,2.606751e-01
1.751178e-01,1.751178e-01,-5.424640e-03,2.476540e-01
1.702093e-01,1.702093e-01,1.107645e-02,2.407123e-01
1.829605e-01,1.829605e-01,-3.666465e-03,2.587453e-01
1.780848e-01,1.780848e-01,-9.131022e-03,2.518499e-01
1.694144e-01,1.694144e-01,9.236290e-03,2.395881e-01
1.803545e-01,1.803545e-01,1.729245e-03,2.550598e-01
1.809597e-01,1.809597e-01,-1.160424e-02,2.559156e-01
1.697245e-01,1.697245e-01,6.033070e-03,2.400267e-01
1.771148e-01,1.771148e-01,6.590506e-03,2.504782e-01
1.832270e-01,1.832270e-01,-1.225992e-02,2.591221e-01
1.710541e-01,1.710541e-01,1.966755e-03,2.419070e-01
1.739445e-01,1.739445e-01,9.947751e-03,2.459947e-01
1.843790e-01,1.843790e-01,-1.073021e-02,2.607513e-01
1.732318e-01,1.732318e-01,-2.440164e-03,2.449867e-01
1.714108e-01,1.714108e-01,1.131645e-02,2.424115e-01
1.840676e-01,1.840676e-01,-7.101629e-03,2.603109e-01
1.759971e-01,1.759971e-01,-6.639032e-03,2.488975e-01
1.698509e-01,1.698509e-01,1.069154e-02,2.402054e-01
1.822799e-01,1.822799e-01,-2.048692e-03,2.577827e-01
1.789870e-01,1.789870e-01,-1.003828e-02,2.531258e-01
1.693938e-01,1.693938e-01,8.388438e-03,2.395591e-01
1.794081e-01,1.794081e-01,3.309103e-03,2.537214e-01
1.817344e-01,1.817344e-01,-1.201765e-02,2.570113e-01
1.700255e-01,1.700255e-01,4.869966e-03,2.404523e-01
1.761179e-01,1.761179e-01,7.797738e-03,2.490683e-01
1.837140e-01,1.837140e-01,-1.203448e-02,2.598109e-01
1.716337e-01,1.716337e-01,6.445468e-04,2.427268e-01
1.730904e-01,1.730904e-01,1.058023e-02,2.447867e-01
1.844476e-01,1.844476e-01,-9.834129e-03,2.608483e-01
1.740213e-01,1.740213e-01,-3.758958e-03,2.461033e-01
1.708267e-01,1.708267e-01,1.132779e-02,2.415854e-01
1.836719e-01,1.836719e-01,-5.677258e-03,2.597513e-01
1.768978e-01,1.768978e-01,-7.780478e-03,2.501713e-01
1.695947e-01,1.695947e-01,1.015202e-02,2.398432e-01
1.814978e-01,1.814978e-01,-4.026454e-04,2.566766e-01
1.798677e-01,1.798677e-01,-1.081503e-02,2.543714e-01
1.694734e-01,1.694734e-01,7.428994e-03,2.396716e-01
1.784233e-01,1.784233e-01,4.806790e-03,2.523287e-01
1.824388e-01,1.824388e-01,-1.224932e-02,2.580074e-01
1.704165e-01,1.704165e-01,3.642000e-03,2.410053e-01
1.751466e-01,1.751466e-01,8.844964e-03,2.476946e-01
1.840854e-01,1.840854e-01,-1.160226e-02,2.603361e-01
1.722856e-01,1.722856e-01,-6.941464e-04,2.436487e-01
1.723080e-01,1.723080e-01,1.102323e-02,2.436804e-01
1.843754e-01,1.843754e-01,-8.754525e-03,2.607462e-01
1.748562e-01,1.748562e-01,-5.043139e-03,2.472841e-01
1.703382e-01,1.703382e-01,1.116114e-02,2.408945e-01
1.831453e-01,1.831453e-01,-4.147926e-03,2.590066e-01
1.778077e-01,1.778077e-01,-8.831698e-03,2.514581e-01
1.694409e-01,1.694409e-01,9.470109e-03,2.396256e-01
1.806319e-01,1.806319e-01,1.236819e-03,2.554520e-01
1.807121e-01,1.807121e-01,-1.144441e-02,2.555655e-01
1.696513e-01,1.696513e-01,6.371998e-03,2.399232e-01
1.774206e-01,1.774206e-01,6.194049e-03,2.509106e-01
1.830577e-01,1.830577e-01,-1.228788e-02,2.588827e-01
1.708929e-01,1.708929e-01,2.363619e-03,2.416790e-01
1.742169e-01,1.742169e-01,9.718116e-03,2.463799e-01
1.843309e-01,1.843309e-01,-1.096434e-02,2.606832e-01
1.730019e-01,1.730019e-01,-2.034342e-03,2.446616e-01
1.716069e-01,1.716069e-01,1.127657e-02,2.426888e-01
1.841608e-01,1.841608e-01,-7.509812e-03,2.604427e-01
1.757267e-01,1.757267e-01,-6.276371e-03,2.485151e-01
1.699492e-01,1.699492e-01,1.082559e-02,2.403445e-01
1.824986e-01,1.824986e-01,-2.545658e-03,2.580920e-01
1.787142e-01,1.787142e-01,-9.775161e-03,2.527400e-01
1.693894e-01,1.693894e-01,8.658927e-03,2.395528e-01
1.797011e-01,1.797011e-01,2.835575e-03,2.541358e-01
1.815054e-01,1.815054e-01,-1.191047e-02,2.566874e-01
1.699240e-01,1.699240e-01,5.231463e-03,2.403088e-01
1.764195e-01,1.764195e-01,7.446498e-03,2.494949e-01
1.835776e-01,1.835776e-01,-1.212490e-02,2.596179e-01
1.714494e-01,1.714494e-01,1.049414e-03,2.424661e-01
1.733432e-01,1.733432e-01,1.040769e-02,2.451442e-01
1.844416e-01,1.844416e-01,-1.012697e-02,2.608398e-01
1.737758e-01,1.737758e-01,-3.360500e-03,2.457561e-01
1.709945e-01,1.709945e-01,1.134353e-02,2.418227e-01
1.838066e-01,1.838066e-01,-6.123273e-03,2.599418e-01
1.766223e-01,1.766223e-01,-7.441801e-03,2.497816e-01
1.696620e-01,1.696620e-01,1.033190e-02,2.399383e-01
1.817455e-01,1.817455e-01,-9.045329e-04,2.570269e-01
1.796029e-01,1.796029e-01,-1.059344e-02,2.539969e-01
1.694387e-01,1.694387e-01,7.731985e-03,2.396225e-01
1.787259e-01,1.787259e-01,4.361424e-03,2.527566e-01
1.822329e-01,1.822329e-01,-1.219877e-02,2.577162e-01
1.702881e-01,1.702881e-01,4.021732e-03,2.408238e-01
1.754384e-01,1.754384e-01,8.544097e-03,2.481073e-01
1.839854e-01,1.839854e-01,-1.175570e-02,2.601946e-01
1.720800e-01,1.720800e-01,-2.858545e-04,2.433579e-01
1.725379e-01,1.725379e-01,1.090853e-02,2.440055e-01
1.844124e-01,1.844124e-01,-9.101533e-03,2.607986e-01
1.745979e-01,1.745979e-01,-4.656921e-03,2.469187e-01
1.704766e-01,1.704766e-01,1.123022e-02,2.410903e-01
1.833190e-01,1.833190e-01,-4.622615e-03,2.592522e-01
1.775307e-01,1.775307e-01,-8.522329e-03,2.510664e-01
1.694768e-01,1.694768e-01,9.691950e-03,2.396764e-01
1.809031e-01,1.809031e-01,7.406108e-04,2.558357e-01
1.804598e-01,1.804598e-01,-1.126944e-02,2.552087e-01
1.695869e-01,1.695869e-01,6.703175e-03,2.398321e-01
1.777266e-01,1.777266e-01,5.785069e-03,2.513433e-01
1.828793e-01,1.828793e-01,-1.229716e-02,2.586304e-01
1.707392e-01,1.707392e-01,2.757179e-03,2.414617e-01
1.744944e-01,1.744944e-01,9.471438e-03,2.467724e-01
1.842700e-01,1.842700e-01,-1.118002e-02,2.605971e-01
1.727774e-01,1.727774e-01,-1.627227e-03,2.443442e-01
1.718114e-01,1.718114e-01,1.121943e-02,2.429781e-01
1.842410e-01,1.842410e-01,-7.904828e-03,2.605562e-01
1.754586e-01,1.754586e-01,-5.907425e-03,2.481359e-01
1.700570e-01,1.700570e-01,1.094500e-02,2.404969e-01
1.827073e-01,1.827073e-01,-3.039027e-03,2.583872e-01
1.784393e-01,1.784393e-01,-9.500491e-03,2.523513e-01
1.693943e-01,1.693943e-01,8.918696e-03,2.395597e-01
1.799901e-01,1.799901e-01,2.355275e-03,2.545444e-01
1.812703e-01,1.812703e-01,-1.178681e-02,2.563549e-01
1.698311e-01,1.698311e-01,5.586563e-03,2.401774e-01
1.767228e-01,1.767228e-01,7.080860e-03,2.499238e-01
1.834306e-01,1.834306e-01,-1.219621e-02,2.594100e-01
1.712722e-01,1.712722e-01,1.452342e-03,2.422155e-01
1.736023e-01,1.736023e-01,1.021764e-02,2.455108e-01
1.844225e-01,1.844225e-01,-1.040237e-02,2.608128e-01
1.735348e-01,1.735348e-01,-2.959293e-03,2.454152e-01
1.711713e-01,1.711713e-01,1.134260e-02,2.420728e-01
1.839290e-01,1.839290e-01,-6.558694e-03,2.601148e-01
1.763478e-01,1.763478e-01,-7.095292e-03,2.493934e-01
1.697385e-01,1.697385e-01,1.049819e-02,2.400465e-01
1.819849e-01,1.819849e-01,-1.406053e-03,2.573655e-01
1.793349e-01,1.793349e-01,-1.035872e-02,2.536179e-01
1.694132e-01,1.694132e-01,8.025539e-03,2.395864e-01
1.790262e-01,1.790262e-01,3.906569e-03,2.531813e-01
1.820193e-01,1.820193e-01,-1.213063e-02,2.574142e-01
1.701680e-01,1.701680e-01,4.396402e-03,2.406538e-01
1.757339e-01,1.757339e-01,8.227455e-03,2.485253e-01
1.838738e-01,1.838738e-01,-1.189002e-02,2.600368e-01
1.718806e-01,1.718806e-01,1.218593e-04,2.430758e-01
1.727751e-01,1.727751e-01,1.077622e-02,2.443409e-01
1.844363e-01,1.844363e-01,-9.432644e-03,2.608323e-01
1.743432e-01,1.743432e-01,-4.266452e-03,2.465585e-01
1.706238e-01,1.706238e-01,1.128330e-02,2.412985e-01
1.834810e-01,1.834810e-01,-5.089609e-03,2.594813e-01
1.772535e-01,1.772535e-01,-8.203516e-03,2.506743e-01
1.695223e-01,1.695223e-01,9.901441e-03,2.397407e-01
1.811679e-01,1.811679e-01,2.415688e-04,2.562101e-01
1.802032e-01,1.802032e-01,-1.107977e-02,2.548458e-01
1.695314e-01,1.695314e-01,7.026228e-03,2.397537e-01
1.780320e-01,1.780320e-01,5.364204e-03,2.517752e-01
1.826918e-01,1.826918e-01,-1.228798e-02,2.583653e-01
1.705932e-01,1.705932e-01,3.147021e-03,2.412553e-01
1.747769e-01,1.747769e-01,9.207961e-03,2.471718e-01
1.841969e-01,1.841969e-01,-1.137693e-02,2.604938e-01
1.725585e-01,1.725585e-01,-1.219251e-03,2.440345e-01
1.720236e-01,1.720236e-01,1.114484e-02,2.432781e-01
1.843082e-01,1.843082e-01,-8.285970e-03,2.606512e-01
1.751932e-01,1.751932e-01,-5.532676e-03,2.477606e-01
1.701741e-01,1.701741e-01,1.104941e-02,2.406625e-01
1.829058e-01,1.829058e-01,-3.527812e-03,2.586678e-01
1.781638e-01,1.781638e-01,-9.214640e-03,2.519616e-01
1.694086e-01,1.694086e-01,9.167361e-03,2.395799e-01
1.802742e-01,1.802742e-01,1.869085e-03,2.549463e-01
1.810294e-01,1.810294e-01,-1.164706e-02,2.560143e-01
1.697469e-01,1.697469e-01,5.934860e-03,2.400583e-01
1.770276e-01,1.770276e-01,6.701383e-03,2.503548e-01
1.832738e-01,1.832738e-01,-1.224845e-02,2.591882e-01
1.711016e-01,1.711016e-01,1.852851e-03,2.419742e-01
1.738675e-01,1.738675e-01,1.001018e-02,2.458858e-01
1.843905e-01,1.843905e-01,-1.065995e-02,2.607675e-01
1.732984e-01,1.732984e-01,-2.555784e-03,2.450810e-01
1.713563e-01,1.713563e-01,1.132469e-02,2.423344e-01
1.840386e-01,1.840386e-01,-6.982697e-03,2.602699e-01
1.760747e-01,1.760747e-01,-6.741417e-03,2.490073e-01
1.698246e-01,1.698246e-01,1.065060e-02,2.401682e-01
1.822155e-01,1.822155e-01,-1.906216e-03,2.576917e-01
1.790646e-01,1.790646e-01,-1.011124e-02,2.532356e-01
1.693969e-01,1.693969e-01,8.309265e-03,2.395634e-01
1.793238e-01,1.793238e-01,3.443018e-03,2.536022e-01
1.817987e-01,1.817987e-01,-1.204519e-02,2.571022e-01
1.700561e-01,1.700561e-01,4.765600e-03,2.404957e-01
1.760321e-01,1.760321e-01,7.895373e-03,2.489471e-01
1.837511e-01,1.837511e-01,-1.200513e-02,2.598632e-01
1.716877e-01,1.716877e-01,5.285941e-04,2.428030e-01
1.730193e-01,1.730193e-01,1.062629e-02,2.446863e-01
1.844470e-01,1.844470e-01,-9.747326e-03,2.608474e-01
1.740924e-01,1.740924e-01,-3.872194e-03,2.462038e-01
1.707804e-01,1.707804e-01,1.132024e-02,2.415199e-01
1.836313e-01,1.836313e-01,-5.548005e-03,2.596938e-01
1.769768e-01,1.769768e-01,-7.875705e-03,2.502829e-01
1.695774e-01,1.695774e-01,1.009822e-02,2.398186e-01
1.814256e-01,1.814256e-01,-2.593430e-04,2.565745e-01
1.799428e-01,1.799428e-01,-1.087582e-02,2.544776e-01
1.694850e-01,1.694850e-01,7.340758e-03,2.396880e-01
1.783366e-01,1.783366e-01,4.932165e-03,2.522061e-01
1.824961e-01,1.824961e-01,-1.226051e-02,2.580885e-01
1.704547e-01,1.704547e-01,3.532665e-03,2.410593e-01
1.750639e-01,1.750639e-01,8.927952e-03,2.475777e-01
1.841120e-01,1.841120e-01,-1.155489e-02,2.603736e-01
1.723453e-01,1.723453e-01,-8.108500e-04,2.437330e-01
1.722437e-01,1.722437e-01,1.105275e-02,2.435894e-01
1.843622e-01,1.843622e-01,-8.652580e-03,2.607276e-01
1.749307e-01,1.749307e-01,-5.152605e-03,2.473894e-01
1.703004e-01,1.703004e-01,1.113852e-02,2.408411e-01
1.830935e-01,1.830935e-01,-4.011045e-03,2.589334e-01
1.778868e-01,1.778868e-01,-8.918256e-03,2.515700e-01
1.694324e-01,1.694324e-01,9.404532e-03,2.396136e-01
1.805532e-01,1.805532e-01,1.377915e-03,2.553408e-01
1.807833e-01,1.807833e-01,-1.149164e-02,2.556662e-01
1.696714e-01,1.696714e-01,6.275950e-03,2.399515e-01
1.773333e-01,1.773333e-01,6.308611e-03,2.507871e-01
1.831070e-01,1.831070e-01,-1.228183e-02,2.589524e-01
1.709382e-01,1.709382e-01,2.250572e-03,2.417431e-01
1.741385e-01,1.741385e-01,9.785460e-03,2.462691e-01
1.843457e-01,1.843457e-01,-1.089937e-02,2.607042e-01
1.730671e-01,1.730671e-01,-2.150416e-03,2.447539e-01
1.715501e-01,1.715501e-01,1.128973e-02,2.426084e-01
1.841356e-01,1.841356e-01,-7.394498e-03,2.604071e-01
1.758037e-01,1.758037e-01,-6.380630e-03,2.486240e-01
1.699201e-01,1.699201e-01,1.078877e-02,2.403034e-01
1.824369e-01,1.824369e-01,-2.404036e-03,2.580047e-01
1.787923e-01,1.787923e-01,-9.851528e-03,2.528505e-01
1.693899e-01,1.693899e-01,8.582754e-03,2.395534e-01
1.796180e-01,1.796180e-01,2.971592e-03,2.540182e-01
1.815715e-01,1.815715e-01,-1.194278e-02,2.567809e-01
1.699522e-01,1.699522e-01,5.128845e-03,2.403487e-01
1.763331e-01,1.763331e-01,7.548322e-03,2.493727e-01
1.836176e-01,1.836176e-01,-1.210101e-02,2.596745e-01
1.715013e-01,1.715013e-01,9.339285e-04,2.425395e-01
1.732703e-01,1.732703e-01,1.045877e-02,2.450412e-01
1.844446e-01,1.844446e-01,-1.004510e-02,2.608440e-01
1.738456e-01,1.738456e-01,-3.474604e-03,2.458548e-01
1.709456e-01,1.709456e-01,1.134072e-02,2.417536e-01
1.837694e-01,1.837694e-01,-5.996902e-03,2.598892e-01
1.767010e-01,1.767010e-01,-7.539358e-03,2.498929e-01
1.696417e-01,1.696417e-01,1.028188e-02,2.399097e-01
1.816756e-01,1.816756e-01,-7.611495e-04,2.569282e-01
1.796789e-01,1.796789e-01,-1.065812e-02,2.541043e-01
1.694476e-01,1.694476e-01,7.646365e-03,2.396351e-01
1.786398e-01,1.786398e-01,4.489665e-03,2.526348e-01
1.822925e-01,1.822925e-01,-1.221502e-02,2.578005e-01
1.703240e-01,1.703240e-01,3.913757e-03,2.408744e-01
1.753547e-01,1.753547e-01,8.631677e-03,2.479890e-01
1.840152e-01,1.840152e-01,-1.171383e-02,2.602367e-01
1.721381e-01,1.721381e-01,-4.024516e-04,2.434400e-01
1.724715e-01,1.724715e-01,1.094310e-02,2.439115e-01
1.844031e-01,1.844031e-01,-9.004025e-03,2.607853e-01
1.746714e-01,1.746714e-01,-4.767695e-03,2.470227e-01
1.704362e-01,1.704362e-01,1.121210e-02,2.410332e-01
1.832703e-01,1.832703e-01,-4.487775e-03,2.591834e-01
1.776099e-01,1.776099e-01,-8.611685e-03,2.511784e-01
1.694657e-01,1.694657e-01,9.629837e-03,2.396606e-01
1.808263e-01,1.808263e-01,8.826909e-04,2.557270e-01
1.805323e-01,1.805323e-01,-1.132094e-02,2.553113e-01
1.696045e-01,1.696045e-01,6.609398e-03,2.398570e-01
1.776391e-01,1.776391e-01,5.903130e-03,2.512196e-01
1.829312e-01,1.829312e-01,-1.229640e-02,2.587038e-01
1.707823e-01,1.707823e-01,2.645106e-03,2.415227e-01
1.744147e-01,1.744147e-01,9.543642e-03,2.466597e-01
1.842885e-01,1.842885e-01,-1.112032e-02,2.606234e-01
1.728410e-01,1.728410e-01,-1.743629e-03,2.444341e-01
1.717522e-01,1.717522e-01,1.123753e-02,2.428943e-01
1.842196e-01,1.842196e-01,-7.793343e-03,2.605259e-01
1.755350e-01,1.755350e-01,-6.013423e-03,2.482440e-01
1.700253e-01,1.700253e-01,1.091241e-02,2.404521e-01
1.826486e-01,1.826486e-01,-2.898526e-03,2.583041e-01
1.785179e-01,1.785179e-01,-9.580117e-03,2.524624e-01
1.693921e-01,1.693921e-01,8.845625e-03,2.395566e-01
1.799081e-01,1.799081e-01,2.493135e-03,2.544285e-01
1.813381e-01,1.813381e-01,-1.182379e-02,2.564508e-01
1.698568e-01,1.698568e-01,5.485803e-03,2.402138e-01
1.766360e-01,1.766360e-01,7.186745e-03,2.498010e-01
1.834736e-01,1.834736e-01,-1.217779e-02,2.594708e-01
1.713220e-01,1.713220e-01,1.337444e-03,2.422858e-01
1.735276e-01,1.735276e-01,1.027371e-02,2.454051e-01
1.844291e-01,1.844291e-01,-1.032553e-02,2.608222e-01
1.736033e-01,1.736033e-01,-3.074138e-03,2.455121e-01
1.711199e-01,1.711199e-01,1.134458e-02,2.420001e-01
