x,y,z,R
1.876894e-01,1.876894e-01,-1.193528e-02,2.654329e-01
1.742899e-01,1.742899e-01,-8.163097e-03,2.464831e-01
1.663647e-01,1.663647e-01,1.612469e-02,2.352752e-01
1.849947e-01,1.849947e-01,-3.489594e-03,2.616221e-01
1.791176e-01,1.791176e-01,-1.397935e-02,2.533106e-01
1.656236e-01,1.656236e-01,1.237415e-02,2.342272e-01
1.800544e-01,1.800544e-01,5.750591e-03,2.546354e-01
1.837253e-01,1.837253e-01,-1.754411e-02,2.598268e-01
1.667254e-01,1.667254e-01,6.673669e-03,2.357853e-01
1.744710e-01,1.744710e-01,1.302813e-02,2.467393e-01
1.870096e-01,1.870096e-01,-1.752945e-02,2.644715e-01
1.694497e-01,1.694497e-01,-6.332842e-05,2.396380e-01
1.697436e-01,1.697436e-01,1.668934e-02,2.400536e-01
1.878593e-01,1.878593e-01,-1.317752e-02,2.656732e-01
1.734541e-01,1.734541e-01,-6.956222e-03,2.453011e-01
1.667109e-01,1.667109e-01,1.652212e-02,2.357647e-01
1.856950e-01,1.856950e-01,-5.183439e-03,2.626123e-01
1.782204e-01,1.782204e-01,-1.304199e-02,2.520417e-01
1.656171e-01,1.656171e-01,1.323578e-02,2.342179e-01
1.810592e-01,1.810592e-01,4.132055e-03,2.560563e-01
1.829454e-01,1.829454e-01,-1.712221e-02,2.587239e-01
1.663940e-01,1.663940e-01,7.821534e-03,2.353167e-01
1.754665e-01,1.754665e-01,1.193736e-02,2.481471e-01
1.865603e-01,1.865603e-01,-1.784890e-02,2.638361e-01
1.688428e-01,1.688428e-01,1.208870e-03,2.387798e-01
1.704980e-01,1.704980e-01,1.631516e-02,2.411206e-01
1.879246e-01,1.879246e-01,-1.429251e-02,2.657655e-01
1.726449e-01,1.726449e-01,-5.722970e-03,2.441567e-01
1.671228e-01,1.671228e-01,1.681419e-02,2.363473e-01
1.863092e-01,1.863092e-01,-6.831453e-03,2.634810e-01
1.773225e-01,1.773225e-01,-1.203792e-02,2.507719e-01
1.656731e-01,1.656731e-01,1.402624e-02,2.342972e-01
1.820319e-01,1.820319e-01,2.459993e-03,2.574319e-01
1.821287e-01,1.821287e-01,-1.658674e-02,2.575689e-01
1.661191e-01,1.661191e-01,8.929296e-03,2.349279e-01
1.764847e-01,1.764847e-01,1.072713e-02,2.495870e-01
1.860344e-01,1.860344e-01,-1.802095e-02,2.630924e-01
1.682819e-01,1.682819e-01,2.470260e-03,2.379866e-01
1.713080e-01,1.713080e-01,1.580797e-02,2.422661e-01
1.878869e-01,1.878869e-01,-1.527120e-02,2.657122e-01
1.718657e-01,1.718657e-01,-4.469674e-03,2.430548e-01
1.676000e-01,1.676000e-01,1.699493e-02,2.370222e-01
1.868309e-01,1.868309e-01,-8.415705e-03,2.642189e-01
1.764295e-01,1.764295e-01,-1.097533e-02,2.495090e-01
1.657933e-01,1.657933e-01,1.473950e-02,2.344671e-01
1.829610e-01,1.829610e-01,7.513617e-04,2.587460e-01
1.812819e-01,1.812819e-01,-1.594619e-02,2.563714e-01
1.659022e-01,1.659022e-01,9.991531e-03,2.346212e-01
1.775172e-01,1.775172e-01,9.405548e-03,2.510472e-01
1.854390e-01,1.854390e-01,-1.804938e-02,2.622504e-01
1.677690e-01,1.677690e-01,3.715450e-03,2.372612e-01
1.721691e-01,1.721691e-01,1.516685e-02,2.434839e-01
1.877489e-01,1.877489e-01,-1.610683e-02,2.655170e-01
1.711201e-01,1.711201e-01,-3.202318e-03,2.420004e-01
1.681423e-01,1.681423e-01,1.705884e-02,2.377891e-01
1.872547e-01,1.872547e-01,-9.919273e-03,2.648181e-01
1.755472e-01,1.755472e-01,-9.862021e-03,2.482612e-01
1.659781e-01,1.659781e-01,1.536924e-02,2.347285e-01
1.838364e-01,1.838364e-01,-9.758782e-04,2.599839e-01
1.804125e-01,1.804125e-01,-1.520910e-02,2.551418e-01
1.657447e-01,1.657447e-01,1.100275e-02,2.343984e-01
1.785546e-01,1.785546e-01,7.982565e-03,2.525143e-01
1.847811e-01,1.847811e-01,-1.793944e-02,2.613199e-01
1.673062e-01,1.673062e-01,4.939079e-03,2.366067e-01
1.730768e-01,1.730768e-01,1.439230e-02,2.447675e-01
1.875142e-01,1.875142e-01,-1.679495e-02,2.651851e-01
1.704114e-01,1.704114e-01,-1.926681e-03,2.409981e-01
1.687486e-01,1.687486e-01,1.700092e-02,2.386465e-01
1.875765e-01,1.875765e-01,-1.132655e-02,2.652732e-01
1.746805e-01,1.746805e-01,-8.705502e-03,2.470355e-01
1.662283e-01,1.662283e-01,1.590911e-02,2.350823e-01
1.846472e-01,1.846472e-01,-2.703241e-03,2.611306e-01
1.795271e-01,1.795271e-01,-1.438423e-02,2.538896e-01
1.656477e-01,1.656477e-01,1.195729e-02,2.342612e-01
1.795862e-01,1.795862e-01,6.469949e-03,2.539733e-01
1.840683e-01,1.840683e-01,-1.769728e-02,2.603119e-01
1.668956e-01,1.668956e-01,6.135793e-03,2.360260e-01
1.740250e-01,1.740250e-01,1.348629e-02,2.461085e-01
1.871881e-01,1.871881e-01,-1.733311e-02,2.647240e-01
1.697425e-01,1.697425e-01,-6.483745e-04,2.400521e-01
1.694169e-01,1.694169e-01,1.681682e-02,2.395917e-01
1.877944e-01,1.877944e-01,-1.262350e-02,2.655814e-01
1.738340e-01,1.738340e-01,-7.512872e-03,2.458385e-01
1.665440e-01,1.665440e-01,1.635272e-02,2.355288e-01
1.853843e-01,1.853843e-01,-4.411898e-03,2.621730e-01
1.786320e-01,1.786320e-01,-1.348027e-02,2.526237e-01
1.656122e-01,1.656122e-01,1.284942e-02,2.342110e-01
1.806020e-01,1.806020e-01,4.881294e-03,2.554098e-01
1.833077e-01,1.833077e-01,-1.733012e-02,2.592363e-01
1.665389e-01,1.665389e-01,7.300237e-03,2.355216e-01
1.750070e-01,1.750070e-01,1.245239e-02,2.474973e-01
1.867760e-01,1.867760e-01,-1.772102e-02,2.641412e-01
1.691154e-01,1.691154e-01,6.269698e-04,2.391653e-01
1.701452e-01,1.701452e-01,1.650303e-02,2.406217e-01
1.879077e-01,1.879077e-01,-1.379801e-02,2.657416e-01
1.730121e-01,1.730121e-01,-6.290924e-03,2.446760e-01
1.669259e-01,1.669259e-01,1.669383e-02,2.360688e-01
1.860390e-01,1.860390e-01,-6.083167e-03,2.630989e-01
1.777337e-01,1.777337e-01,-1.250573e-02,2.513533e-01
1.656395e-01,1.656395e-01,1.367326e-02,2.342497e-01
1.815907e-01,1.815907e-01,3.231712e-03,2.568080e-01
1.825070e-01,1.825070e-01,-1.684567e-02,2.581039e-01
1.662380e-01,1.662380e-01,8.427044e-03,2.350960e-01
1.760159e-01,1.760159e-01,1.129602e-02,2.489241e-01
1.862845e-01,1.862845e-01,-1.796019e-02,2.634461e-01
1.685331e-01,1.685331e-01,1.893981e-03,2.383418e-01
1.709303e-01,1.709303e-01,1.605696e-02,2.417319e-01
1.879169e-01,1.879169e-01,-1.484014e-02,2.657546e-01
1.722186e-01,1.722186e-01,-5.046063e-03,2.435539e-01
1.673732e-01,1.673732e-01,1.692630e-02,2.367015e-01
1.866037e-01,1.866037e-01,-7.698822e-03,2.638975e-01
1.768377e-01,1.768377e-01,-1.146897e-02,2.500863e-01
1.657305e-01,1.657305e-01,1.442272e-02,2.343784e-01
1.825414e-01,1.825414e-01,1.537674e-03,2.581525e-01
1.816732e-01,1.816732e-01,-1.625220e-02,2.569246e-01
1.659943e-01,1.659943e-01,9.510812e-03,2.347513e-01
1.770429e-01,1.770429e-01,1.002433e-02,2.503765e-01
1.857200e-01,1.857200e-01,-1.805389e-02,2.626477e-01
1.679979e-01,1.679979e-01,3.147260e-03,2.375849e-01
1.717685e-01,1.717685e-01,1.547723e-02,2.429173e-01
1.878244e-01,1.878244e-01,-1.574204e-02,2.656238e-01
1.714576e-01,1.714576e-01,-3.784362e-03,2.424776e-01
1.678857e-01,1.678857e-01,1.704439e-02,2.374263e-01
1.870729e-01,1.870729e-01,-9.241392e-03,2.645610e-01
1.759498e-01,1.759498e-01,-1.037796e-02,2.488306e-01
1.658856e-01,1.658856e-01,1.509150e-02,2.345977e-01
1.834426e-01,1.834426e-01,-1.833171e-04,2.594270e-01
1.808134e-01,1.808134e-01,-1.555822e-02,2.557088e-01
1.658094e-01,1.658094e-01,1.054609e-02,2.344899e-01
1.780794e-01,1.780794e-01,8.646461e-03,2.518422e-01
1.850898e-01,1.850898e-01,-1.800663e-02,2.617565e-01
1.675119e-01,1.675119e-01,4.381434e-03,2.368976e-01
1.726556e-01,1.726556e-01,1.476369e-02,2.441719e-01
1.876334e-01,1.876334e-01,-1.649819e-02,2.653537e-01
1.707313e-01,1.707313e-01,-2.511852e-03,2.414505e-01
1.684632e-01,1.684632e-01,1.704292e-02,2.382429e-01
1.874419e-01,1.874419e-01,-1.069461e-02,2.650828e-01
1.750756e-01,1.750756e-01,-9.240280e-03,2.475943e-01
1.661057e-01,1.661057e-01,1.567333e-02,2.349089e-01
1.842844e-01,1.842844e-01,-1.912933e-03,2.606175e-01
1.799345e-01,1.799345e-01,-1.477250e-02,2.544657e-01
1.656847e-01,1.656847e-01,1.152734e-02,2.343135e-01
1.791147e-01,1.791147e-01,7.173322e-03,2.533065e-01
1.844014e-01,1.844014e-01,-1.782418e-02,2.607829e-01
1.670772e-01,1.670772e-01,5.591145e-03,2.362828e-01
1.735858e-01,1.735858e-01,1.391754e-02,2.454873e-01
1.873486e-01,1.873486e-01,-1.710518e-02,2.649509e-01
1.700438e-01,1.700438e-01,-1.234080e-03,2.404782e-01
1.691032e-01,1.691032e-01,1.691711e-02,2.391481e-01
1.877075e-01,1.877075e-01,-1.204375e-02,2.654585e-01
1.742191e-01,1.742191e-01,-8.063373e-03,2.463830e-01
1.663911e-01,1.663911e-01,1.616180e-02,2.353125e-01
1.850563e-01,1.850563e-01,-3.632512e-03,2.617091e-01
1.790428e-01,1.790428e-01,-1.390374e-02,2.532048e-01
1.656207e-01,1.656207e-01,1.244876e-02,2.342230e-01
1.801393e-01,1.801393e-01,5.617731e-03,2.547554e-01
1.836616e-01,1.836616e-01,-1.751341e-02,2.597368e-01
1.666956e-01,1.666956e-01,6.771038e-03,2.357431e-01
1.745532e-01,1.745532e-01,1.294169e-02,2.468555e-01
1.869752e-01,1.869752e-01,-1.756186e-02,2.644228e-01
1.693974e-01,1.693974e-01,4.332605e-05,2.395641e-01
1.698043e-01,1.698043e-01,1.666310e-02,2.401396e-01
1.878687e-01,1.878687e-01,-1.327575e-02,2.656864e-01
1.733854e-01,1.733854e-01,-6.854044e-03,2.452040e-01
1.667427e-01,1.667427e-01,1.655066e-02,2.358098e-01
1.857496e-01,1.857496e-01,-5.323219e-03,2.626897e-01
1.781453e-01,1.781453e-01,-1.296048e-02,2.519355e-01
1.656193e-01,1.656193e-01,1.330466e-02,2.342211e-01
1.811418e-01,1.811418e-01,3.994097e-03,2.561732e-01
1.828784e-01,1.828784e-01,-1.708169e-02,2.586291e-01
1.663688e-01,1.663688e-01,7.915758e-03,2.352811e-01
1.755508e-01,1.755508e-01,1.184065e-02,2.482663e-01
1.865191e-01,1.865191e-01,-1.786891e-02,2.637779e-01
1.687943e-01,1.687943e-01,1.314822e-03,2.387112e-01
1.705637e-01,1.705637e-01,1.627788e-02,2.412135e-01
1.879254e-01,1.879254e-01,-1.437964e-02,2.657667e-01
1.725786e-01,1.725786e-01,-5.618873e-03,2.440630e-01
1.671601e-01,1.671601e-01,1.683364e-02,2.364001e-01
1.863566e-01,1.863566e-01,-6.966555e-03,2.635480e-01
1.772476e-01,1.772476e-01,-1.195121e-02,2.506660e-01
1.656807e-01,1.656807e-01,1.408891e-02,2.343079e-01
1.821111e-01,1.821111e-01,2.318302e-03,2.575440e-01
1.820589e-01,1.820589e-01,-1.653710e-02,2.574702e-01
1.660987e-01,1.660987e-01,9.019917e-03,2.348991e-01
1.765708e-01,1.765708e-01,1.062081e-02,2.497088e-01
1.859874e-01,1.859874e-01,-1.802872e-02,2.630259e-01
1.682372e-01,1.682372e-01,2.575060e-03,2.379233e-01
1.713781e-01,1.713781e-01,1.575950e-02,2.423652e-01
1.878791e-01,1.878791e-01,-1.534662e-02,2.657012e-01
1.718020e-01,1.718020e-01,-4.364190e-03,2.429647e-01
1.676428e-01,1.676428e-01,1.700482e-02,2.370828e-01
1.868701e-01,1.868701e-01,-8.544721e-03,2.642743e-01
1.763553e-01,1.763553e-01,-1.088409e-02,2.494040e-01
1.658063e-01,1.658063e-01,1.479543e-02,2.344855e-01
1.830365e-01,1.830365e-01,6.074377e-04,2.588527e-01
1.812100e-01,1.812100e-01,-1.588815e-02,2.562696e-01
1.658867e-01,1.658867e-01,1.007809e-02,2.345992e-01
1.776040e-01,1.776040e-01,9.290332e-03,2.511699e-01
1.853863e-01,1.853863e-01,-1.804540e-02,2.621759e-01
1.677284e-01,1.677284e-01,3.818654e-03,2.372038e-01
1.722435e-01,1.722435e-01,1.510721e-02,2.435891e-01
1.877328e-01,1.877328e-01,-1.617009e-02,2.654943e-01
1.710594e-01,1.710594e-01,-3.095910e-03,2.419146e-01
1.681906e-01,1.681906e-01,1.705873e-02,2.378574e-01
1.872854e-01,1.872854e-01,-1.004082e-02,2.648616e-01
1.754740e-01,1.754740e-01,-9.766896e-03,2.481578e-01
1.659965e-01,1.659965e-01,1.541790e-02,2.347546e-01
1.839067e-01,1.839067e-01,-1.120543e-03,2.600833e-01
1.803390e-01,1.803390e-01,-1.514340e-02,2.550378e-01
1.657342e-01,1.657342e-01,1.108479e-02,2.343836e-01
1.786410e-01,1.786410e-01,7.859359e-03,2.526365e-01
1.847237e-01,1.847237e-01,-1.792412e-02,2.612387e-01
1.672699e-01,1.672699e-01,5.040237e-03,2.365553e-01
1.731544e-01,1.731544e-01,1.432155e-02,2.448773e-01
1.874905e-01,1.874905e-01,-1.684567e-02,2.651516e-01
1.703538e-01,1.703538e-01,-1.819853e-03,2.409167e-01
1.688021e-01,1.688021e-01,1.699042e-02,2.387222e-01
1.875988e-01,1.875988e-01,-1.143935e-02,2.653048e-01
1.746088e-01,1.746088e-01,-8.607092e-03,2.469342e-01
1.662522e-01,1.662522e-01,1.594997e-02,2.351161e-01
1.847119e-01,1.847119e-01,-2.847039e-03,2.612221e-01
1.794525e-01,1.794525e-01,-1.431158e-02,2.537841e-01
1.656425e-01,1.656425e-01,1.203436e-02,2.342538e-01
1.796721e-01,1.796721e-01,6.339867e-03,2.540947e-01
1.840064e-01,1.840064e-01,-1.767130e-02,2.602243e-01
1.668637e-01,1.668637e-01,6.234458e-03,2.359810e-01
1.741057e-01,1.741057e-01,1.340468e-02,2.462226e-01
1.871570e-01,1.871570e-01,-1.737124e-02,2.646800e-01
1.696883e-01,1.696883e-01,-5.415903e-04,2.399755e-01
1.694755e-01,1.694755e-01,1.679559e-02,2.396746e-01
1.878079e-01,1.878079e-01,-1.272653e-02,2.656004e-01
1.737643e-01,1.737643e-01,-7.411756e-03,2.457398e-01
1.665734e-01,1.665734e-01,1.638525e-02,2.355704e-01
1.854423e-01,1.854423e-01,-4.553304e-03,2.622550e-01
1.785569e-01,1.785569e-01,-1.340138e-02,2.525176e-01
1.656120e-01,1.656120e-01,1.292099e-02,2.342108e-01
1.806860e-01,1.806860e-01,4.745523e-03,2.555286e-01
1.832422e-01,1.832422e-01,-1.729401e-02,2.591436e-01
1.665116e-01,1.665116e-01,7.395961e-03,2.354830e-01
1.750904e-01,1.750904e-01,1.236032e-02,2.476152e-01
1.867380e-01,1.867380e-01,-1.774664e-02,2.640874e-01
1.690651e-01,1.690651e-01,7.333021e-04,2.390941e-01
1.702089e-01,1.702089e-01,1.647085e-02,2.407117e-01
1.879123e-01,1.879123e-01,-1.389037e-02,2.657481e-01
1.729446e-01,1.729446e-01,-6.187653e-03,2.445806e-01
1.669607e-01,1.669607e-01,1.671750e-02,2.361181e-01
1.860896e-01,1.860896e-01,-6.220626e-03,2.631705e-01
1.776586e-01,1.776586e-01,-1.242133e-02,2.512473e-01
1.656447e-01,1.656447e-01,1.373885e-02,2.342570e-01
1.816719e-01,1.816719e-01,3.091570e-03,2.569229e-01
1.824383e-01,1.824383e-01,-1.680013e-02,2.580068e-01
1.662154e-01,1.662154e-01,8.519374e-03,2.350641e-01
1.761011e-01,1.761011e-01,1.119401e-02,2.490445e-01
1.862399e-01,1.862399e-01,-1.797357e-02,2.633830e-01
1.684866e-01,1.684866e-01,1.999368e-03,2.382760e-01
1.709984e-01,1.709984e-01,1.601364e-02,2.418282e-01
1.879129e-01,1.879129e-01,-1.492103e-02,2.657490e-01
1.721537e-01,1.721537e-01,-4.941151e-03,2.434621e-01
1.674135e-01,1.674135e-01,1.694062e-02,2.367585e-01
1.866468e-01,1.866468e-01,-7.830798e-03,2.639584e-01
1.767632e-01,1.767632e-01,-1.137972e-02,2.499809e-01
1.657410e-01,1.657410e-01,1.448180e-02,2.343931e-01
1.826186e-01,1.826186e-01,1.394579e-03,2.582617e-01
1.816022e-01,1.816022e-01,-1.619789e-02,2.568243e-01
1.659766e-01,1.659766e-01,9.599292e-03,2.347263e-01
1.771293e-01,1.771293e-01,9.913078e-03,2.504987e-01
1.856697e-01,1.856697e-01,-1.805525e-02,2.625767e-01
1.679555e-01,1.679555e-01,3.251253e-03,2.375249e-01
1.718410e-01,1.718410e-01,1.542271e-02,2.430198e-01
1.878120e-01,1.878120e-01,-1.581091e-02,2.656063e-01
1.713955e-01,1.713955e-01,-3.678313e-03,2.423898e-01
1.679315e-01,1.679315e-01,1.704891e-02,2.374911e-01
1.871077e-01,1.871077e-01,-9.366506e-03,2.646102e-01
1.758761e-01,1.758761e-01,-1.028454e-02,2.487264e-01
1.659015e-01,1.659015e-01,1.514356e-02,2.346202e-01
1.835155e-01,1.835155e-01,-3.278258e-04,2.595301e-01
1.807405e-01,1.807405e-01,-1.549594e-02,2.556057e-01
1.657966e-01,1.657966e-01,1.063026e-02,2.344718e-01
1.781659e-01,1.781659e-01,8.526781e-03,2.519646e-01
1.850344e-01,1.850344e-01,-1.799646e-02,2.616782e-01
1.674737e-01,1.674737e-01,4.483587e-03,2.368435e-01
1.727317e-01,1.727317e-01,1.469799e-02,2.442795e-01
1.876132e-01,1.876132e-01,-1.655464e-02,2.653251e-01
1.706723e-01,1.706723e-01,-2.405156e-03,2.413672e-01
1.685142e-01,1.685142e-01,1.703721e-02,2.383151e-01
1.874680e-01,1.874680e-01,-1.081160e-02,2.651197e-01
1.750033e-01,1.750033e-01,-9.143301e-03,2.474920e-01
1.661271e-01,1.661271e-01,1.571783e-02,2.349392e-01
1.843516e-01,1.843516e-01,-2.057343e-03,2.607125e-01
1.798604e-01,1.798604e-01,-1.470293e-02,2.543610e-01
1.656769e-01,1.656769e-01,1.160672e-02,2.343025e-01
1.792012e-01,1.792012e-01,7.046262e-03,2.534288e-01
1.843413e-01,1.843413e-01,-1.780305e-02,2.606979e-01
1.670433e-01,1.670433e-01,5.691011e-03,2.362349e-01
1.736654e-01,1.736654e-01,1.384090e-02,2.456000e-01
1.873207e-01,1.873207e-01,-1.714911e-02,2.649115e-01
1.699881e-01,1.699881e-01,-1.127216e-03,2.403995e-01
1.691596e-01,1.691596e-01,1.690084e-02,2.392278e-01
1.877251e-01,1.877251e-01,-1.215138e-02,2.654833e-01
1.741485e-01,1.741485e-01,-7.963422e-03,2.462832e-01
1.664180e-01,1.664180e-01,1.619821e-02,2.353505e-01
1.851174e-01,1.851174e-01,-3.775203e-03,2.617956e-01
1.789679e-01,1.789679e-01,-1.382762e-02,2.530989e-01
1.656182e-01,1.656182e-01,1.252291e-02,2.342195e-01
1.802241e-01,1.802241e-01,5.484397e-03,2.548754e-01
1.835977e-01,1.835977e-01,-1.748184e-02,2.596464e-01
1.666662e-01,1.666662e-01,6.868170e-03,2.357016e-01
1.746356e-01,1.746356e-01,1.285437e-02,2.469721e-01
1.869401e-01,1.869401e-01,-1.759323e-02,2.643733e-01
1.693452e-01,1.693452e-01,1.499101e-04,2.394903e-01
1.698655e-01,1.698655e-01,1.663595e-02,2.402262e-01
1.878774e-01,1.878774e-01,-1.337306e-02,2.656988e-01
1.733169e-01,1.733169e-01,-6.751687e-03,2.451071e-01
1.667750e-01,1.667750e-01,1.657844e-02,2.358555e-01
1.858039e-01,1.858039e-01,-5.462654e-03,2.627663e-01
1.780703e-01,1.780703e-01,-1.287852e-02,2.518294e-01
1.656219e-01,1.656219e-01,1.337304e-02,2.342248e-01
1.812243e-01,1.812243e-01,3.855776e-03,2.562898e-01
