x,y,z,R
1.893623e-01,1.893623e-01,-1.392182e-02,2.677988e-01
1.737134e-01,1.737134e-01,-9.327999e-03,2.456679e-01
1.644447e-01,1.644447e-01,1.850851e-02,2.325600e-01
1.858537e-01,1.858537e-01,-3.158199e-03,2.628368e-01
1.796475e-01,1.796475e-01,-1.641383e-02,2.540599e-01
1.637904e-01,1.637904e-01,1.357537e-02,2.316346e-01
1.794113e-01,1.794113e-01,8.378489e-03,2.537260e-01
1.852706e-01,1.852706e-01,-2.054339e-02,2.620121e-01
1.654460e-01,1.654460e-01,6.386310e-03,2.339760e-01
1.725115e-01,1.725115e-01,1.669234e-02,2.439681e-01
1.889892e-01,1.889892e-01,-1.973655e-02,2.672710e-01
1.690972e-01,1.690972e-01,-1.883634e-03,2.391395e-01
1.671757e-01,1.671757e-01,1.985547e-02,2.364222e-01
1.891943e-01,1.891943e-01,-1.300653e-02,2.675612e-01
1.742814e-01,1.742814e-01,-1.011280e-02,2.464712e-01
1.642693e-01,1.642693e-01,1.815624e-02,2.323119e-01
1.853066e-01,1.853066e-01,-1.968778e-03,2.620631e-01
1.802457e-01,1.802457e-01,-1.699159e-02,2.549059e-01
1.638558e-01,1.638558e-01,1.293905e-02,2.317271e-01
1.787020e-01,1.787020e-01,9.404432e-03,2.527227e-01
1.857555e-01,1.857555e-01,-2.071407e-02,2.626979e-01
1.657269e-01,1.657269e-01,5.591920e-03,2.343733e-01
1.718864e-01,1.718864e-01,1.724816e-02,2.430841e-01
1.891895e-01,1.891895e-01,-1.932924e-02,2.675543e-01
1.695543e-01,1.695543e-01,-2.724830e-03,2.397859e-01
1.667714e-01,1.667714e-01,1.988638e-02,2.358504e-01
1.889838e-01,1.889838e-01,-1.204616e-02,2.672634e-01
1.748576e-01,1.748576e-01,-1.088469e-02,2.472860e-01
1.641189e-01,1.641189e-01,1.776906e-02,2.320992e-01
1.847317e-01,1.847317e-01,-7.761479e-04,2.612500e-01
1.808398e-01,1.808398e-01,-1.753817e-02,2.557461e-01
1.639439e-01,1.639439e-01,1.228180e-02,2.318517e-01
1.779915e-01,1.779915e-01,1.039317e-02,2.517180e-01
1.862196e-01,1.862196e-01,-2.083318e-02,2.633542e-01
1.660273e-01,1.660273e-01,4.787890e-03,2.347980e-01
1.712794e-01,1.712794e-01,1.775041e-02,2.422256e-01
1.893526e-01,1.893526e-01,-1.886085e-02,2.677851e-01
1.700264e-01,1.700264e-01,-3.564579e-03,2.404536e-01
1.663923e-01,1.663923e-01,1.986927e-02,2.353143e-01
1.887310e-01,1.887310e-01,-1.104415e-02,2.669059e-01
1.754408e-01,1.754408e-01,-1.164213e-02,2.481108e-01
1.639932e-01,1.639932e-01,1.734851e-02,2.319215e-01
1.841312e-01,1.841312e-01,4.151026e-04,2.604008e-01
1.814282e-01,1.814282e-01,-1.805151e-02,2.565782e-01
1.640548e-01,1.640548e-01,1.160486e-02,2.320086e-01
1.772817e-01,1.772817e-01,1.134177e-02,2.507142e-01
1.866615e-01,1.866615e-01,-2.089882e-02,2.639793e-01
1.663469e-01,1.663469e-01,3.975346e-03,2.352500e-01
1.706914e-01,1.706914e-01,1.819885e-02,2.413941e-01
1.894775e-01,1.894775e-01,-1.833166e-02,2.679617e-01
1.705130e-01,1.705130e-01,-4.401758e-03,2.411418e-01
1.660386e-01,1.660386e-01,1.980542e-02,2.348141e-01
1.884368e-01,1.884368e-01,-1.000404e-02,2.664899e-01
1.760303e-01,1.760303e-01,-1.238350e-02,2.489444e-01
1.638920e-01,1.638920e-01,1.689607e-02,2.317782e-01
1.835074e-01,1.835074e-01,1.600420e-03,2.595187e-01
1.820092e-01,1.820092e-01,-1.852954e-02,2.573999e-01
1.641880e-01,1.641880e-01,1.090936e-02,2.321969e-01
1.765756e-01,1.765756e-01,1.224765e-02,2.497156e-01
1.870792e-01,1.870792e-01,-2.090954e-02,2.645699e-01
1.666853e-01,1.666853e-01,3.155386e-03,2.357286e-01
1.701235e-01,1.701235e-01,1.859348e-02,2.405910e-01
1.895627e-01,1.895627e-01,-1.774261e-02,2.680821e-01
1.710132e-01,1.710132e-01,-5.235259e-03,2.418491e-01
1.657100e-01,1.657100e-01,1.969606e-02,2.343493e-01
1.881023e-01,1.881023e-01,-8.929761e-03,2.660168e-01
1.766249e-01,1.766249e-01,-1.310711e-02,2.497854e-01
1.638151e-01,1.638151e-01,1.641330e-02,2.316695e-01
1.828633e-01,1.828633e-01,2.775377e-03,2.586077e-01
1.825818e-01,1.825818e-01,-1.897006e-02,2.582097e-01
1.643429e-01,1.643429e-01,1.019637e-02,2.324160e-01
1.758753e-01,1.758753e-01,1.310847e-02,2.487253e-01
1.874712e-01,1.874712e-01,-2.086368e-02,2.651243e-01
1.670420e-01,1.670420e-01,2.329116e-03,2.362331e-01
1.695768e-01,1.695768e-01,1.893451e-02,2.398179e-01
1.896073e-01,1.896073e-01,-1.709468e-02,2.681453e-01
1.715265e-01,1.715265e-01,-6.063873e-03,2.425751e-01
1.654072e-01,1.654072e-01,1.954273e-02,2.339211e-01
1.877282e-01,1.877282e-01,-7.825403e-03,2.654877e-01
1.772231e-01,1.772231e-01,-1.381131e-02,2.506313e-01
1.637626e-01,1.637626e-01,1.590168e-02,2.315953e-01
1.822014e-01,1.822014e-01,3.935624e-03,2.576717e-01
1.831438e-01,1.831438e-01,-1.937108e-02,2.590044e-01
1.645197e-01,1.645197e-01,9.467136e-03,2.326660e-01
1.751829e-01,1.751829e-01,1.392219e-02,2.477460e-01
1.878355e-01,1.878355e-01,-2.076002e-02,2.656396e-01
1.674167e-01,1.674167e-01,1.497633e-03,2.367630e-01
1.690524e-01,1.690524e-01,1.922231e-02,2.390761e-01
1.896106e-01,1.896106e-01,-1.638930e-02,2.681499e-01
1.720525e-01,1.720525e-01,-6.886354e-03,2.433190e-01
1.651297e-01,1.651297e-01,1.934675e-02,2.335287e-01
1.873162e-01,1.873162e-01,-6.695124e-03,2.649051e-01
1.778241e-01,1.778241e-01,-1.449419e-02,2.514813e-01
1.637337e-01,1.637337e-01,1.536250e-02,2.315544e-01
1.815247e-01,1.815247e-01,5.076947e-03,2.567146e-01
1.836941e-01,1.836941e-01,-1.973036e-02,2.597826e-01
1.647180e-01,1.647180e-01,8.722741e-03,2.329464e-01
1.745003e-01,1.745003e-01,1.468705e-02,2.467807e-01
1.881705e-01,1.881705e-01,-2.059742e-02,2.661132e-01
1.678085e-01,1.678085e-01,6.619461e-04,2.373170e-01
1.685506e-01,1.685506e-01,1.945738e-02,2.383665e-01
1.895719e-01,1.895719e-01,-1.562827e-02,2.680951e-01
1.725898e-01,1.725898e-01,-7.701585e-03,2.440789e-01
1.648780e-01,1.648780e-01,1.910972e-02,2.331727e-01
1.868678e-01,1.868678e-01,-5.543353e-03,2.642709e-01
1.784263e-01,1.784263e-01,-1.515399e-02,2.523329e-01
1.637287e-01,1.637287e-01,1.479727e-02,2.315473e-01
1.808357e-01,1.808357e-01,6.195285e-03,2.557403e-01
1.842307e-01,1.842307e-01,-2.004590e-02,2.605415e-01
1.649374e-01,1.649374e-01,7.964292e-03,2.332568e-01
1.738296e-01,1.738296e-01,1.540159e-02,2.458321e-01
1.884744e-01,1.884744e-01,-2.037490e-02,2.665431e-01
1.682172e-01,1.682172e-01,-1.767714e-04,2.378950e-01
1.680723e-01,1.680723e-01,1.964045e-02,2.376902e-01
1.894906e-01,1.894906e-01,-1.481370e-02,2.679802e-01
1.731382e-01,1.731382e-01,-8.508147e-03,2.448544e-01
1.646514e-01,1.646514e-01,1.883306e-02,2.328523e-01
1.863848e-01,1.863848e-01,-4.374516e-03,2.635879e-01
1.790288e-01,1.790288e-01,-1.578868e-02,2.531849e-01
1.637470e-01,1.637470e-01,1.420723e-02,2.315732e-01
1.801373e-01,1.801373e-01,7.286767e-03,2.547526e-01
1.847518e-01,1.847518e-01,-2.031565e-02,2.612785e-01
1.651777e-01,1.651777e-01,7.192879e-03,2.335965e-01
1.731725e-01,1.731725e-01,1.606462e-02,2.449029e-01
1.887457e-01,1.887457e-01,-2.009181e-02,2.669267e-01
1.686426e-01,1.686426e-01,-1.017389e-03,2.384966e-01
1.676179e-01,1.676179e-01,1.977226e-02,2.370475e-01
1.893667e-01,1.893667e-01,-1.394807e-02,2.678049e-01
1.736967e-01,1.736967e-01,-9.304708e-03,2.456443e-01
1.644501e-01,1.644501e-01,1.851832e-02,2.325676e-01
1.858693e-01,1.858693e-01,-3.193157e-03,2.628589e-01
1.796299e-01,1.796299e-01,-1.639634e-02,2.540351e-01
1.637889e-01,1.637889e-01,1.359381e-02,2.316325e-01
1.794322e-01,1.794322e-01,8.347727e-03,2.537555e-01
1.852561e-01,1.852561e-01,-2.053757e-02,2.619916e-01
1.654379e-01,1.654379e-01,6.409535e-03,2.339645e-01
1.725302e-01,1.725302e-01,1.667515e-02,2.439945e-01
1.889827e-01,1.889827e-01,-1.974763e-02,2.672619e-01
1.690840e-01,1.690840e-01,-1.858833e-03,2.391209e-01
1.671880e-01,1.671880e-01,1.985382e-02,2.364395e-01
1.891999e-01,1.891999e-01,-1.303415e-02,2.675691e-01
1.742644e-01,1.742644e-01,-1.008987e-02,2.464471e-01
1.642740e-01,1.642740e-01,1.816710e-02,2.323185e-01
1.853232e-01,1.853232e-01,-2.003897e-03,2.620865e-01
1.802283e-01,1.802283e-01,-1.697497e-02,2.548813e-01
1.638534e-01,1.638534e-01,1.295809e-02,2.317238e-01
1.787229e-01,1.787229e-01,9.374717e-03,2.527523e-01
1.857414e-01,1.857414e-01,-2.070979e-02,2.626780e-01
1.657182e-01,1.657182e-01,5.615440e-03,2.343609e-01
1.719046e-01,1.719046e-01,1.723256e-02,2.431098e-01
1.891842e-01,1.891842e-01,-1.934210e-02,2.675468e-01
1.695405e-01,1.695405e-01,-2.700070e-03,2.397665e-01
1.667829e-01,1.667829e-01,1.988615e-02,2.358667e-01
1.889906e-01,1.889906e-01,-1.207508e-02,2.672730e-01
1.748404e-01,1.748404e-01,-1.086216e-02,2.472617e-01
1.641228e-01,1.641228e-01,1.778093e-02,2.321047e-01
1.847490e-01,1.847490e-01,-8.112924e-04,2.612746e-01
1.808224e-01,1.808224e-01,-1.752252e-02,2.557215e-01
1.639410e-01,1.639410e-01,1.230147e-02,2.318476e-01
1.780124e-01,1.780124e-01,1.036460e-02,2.517475e-01
1.862062e-01,1.862062e-01,-2.083043e-02,2.633353e-01
1.660181e-01,1.660181e-01,4.811694e-03,2.347850e-01
1.712971e-01,1.712971e-01,1.773639e-02,2.422507e-01
1.893484e-01,1.893484e-01,-1.887553e-02,2.677790e-01
1.700124e-01,1.700124e-01,-3.539837e-03,2.404339e-01
1.664030e-01,1.664030e-01,1.987044e-02,2.353294e-01
1.887390e-01,1.887390e-01,-1.107423e-02,2.669173e-01
1.754235e-01,1.754235e-01,-1.162004e-02,2.480863e-01
1.639965e-01,1.639965e-01,1.736136e-02,2.319261e-01
1.841492e-01,1.841492e-01,3.800616e-04,2.604263e-01
1.814108e-01,1.814108e-01,-1.803690e-02,2.565536e-01
1.640514e-01,1.640514e-01,1.162511e-02,2.320037e-01
1.773025e-01,1.773025e-01,1.131441e-02,2.507436e-01
1.866489e-01,1.866489e-01,-2.089765e-02,2.639614e-01
1.663372e-01,1.663372e-01,3.999401e-03,2.352363e-01
1.707085e-01,1.707085e-01,1.818642e-02,2.414183e-01
1.894744e-01,1.894744e-01,-1.834813e-02,2.679572e-01
1.704983e-01,1.704983e-01,-4.377155e-03,2.411210e-01
1.660486e-01,1.660486e-01,1.980794e-02,2.348281e-01
1.884461e-01,1.884461e-01,-1.003519e-02,2.665031e-01
1.760129e-01,1.760129e-01,-1.236189e-02,2.489198e-01
1.638947e-01,1.638947e-01,1.690987e-02,2.317821e-01
1.835261e-01,1.835261e-01,1.565617e-03,2.595450e-01
1.819922e-01,1.819922e-01,-1.851598e-02,2.573758e-01
1.641836e-01,1.641836e-01,1.093007e-02,2.321907e-01
1.765964e-01,1.765964e-01,1.222159e-02,2.497450e-01
1.870673e-01,1.870673e-01,-2.091001e-02,2.645531e-01
1.666751e-01,1.666751e-01,3.179663e-03,2.357142e-01
1.701401e-01,1.701401e-01,1.858263e-02,2.406144e-01
1.895608e-01,1.895608e-01,-1.776081e-02,2.680794e-01
1.709984e-01,1.709983e-01,-5.210735e-03,2.418282e-01
1.657193e-01,1.657193e-01,1.969993e-02,2.343625e-01
1.881127e-01,1.881127e-01,-8.961875e-03,2.660315e-01
1.766074e-01,1.766074e-01,-1.308605e-02,2.497606e-01
1.638170e-01,1.638170e-01,1.642795e-02,2.316722e-01
1.828825e-01,1.828825e-01,2.740943e-03,2.586349e-01
1.825651e-01,1.825651e-01,-1.895761e-02,2.581861e-01
1.643380e-01,1.643380e-01,1.021761e-02,2.324090e-01
1.758959e-01,1.758959e-01,1.308377e-02,2.487544e-01
1.874600e-01,1.874600e-01,-2.086586e-02,2.651085e-01
1.670314e-01,1.670314e-01,2.353582e-03,2.362181e-01
1.695927e-01,1.695927e-01,1.892523e-02,2.398402e-01
1.896066e-01,1.896066e-01,-1.711459e-02,2.681442e-01
1.715112e-01,1.715112e-01,-6.039545e-03,2.425534e-01
1.654156e-01,1.654156e-01,1.954784e-02,2.339330e-01
1.877397e-01,1.877397e-01,-7.858338e-03,2.655041e-01
1.772054e-01,1.772054e-01,-1.379086e-02,2.506063e-01
1.637637e-01,1.637637e-01,1.591712e-02,2.315968e-01
1.822212e-01,1.822212e-01,3.901685e-03,2.576996e-01
1.831274e-01,1.831274e-01,-1.935985e-02,2.589812e-01
1.645143e-01,1.645143e-01,9.488861e-03,2.326583e-01
1.752033e-01,1.752033e-01,1.389891e-02,2.477748e-01
1.878252e-01,1.878252e-01,-2.076392e-02,2.656249e-01
1.674053e-01,1.674053e-01,1.522175e-03,2.367468e-01
1.690674e-01,1.690674e-01,1.921458e-02,2.390975e-01
1.896111e-01,1.896111e-01,-1.641089e-02,2.681506e-01
1.720367e-01,1.720367e-01,-6.862241e-03,2.432967e-01
1.651375e-01,1.651375e-01,1.935313e-02,2.335397e-01
1.873289e-01,1.873289e-01,-6.728756e-03,2.649231e-01
1.778065e-01,1.778065e-01,-1.447436e-02,2.514564e-01
1.637343e-01,1.637343e-01,1.537878e-02,2.315553e-01
1.815448e-01,1.815448e-01,5.043624e-03,2.567431e-01
1.836780e-01,1.836780e-01,-1.972040e-02,2.597599e-01
1.647120e-01,1.647120e-01,8.744915e-03,2.329380e-01
1.745203e-01,1.745203e-01,1.466523e-02,2.468090e-01
1.881611e-01,1.881611e-01,-2.060305e-02,2.660999e-01
1.677965e-01,1.677965e-01,6.865991e-04,2.373001e-01
1.685651e-01,1.685651e-01,1.945122e-02,2.383871e-01
1.895736e-01,1.895736e-01,-1.565147e-02,2.680976e-01
1.725740e-01,1.725740e-01,-7.677655e-03,2.440565e-01
1.648850e-01,1.648850e-01,1.911728e-02,2.331826e-01
1.868815e-01,1.868815e-01,-5.577561e-03,2.642903e-01
1.784086e-01,1.784086e-01,-1.513489e-02,2.523078e-01
1.637284e-01,1.637284e-01,1.481427e-02,2.315469e-01
1.808561e-01,1.808561e-01,6.162696e-03,2.557692e-01
1.842150e-01,1.842150e-01,-2.003724e-02,2.605194e-01
1.649308e-01,1.649308e-01,7.986851e-03,2.332473e-01
1.738491e-01,1.738491e-01,1.538127e-02,2.458598e-01
1.884659e-01,1.884659e-01,-2.038234e-02,2.665311e-01
1.682049e-01,1.682049e-01,-1.520184e-04,2.378777e-01
1.680860e-01,1.680860e-01,1.963578e-02,2.377095e-01
1.894936e-01,1.894936e-01,-1.483845e-02,2.679845e-01
1.731220e-01,1.731220e-01,-8.484507e-03,2.448314e-01
1.646576e-01,1.646576e-01,1.884174e-02,2.328610e-01
1.863995e-01,1.863995e-01,-4.409157e-03,2.636087e-01
1.790109e-01,1.790109e-01,-1.577037e-02,2.531597e-01
1.637462e-01,1.637462e-01,1.422498e-02,2.315721e-01
1.801580e-01,1.801580e-01,7.255021e-03,2.547818e-01
1.847368e-01,1.847368e-01,-2.030835e-02,2.612573e-01
1.651701e-01,1.651701e-01,7.215745e-03,2.335857e-01
1.731916e-01,1.731916e-01,1.604582e-02,2.449300e-01
1.887381e-01,1.887381e-01,-2.010104e-02,2.669160e-01
1.686299e-01,1.686299e-01,-9.925663e-04,2.384788e-01
1.676309e-01,1.676309e-01,1.976910e-02,2.370659e-01
1.893709e-01,1.893709e-01,-1.397428e-02,2.678109e-01
1.736801e-01,1.736801e-01,-9.281393e-03,2.456208e-01
1.644556e-01,1.644556e-01,1.852812e-02,2.325754e-01
1.858849e-01,1.858849e-01,-3.228107e-03,2.628809e-01
1.796121e-01,1.796121e-01,-1.637887e-02,2.540099e-01
1.637872e-01,1.637872e-01,1.361218e-02,2.316301e-01
1.794532e-01,1.794532e-01,8.316933e-03,2.537851e-01
1.852415e-01,1.852415e-01,-2.053174e-02,2.619710e-01
1.654298e-01,1.654298e-01,6.432752e-03,2.339531e-01
1.725489e-01,1.725489e-01,1.665791e-02,2.440209e-01
1.889762e-01,1.889762e-01,-1.975864e-02,2.672527e-01
1.690706e-01,1.690706e-01,-1.834065e-03,2.391019e-01
1.672003e-01,1.672003e-01,1.985213e-02,2.364569e-01
1.892055e-01,1.892055e-01,-1.306174e-02,2.675770e-01
1.742476e-01,1.742476e-01,-1.006691e-02,2.464233e-01
1.642788e-01,1.642788e-01,1.817795e-02,2.323252e-01
1.853396e-01,1.853396e-01,-2.039011e-03,2.621098e-01
1.802106e-01,1.802106e-01,-1.695838e-02,2.548562e-01
1.638512e-01,1.638512e-01,1.297713e-02,2.317206e-01
1.787438e-01,1.787438e-01,9.344970e-03,2.527819e-01
1.857273e-01,1.857273e-01,-2.070546e-02,2.626581e-01
1.657096e-01,1.657096e-01,5.638973e-03,2.343487e-01
1.719229e-01,1.719229e-01,1.721690e-02,2.431357e-01
1.891788e-01,1.891788e-01,-1.935491e-02,2.675392e-01
1.695269e-01,1.695269e-01,-2.675290e-03,2.397472e-01
1.667946e-01,1.667946e-01,1.988590e-02,2.358831e-01
1.889973e-01,1.889973e-01,-1.210396e-02,2.672826e-01
1.748233e-01,1.748233e-01,-1.083960e-02,2.472375e-01
1.641269e-01,1.641269e-01,1.779278e-02,2.321104e-01
1.847663e-01,1.847663e-01,-8.464387e-04,2.612990e-01
1.808049e-01,1.808049e-01,-1.750687e-02,2.556967e-01
1.639383e-01,1.639383e-01,1.232115e-02,2.318438e-01
1.780333e-01,1.780333e-01,1.033598e-02,2.517771e-01
1.861928e-01,1.861928e-01,-2.082762e-02,2.633164e-01
1.660090e-01,1.660090e-01,4.835512e-03,2.347722e-01
1.713147e-01,1.713147e-01,1.772231e-02,2.422756e-01
1.893441e-01,1.893441e-01,-1.889015e-02,2.677729e-01
1.699984e-01,1.699984e-01,-3.515116e-03,2.404140e-01
1.664139e-01,1.664139e-01,1.987157e-02,2.353448e-01
1.887470e-01,1.887470e-01,-1.110428e-02,2.669286e-01
1.754063e-01,1.754063e-01,-1.159792e-02,2.480619e-01
1.639998e-01,1.639998e-01,1.737416e-02,2.319307e-01
1.841672e-01,1.841672e-01,3.450135e-04,2.604518e-01
1.813935e-01,1.813935e-01,-1.802225e-02,2.565292e-01
1.640476e-01,1.640476e-01,1.164528e-02,2.319984e-01
1.773234e-01,1.773234e-01,1.128702e-02,2.507732e-01
1.866362e-01,1.866362e-01,-2.089645e-02,2.639435e-01
1.663276e-01,1.663276e-01,4.023473e-03,2.352228e-01
1.707255e-01,1.707255e-01,1.817392e-02,2.414423e-01
1.894712e-01,1.894712e-01,-1.836455e-02,2.679528e-01
1.704838e-01,1.704838e-01,-4.352532e-03,2.411005e-01
1.660586e-01,1.660586e-01,1.981042e-02,2.348423e-01
1.884553e-01,1.884553e-01,-1.006632e-02,2.665161e-01
1.759956e-01,1.759956e-01,-1.234025e-02,2.488953e-01
1.638974e-01,1.638974e-01,1.692362e-02,2.317859e-01
1.835447e-01,1.835447e-01,1.530805e-03,2.595714e-01
1.819752e-01,1.819752e-01,-1.850238e-02,2.573518e-01
1.641793e-01,1.641793e-01,1.095079e-02,2.321846e-01
1.766172e-01,1.766172e-01,1.219550e-02,2.497744e-01
1.870553e-01,1.870553e-01,-2.091045e-02,2.645362e-01
1.666651e-01,1.666651e-01,3.203955e-03,2.357000e-01
1.701566e-01,1.701566e-01,1.857173e-02,2.406377e-01
1.895588e-01,1.895588e-01,-1.777896e-02,2.680766e-01
1.709834e-01,1.709834e-01,-5.186235e-03,2.418071e-01
1.657288e-01,1.657288e-01,1.970378e-02,2.343759e-01
