x,y,z,R
2.029035e-01,2.029035e-01,-3.059312e-02,2.869488e-01
1.699002e-01,1.699002e-01,-2.239138e-02,2.402752e-01
1.468950e-01,1.468950e-01,2.960703e-02,2.077409e-01
1.761877e-01,1.761877e-01,2.650781e-02,2.491670e-01
1.957030e-01,1.957030e-01,-4.570422e-02,2.767658e-01
1.558371e-01,1.558371e-01,-2.499242e-06,2.203870e-01
1.510337e-01,1.510337e-01,4.285176e-02,2.135938e-01
1.983241e-01,1.983241e-01,-1.334661e-02,2.804726e-01
1.782305e-01,1.782305e-01,-3.169724e-02,2.520560e-01
1.484435e-01,1.484435e-01,2.105595e-02,2.099308e-01
1.663334e-01,1.663334e-01,3.729589e-02,2.352310e-01
2.007598e-01,2.007598e-01,-4.314133e-02,2.839173e-01
1.613573e-01,1.613573e-01,-9.602088e-03,2.281937e-01
1.484101e-01,1.484101e-01,3.819766e-02,2.098836e-01
1.902982e-01,1.902982e-01,4.305978e-03,2.691222e-01
1.861551e-01,1.861551e-01,-3.999135e-02,2.632631e-01
1.504828e-01,1.504828e-01,1.237737e-02,2.128148e-01
1.578036e-01,1.578036e-01,4.368793e-02,2.231680e-01
2.031335e-01,2.031335e-01,-3.450925e-02,2.872741e-01
1.677569e-01,1.677569e-01,-1.962983e-02,2.372441e-01
1.468281e-01,1.468281e-01,3.180036e-02,2.076462e-01
1.792642e-01,1.792642e-01,2.238790e-02,2.535179e-01
1.938734e-01,1.938734e-01,-4.539882e-02,2.741783e-01
1.543753e-01,1.543753e-01,2.698694e-03,2.183197e-01
1.519716e-01,1.519716e-01,4.382963e-02,2.149202e-01
2.000166e-01,2.000166e-01,-1.816034e-02,2.828662e-01
1.759931e-01,1.759931e-01,-2.929901e-02,2.488918e-01
1.479369e-01,1.479369e-01,2.338176e-02,2.092144e-01
1.688350e-01,1.688350e-01,3.487218e-02,2.387687e-01
1.996079e-01,1.996079e-01,-4.433699e-02,2.822882e-01
1.598390e-01,1.598390e-01,-6.985457e-03,2.260465e-01
1.490704e-01,1.490704e-01,3.958278e-02,2.108174e-01
1.927963e-01,1.927963e-01,-6.208813e-04,2.726552e-01
1.839920e-01,1.839920e-01,-3.780202e-02,2.602039e-01
1.498505e-01,1.498505e-01,1.483279e-02,2.119206e-01
1.600189e-01,1.600189e-01,4.239512e-02,2.263009e-01
2.028951e-01,2.028951e-01,-3.771180e-02,2.869370e-01
1.657993e-01,1.657993e-01,-1.684075e-02,2.344756e-01
1.470206e-01,1.470206e-01,3.380725e-02,2.079185e-01
1.824360e-01,1.824360e-01,1.773012e-02,2.580035e-01
1.918693e-01,1.918693e-01,-4.454764e-02,2.713442e-01
1.530326e-01,1.530326e-01,5.414473e-03,2.164207e-01
1.531415e-01,1.531415e-01,4.449167e-02,2.165748e-01
2.014333e-01,2.014333e-01,-2.298892e-02,2.848696e-01
1.737002e-01,1.737002e-01,-2.679695e-02,2.456491e-01
1.474586e-01,1.474586e-01,2.573396e-02,2.085379e-01
1.714591e-01,1.714591e-01,3.210908e-02,2.424798e-01
1.982944e-01,1.982944e-01,-4.517251e-02,2.804306e-01
1.583359e-01,1.583359e-01,-4.385152e-03,2.239208e-01
1.497604e-01,1.497604e-01,4.088207e-02,2.117931e-01
1.950482e-01,1.950482e-01,-5.432573e-03,2.758399e-01
1.818392e-01,1.818392e-01,-3.553939e-02,2.571594e-01
1.492997e-01,1.492997e-01,1.720602e-02,2.111417e-01
1.623431e-01,1.623431e-01,4.071646e-02,2.295878e-01
2.022920e-01,2.022920e-01,-4.021628e-02,2.860841e-01
1.640232e-01,1.640232e-01,-1.407074e-02,2.319639e-01
1.474361e-01,1.474361e-01,3.560803e-02,2.085062e-01
1.855621e-01,1.855621e-01,1.272734e-02,2.624244e-01
1.897538e-01,1.897538e-01,-4.316396e-02,2.683524e-01
1.518906e-01,1.518906e-01,8.095180e-03,2.148057e-01
1.546251e-01,1.546251e-01,4.467356e-02,2.186730e-01
2.024731e-01,2.024731e-01,-2.768540e-02,2.863402e-01
1.713925e-01,1.713925e-01,-2.417756e-02,2.423855e-01
1.470666e-01,1.470666e-01,2.808609e-02,2.079836e-01
1.742469e-01,1.742469e-01,2.890955e-02,2.464223e-01
1.967997e-01,1.967997e-01,-4.563352e-02,2.783168e-01
1.568289e-01,1.568289e-01,-1.761190e-03,2.217895e-01
1.504979e-01,1.504979e-01,4.210374e-02,2.128362e-01
1.970871e-01,1.970871e-01,-1.019446e-02,2.787233e-01
1.796775e-01,1.796775e-01,-3.324004e-02,2.541023e-01
1.487815e-01,1.487815e-01,1.952943e-02,2.104089e-01
1.647275e-01,1.647275e-01,3.874280e-02,2.329598e-01
2.014322e-01,2.014322e-01,-4.213530e-02,2.848681e-01
1.623867e-01,1.623867e-01,-1.135728e-02,2.296494e-01
1.479965e-01,1.479965e-01,3.721924e-02,2.092986e-01
1.885005e-01,1.885005e-01,7.631810e-03,2.665800e-01
1.875894e-01,1.875894e-01,-4.134955e-02,2.652914e-01
1.509770e-01,1.509770e-01,1.070406e-02,2.135137e-01
1.564456e-01,1.564456e-01,4.427108e-02,2.212475e-01
2.030383e-01,2.030383e-01,-3.199758e-02,2.871396e-01
1.691535e-01,1.691535e-01,-2.145905e-02,2.392191e-01
1.468440e-01,1.468440e-01,3.037004e-02,2.076688e-01
1.772161e-01,1.772161e-01,2.517386e-02,2.506214e-01
1.951036e-01,1.951036e-01,-4.565897e-02,2.759182e-01
1.553324e-01,1.553324e-01,9.108690e-04,2.196732e-01
1.513320e-01,1.513320e-01,4.320954e-02,2.140158e-01
1.989252e-01,1.989252e-01,-1.497644e-02,2.813228e-01
1.774774e-01,1.774774e-01,-3.089214e-02,2.509910e-01
1.482702e-01,1.482702e-01,2.184331e-02,2.096858e-01
1.671724e-01,1.671724e-01,3.650568e-02,2.364175e-01
2.003860e-01,2.003860e-01,-4.358942e-02,2.833886e-01
1.608376e-01,1.608376e-01,-8.708748e-03,2.274588e-01
1.486306e-01,1.486306e-01,3.867968e-02,2.101955e-01
1.911766e-01,1.911766e-01,2.616846e-03,2.703645e-01
1.854188e-01,1.854188e-01,-3.926068e-02,2.622218e-01
1.502551e-01,1.502551e-01,1.322205e-02,2.124928e-01
1.585391e-01,1.585391e-01,4.329951e-02,2.242081e-01
2.031007e-01,2.031007e-01,-3.567968e-02,2.872277e-01
1.670701e-01,1.670701e-01,-1.868314e-02,2.362728e-01
1.468645e-01,1.468645e-01,3.250487e-02,2.076977e-01
1.803369e-01,1.803369e-01,2.085927e-02,2.550349e-01
1.932095e-01,1.932095e-01,-4.517207e-02,2.732394e-01
1.539013e-01,1.539013e-01,3.622111e-03,2.176493e-01
1.523380e-01,1.523380e-01,4.409835e-02,2.154385e-01
2.005333e-01,2.005333e-01,-1.980380e-02,2.835970e-01
1.752194e-01,1.752194e-01,-2.846192e-02,2.477976e-01
1.477688e-01,1.477688e-01,2.417821e-02,2.089766e-01
1.697104e-01,1.697104e-01,3.397591e-02,2.400068e-01
1.991805e-01,1.991805e-01,-4.466083e-02,2.816838e-01
1.593284e-01,1.593284e-01,-6.102272e-03,2.253244e-01
1.493009e-01,1.493009e-01,4.003259e-02,2.111434e-01
1.935871e-01,1.935871e-01,-2.265849e-03,2.737736e-01
1.832600e-01,1.832600e-01,-3.703841e-02,2.591688e-01
1.496575e-01,1.496575e-01,1.564708e-02,2.116477e-01
1.608001e-01,1.608001e-01,4.186249e-02,2.274057e-01
2.027250e-01,2.027250e-01,-3.863615e-02,2.866965e-01
1.651770e-01,1.651770e-01,-1.589526e-02,2.335955e-01
1.471405e-01,1.471405e-01,3.444200e-02,2.080881e-01
1.835111e-01,1.835111e-01,1.605611e-02,2.595239e-01
1.911596e-01,1.911596e-01,-4.413402e-02,2.703405e-01
1.526191e-01,1.526191e-01,6.331442e-03,2.158360e-01
1.536075e-01,1.536075e-01,4.461470e-02,2.172338e-01
2.018344e-01,2.018344e-01,-2.461040e-02,2.854370e-01
1.729141e-01,1.729141e-01,-2.592003e-02,2.445375e-01
1.473118e-01,1.473118e-01,2.653574e-02,2.083304e-01
1.723863e-01,1.723863e-01,3.107642e-02,2.437910e-01
1.978081e-01,1.978081e-01,-4.537335e-02,2.797429e-01
1.578242e-01,1.578242e-01,-3.498180e-03,2.231972e-01
1.500036e-01,1.500036e-01,4.130656e-02,2.121372e-01
1.957635e-01,1.957635e-01,-7.051999e-03,2.768515e-01
1.811071e-01,1.811071e-01,-3.476222e-02,2.561242e-01
1.491219e-01,1.491219e-01,1.799894e-02,2.108902e-01
1.631473e-01,1.631473e-01,4.007617e-02,2.307252e-01
2.020241e-01,2.020241e-01,-4.092734e-02,2.857053e-01
1.634544e-01,1.634544e-01,-1.314138e-02,2.311594e-01
1.476142e-01,1.476142e-01,3.617500e-02,2.087581e-01
1.865869e-01,1.865869e-01,1.099549e-02,2.638737e-01
1.890214e-01,1.890214e-01,-4.258860e-02,2.673166e-01
1.515552e-01,1.515552e-01,8.990743e-03,2.143315e-01
1.552073e-01,1.552073e-01,4.460419e-02,2.194963e-01
2.027219e-01,2.027219e-01,-2.920762e-02,2.866920e-01
1.706191e-01,1.706191e-01,-2.326331e-02,2.412919e-01
1.469676e-01,1.469676e-01,2.887393e-02,2.078436e-01
1.752356e-01,1.752356e-01,2.770464e-02,2.478206e-01
1.962466e-01,1.962466e-01,-4.569493e-02,2.775346e-01
1.563174e-01,1.563174e-01,-8.591210e-04,2.210662e-01
1.507671e-01,1.507671e-01,4.249608e-02,2.132169e-01
1.977346e-01,1.977346e-01,-1.181416e-02,2.796389e-01
1.789354e-01,1.789354e-01,-3.244940e-02,2.530529e-01
1.486073e-01,1.486073e-01,2.031463e-02,2.101625e-01
1.655502e-01,1.655502e-01,3.801260e-02,2.341233e-01
2.010955e-01,2.010955e-01,-4.267628e-02,2.843919e-01
1.618532e-01,1.618532e-01,-1.045075e-02,2.288950e-01
1.482062e-01,1.482062e-01,3.773005e-02,2.095953e-01
1.894404e-01,1.894404e-01,5.914024e-03,2.679092e-01
1.868512e-01,1.868512e-01,-4.066262e-02,2.642475e-01
1.507136e-01,1.507136e-01,1.157029e-02,2.131412e-01
1.571313e-01,1.571313e-01,4.400073e-02,2.222172e-01
2.031146e-01,2.031146e-01,-3.332818e-02,2.872474e-01
1.684248e-01,1.684248e-01,-2.052021e-02,2.381887e-01
1.468215e-01,1.468215e-01,3.111545e-02,2.076370e-01
1.782628e-01,1.782628e-01,2.377192e-02,2.521017e-01
1.944810e-01,1.944810e-01,-4.555430e-02,2.750377e-01
1.548349e-01,1.548349e-01,1.829062e-03,2.189697e-01
1.516501e-01,1.516501e-01,4.354278e-02,2.144656e-01
1.995002e-01,1.995002e-01,-1.661224e-02,2.821359e-01
1.767169e-01,1.767169e-01,-3.007763e-02,2.499154e-01
1.480981e-01,1.480981e-01,2.263337e-02,2.094423e-01
1.680219e-01,1.680219e-01,3.568210e-02,2.376188e-01
1.999943e-01,1.999943e-01,-4.399400e-02,2.828346e-01
1.603226e-01,1.603226e-01,-7.820348e-03,2.267304e-01
1.488554e-01,1.488554e-01,3.914948e-02,2.105134e-01
1.920240e-01,1.920240e-01,9.437182e-04,2.715630e-01
1.846838e-01,1.846838e-01,-3.851530e-02,2.611824e-01
1.500413e-01,1.500413e-01,1.405571e-02,2.121905e-01
1.592931e-01,1.592931e-01,4.285722e-02,2.252745e-01
2.030168e-01,2.030168e-01,-3.676479e-02,2.871091e-01
1.664057e-01,1.664057e-01,-1.773500e-02,2.353333e-01
1.469315e-01,1.469315e-01,3.318629e-02,2.077926e-01
1.814165e-01,1.814165e-01,1.927275e-02,2.565617e-01
1.925273e-01,1.925273e-01,-4.488086e-02,2.722747e-01
1.534446e-01,1.534446e-01,4.545425e-03,2.170034e-01
1.527354e-01,1.527354e-01,4.432416e-02,2.160004e-01
2.010149e-01,2.010149e-01,-2.144597e-02,2.842780e-01
1.744397e-01,1.744397e-01,-2.761171e-02,2.466949e-01
1.476061e-01,1.476061e-01,2.497783e-02,2.087466e-01
1.706020e-01,1.706020e-01,3.303720e-02,2.412676e-01
1.987339e-01,1.987339e-01,-4.494366e-02,2.810522e-01
1.588176e-01,1.588176e-01,-5.219485e-03,2.246020e-01
1.495356e-01,1.495356e-01,4.047369e-02,2.114753e-01
1.943510e-01,1.943510e-01,-3.899359e-03,2.748538e-01
1.825289e-01,1.825289e-01,-3.626917e-02,2.581348e-01
1.494708e-01,1.494708e-01,1.645262e-02,2.113837e-01
1.615903e-01,1.615903e-01,4.128993e-02,2.285232e-01
2.025178e-01,2.025178e-01,-3.948344e-02,2.864034e-01
1.645750e-01,1.645750e-01,-1.495377e-02,2.327442e-01
1.472831e-01,1.472831e-01,3.505285e-02,2.082898e-01
1.845749e-01,1.845749e-01,1.435241e-02,2.610283e-01
1.904399e-01,1.904399e-01,-4.366100e-02,2.693226e-01
1.522314e-01,1.522314e-01,7.242383e-03,2.152877e-01
1.541122e-01,1.541122e-01,4.467607e-02,2.179475e-01
2.021876e-01,2.021876e-01,-2.620843e-02,2.859364e-01
1.721294e-01,1.721294e-01,-2.502948e-02,2.434277e-01
1.471778e-01,1.471778e-01,2.733557e-02,2.081408e-01
1.733338e-01,1.733338e-01,2.998919e-02,2.451311e-01
1.972999e-01,1.972999e-01,-4.552938e-02,2.790242e-01
1.573122e-01,1.573122e-01,-2.606897e-03,2.224730e-01
1.502539e-01,1.502539e-01,4.172178e-02,2.124911e-01
1.964553e-01,1.964553e-01,-8.668790e-03,2.778298e-01
1.803732e-01,1.803732e-01,-3.398110e-02,2.550862e-01
1.489462e-01,1.489462e-01,1.878762e-02,2.106417e-01
1.639574e-01,1.639574e-01,3.940438e-02,2.318708e-01
2.017304e-01,2.017304e-01,-4.157603e-02,2.852899e-01
1.628995e-01,1.628995e-01,-1.221964e-02,2.303747e-01
1.478062e-01,1.478062e-01,3.672136e-02,2.090295e-01
1.875852e-01,1.875852e-01,9.262228e-03,2.652855e-01
1.882855e-01,1.882855e-01,-4.196879e-02,2.662759e-01
1.512461e-01,1.512461e-01,9.877019e-03,2.138943e-01
1.558277e-01,1.558277e-01,4.446525e-02,2.203737e-01
2.029126e-01,2.029126e-01,-3.067425e-02,2.869618e-01
1.698576e-01,1.698576e-01,-2.233891e-02,2.402150e-01
1.468916e-01,1.468916e-01,2.965060e-02,2.077361e-01
1.762452e-01,1.762452e-01,2.643426e-02,2.492484e-01
1.956696e-01,1.956696e-01,-4.570301e-02,2.767187e-01
1.558086e-01,1.558086e-01,4.899182e-05,2.203466e-01
1.510499e-01,1.510499e-01,4.287252e-02,2.136168e-01
1.983587e-01,1.983587e-01,-1.343852e-02,2.805216e-01
1.781883e-01,1.781883e-01,-3.165192e-02,2.519963e-01
1.484337e-01,1.484337e-01,2.110040e-02,2.099170e-01
1.663806e-01,1.663806e-01,3.725210e-02,2.352977e-01
2.007393e-01,2.007393e-01,-4.316800e-02,2.838882e-01
1.613280e-01,1.613280e-01,-9.551426e-03,2.281522e-01
1.484223e-01,1.484223e-01,3.822522e-02,2.099009e-01
1.903486e-01,1.903486e-01,4.210131e-03,2.691936e-01
1.861136e-01,1.861136e-01,-3.995047e-02,2.632044e-01
1.504694e-01,1.504694e-01,1.242536e-02,2.127959e-01
1.578447e-01,1.578447e-01,4.366753e-02,2.232261e-01
2.031331e-01,2.031331e-01,-3.457775e-02,2.872736e-01
1.677172e-01,1.677172e-01,-1.957650e-02,2.371879e-01
1.468290e-01,1.468290e-01,3.184071e-02,2.076476e-01
1.793245e-01,1.793245e-01,2.230321e-02,2.536032e-01
1.938364e-01,1.938364e-01,-4.538761e-02,2.741260e-01
1.543480e-01,1.543480e-01,2.750760e-03,2.182810e-01
1.519912e-01,1.519912e-01,4.384579e-02,2.149480e-01
2.000467e-01,2.000467e-01,-1.825310e-02,2.829087e-01
1.759496e-01,1.759496e-01,-2.925203e-02,2.488304e-01
1.479270e-01,1.479270e-01,2.342660e-02,2.092004e-01
1.688838e-01,1.688838e-01,3.482259e-02,2.388378e-01
1.995844e-01,1.995844e-01,-4.435650e-02,2.822549e-01
1.598102e-01,1.598102e-01,-6.935502e-03,2.260058e-01
1.490830e-01,1.490830e-01,3.960839e-02,2.108352e-01
1.928417e-01,1.928417e-01,-7.141590e-04,2.727194e-01
1.839506e-01,1.839506e-01,-3.775906e-02,2.601454e-01
1.498397e-01,1.498397e-01,1.487914e-02,2.119054e-01
1.600628e-01,1.600628e-01,4.236619e-02,2.263630e-01
2.028866e-01,2.028866e-01,-3.776624e-02,2.869251e-01
1.657633e-01,1.657633e-01,-1.678731e-02,2.344248e-01
1.470266e-01,1.470266e-01,3.384375e-02,2.079271e-01
1.824970e-01,1.824970e-01,1.763652e-02,2.580898e-01
1.918296e-01,1.918296e-01,-4.452603e-02,2.712880e-01
1.530088e-01,1.530088e-01,5.466461e-03,2.163871e-01
1.531667e-01,1.531667e-01,4.450015e-02,2.166104e-01
2.014571e-01,2.014571e-01,-2.308103e-02,2.849034e-01
1.736556e-01,1.736556e-01,-2.674782e-02,2.455862e-01
1.474498e-01,1.474498e-01,2.577923e-02,2.085256e-01
1.715110e-01,1.715110e-01,3.205211e-02,2.425531e-01
1.982674e-01,1.982674e-01,-4.518484e-02,2.803924e-01
1.583068e-01,1.583068e-01,-4.335195e-03,2.238796e-01
1.497737e-01,1.497737e-01,4.090625e-02,2.118121e-01
1.950893e-01,1.950893e-01,-5.524180e-03,2.758979e-01
1.817979e-01,1.817979e-01,-3.549557e-02,2.571010e-01
1.492898e-01,1.492898e-01,1.725102e-02,2.111277e-01
1.623884e-01,1.623884e-01,4.068117e-02,2.296519e-01
2.022774e-01,2.022774e-01,-4.025802e-02,2.860635e-01
1.639905e-01,1.639905e-01,-1.401809e-02,2.319176e-01
1.474459e-01,1.474459e-01,3.564064e-02,2.085200e-01
1.856206e-01,1.856206e-01,1.262968e-02,2.625072e-01
1.897125e-01,1.897125e-01,-4.313282e-02,2.682940e-01
1.518706e-01,1.518706e-01,8.145924e-03,2.147775e-01
1.546570e-01,1.546570e-01,4.467148e-02,2.187180e-01
2.024887e-01,2.024887e-01,-2.777269e-02,2.863622e-01
1.713484e-01,1.713484e-01,-2.412623e-02,2.423233e-01
1.470601e-01,1.470601e-01,2.813076e-02,2.079744e-01
1.743023e-01,1.743023e-01,2.884318e-02,2.465006e-01
1.967691e-01,1.967691e-01,-4.563829e-02,2.782735e-01
1.568003e-01,1.568003e-01,-1.710288e-03,2.217491e-01
1.505131e-01,1.505131e-01,4.212631e-02,2.128576e-01
1.971243e-01,1.971243e-01,-1.028587e-02,2.787759e-01
1.796354e-01,1.796354e-01,-3.319560e-02,2.540429e-01
1.487714e-01,1.487714e-01,1.957374e-02,2.103946e-01
1.647738e-01,1.647738e-01,3.870235e-02,2.330253e-01
2.014137e-01,2.014137e-01,-4.216730e-02,2.848420e-01
1.623566e-01,1.623566e-01,-1.130578e-02,2.296069e-01
1.480079e-01,1.480079e-01,3.724853e-02,2.093148e-01
1.885545e-01,1.885545e-01,7.534443e-03,2.666563e-01
1.875477e-01,1.875477e-01,-4.131144e-02,2.652326e-01
1.509614e-01,1.509614e-01,1.075324e-02,2.134916e-01
1.564838e-01,1.564838e-01,4.425759e-02,2.213015e-01
2.030443e-01,2.030443e-01,-3.207489e-02,2.871480e-01
1.691115e-01,1.691115e-01,-2.140622e-02,2.391598e-01
1.468418e-01,1.468418e-01,3.041263e-02,2.076657e-01
1.772748e-01,1.772748e-01,2.509647e-02,2.507044e-01
1.950690e-01,1.950690e-01,-4.565447e-02,2.758692e-01
1.553044e-01,1.553044e-01,9.627357e-04,2.196336e-01
1.513492e-01,1.513492e-01,4.322904e-02,2.140401e-01
1.989584e-01,1.989584e-01,-1.506871e-02,2.813697e-01
1.774344e-01,1.774344e-01,-3.084645e-02,2.509301e-01
1.482607e-01,1.482607e-01,2.188791e-02,2.096722e-01
1.672200e-01,1.672200e-01,3.646005e-02,2.364848e-01
2.003645e-01,2.003645e-01,-4.361366e-02,2.833583e-01
1.608086e-01,1.608086e-01,-8.658388e-03,2.274177e-01
1.486434e-01,1.486434e-01,3.870656e-02,2.102135e-01
1.912253e-01,1.912253e-01,2.521901e-03,2.704333e-01
1.853771e-01,1.853771e-01,-3.921902e-02,2.621628e-01
1.502425e-01,1.502425e-01,1.326938e-02,2.124750e-01
1.585810e-01,1.585810e-01,4.327588e-02,2.242674e-01
2.030972e-01,2.030972e-01,-3.574317e-02,2.872228e-01
1.670317e-01,1.670317e-01,-1.862967e-02,2.362185e-01
1.468679e-01,1.468679e-01,3.254404e-02,2.077025e-01
1.803978e-01,1.803978e-01,2.077111e-02,2.551210e-01
1.931713e-01,1.931713e-01,-4.515718e-02,2.731855e-01
1.538749e-01,1.538749e-01,3.674252e-03,2.176119e-01
1.523598e-01,1.523598e-01,4.411234e-02,2.154693e-01
