x,y,z
1.910052e-01,1.910052e-01,-1.591502e-02
1.731312e-01,1.731312e-01,-1.050168e-02
1.624952e-01,1.624952e-01,2.073448e-02
1.864848e-01,1.864848e-01,-2.400046e-03
1.803281e-01,1.803281e-01,-1.899501e-02
1.620248e-01,1.620248e-01,1.437843e-02
1.782409e-01,1.782409e-01,1.164892e-02
1.870532e-01,1.870532e-01,-2.357477e-02
1.644175e-01,1.644175e-01,5.478696e-03
1.700109e-01,1.700109e-01,2.060982e-02
1.909974e-01,1.909974e-01,-2.131411e-02
1.692345e-01,1.692345e-01,-4.481813e-03
1.643422e-01,1.643422e-01,2.255381e-02
1.898894e-01,1.898894e-01,-1.116524e-02
1.758523e-01,1.758523e-01,-1.407342e-02
1.619527e-01,1.619527e-01,1.868401e-02
1.835342e-01,1.835342e-01,3.340833e-03
1.831032e-01,1.831032e-01,-2.139947e-02
1.626310e-01,1.626310e-01,1.114758e-02
1.748642e-01,1.748642e-01,1.592478e-02
1.890517e-01,1.890517e-01,-2.364639e-02
1.660257e-01,1.660257e-01,1.668854e-03
1.674393e-01,1.674393e-01,2.217349e-02
1.912513e-01,1.912513e-01,-1.823624e-02
1.716298e-01,1.716298e-01,-8.324177e-03
1.630305e-01,1.630305e-01,2.162734e-02
1.879462e-01,1.879462e-01,-5.729917e-03
1.786767e-01,1.786767e-01,-1.731789e-02
1.618694e-01,1.618694e-01,1.609147e-02
1.802296e-01,1.802296e-01,8.771022e-03
1.856899e-01,1.856899e-01,-2.304224e-02
1.636476e-01,1.636476e-01,7.627421e-03
1.716989e-01,1.716989e-01,1.920035e-02
1.904830e-01,1.904830e-01,-2.253561e-02
1.679661e-01,1.679661e-01,-2.217435e-03
1.653366e-01,1.653366e-01,2.269493e-02
1.906443e-01,1.906443e-01,-1.403411e-02
1.742509e-01,1.742509e-01,-1.202639e-02
1.622113e-01,1.622113e-01,1.995093e-02
1.853095e-01,1.853095e-01,1.417241e-05
1.815031e-01,1.815031e-01,-2.008139e-02
1.622270e-01,1.622270e-01,1.306781e-02
1.768140e-01,1.768140e-01,1.354920e-02
1.879481e-01,1.879481e-01,-2.374084e-02
1.650477e-01,1.650477e-01,3.900041e-03
1.688817e-01,1.688817e-01,2.139469e-02
1.912045e-01,1.912045e-01,-2.017435e-02
1.702053e-01,1.702053e-01,-6.099632e-03
1.637326e-01,1.637326e-01,2.226630e-02
1.891715e-01,1.891715e-01,-8.954927e-03
1.770264e-01,1.770264e-01,-1.547829e-02
1.618632e-01,1.618632e-01,1.765896e-02
1.821812e-01,1.821812e-01,5.670697e-03
1.842156e-01,1.842156e-01,-2.218978e-02
1.630077e-01,1.630077e-01,9.705971e-03
1.735057e-01,1.735057e-01,1.742324e-02
1.897278e-01,1.897278e-01,-2.333173e-02
1.667985e-01,1.667985e-01,4.822198e-05
1.665004e-01,1.665004e-01,2.251392e-02
1.911044e-01,1.911044e-01,-1.660422e-02
1.727021e-01,1.727021e-01,-9.895198e-03
1.626292e-01,1.626292e-01,2.100970e-02
1.869175e-01,1.869175e-01,-3.342530e-03
1.798648e-01,1.798648e-01,-1.854173e-02
1.619664e-01,1.619664e-01,1.487380e-02
1.788012e-01,1.788012e-01,1.086545e-02
1.866826e-01,1.866826e-01,-2.345940e-02
1.641882e-01,1.641882e-01,6.089116e-03
1.704725e-01,1.704725e-01,2.025087e-02
1.908785e-01,1.908785e-01,-2.170077e-02
1.688680e-01,1.688680e-01,-3.846070e-03
1.646045e-01,1.646045e-01,2.262473e-02
1.901309e-01,1.901309e-01,-1.199860e-02
1.753976e-01,1.753976e-01,-1.350770e-02
1.620097e-01,1.620097e-01,1.905989e-02
1.840476e-01,1.840476e-01,2.412822e-03
1.826585e-01,1.826585e-01,-2.105329e-02
1.625033e-01,1.625033e-01,1.169819e-02
1.754066e-01,1.754066e-01,1.529000e-02
1.887595e-01,1.887595e-01,-2.371255e-02
1.657390e-01,1.657390e-01,2.299593e-03
1.678292e-01,1.678292e-01,2.199081e-02
1.912673e-01,1.912673e-01,-1.882149e-02
1.712207e-01,1.712207e-01,-7.702567e-03
1.632109e-01,1.632109e-01,2.183385e-02
1.883161e-01,1.883161e-01,-6.650814e-03
1.782116e-01,1.782116e-01,-1.681557e-02
1.618523e-01,1.618523e-01,1.654781e-02
1.807841e-01,1.807841e-01,7.919002e-03
1.852852e-01,1.852852e-01,-2.283334e-02
1.634542e-01,1.634542e-01,8.219731e-03
1.721960e-01,1.721960e-01,1.873746e-02
1.902939e-01,1.902939e-01,-2.280223e-02
1.676271e-01,1.676271e-01,-1.579779e-03
1.656470e-01,1.656470e-01,2.267755e-02
1.908038e-01,1.908038e-01,-1.478965e-02
1.738091e-01,1.738091e-01,-1.143455e-02
1.623123e-01,1.623123e-01,2.027078e-02
1.857805e-01,1.857805e-01,-9.301253e-04
1.810453e-01,1.810453e-01,-1.966922e-02
1.621391e-01,1.621391e-01,1.358800e-02
1.773708e-01,1.773708e-01,1.282390e-02
1.876073e-01,1.876073e-01,-2.369840e-02
1.647938e-01,1.647938e-01,4.520637e-03
1.693146e-01,1.693146e-01,2.111025e-02
1.911403e-01,1.911403e-01,-2.064603e-02
1.698198e-01,1.698198e-01,-5.468138e-03
1.639606e-01,1.639606e-01,2.239658e-02
1.894694e-01,1.894694e-01,-9.832383e-03
1.765653e-01,1.765653e-01,-1.493608e-02
1.618887e-01,1.618887e-01,1.807070e-02
1.827167e-01,1.827167e-01,4.767429e-03
1.837849e-01,1.837849e-01,-2.189730e-02
1.628519e-01,1.628519e-01,1.027562e-02
1.740319e-01,1.740319e-01,1.685855e-02
1.894758e-01,1.894758e-01,-2.348008e-02
1.664892e-01,1.664892e-01,6.834632e-04
1.668578e-01,1.668578e-01,2.240216e-02
1.911801e-01,1.911801e-01,-1.726544e-02
1.722779e-01,1.722779e-01,-9.283925e-03
1.627759e-01,1.627759e-01,2.126631e-02
1.873337e-01,1.873337e-01,-4.281182e-03
1.794005e-01,1.794005e-01,-1.807365e-02
1.619192e-01,1.619192e-01,1.535866e-02
1.793612e-01,1.793612e-01,1.006112e-02
1.863017e-01,1.863017e-01,-2.331672e-02
1.639689e-01,1.639689e-01,6.694909e-03
1.709445e-01,1.709445e-01,1.986262e-02
1.907393e-01,1.907393e-01,-2.205362e-02
1.685092e-01,1.685092e-01,-3.209312e-03
1.648804e-01,1.648804e-01,2.267150e-02
1.903497e-01,1.903497e-01,-1.281194e-02
1.749462e-01,1.749462e-01,-1.293388e-02
1.620786e-01,1.620786e-01,1.942064e-02
1.845505e-01,1.845505e-01,1.478055e-03
1.822094e-01,1.822094e-01,-2.068751e-02
1.623865e-01,1.623865e-01,1.224069e-02
1.759542e-01,1.759542e-01,1.462882e-02
1.884527e-01,1.884527e-01,-2.374745e-02
1.654613e-01,1.654613e-01,2.927940e-03
1.682315e-01,1.682315e-01,2.177985e-02
1.912603e-01,1.912603e-01,-1.937560e-02
1.708183e-01,1.708183e-01,-7.077617e-03
1.634046e-01,1.634046e-01,2.201968e-02
1.886665e-01,1.886665e-01,-7.561669e-03
1.777471e-01,1.777471e-01,-1.630112e-02
1.618473e-01,1.618473e-01,1.699227e-02
1.813348e-01,1.813348e-01,7.050703e-03
1.848724e-01,1.848724e-01,-2.259991e-02
1.632713e-01,1.632713e-01,8.806127e-03
1.727020e-01,1.727020e-01,1.824561e-02
1.900862e-01,1.900862e-01,-2.303535e-02
1.672963e-01,1.672963e-01,-9.423485e-04
1.659705e-01,1.659705e-01,2.263414e-02
1.909398e-01,1.909398e-01,-1.552017e-02
1.733721e-01,1.733721e-01,-1.083658e-02
1.624264e-01,1.624264e-01,2.057368e-02
1.862373e-01,1.862373e-01,-1.875074e-03
1.805848e-01,1.805848e-01,-1.924040e-02
1.620625e-01,1.620625e-01,1.409871e-02
1.779297e-01,1.779297e-01,1.207506e-02
1.872544e-01,1.872544e-01,-2.362686e-02
1.645495e-01,1.645495e-01,5.137533e-03
1.697590e-01,1.697590e-01,2.079674e-02
1.910543e-01,1.910543e-01,-2.108473e-02
1.694417e-01,1.694417e-01,-4.834666e-03
1.642021e-01,1.642021e-01,2.250409e-02
1.897454e-01,1.897454e-01,-1.069385e-02
1.761064e-01,1.761064e-01,-1.438418e-02
1.619264e-01,1.619264e-01,1.846879e-02
1.832445e-01,1.832445e-01,3.853222e-03
1.833483e-01,1.833483e-01,-2.158315e-02
1.627068e-01,1.627068e-01,1.083808e-02
1.745650e-01,1.745650e-01,1.626604e-02
1.892075e-01,1.892075e-01,-2.359593e-02
1.661887e-01,1.661887e-01,1.317229e-03
1.672282e-01,1.672282e-01,2.226294e-02
1.912324e-01,1.912324e-01,-1.789765e-02
1.718599e-01,1.718599e-01,-8.668177e-03
1.629359e-01,1.629359e-01,2.150381e-02
1.877324e-01,1.877324e-01,-5.214245e-03
1.789354e-01,1.789354e-01,-1.759163e-02
1.618838e-01,1.618838e-01,1.583271e-02
1.799199e-01,1.799199e-01,9.237145e-03
1.859111e-01,1.859111e-01,-2.314749e-02
1.637596e-01,1.637596e-01,7.295713e-03
1.714267e-01,1.714267e-01,1.944511e-02
1.905800e-01,1.905800e-01,-2.237281e-02
1.681577e-01,1.681577e-01,-2.571982e-03
1.651701e-01,1.651701e-01,2.269359e-02
1.905455e-01,1.905455e-01,-1.360376e-02
1.744982e-01,1.744982e-01,-1.235260e-02
1.621606e-01,1.621606e-01,1.976595e-02
1.850417e-01,1.850417e-01,5.382241e-04
1.817566e-01,1.817566e-01,-2.030293e-02
1.622808e-01,1.622808e-01,1.277471e-02
1.765058e-01,1.765058e-01,1.394191e-02
1.881321e-01,1.881321e-01,-2.375161e-02
1.651927e-01,1.651927e-01,3.553532e-03
1.686460e-01,1.686460e-01,2.154030e-02
1.912307e-01,1.912307e-01,-1.989796e-02
1.704223e-01,1.704223e-01,-6.449805e-03
1.636117e-01,1.636117e-01,2.218424e-02
1.889969e-01,1.889969e-01,-8.460766e-03
1.772837e-01,1.772837e-01,-1.577528e-02
1.618543e-01,1.618543e-01,1.742432e-02
1.818805e-01,1.818805e-01,6.167560e-03
1.844521e-01,1.844521e-01,-2.234274e-02
1.630988e-01,1.630988e-01,9.386253e-03
1.732163e-01,1.732163e-01,1.772499e-02
1.898607e-01,1.898607e-01,-2.323506e-02
1.669739e-01,1.669739e-01,-3.054881e-04
1.663077e-01,1.663077e-01,2.256436e-02
1.910521e-01,1.910521e-01,-1.622445e-02
1.729402e-01,1.729402e-01,-1.023297e-02
1.625531e-01,1.625531e-01,2.085895e-02
1.866789e-01,1.866789e-01,-2.818926e-03
1.801226e-01,1.801226e-01,-1.879558e-02
1.619973e-01,1.619973e-01,1.459963e-02
1.784896e-01,1.784896e-01,1.130366e-02
1.868899e-01,1.868899e-01,-2.352697e-02
1.643147e-01,1.643147e-01,5.750352e-03
1.702147e-01,1.702147e-01,2.045406e-02
1.909472e-01,1.909472e-01,-2.148991e-02
1.690711e-01,1.690711e-01,-4.199608e-03
1.644572e-01,1.644572e-01,2.258828e-02
1.899994e-01,1.899994e-01,-1.153769e-02
1.756501e-01,1.756501e-01,-1.382323e-02
1.619766e-01,1.619766e-01,1.885275e-02
1.837634e-01,1.837634e-01,2.929687e-03
1.829065e-01,1.829065e-01,-2.124817e-02
1.625728e-01,1.625728e-01,1.139302e-02
1.751043e-01,1.751043e-01,1.564620e-02
1.889237e-01,1.889237e-01,-2.367971e-02
1.658971e-01,1.658971e-01,1.949163e-03
1.676110e-01,1.676110e-01,2.209587e-02
1.912612e-01,1.912612e-01,-1.849993e-02
1.714473e-01,1.714473e-01,-8.048604e-03
1.631090e-01,1.631090e-01,2.172157e-02
1.881128e-01,1.881128e-01,-6.139970e-03
1.784701e-01,1.784701e-01,-1.709638e-02
1.618603e-01,1.618603e-01,1.629555e-02
1.804763e-01,1.804763e-01,8.394782e-03
1.855111e-01,1.855111e-01,-2.295259e-02
1.635606e-01,1.635606e-01,7.891161e-03
1.719186e-01,1.719186e-01,1.899839e-02
1.904013e-01,1.904013e-01,-2.265820e-02
1.678143e-01,1.678143e-01,-1.934323e-03
1.654727e-01,1.654727e-01,2.269037e-02
1.907180e-01,1.907180e-01,-1.437263e-02
1.740541e-01,1.740541e-01,-1.176438e-02
1.622545e-01,1.622545e-01,2.009501e-02
1.855202e-01,1.855202e-01,-4.049581e-04
1.813001e-01,1.813001e-01,-1.990048e-02
1.621864e-01,1.621864e-01,1.329990e-02
1.770609e-01,1.770609e-01,1.323010e-02
1.877983e-01,1.877983e-01,-2.372561e-02
1.649335e-01,1.649335e-01,4.176003e-03
1.690725e-01,1.690725e-01,2.127197e-02
1.911787e-01,1.911787e-01,-2.038788e-02
1.700331e-01,1.700331e-01,-5.819503e-03
1.638322e-01,1.638322e-01,2.232691e-02
1.893065e-01,1.893065e-01,-9.346429e-03
1.768216e-01,1.768216e-01,-1.523874e-02
1.618729e-01,1.618729e-01,1.784342e-02
1.824200e-01,1.824200e-01,5.271054e-03
1.840250e-01,1.840250e-01,-2.206266e-02
1.629370e-01,1.629370e-01,9.959751e-03
1.737384e-01,1.737384e-01,1.717594e-02
1.896179e-01,1.896179e-01,-2.340166e-02
1.666600e-01,1.666600e-01,3.304477e-04
1.666575e-01,1.666575e-01,2.246766e-02
1.911410e-01,1.911410e-01,-1.690133e-02
1.725129e-01,1.725129e-01,-9.624351e-03
1.626927e-01,1.626927e-01,2.112595e-02
1.871044e-01,1.871044e-01,-3.759921e-03
1.796587e-01,1.796587e-01,-1.833566e-02
1.619438e-01,1.619438e-01,1.509036e-02
1.790500e-01,1.790500e-01,1.051079e-02
1.865147e-01,1.865147e-01,-2.339935e-02
1.640898e-01,1.640898e-01,6.358750e-03
1.706808e-01,1.706808e-01,2.008208e-02
1.908192e-01,1.908192e-01,-2.186164e-02
1.687076e-01,1.687076e-01,-3.563445e-03
1.647254e-01,1.647254e-01,2.264851e-02
1.902308e-01,1.902308e-01,-1.236235e-02
1.751969e-01,1.751969e-01,-1.325384e-02
1.620386e-01,1.620386e-01,1.922194e-02
1.842723e-01,1.842723e-01,1.998468e-03
1.824597e-01,1.824597e-01,-2.089321e-02
1.624498e-01,1.624498e-01,1.194005e-02
1.756490e-01,1.756490e-01,1.499960e-02
1.886249e-01,1.886249e-01,-2.373191e-02
1.656144e-01,1.656144e-01,2.578903e-03
1.680064e-01,1.680064e-01,2.190066e-02
1.912670e-01,1.912670e-01,-1.907145e-02
1.710415e-01,1.710415e-01,-7.425397e-03
1.632954e-01,1.632954e-01,2.191898e-02
1.884742e-01,1.884742e-01,-7.056615e-03
1.780052e-01,1.780052e-01,-1.658860e-02
1.618489e-01,1.618489e-01,1.674673e-02
1.810292e-01,1.810292e-01,7.535357e-03
1.851028e-01,1.851028e-01,-2.273269e-02
1.633718e-01,1.633718e-01,8.480897e-03
1.724196e-01,1.724196e-01,1.852261e-02
1.902039e-01,1.902039e-01,-2.290986e-02
1.674791e-01,1.674791e-01,-1.296687e-03
1.657892e-01,1.657892e-01,2.266153e-02
1.908670e-01,1.908670e-01,-1.511722e-02
1.736145e-01,1.736145e-01,-1.116974e-02
1.623614e-01,1.623614e-01,2.040743e-02
1.859851e-01,1.859851e-01,-1.349760e-03
1.808411e-01,1.808411e-01,-1.948082e-02
1.621034e-01,1.621034e-01,1.381591e-02
1.776187e-01,1.776187e-01,1.249422e-02
1.874521e-01,1.874521e-01,-2.367018e-02
1.646838e-01,1.646838e-01,4.794986e-03
1.695106e-01,1.695106e-01,2.097464e-02
1.911048e-01,1.911048e-01,-2.084492e-02
