x,y,z
1.716378e-01,1.716378e-01,4.562577e-03
1.774159e-01,1.774159e-01,4.342061e-03
1.815705e-01,1.815705e-01,-9.137638e-03
1.725409e-01,1.725409e-01,1.666100e-03
1.751724e-01,1.751724e-01,6.855653e-03
1.824282e-01,1.824282e-01,-8.167047e-03
1.740549e-01,1.740549e-01,-1.514991e-03
1.732772e-01,1.732772e-01,8.105321e-03
1.823445e-01,1.823445e-01,-5.824242e-03
1.759976e-01,1.759976e-01,-4.585190e-03
1.719910e-01,1.719910e-01,7.997488e-03
1.812944e-01,1.812944e-01,-2.486302e-03
1.781212e-01,1.781212e-01,-7.133698e-03
1.714497e-01,1.714497e-01,6.658725e-03
1.794711e-01,1.794711e-01,1.217965e-03
1.801217e-01,1.801217e-01,-8.756586e-03
1.716835e-01,1.716835e-01,4.354299e-03
1.772353e-01,1.772353e-01,4.578349e-03
1.816680e-01,1.816680e-01,-9.114438e-03
1.726395e-01,1.726395e-01,1.421640e-03
1.750068e-01,1.750068e-01,7.002329e-03
1.824575e-01,1.824575e-01,-8.029807e-03
1.741948e-01,1.741948e-01,-1.765271e-03
1.731517e-01,1.731517e-01,8.145474e-03
1.822956e-01,1.822956e-01,-5.591297e-03
1.761616e-01,1.761616e-01,-4.809474e-03
1.719206e-01,1.719206e-01,7.934140e-03
1.811754e-01,1.811754e-01,-2.199493e-03
1.782868e-01,1.782868e-01,-7.299630e-03
1.714404e-01,1.714404e-01,6.508716e-03
1.793049e-01,1.793049e-01,1.503095e-03
1.802637e-01,1.802637e-01,-8.834045e-03
1.717337e-01,1.717337e-01,4.142134e-03
1.770549e-01,1.770549e-01,4.808743e-03
1.817608e-01,1.817608e-01,-9.082204e-03
1.727418e-01,1.727418e-01,1.175610e-03
1.748437e-01,1.748437e-01,7.140967e-03
1.824806e-01,1.824806e-01,-7.884082e-03
1.743373e-01,1.743373e-01,-2.014677e-03
1.730302e-01,1.730302e-01,8.177194e-03
1.822412e-01,1.822412e-01,-5.352290e-03
1.763262e-01,1.763262e-01,-5.030418e-03
1.718548e-01,1.718548e-01,7.863206e-03
1.810517e-01,1.810517e-01,-1.910732e-03
1.784517e-01,1.784517e-01,-7.459607e-03
1.714355e-01,1.714355e-01,6.352810e-03
1.791368e-01,1.791368e-01,1.785738e-03
1.804029e-01,1.804029e-01,-8.903484e-03
1.717881e-01,1.717881e-01,3.926215e-03
1.768746e-01,1.768746e-01,5.032971e-03
1.818488e-01,1.818488e-01,-9.040908e-03
1.728479e-01,1.728479e-01,9.281970e-04
1.746830e-01,1.746830e-01,7.271479e-03
1.824976e-01,1.824976e-01,-7.729973e-03
1.744820e-01,1.744820e-01,-2.263063e-03
1.729126e-01,1.729126e-01,8.200460e-03
1.821803e-01,1.821803e-01,-5.107603e-03
1.764919e-01,1.764919e-01,-5.247694e-03
1.717940e-01,1.717940e-01,7.784899e-03
1.809233e-01,1.809233e-01,-1.620383e-03
1.786156e-01,1.786156e-01,-7.613459e-03
1.714356e-01,1.714356e-01,6.191250e-03
1.789660e-01,1.789660e-01,2.065489e-03
1.805389e-01,1.805389e-01,-8.964783e-03
1.718470e-01,1.718470e-01,3.706767e-03
1.766947e-01,1.766947e-01,5.250847e-03
1.819318e-01,1.819318e-01,-8.990556e-03
1.729575e-01,1.729575e-01,6.795905e-04
1.745250e-01,1.745250e-01,7.393784e-03
1.825088e-01,1.825088e-01,-7.567577e-03
1.746291e-01,1.746291e-01,-2.510161e-03
1.727989e-01,1.727989e-01,8.215331e-03
1.821140e-01,1.821140e-01,-4.857414e-03
1.766583e-01,1.766583e-01,-5.461161e-03
1.717374e-01,1.717374e-01,7.699193e-03
1.807907e-01,1.807907e-01,-1.328780e-03
1.787780e-01,1.787780e-01,-7.761064e-03
1.714406e-01,1.714406e-01,6.024192e-03
1.787937e-01,1.787937e-01,2.342099e-03
1.806717e-01,1.806717e-01,-9.017814e-03
1.719102e-01,1.719102e-01,3.483969e-03
1.765156e-01,1.765156e-01,5.462164e-03
1.820096e-01,1.820096e-01,-8.931140e-03
1.730708e-01,1.730708e-01,4.299806e-04
1.743699e-01,1.743699e-01,7.507809e-03
1.825136e-01,1.825136e-01,-7.397138e-03
1.747787e-01,1.747787e-01,-2.755775e-03
1.726898e-01,1.726898e-01,8.221898e-03
1.820414e-01,1.820414e-01,-4.602123e-03
1.768253e-01,1.768253e-01,-5.670619e-03
1.716860e-01,1.716860e-01,7.606340e-03
1.806537e-01,1.806537e-01,-1.036307e-03
1.789392e-01,1.789392e-01,-7.902165e-03
1.714505e-01,1.714505e-01,5.851793e-03
1.786194e-01,1.786194e-01,2.615213e-03
1.808010e-01,1.808010e-01,-9.062466e-03
1.719778e-01,1.719778e-01,3.258000e-03
1.763374e-01,1.763374e-01,5.666721e-03
1.820821e-01,1.820821e-01,-8.862643e-03
1.731875e-01,1.731875e-01,1.795581e-04
1.742177e-01,1.742177e-01,7.613492e-03
1.825126e-01,1.825126e-01,-7.218729e-03
1.749304e-01,1.749304e-01,-2.999720e-03
1.725845e-01,1.725845e-01,8.220126e-03
1.819634e-01,1.819634e-01,-4.341924e-03
1.769929e-01,1.769929e-01,-5.875826e-03
1.716393e-01,1.716393e-01,7.506404e-03
1.805128e-01,1.805128e-01,-7.432905e-04
1.790990e-01,1.790990e-01,-8.036599e-03
1.714648e-01,1.714648e-01,5.674142e-03
1.784436e-01,1.784436e-01,2.884521e-03
1.809267e-01,1.809267e-01,-9.098634e-03
1.720497e-01,1.720497e-01,3.029035e-03
1.761603e-01,1.761603e-01,5.864330e-03
1.821495e-01,1.821495e-01,-8.785073e-03
1.733073e-01,1.733073e-01,-7.152274e-05
1.740683e-01,1.740683e-01,7.710760e-03
1.825052e-01,1.825052e-01,-7.032566e-03
1.750838e-01,1.750838e-01,-3.241850e-03
1.724836e-01,1.724836e-01,8.210148e-03
1.818795e-01,1.818795e-01,-4.077225e-03
1.771604e-01,1.771604e-01,-6.076658e-03
1.715972e-01,1.715972e-01,7.399505e-03
1.803679e-01,1.803679e-01,-4.501209e-04
1.792567e-01,1.792567e-01,-8.164263e-03
1.714838e-01,1.714838e-01,5.491470e-03
1.782667e-01,1.782667e-01,3.149755e-03
1.810486e-01,1.810486e-01,-9.126216e-03
1.721258e-01,1.721258e-01,2.797259e-03
1.759844e-01,1.759844e-01,6.054811e-03
1.822115e-01,1.822115e-01,-8.698460e-03
1.734304e-01,1.734304e-01,-3.230568e-04
1.739222e-01,1.739222e-01,7.799599e-03
1.824917e-01,1.824917e-01,-6.838841e-03
1.752392e-01,1.752392e-01,-3.481891e-03
1.723873e-01,1.723873e-01,8.192016e-03
1.817903e-01,1.817903e-01,-3.808253e-03
1.773285e-01,1.773285e-01,-6.272821e-03
1.715602e-01,1.715602e-01,7.285836e-03
1.802194e-01,1.802194e-01,-1.571216e-04
1.794128e-01,1.794128e-01,-8.284909e-03
1.715076e-01,1.715076e-01,5.303944e-03
1.780884e-01,1.780884e-01,3.410570e-03
1.811666e-01,1.811666e-01,-9.145123e-03
1.722059e-01,1.722059e-01,2.562826e-03
1.758098e-01,1.758098e-01,6.237983e-03
1.822678e-01,1.822678e-01,-8.602909e-03
1.735566e-01,1.735566e-01,-5.748272e-04
1.737795e-01,1.737795e-01,7.879984e-03
1.824722e-01,1.824722e-01,-6.637717e-03
1.753966e-01,1.753966e-01,-3.719636e-03
1.722951e-01,1.722951e-01,8.165768e-03
1.816953e-01,1.816953e-01,-3.535410e-03
1.774961e-01,1.774961e-01,-6.464223e-03
1.715278e-01,1.715278e-01,7.165458e-03
1.800672e-01,1.800672e-01,1.353222e-04
1.795668e-01,1.795668e-01,-8.398379e-03
1.715362e-01,1.715362e-01,5.111730e-03
1.779093e-01,1.779093e-01,3.666712e-03
1.812805e-01,1.812805e-01,-9.155267e-03
1.722899e-01,1.722899e-01,2.325918e-03
1.756368e-01,1.756368e-01,6.413697e-03
1.823186e-01,1.823186e-01,-8.498412e-03
1.736859e-01,1.736859e-01,-8.266400e-04
1.736402e-01,1.736402e-01,7.951893e-03
1.824463e-01,1.824463e-01,-6.429466e-03
1.755553e-01,1.755553e-01,-3.954975e-03
1.722077e-01,1.722077e-01,8.131554e-03
1.815952e-01,1.815952e-01,-3.258960e-03
1.776640e-01,1.776640e-01,-6.650560e-03
1.715002e-01,1.715002e-01,7.038544e-03
1.799119e-01,1.799119e-01,4.268823e-04
1.797187e-01,1.797187e-01,-8.504523e-03
1.715695e-01,1.715695e-01,4.914998e-03
1.777296e-01,1.777296e-01,3.917918e-03
1.813902e-01,1.813902e-01,-9.156580e-03
1.723780e-01,1.723780e-01,2.086746e-03
1.754655e-01,1.754655e-01,6.581820e-03
1.823638e-01,1.823638e-01,-8.385025e-03
1.738183e-01,1.738183e-01,-1.078299e-03
1.735047e-01,1.735047e-01,8.015323e-03
1.824146e-01,1.824146e-01,-6.214233e-03
1.757156e-01,1.757156e-01,-4.187631e-03
1.721244e-01,1.721244e-01,8.089369e-03
1.814897e-01,1.814897e-01,-2.979287e-03
1.778313e-01,1.778313e-01,-6.831733e-03
1.714777e-01,1.714777e-01,6.905271e-03
1.797534e-01,1.797534e-01,7.171929e-04
1.798680e-01,1.798680e-01,-8.603235e-03
1.716071e-01,1.716071e-01,4.713853e-03
1.775494e-01,1.775494e-01,4.163886e-03
1.814955e-01,1.814955e-01,-9.148991e-03
1.724701e-01,1.724701e-01,1.845492e-03
1.752962e-01,1.752962e-01,6.742214e-03
1.824031e-01,1.824031e-01,-8.262855e-03
1.739535e-01,1.739535e-01,-1.329627e-03
1.733725e-01,1.733725e-01,8.070217e-03
1.823763e-01,1.823763e-01,-5.992352e-03
1.758775e-01,1.758775e-01,-4.417381e-03
1.720462e-01,1.720462e-01,8.039407e-03
1.813793e-01,1.813793e-01,-2.696698e-03
1.779982e-01,1.779982e-01,-7.007477e-03
1.714598e-01,1.714598e-01,6.765735e-03
1.795920e-01,1.795920e-01,1.005912e-03
1.800149e-01,1.800149e-01,-8.694306e-03
1.716493e-01,1.716493e-01,4.508527e-03
1.773687e-01,1.773687e-01,4.404366e-03
1.815964e-01,1.815964e-01,-9.132444e-03
1.725660e-01,1.725660e-01,1.602345e-03
1.751290e-01,1.751290e-01,6.894759e-03
1.824364e-01,1.824364e-01,-8.132014e-03
1.740912e-01,1.740912e-01,-1.580466e-03
1.732440e-01,1.732440e-01,8.116627e-03
1.823323e-01,1.823323e-01,-5.763956e-03
1.760403e-01,1.760403e-01,-4.644128e-03
1.719721e-01,1.719721e-01,7.981659e-03
1.812638e-01,1.812638e-01,-2.411557e-03
1.781646e-01,1.781646e-01,-7.177629e-03
1.714467e-01,1.714467e-01,6.620079e-03
1.794279e-01,1.794279e-01,1.292706e-03
1.801590e-01,1.801590e-01,-8.777596e-03
1.716960e-01,1.716960e-01,4.299194e-03
1.771881e-01,1.771881e-01,4.639130e-03
1.816927e-01,1.816927e-01,-9.106891e-03
1.726658e-01,1.726658e-01,1.357488e-03
1.749640e-01,1.749640e-01,7.039344e-03
1.824641e-01,1.824641e-01,-7.992546e-03
1.742317e-01,1.742317e-01,-1.830563e-03
1.731196e-01,1.731196e-01,8.154584e-03
1.822819e-01,1.822819e-01,-5.529413e-03
1.762044e-01,1.762044e-01,-4.867576e-03
1.719030e-01,1.719030e-01,7.916331e-03
1.811435e-01,1.811435e-01,-2.124206e-03
1.783300e-01,1.783300e-01,-7.342018e-03
1.714385e-01,1.714385e-01,6.468502e-03
1.792612e-01,1.792612e-01,1.577209e-03
1.803004e-01,1.803004e-01,-8.852965e-03
1.717473e-01,1.717473e-01,4.086028e-03
1.770078e-01,1.770078e-01,4.867939e-03
1.817842e-01,1.817842e-01,-9.072299e-03
1.727693e-01,1.727693e-01,1.111111e-03
1.748015e-01,1.748015e-01,7.175871e-03
1.824857e-01,1.824857e-01,-7.844606e-03
1.743748e-01,1.743748e-01,-2.079720e-03
1.729991e-01,1.729991e-01,8.184093e-03
1.822259e-01,1.822259e-01,-5.288882e-03
1.763695e-01,1.763695e-01,-5.087534e-03
1.718384e-01,1.718384e-01,7.843450e-03
1.810186e-01,1.810186e-01,-1.834994e-03
1.784948e-01,1.784948e-01,-7.500389e-03
1.714353e-01,1.714353e-01,6.311157e-03
1.790925e-01,1.790925e-01,1.859139e-03
1.804388e-01,1.804388e-01,-8.920287e-03
1.718031e-01,1.718031e-01,3.869204e-03
1.768276e-01,1.768276e-01,5.090539e-03
1.818709e-01,1.818709e-01,-9.028635e-03
1.728764e-01,1.728764e-01,8.633648e-04
1.746415e-01,1.746415e-01,7.304246e-03
1.825011e-01,1.825011e-01,-7.688331e-03
1.745204e-01,1.745204e-01,-2.327737e-03
1.728824e-01,1.728824e-01,8.205146e-03
1.821635e-01,1.821635e-01,-5.042744e-03
1.765353e-01,1.765353e-01,-5.303870e-03
1.717786e-01,1.717786e-01,7.763179e-03
1.808891e-01,1.808891e-01,-1.544286e-03
1.786581e-01,1.786581e-01,-7.652661e-03
1.714365e-01,1.714365e-01,6.148134e-03
1.789212e-01,1.789212e-01,2.138093e-03
1.805740e-01,1.805740e-01,-8.979430e-03
1.718633e-01,1.718633e-01,3.648897e-03
1.766479e-01,1.766479e-01,5.306715e-03
1.819527e-01,1.819527e-01,-8.975888e-03
1.729869e-01,1.729869e-01,6.144555e-04
1.744844e-01,1.744844e-01,7.424397e-03
1.825107e-01,1.825107e-01,-7.523809e-03
1.746681e-01,1.746681e-01,-2.574485e-03
1.727700e-01,1.727700e-01,8.217854e-03
1.820956e-01,1.820956e-01,-4.791177e-03
1.767020e-01,1.767020e-01,-5.516275e-03
1.717236e-01,1.717236e-01,7.675636e-03
1.807553e-01,1.807553e-01,-1.252417e-03
1.788202e-01,1.788202e-01,-7.798570e-03
1.714426e-01,1.714426e-01,5.979632e-03
1.787483e-01,1.787483e-01,2.413820e-03
1.807060e-01,1.807060e-01,-9.030282e-03
1.719276e-01,1.719276e-01,3.425239e-03
1.764689e-01,1.764689e-01,5.516281e-03
1.820291e-01,1.820291e-01,-8.914106e-03
1.731009e-01,1.731009e-01,3.645921e-04
1.743298e-01,1.743298e-01,7.536234e-03
1.825140e-01,1.825140e-01,-7.351274e-03
1.748180e-01,1.748180e-01,-2.819712e-03
1.726618e-01,1.726618e-01,8.222231e-03
1.820215e-01,1.820215e-01,-4.534587e-03
1.768689e-01,1.768689e-01,-5.724669e-03
1.716732e-01,1.716732e-01,7.580887e-03
1.806173e-01,1.806173e-01,-9.597716e-04
1.789813e-01,1.789813e-01,-7.937927e-03
1.714536e-01,1.714536e-01,5.805832e-03
1.785737e-01,1.785737e-01,2.685974e-03
1.808343e-01,1.808343e-01,-9.072725e-03
1.719962e-01,1.719962e-01,3.198448e-03
1.762909e-01,1.762909e-01,5.719036e-03
1.821003e-01,1.821003e-01,-8.843244e-03
1.732183e-01,1.732183e-01,1.139655e-04
1.741782e-01,1.741782e-01,7.639709e-03
1.825112e-01,1.825112e-01,-7.170823e-03
1.749702e-01,1.749702e-01,-3.063199e-03
1.725576e-01,1.725576e-01,8.218306e-03
1.819421e-01,1.819421e-01,-4.273172e-03
1.770366e-01,1.770366e-01,-5.928744e-03
1.716279e-01,1.716279e-01,7.479144e-03
1.804753e-01,1.804753e-01,-6.666769e-04
1.791403e-01,1.791403e-01,-8.070642e-03
1.714693e-01,1.714693e-01,5.626894e-03
1.783974e-01,1.783974e-01,2.954238e-03
1.809590e-01,1.809590e-01,-9.106656e-03
