x,y,z
1.448021e-01,1.448021e-01,2.155444e-02
1.605249e-01,1.605249e-01,4.600575e-02
2.055813e-01,2.055813e-01,-4.299956e-02
1.649614e-01,1.649614e-01,-2.068395e-02
1.426120e-01,1.426120e-01,3.359217e-02
1.739640e-01,1.739640e-01,3.276862e-02
1.999972e-01,1.999972e-01,-5.133426e-02
1.566379e-01,1.566379e-01,-7.187671e-03
1.446841e-01,1.446841e-01,4.283262e-02
1.897475e-01,1.897475e-01,9.071918e-03
1.902004e-01,1.902004e-01,-4.859100e-02
1.490197e-01,1.490197e-01,6.576244e-03
1.485082e-01,1.485082e-01,4.997579e-02
2.012943e-01,2.012943e-01,-1.536084e-02
1.795454e-01,1.795454e-01,-3.758945e-02
1.453696e-01,1.453696e-01,1.858825e-02
1.574519e-01,1.574519e-01,4.819861e-02
2.060185e-01,2.060185e-01,-3.909725e-02
1.673330e-01,1.673330e-01,-2.384419e-02
1.426923e-01,1.426923e-01,3.105898e-02
1.703966e-01,1.703966e-01,3.707878e-02
2.021068e-01,2.021068e-01,-5.046275e-02
1.587906e-01,1.587906e-01,-1.121303e-02
1.436025e-01,1.436025e-01,4.043083e-02
1.851178e-01,1.851178e-01,1.694602e-02
1.932593e-01,1.932593e-01,-5.071394e-02
1.508223e-01,1.508223e-01,2.775651e-03
1.469592e-01,1.469592e-01,4.857338e-02
1.984115e-01,1.984115e-01,-7.788147e-03
1.833292e-01,1.833292e-01,-4.205297e-02
1.461984e-01,1.461984e-01,1.439446e-02
1.533959e-01,1.533959e-01,5.035838e-02
2.055160e-01,2.055160e-01,-3.158740e-02
1.713624e-01,1.713624e-01,-2.852034e-02
1.434256e-01,1.434256e-01,2.697793e-02
1.657814e-01,1.657814e-01,4.178171e-02
2.041876e-01,2.041876e-01,-4.788935e-02
1.615864e-01,1.615864e-01,-1.593929e-02
1.427409e-01,1.427409e-01,3.724576e-02
1.793883e-01,1.793883e-01,2.562188e-02
1.967695e-01,1.967695e-01,-5.171652e-02
1.536026e-01,1.536026e-01,-1.990153e-03
1.458338e-01,1.458338e-01,4.593604e-02
1.946325e-01,1.946325e-01,9.015597e-05
1.866922e-01,1.866922e-01,-4.549508e-02
1.473868e-01,1.473868e-01,1.064789e-02
1.507218e-01,1.507218e-01,5.069713e-02
2.038802e-01,2.038802e-01,-2.394615e-02
1.751840e-01,1.751840e-01,-3.261422e-02
1.444150e-01,1.444150e-01,2.316988e-02
1.621074e-01,1.621074e-01,4.480920e-02
2.052358e-01,2.052358e-01,-4.467626e-02
1.638789e-01,1.638789e-01,-1.920063e-02
1.426166e-01,1.426166e-01,3.475637e-02
1.756557e-01,1.756557e-01,3.061638e-02
1.989794e-01,1.989794e-01,-5.154888e-02
1.556584e-01,1.556584e-01,-5.432971e-03
1.451226e-01,1.451226e-01,4.386391e-02
1.915428e-01,1.915428e-01,5.841193e-03
1.889364e-01,1.889364e-01,-4.750028e-02
1.484069e-01,1.484069e-01,8.084406e-03
1.492993e-01,1.492993e-01,5.030935e-02
2.023446e-01,2.023446e-01,-1.862587e-02
1.778590e-01,1.778590e-01,-3.559628e-02
1.450400e-01,1.450400e-01,2.040407e-02
1.593489e-01,1.593489e-01,4.687360e-02
2.057979e-01,2.057979e-01,-4.162665e-02
1.658226e-01,1.658226e-01,-2.185919e-02
1.426155e-01,1.426155e-01,3.266449e-02
1.726141e-01,1.726141e-01,3.444727e-02
2.008169e-01,2.008169e-01,-5.109374e-02
1.574420e-01,1.574420e-01,-8.686542e-03
1.442765e-01,1.442765e-01,4.195564e-02
1.880922e-01,1.880922e-01,1.197103e-02
1.913311e-01,1.913311e-01,-4.948972e-02
1.496205e-01,1.496205e-01,5.194460e-03
1.478558e-01,1.478558e-01,4.956744e-02
2.002654e-01,2.002654e-01,-1.243656e-02
1.810501e-01,1.810501e-01,-3.939256e-02
1.456642e-01,1.456642e-01,1.693347e-02
1.557610e-01,1.557610e-01,4.924361e-02
2.060087e-01,2.060087e-01,-3.639155e-02
1.688449e-01,1.688449e-01,-2.568804e-02
1.428916e-01,1.428916e-01,2.949966e-02
1.684770e-01,1.684770e-01,3.917498e-02
2.030906e-01,2.030906e-01,-4.960653e-02
1.599611e-01,1.599611e-01,-1.330960e-02
1.431261e-01,1.431261e-01,3.908330e-02
1.825571e-01,1.825571e-01,2.097697e-02
1.948495e-01,1.948495e-01,-5.136898e-02
1.519940e-01,1.519940e-01,6.950053e-04
1.464021e-01,1.464021e-01,4.749335e-02
1.967980e-01,1.967980e-01,-4.238454e-03
1.849167e-01,1.849167e-01,-4.376485e-02
1.466925e-01,1.466925e-01,1.262550e-02
1.520056e-01,1.520056e-01,5.070528e-02
2.048517e-01,2.048517e-01,-2.798423e-02
1.731786e-01,1.731786e-01,-3.047218e-02
1.438882e-01,1.438882e-01,2.517630e-02
1.640221e-01,1.640221e-01,4.329181e-02
2.047416e-01,2.047416e-01,-4.647074e-02
1.626584e-01,1.626584e-01,-1.750681e-02
1.426437e-01,1.426437e-01,3.607073e-02
1.775743e-01,1.775743e-01,2.810500e-02
1.978458e-01,1.978458e-01,-5.170032e-02
1.545843e-01,1.545843e-01,-3.610679e-03
1.455137e-01,1.455137e-01,4.495876e-02
1.932373e-01,1.932373e-01,2.725623e-03
1.877247e-01,1.877247e-01,-4.643015e-02
1.478441e-01,1.478441e-01,9.483983e-03
1.500602e-01,1.500602e-01,5.055328e-02
2.032217e-01,2.032217e-01,-2.156751e-02
1.763686e-01,1.763686e-01,-3.390607e-02
1.447097e-01,1.447097e-01,2.196220e-02
1.609316e-01,1.609316e-01,4.570119e-02
2.054975e-01,2.054975e-01,-4.344775e-02
1.646752e-01,1.646752e-01,-2.029171e-02
1.426129e-01,1.426129e-01,3.390037e-02
1.744140e-01,1.744140e-01,3.220072e-02
1.997243e-01,1.997243e-01,-5.139868e-02
1.563741e-01,1.563741e-01,-6.705793e-03
1.448103e-01,1.448103e-01,4.311409e-02
1.902570e-01,1.902570e-01,8.162946e-03
1.898445e-01,1.898445e-01,-4.828960e-02
1.488430e-01,1.488430e-01,7.005470e-03
1.487277e-01,1.487277e-01,5.008058e-02
2.016029e-01,2.016029e-01,-1.629089e-02
1.790635e-01,1.790635e-01,-3.701426e-02
1.452776e-01,1.452776e-01,1.911199e-02
1.579990e-01,1.579990e-01,4.782989e-02
2.059758e-01,2.059758e-01,-3.987381e-02
1.668802e-01,1.668802e-01,-2.326348e-02
1.426564e-01,1.426564e-01,3.153560e-02
1.710316e-01,1.710316e-01,3.634535e-02
2.017502e-01,2.017502e-01,-5.067956e-02
1.584027e-01,1.584027e-01,-1.049224e-02
1.437879e-01,1.437879e-01,4.087484e-02
1.859843e-01,1.859843e-01,1.552867e-02
1.927092e-01,1.927092e-01,-5.041081e-02
1.504545e-01,1.504545e-01,3.474768e-03
1.471864e-01,1.471864e-01,4.889491e-02
1.989496e-01,1.989496e-01,-9.064291e-03
1.827239e-01,1.827239e-01,-4.136362e-02
1.460401e-01,1.460401e-01,1.507030e-02
1.539883e-01,1.539883e-01,5.012913e-02
2.057040e-01,2.057040e-01,-3.292714e-02
1.706749e-01,1.706749e-01,-2.776692e-02
1.432631e-01,1.432631e-01,2.766147e-02
1.664761e-01,1.664761e-01,4.114666e-02
2.039364e-01,2.039364e-01,-4.838698e-02
1.611679e-01,1.611679e-01,-1.529559e-02
1.428087e-01,1.428087e-01,3.771193e-02
1.801509e-01,1.801509e-01,2.454031e-02
1.963121e-01,1.963121e-01,-5.167808e-02
1.532017e-01,1.532017e-01,-1.328977e-03
1.459660e-01,1.459660e-01,4.632972e-02
1.951795e-01,1.951795e-01,-9.700824e-04
1.862694e-01,1.862694e-01,-4.509921e-02
1.472092e-01,1.472092e-01,1.112033e-02
1.510064e-01,1.510064e-01,5.073083e-02
2.041300e-01,2.041300e-01,-2.490762e-02
1.747073e-01,1.747073e-01,-3.210247e-02
1.442912e-01,1.442912e-01,2.365014e-02
1.625669e-01,1.625669e-01,4.445411e-02
2.051258e-01,2.051258e-01,-4.513038e-02
1.635786e-01,1.635786e-01,-1.878828e-02
1.426188e-01,1.426188e-01,3.507882e-02
1.761222e-01,1.761222e-01,3.001435e-02
1.987027e-01,1.987027e-01,-5.159560e-02
1.553942e-01,1.553942e-01,-4.975904e-03
1.452264e-01,1.452264e-01,4.413640e-02
1.919830e-01,1.919830e-01,5.038322e-03
1.886234e-01,1.886234e-01,-4.722520e-02
1.482597e-01,1.482597e-01,8.450119e-03
1.494965e-01,1.494965e-01,5.037836e-02
2.025833e-01,2.025833e-01,-1.940656e-02
1.774598e-01,1.774598e-01,-3.513599e-02
1.449566e-01,1.449566e-01,2.082583e-02
1.597847e-01,1.597847e-01,4.655486e-02
2.057228e-01,2.057228e-01,-4.214958e-02
1.654975e-01,1.654975e-01,-2.141744e-02
1.426124e-01,1.426124e-01,3.301437e-02
1.731209e-01,1.731209e-01,3.382238e-02
2.005103e-01,2.005103e-01,-5.119416e-02
1.571382e-01,1.571382e-01,-8.116259e-03
1.444329e-01,1.444329e-01,4.229034e-02
1.887337e-01,1.887337e-01,1.085802e-02
1.908981e-01,1.908981e-01,-4.915808e-02
1.493824e-01,1.493824e-01,5.726723e-03
1.480961e-01,1.480961e-01,4.973846e-02
2.006667e-01,2.006667e-01,-1.354527e-02
1.804829e-01,1.804829e-01,-3.871341e-02
1.455508e-01,1.455508e-01,1.756027e-02
1.563924e-01,1.563924e-01,4.887240e-02
2.060401e-01,2.060401e-01,-3.746084e-02
1.682583e-01,1.682583e-01,-2.498922e-02
1.428002e-01,1.428002e-01,3.009899e-02
1.691868e-01,1.691868e-01,3.842240e-02
2.027451e-01,2.027451e-01,-4.995899e-02
1.595294e-01,1.595294e-01,-1.255321e-02
1.432848e-01,1.432848e-01,3.958016e-02
1.834841e-01,1.834841e-01,1.954538e-02
1.942787e-01,1.942787e-01,-5.117206e-02
1.515555e-01,1.515555e-01,1.453920e-03
1.465885e-01,1.465885e-01,4.790510e-02
1.973899e-01,1.973899e-01,-5.499097e-03
1.843689e-01,1.843689e-01,-4.319151e-02
1.465082e-01,1.465082e-01,1.323519e-02
1.524575e-01,1.524575e-01,5.062698e-02
2.051063e-01,2.051063e-01,-2.923375e-02
1.725534e-01,1.725534e-01,-2.980410e-02
1.437254e-01,1.437254e-01,2.579717e-02
1.646198e-01,1.646198e-01,4.279326e-02
2.045656e-01,2.045656e-01,-4.697789e-02
1.622906e-01,1.622906e-01,-1.698083e-02
1.426662e-01,1.426662e-01,3.647073e-02
1.781769e-01,1.781769e-01,2.729359e-02
1.974899e-01,1.974899e-01,-5.172164e-02
1.542542e-01,1.542542e-01,-3.063956e-03
1.456223e-01,1.456223e-01,4.528944e-02
1.937179e-01,1.937179e-01,1.827160e-03
1.873747e-01,1.873747e-01,-4.611703e-02
1.476860e-01,1.476860e-01,9.880730e-03
1.502809e-01,1.502809e-01,5.061033e-02
2.034530e-01,2.034530e-01,-2.238212e-02
1.759613e-01,1.759613e-01,-3.345801e-02
1.446111e-01,1.446111e-01,2.237986e-02
1.613428e-01,1.613428e-01,4.539156e-02
2.054091e-01,2.054091e-01,-4.388804e-02
1.643919e-01,1.643919e-01,-1.990342e-02
1.426140e-01,1.426140e-01,3.420521e-02
1.748576e-01,1.748576e-01,3.163753e-02
1.994567e-01,1.994567e-01,-5.145656e-02
1.561167e-01,1.561167e-01,-6.241213e-03
1.449281e-01,1.449281e-01,4.338635e-02
1.907365e-01,1.907365e-01,7.301421e-03
1.895071e-01,1.895071e-01,-4.799893e-02
1.486786e-01,1.486786e-01,7.409060e-03
1.489388e-01,1.489388e-01,5.017129e-02
2.018866e-01,2.018866e-01,-1.716758e-02
1.786098e-01,1.786098e-01,-3.647607e-02
1.451899e-01,1.451899e-01,1.960175e-02
1.585120e-01,1.585120e-01,4.747340e-02
2.059194e-01,2.059194e-01,-4.056550e-02
1.664690e-01,1.664690e-01,-2.272468e-02
1.426342e-01,1.426342e-01,3.197237e-02
1.716320e-01,1.716320e-01,3.563604e-02
2.014022e-01,2.014022e-01,-5.085659e-02
1.580367e-01,1.580367e-01,-9.806028e-03
1.439705e-01,1.439705e-01,4.129022e-02
1.867975e-01,1.867975e-01,1.417464e-02
1.921851e-01,1.921851e-01,-5.008667e-02
1.501227e-01,1.501227e-01,4.133606e-03
1.474238e-01,1.474238e-01,4.917363e-02
1.994557e-01,1.994557e-01,-1.031627e-02
1.821135e-01,1.821135e-01,-4.065376e-02
1.458942e-01,1.458942e-01,1.575118e-02
1.546147e-01,1.546147e-01,4.984660e-02
2.058524e-01,2.058524e-01,-3.423781e-02
1.699926e-01,1.699926e-01,-2.700705e-02
1.431120e-01,1.431120e-01,2.834223e-02
1.671909e-01,1.671909e-01,4.046731e-02
2.036556e-01,2.036556e-01,-4.885978e-02
1.607382e-01,1.607382e-01,-1.461044e-02
1.429004e-01,1.429004e-01,3.819643e-02
1.809732e-01,1.809732e-01,2.334810e-02
1.958155e-01,1.958155e-01,-5.160488e-02
1.527786e-01,1.527786e-01,-6.273011e-04
1.461097e-01,1.461097e-01,4.674153e-02
1.957489e-01,1.957489e-01,-2.094992e-03
1.858133e-01,1.858133e-01,-4.466174e-02
1.470258e-01,1.470258e-01,1.162841e-02
1.513266e-01,1.513266e-01,5.074664e-02
2.043870e-01,2.043870e-01,-2.594347e-02
1.741938e-01,1.741938e-01,-3.155390e-02
1.441560e-01,1.441560e-01,2.416478e-02
1.630574e-01,1.630574e-01,4.406965e-02
2.050027e-01,2.050027e-01,-4.559858e-02
1.632639e-01,1.632639e-01,-1.835392e-02
1.426233e-01,1.426233e-01,3.541714e-02
1.766128e-01,1.766128e-01,2.937545e-02
1.984125e-01,1.984125e-01,-5.163835e-02
1.551179e-01,1.551179e-01,-4.505736e-03
1.453284e-01,1.453284e-01,4.441853e-02
1.924247e-01,1.924247e-01,4.228322e-03
1.883084e-01,1.883084e-01,-4.694755e-02
1.481129e-01,1.481129e-01,8.815181e-03
1.496944e-01,1.496944e-01,5.044373e-02
2.028147e-01,2.028147e-01,-2.017700e-02
1.770684e-01,1.770684e-01,-3.469001e-02
1.448714e-01,1.448714e-01,2.123625e-02
1.602036e-01,1.602036e-01,4.624495e-02
2.056446e-01,2.056446e-01,-4.263638e-02
1.651914e-01,1.651914e-01,-2.099933e-02
1.426119e-01,1.426119e-01,3.334413e-02
1.736016e-01,1.736016e-01,3.322345e-02
2.002180e-01,2.002180e-01,-5.127781e-02
1.568522e-01,1.568522e-01,-7.583110e-03
1.445779e-01,1.445779e-01,4.260184e-02
1.893207e-01,1.893207e-01,9.827763e-03
1.904960e-01,1.904960e-01,-4.883562e-02
1.491710e-01,1.491710e-01,6.217712e-03
1.483304e-01,1.483304e-01,4.988071e-02
2.010317e-01,2.010317e-01,-1.458885e-02
1.799449e-01,1.799449e-01,-3.806808e-02
1.454461e-01,1.454461e-01,1.815152e-02
1.569990e-01,1.569990e-01,4.849379e-02
2.060382e-01,2.060382e-01,-3.842014e-02
1.677204e-01,1.677204e-01,-2.433021e-02
1.427317e-01,1.427317e-01,3.065482e-02
1.698760e-01,1.698760e-01,3.766601e-02
2.023885e-01,2.023885e-01,-5.026068e-02
1.591088e-01,1.591088e-01,-1.179635e-02
1.434591e-01,1.434591e-01,4.006487e-02
1.844092e-01,1.844092e-01,1.808502e-02
1.937037e-01,1.937037e-01,-5.093027e-02
1.511339e-01,1.511339e-01,2.204009e-03
1.467904e-01,1.467904e-01,4.829308e-02
1.979706e-01,1.979706e-01,-6.780582e-03
1.837942e-01,1.837942e-01,-4.256991e-02
1.463307e-01,1.463307e-01,1.387563e-02
1.529633e-01,1.529633e-01,5.049825e-02
2.053456e-01,2.053456e-01,-3.054016e-02
1.718947e-01,1.718947e-01,-2.909676e-02
1.435574e-01,1.435574e-01,2.645004e-02
