x,y,z
2.001383e-01,2.001383e-01,-2.735837e-02
1.702227e-01,1.702227e-01,-1.868542e-02
1.506567e-01,1.506567e-01,2.930102e-02
1.821855e-01,1.821855e-01,1.507916e-02
1.898123e-01,1.898123e-01,-3.873948e-02
1.549875e-01,1.549875e-01,7.891398e-03
1.591768e-01,1.591768e-01,3.889358e-02
2.004220e-01,2.004220e-01,-3.007050e-02
1.687492e-01,1.687492e-01,-1.681254e-02
1.506508e-01,1.506508e-01,3.074331e-02
1.841667e-01,1.841667e-01,1.207656e-02
1.885198e-01,1.885198e-01,-3.807599e-02
1.542176e-01,1.542176e-01,9.562454e-03
1.601254e-01,1.601254e-01,3.875783e-02
2.006020e-01,2.006020e-01,-3.215205e-02
1.676100e-01,1.676100e-01,-1.547123e-02
1.505437e-01,1.505437e-01,3.186729e-02
1.855157e-01,1.855157e-01,1.006382e-02
1.876955e-01,1.876955e-01,-3.776475e-02
1.536348e-01,1.536348e-01,1.060655e-02
1.605672e-01,1.605672e-01,3.885929e-02
2.007725e-01,2.007725e-01,-3.336987e-02
1.669866e-01,1.669866e-01,-1.491173e-02
1.503148e-01,1.503148e-01,3.250674e-02
1.860155e-01,1.860155e-01,9.473086e-03
1.875080e-01,1.875080e-01,-3.796409e-02
1.533020e-01,1.533020e-01,1.085919e-02
1.603676e-01,1.603676e-01,3.929979e-02
2.010062e-01,2.010062e-01,-3.364694e-02
1.669602e-01,1.669602e-01,-1.523725e-02
1.499660e-01,1.499660e-01,3.258028e-02
1.855802e-01,1.855802e-01,1.046580e-02
1.880118e-01,1.880118e-01,-3.870787e-02
1.532592e-01,1.532592e-01,1.026927e-02
1.595261e-01,1.595261e-01,4.003656e-02
2.012696e-01,2.012696e-01,-3.288965e-02
1.675587e-01,1.675587e-01,-1.642936e-02
1.495584e-01,1.495584e-01,3.203816e-02
1.842134e-01,1.842134e-01,1.293327e-02
1.891433e-01,1.891433e-01,-3.984422e-02
1.535572e-01,1.535572e-01,8.890314e-03
1.582184e-01,1.582184e-01,4.081914e-02
2.013930e-01,2.013930e-01,-3.099286e-02
1.687459e-01,1.687459e-01,-1.829776e-02
1.492393e-01,1.492393e-01,3.088792e-02
1.821064e-01,1.821064e-01,1.636256e-02
1.906683e-01,1.906683e-01,-4.099306e-02
1.542262e-01,1.542262e-01,6.953032e-03
1.568186e-01,1.568186e-01,4.126543e-02
2.011626e-01,2.011626e-01,-2.811517e-02
1.703283e-01,1.703283e-01,-2.041929e-02
1.491708e-01,1.491708e-01,2.931178e-02
1.797528e-01,1.797528e-01,1.982214e-02
1.921882e-01,1.921882e-01,-4.171773e-02
1.551634e-01,1.551634e-01,4.905026e-03
1.557320e-01,1.557320e-01,4.117236e-02
2.005675e-01,2.005675e-01,-2.495277e-02
1.719145e-01,1.719145e-01,-2.225327e-02
1.493739e-01,1.493739e-01,2.771210e-02
1.777805e-01,1.777805e-01,2.241812e-02
1.933225e-01,1.933225e-01,-4.187032e-02
1.560983e-01,1.560983e-01,3.257108e-03
1.551499e-01,1.551499e-01,4.071083e-02
1.998794e-01,1.998794e-01,-2.244047e-02
1.730866e-01,1.730866e-01,-2.339862e-02
1.497113e-01,1.497113e-01,2.651909e-02
1.766149e-01,1.766149e-01,2.374464e-02
1.938847e-01,1.938847e-01,-4.162423e-02
1.567611e-01,1.567611e-01,2.355434e-03
1.550584e-01,1.550584e-01,4.018485e-02
1.994067e-01,1.994067e-01,-2.120010e-02
1.736035e-01,1.736035e-01,-2.369543e-02
1.500441e-01,1.500441e-01,2.598417e-02
1.764013e-01,1.764013e-01,2.377473e-02
1.938511e-01,1.938511e-01,-4.119271e-02
1.570143e-01,1.570143e-01,2.328650e-03
1.553972e-01,1.553972e-01,3.976949e-02
1.992949e-01,1.992949e-01,-2.142292e-02
1.734042e-01,1.734042e-01,-2.314210e-02
1.503095e-01,1.503095e-01,2.617109e-02
1.771265e-01,1.771265e-01,2.258470e-02
1.932554e-01,1.932554e-01,-4.066061e-02
1.568391e-01,1.568391e-01,3.156492e-03
1.561246e-01,1.561246e-01,3.948371e-02
1.995111e-01,1.995111e-01,-2.299157e-02
1.725478e-01,1.725478e-01,-2.183169e-02
1.504984e-01,1.504984e-01,2.701576e-02
1.786719e-01,1.786719e-01,2.029554e-02
1.921691e-01,1.921691e-01,-4.001242e-02
1.562982e-01,1.562982e-01,4.692693e-03
1.571792e-01,1.571792e-01,3.926060e-02
1.998953e-01,1.998953e-01,-2.551871e-02
1.712063e-01,1.712063e-01,-1.998368e-02
1.506174e-01,1.506174e-01,2.833677e-02
1.807626e-01,1.807626e-01,1.720951e-02
1.907577e-01,1.907577e-01,-3.924617e-02
1.555237e-01,1.555237e-01,6.632881e-03
1.584103e-01,1.584103e-01,3.903492e-02
2.002551e-01,2.002551e-01,-2.837653e-02
1.696729e-01,1.696729e-01,-1.797563e-02
1.506648e-01,1.506648e-01,2.983905e-02
1.829470e-01,1.829470e-01,1.392838e-02
1.893110e-01,1.893110e-01,-3.847485e-02
1.546963e-01,1.546963e-01,8.545834e-03
1.595618e-01,1.595618e-01,3.882725e-02
2.004944e-01,2.004944e-01,-3.090714e-02
1.682902e-01,1.682902e-01,-1.625384e-02
1.506253e-01,1.506253e-01,3.119412e-02
1.847382e-01,1.847382e-01,1.121221e-02
1.881589e-01,1.881589e-01,-3.791349e-02
1.539827e-01,1.539827e-01,1.002048e-02
1.603517e-01,1.603517e-01,3.875955e-02
2.006589e-01,2.006589e-01,-3.269314e-02
1.673213e-01,1.673213e-01,-1.517271e-02
1.504764e-01,1.504764e-01,3.215763e-02
1.857989e-01,1.857989e-01,9.674869e-03
1.875500e-01,1.875500e-01,-3.777259e-02
1.534846e-01,1.534846e-01,1.079271e-02
1.605723e-01,1.605723e-01,3.897648e-02
2.008480e-01,2.008480e-01,-3.358098e-02
1.669062e-01,1.669062e-01,-1.492492e-02
1.502020e-01,1.502020e-01,3.260120e-02
1.859691e-01,1.859691e-01,9.645969e-03
1.876094e-01,1.876094e-01,-3.817143e-02
1.532512e-01,1.532512e-01,1.074451e-02
1.601349e-01,1.601349e-01,3.953822e-02
2.011032e-01,2.011032e-01,-3.350117e-02
1.671028e-01,1.671028e-01,-1.557029e-02
1.498207e-01,1.498207e-01,3.245846e-02
1.851930e-01,1.851930e-01,1.119717e-02
1.883533e-01,1.883533e-01,-3.908527e-02
1.533238e-01,1.533238e-01,9.858340e-03
1.590951e-01,1.590951e-01,4.033119e-02
2.013423e-01,2.013423e-01,-3.234217e-02
1.679222e-01,1.679222e-01,-1.703854e-02
1.494241e-01,1.494241e-01,3.169129e-02
1.835240e-01,1.835240e-01,1.409414e-02
1.896632e-01,1.896632e-01,-4.027971e-02
1.537558e-01,1.537558e-01,8.240784e-03
1.577036e-01,1.577036e-01,4.103606e-02
2.013585e-01,2.013585e-01,-3.004933e-02
1.692846e-01,1.692846e-01,-1.905750e-02
1.491801e-01,1.491801e-01,3.035457e-02
1.812573e-01,1.812573e-01,1.765350e-02
1.912365e-01,1.912365e-01,-4.131833e-02
1.545432e-01,1.545432e-01,6.203650e-03
1.563768e-01,1.563768e-01,4.129225e-02
2.009814e-01,2.009814e-01,-2.696381e-02
1.709204e-01,1.709204e-01,-2.113601e-02
1.492173e-01,1.492173e-01,2.871622e-02
1.789730e-01,1.789730e-01,2.088494e-02
1.926537e-01,1.926537e-01,-4.183359e-02
1.555152e-01,1.555152e-01,4.245164e-03
1.554633e-01,1.554633e-01,4.103249e-02
2.003132e-01,2.003132e-01,-2.393476e-02
1.723994e-01,1.723994e-01,-2.275615e-02
1.494882e-01,1.494882e-01,2.721982e-02
1.772575e-01,1.772575e-01,2.304581e-02
1.935933e-01,1.935933e-01,-4.181497e-02
1.563775e-01,1.563775e-01,2.837291e-03
1.550639e-01,1.550639e-01,4.051665e-02
1.996734e-01,1.996734e-01,-2.183149e-02
1.733536e-01,1.733536e-01,-2.360497e-02
1.498361e-01,1.498361e-01,2.624504e-02
1.764272e-01,1.764272e-01,2.390098e-02
1.939399e-01,1.939399e-01,-4.148333e-02
1.569019e-01,1.569019e-01,2.243718e-03
1.551328e-01,1.551328e-01,4.001946e-02
1.993234e-01,1.993234e-01,-2.111216e-02
1.736134e-01,1.736134e-01,-2.359198e-02
1.501484e-01,1.501484e-01,2.596917e-02
1.765572e-01,1.765572e-01,2.348386e-02
1.936996e-01,1.936996e-01,-4.101320e-02
1.569991e-01,1.569991e-01,2.531855e-03
1.556154e-01,1.556154e-01,3.965459e-02
1.993409e-01,1.993409e-01,-2.184470e-02
1.731663e-01,1.731663e-01,-2.275128e-02
1.503858e-01,1.503858e-01,2.640512e-02
1.775965e-01,1.775965e-01,2.188040e-02
1.929165e-01,1.929165e-01,-4.044336e-02
1.566820e-01,1.566820e-01,3.638099e-03
1.564704e-01,1.564704e-01,3.940091e-02
1.996402e-01,1.996402e-01,-2.381613e-02
1.721096e-01,1.721096e-01,-2.121447e-02
1.505490e-01,1.505490e-01,2.744796e-02
1.793792e-01,1.793792e-01,1.925584e-02
1.916877e-01,1.916877e-01,-3.974838e-02
1.560386e-01,1.560386e-01,5.362713e-03
1.576115e-01,1.576115e-01,3.918135e-02
2.000353e-01,2.000353e-01,-2.654221e-02
1.706603e-01,1.706603e-01,-1.925871e-02
1.506433e-01,1.506433e-01,2.887227e-02
1.815618e-01,1.815618e-01,1.601624e-02
1.902254e-01,1.902254e-01,-3.896028e-02
1.552234e-01,1.552234e-01,7.345482e-03
1.588475e-01,1.588475e-01,3.895372e-02
2.003549e-01,2.003549e-01,-2.934987e-02
1.691436e-01,1.691436e-01,-1.730358e-02
1.506619e-01,1.506619e-01,3.035725e-02
1.836563e-01,1.836563e-01,1.285190e-02
1.888485e-01,1.888485e-01,-3.823724e-02
1.544205e-01,1.544205e-01,9.142342e-03
1.598997e-01,1.598997e-01,3.877870e-02
2.005567e-01,2.005567e-01,-3.164527e-02
1.678853e-01,1.678853e-01,-1.577921e-02
1.505856e-01,1.505856e-01,3.159338e-02
1.852139e-01,1.852139e-01,1.050229e-02
1.878692e-01,1.878692e-01,-3.780583e-02
1.537761e-01,1.537761e-01,1.038682e-02
1.605037e-01,1.605037e-01,3.879866e-02
2.007196e-01,2.007196e-01,-3.311820e-02
1.671047e-01,1.671047e-01,-1.498247e-02
1.503928e-01,1.503928e-01,3.238061e-02
1.859667e-01,1.859667e-01,9.482087e-03
1.874913e-01,1.874913e-01,-3.785120e-02
1.533685e-01,1.533685e-01,1.087261e-02
1.604920e-01,1.604920e-01,3.913970e-02
2.009331e-01,2.009331e-01,-3.366830e-02
1.669048e-01,1.669048e-01,-1.505396e-02
1.500747e-01,1.500747e-01,3.262014e-02
1.858001e-01,1.858001e-01,1.002461e-02
1.878001e-01,1.878001e-01,-3.844688e-02
1.532391e-01,1.532391e-01,1.052099e-02
1.598231e-01,1.598231e-01,3.980857e-02
2.011996e-01,2.011996e-01,-3.321657e-02
1.673263e-01,1.673263e-01,-1.601102e-02
1.496728e-01,1.496728e-01,3.225565e-02
1.846888e-01,1.846888e-01,1.210608e-02
1.887694e-01,1.887694e-01,-3.950116e-02
1.534350e-01,1.534350e-01,9.351351e-03
1.586168e-01,1.586168e-01,4.061521e-02
2.013861e-01,2.013861e-01,-3.164485e-02
1.683574e-01,1.683574e-01,-1.772093e-02
1.493098e-01,1.493098e-01,3.126904e-02
1.827544e-01,1.827544e-01,1.534384e-02
1.902183e-01,1.902183e-01,-4.069471e-02
1.540017e-01,1.540017e-01,7.535190e-03
1.571978e-01,1.571978e-01,4.119209e-02
2.012705e-01,2.012705e-01,-2.899819e-02
1.698603e-01,1.698603e-01,-1.982524e-02
1.491593e-01,1.491593e-01,2.978047e-02
1.804059e-01,1.804059e-01,1.889941e-02
1.917836e-01,1.917836e-01,-4.157215e-02
1.548849e-01,1.548849e-01,5.464583e-03
1.559913e-01,1.559913e-01,4.124918e-02
2.007605e-01,2.007605e-01,-2.581981e-02
1.714916e-01,1.714916e-01,-2.179153e-02
1.492952e-01,1.492952e-01,2.813978e-02
1.782693e-01,1.782693e-01,2.180460e-02
1.930556e-01,1.930556e-01,-4.187826e-02
1.558519e-01,1.558519e-01,3.658308e-03
1.552621e-01,1.552621e-01,4.085993e-02
2.000634e-01,2.000634e-01,-2.304037e-02
1.728149e-01,1.728149e-01,-2.315763e-02
1.496115e-01,1.496115e-01,2.679671e-02
1.768505e-01,1.768505e-01,2.350332e-02
1.937869e-01,1.937869e-01,-4.172014e-02
1.566118e-01,1.566118e-01,2.524012e-03
1.550382e-01,1.550382e-01,4.032668e-02
1.995066e-01,1.995066e-01,-2.140424e-02
1.735297e-01,1.735297e-01,-2.369954e-02
1.499556e-01,1.499556e-01,2.606233e-02
1.763640e-01,1.763640e-01,2.389364e-02
1.939195e-01,1.939195e-01,-4.132608e-02
1.569871e-01,1.569871e-01,2.246473e-03
1.552604e-01,1.552604e-01,3.987242e-02
1.992889e-01,1.992889e-01,-2.121325e-02
1.735317e-01,1.735317e-01,-2.338130e-02
1.502426e-01,1.502426e-01,2.604667e-02
1.768306e-01,1.768306e-01,2.303994e-02
1.934780e-01,1.934780e-01,-4.082136e-02
1.569298e-01,1.569298e-01,2.841386e-03
1.558820e-01,1.558820e-01,3.955456e-02
1.994243e-01,1.994243e-01,-2.242849e-02
1.728489e-01,1.728489e-01,-2.226955e-02
1.504524e-01,1.504524e-01,2.671827e-02
1.781637e-01,1.781637e-01,2.104244e-02
1.925190e-01,1.925190e-01,-4.020924e-02
1.564819e-01,1.564819e-01,4.200721e-03
1.568542e-01,1.568542e-01,3.932217e-02
1.997815e-01,1.997815e-01,-2.473977e-02
1.716197e-01,1.716197e-01,-2.054185e-02
1.505909e-01,1.505909e-01,2.793020e-02
1.801395e-01,1.801395e-01,1.813397e-02
1.911752e-01,1.911752e-01,-3.947085e-02
1.557565e-01,1.557565e-01,6.066826e-03
1.580575e-01,1.580575e-01,3.910003e-02
2.001643e-01,2.001643e-01,-2.757532e-02
1.701058e-01,1.701058e-01,-1.853366e-02
1.506595e-01,1.506595e-01,2.941541e-02
1.823493e-01,1.823493e-01,1.483213e-02
1.897041e-01,1.897041e-01,-3.868198e-02
1.549252e-01,1.549252e-01,8.033371e-03
1.592611e-01,1.592611e-01,3.887846e-02
2.004384e-01,2.004384e-01,-3.025454e-02
1.686483e-01,1.686483e-01,-1.668843e-02
1.506465e-01,1.506465e-01,3.084218e-02
1.842946e-01,1.842946e-01,1.188262e-02
1.884382e-01,1.884382e-01,-3.803761e-02
1.541660e-01,1.541660e-01,9.666227e-03
1.601792e-01,1.601792e-01,3.875542e-02
2.006139e-01,2.006139e-01,-3.227564e-02
1.675431e-01,1.675431e-01,-1.539963e-02
1.505308e-01,1.505308e-01,3.193393e-02
1.855846e-01,1.855846e-01,9.965990e-03
1.876578e-01,1.876578e-01,-3.776061e-02
1.536004e-01,1.536004e-01,1.065448e-02
1.605752e-01,1.605752e-01,3.888016e-02
2.007877e-01,2.007877e-01,-3.342460e-02
1.669633e-01,1.669633e-01,-1.490486e-02
1.502926e-01,1.502926e-01,3.253286e-02
1.860158e-01,1.860158e-01,9.492356e-03
1.875218e-01,1.875218e-01,-3.800200e-02
1.532883e-01,1.532883e-01,1.084414e-02
1.603254e-01,1.603254e-01,3.934693e-02
2.010264e-01,2.010264e-01,-3.362749e-02
1.669835e-01,1.669835e-01,-1.529819e-02
1.499358e-01,1.499358e-01,3.256126e-02
1.855087e-01,1.855087e-01,1.060430e-02
1.880772e-01,1.880772e-01,-3.878343e-02
1.532690e-01,1.532690e-01,1.019101e-02
1.594401e-01,1.594401e-01,4.009863e-02
2.012868e-01,2.012868e-01,-3.278675e-02
