x,y,z
1.641469e-01,1.641469e-01,1.063211e-02
1.761759e-01,1.761759e-01,1.285037e-02
1.873752e-01,1.873752e-01,-2.107984e-02
1.667846e-01,1.667846e-01,2.721298e-03
1.697219e-01,1.697219e-01,1.898214e-02
1.897029e-01,1.897029e-01,-1.753207e-02
1.712566e-01,1.712566e-01,-5.772789e-03
1.654038e-01,1.654038e-01,1.978327e-02
1.879640e-01,1.879640e-01,-8.304170e-03
1.769934e-01,1.769934e-01,-1.366818e-02
1.636534e-01,1.636534e-01,1.621213e-02
1.824515e-01,1.824515e-01,3.617506e-03
1.830074e-01,1.830074e-01,-1.941309e-02
1.643497e-01,1.643497e-01,9.761776e-03
1.753373e-01,1.753373e-01,1.385204e-02
1.878274e-01,1.878274e-01,-2.098172e-02
1.672278e-01,1.672278e-01,1.722862e-03
1.690817e-01,1.690817e-01,1.934806e-02
1.897233e-01,1.897233e-01,-1.670333e-02
1.718850e-01,1.718850e-01,-6.765108e-03
1.650619e-01,1.650619e-01,1.955983e-02
1.874790e-01,1.874790e-01,-6.948019e-03
1.777165e-01,1.777165e-01,-1.449801e-02
1.636124e-01,1.636124e-01,1.556990e-02
1.816385e-01,1.816385e-01,4.999915e-03
1.836741e-01,1.836741e-01,-1.985831e-02
1.645834e-01,1.645834e-01,8.869245e-03
1.745122e-01,1.745122e-01,1.478380e-02
1.882381e-01,1.882381e-01,-2.079901e-02
1.676961e-01,1.676961e-01,7.180874e-04
1.684740e-01,1.684740e-01,1.963785e-02
1.896833e-01,1.896833e-01,-1.579360e-02
1.725306e-01,1.725306e-01,-7.747339e-03
1.647568e-01,1.647568e-01,1.927697e-02
1.869411e-01,1.869411e-01,-5.559732e-03
1.784421e-01,1.784421e-01,-1.529513e-02
1.636054e-01,1.636054e-01,1.489004e-02
1.808075e-01,1.808075e-01,6.349768e-03
1.843214e-01,1.843214e-01,-2.024099e-02
1.648475e-01,1.648475e-01,7.956450e-03
1.737039e-01,1.737039e-01,1.564304e-02
1.886042e-01,1.886042e-01,-2.053003e-02
1.681889e-01,1.681889e-01,-2.911142e-04
1.679002e-01,1.679002e-01,1.985270e-02
1.895821e-01,1.895821e-01,-1.480648e-02
1.731918e-01,1.731918e-01,-8.717315e-03
1.644878e-01,1.644878e-01,1.893722e-02
1.863534e-01,1.863534e-01,-4.147024e-03
1.791676e-01,1.791676e-01,-1.605632e-02
1.636323e-01,1.636323e-01,1.417485e-02
1.799631e-01,1.799631e-01,7.660376e-03
1.849466e-01,1.849466e-01,-2.055761e-02
1.651409e-01,1.651409e-01,7.025179e-03
1.729157e-01,1.729157e-01,1.642775e-02
1.889233e-01,1.889233e-01,-2.017349e-02
1.687051e-01,1.687051e-01,-1.302938e-03
1.673612e-01,1.673612e-01,1.999403e-02
1.894190e-01,1.894190e-01,-1.374633e-02
1.738672e-01,1.738672e-01,-9.672714e-03
1.642554e-01,1.642554e-01,1.854336e-02
1.857191e-01,1.857191e-01,-2.717765e-03
1.798908e-01,1.798908e-01,-1.677811e-02
1.636923e-01,1.636923e-01,1.342651e-02
1.791102e-01,1.791102e-01,8.925490e-03
1.855466e-01,1.855466e-01,-2.080467e-02
1.654641e-01,1.654641e-01,6.077467e-03
1.721498e-01,1.721498e-01,1.713639e-02
1.891922e-01,1.891922e-01,-1.972878e-02
1.692443e-01,1.692443e-01,-2.315392e-03
1.668576e-01,1.668576e-01,2.006355e-02
1.891944e-01,1.891944e-01,-1.261800e-02
1.745557e-01,1.745557e-01,-1.061101e-02
1.640589e-01,1.640589e-01,1.809799e-02
1.850423e-01,1.850423e-01,-1.279846e-03
1.806094e-01,1.806094e-01,-1.745701e-02
1.637852e-01,1.637852e-01,1.264713e-02
1.782531e-01,1.782531e-01,1.013934e-02
1.861187e-01,1.861187e-01,-2.097887e-02
1.658149e-01,1.658149e-01,5.114983e-03
1.714090e-01,1.714090e-01,1.776803e-02
1.894088e-01,1.894088e-01,-1.919560e-02
1.698052e-01,1.698052e-01,-3.326691e-03
1.663900e-01,1.663900e-01,2.006317e-02
1.889084e-01,1.889084e-01,-1.142718e-02
1.752549e-01,1.752549e-01,-1.152975e-02
1.638983e-01,1.638983e-01,1.760385e-02
1.843272e-01,1.843272e-01,1.588084e-04
1.813209e-01,1.813209e-01,-1.808945e-02
1.639109e-01,1.639109e-01,1.183892e-02
1.773966e-01,1.773966e-01,1.129674e-02
1.866595e-01,1.866595e-01,-2.107717e-02
1.661939e-01,1.661939e-01,4.139809e-03
1.706953e-01,1.706953e-01,1.832217e-02
1.895704e-01,1.895704e-01,-1.857466e-02
1.703869e-01,1.703869e-01,-4.334890e-03
1.659588e-01,1.659588e-01,1.999502e-02
1.885626e-01,1.885626e-01,-1.017992e-02
1.759637e-01,1.759637e-01,-1.242612e-02
1.637726e-01,1.637726e-01,1.706346e-02
1.835777e-01,1.835777e-01,1.590321e-03
1.820226e-01,1.820226e-01,-1.867185e-02
1.640683e-01,1.640683e-01,1.100375e-02
1.765445e-01,1.765445e-01,1.239304e-02
1.871661e-01,1.871661e-01,-2.109667e-02
1.665996e-01,1.665996e-01,3.153709e-03
1.700106e-01,1.700106e-01,1.879875e-02
1.896754e-01,1.896754e-01,-1.786698e-02
1.709885e-01,1.709885e-01,-5.338005e-03
1.655641e-01,1.655641e-01,1.986133e-02
1.881581e-01,1.881581e-01,-8.882861e-03
1.766799e-01,1.766799e-01,-1.329731e-02
1.636820e-01,1.636820e-01,1.647947e-02
1.827990e-01,1.827990e-01,3.007031e-03
1.827118e-01,1.827118e-01,-1.920055e-02
1.642576e-01,1.642576e-01,1.014369e-02
1.757011e-01,1.757011e-01,1.342419e-02
1.876354e-01,1.876354e-01,-2.103474e-02
1.670316e-01,1.670316e-01,2.158603e-03
1.693567e-01,1.693567e-01,1.919811e-02
1.897218e-01,1.897218e-01,-1.707441e-02
1.716090e-01,1.716090e-01,-6.334047e-03
1.652061e-01,1.652061e-01,1.966457e-02
1.876969e-01,1.876969e-01,-7.543068e-03
1.774013e-01,1.774013e-01,-1.414037e-02
1.636261e-01,1.636261e-01,1.585439e-02
1.819951e-01,1.819951e-01,4.401415e-03
1.833859e-01,1.833859e-01,-1.967188e-02
1.644778e-01,1.644778e-01,9.260576e-03
1.748697e-01,1.748697e-01,1.438675e-02
1.880645e-01,1.880645e-01,-2.088910e-02
1.674891e-01,1.674891e-01,1.156367e-03
1.687346e-01,1.687346e-01,1.952094e-02
1.897083e-01,1.897083e-01,-1.619952e-02
1.722472e-01,1.722472e-01,-7.320946e-03
1.648849e-01,1.648849e-01,1.940727e-02
1.871817e-01,1.871817e-01,-6.167847e-03
1.781260e-01,1.781260e-01,-1.495216e-02
1.636044e-01,1.636044e-01,1.519065e-02
1.811712e-01,1.811712e-01,5.766289e-03
1.840420e-01,1.840420e-01,-2.008225e-02
1.647288e-01,1.647288e-01,8.356397e-03
1.740536e-01,1.740536e-01,1.527786e-02
1.884504e-01,1.884504e-01,-2.065788e-02
1.679713e-01,1.679713e-01,1.488533e-04
1.681460e-01,1.681460e-01,1.976825e-02
1.896337e-01,1.896337e-01,-1.524567e-02
1.729019e-01,1.729019e-01,-8.296529e-03
1.646005e-01,1.646005e-01,1.909202e-02
1.866152e-01,1.866152e-01,-4.764815e-03
1.788517e-01,1.788517e-01,-1.572945e-02
1.636167e-01,1.636167e-01,1.449058e-02
1.803320e-01,1.803320e-01,7.094786e-03
1.846773e-01,1.846773e-01,-2.042803e-02
1.650094e-01,1.650094e-01,7.432911e-03
1.732563e-01,1.732563e-01,1.609524e-02
1.887903e-01,1.887903e-01,-2.033960e-02
1.684774e-01,1.684774e-01,-8.620614e-04
1.675916e-01,1.675916e-01,1.994141e-02
1.894976e-01,1.894976e-01,-1.421675e-02
1.735715e-01,1.735715e-01,-9.258515e-03
1.643522e-01,1.643522e-01,1.872139e-02
1.860008e-01,1.860008e-01,-3.341788e-03
1.795762e-01,1.795762e-01,-1.646880e-02
1.636620e-01,1.636620e-01,1.375635e-02
1.794822e-01,1.794822e-01,8.380450e-03
1.852887e-01,1.852887e-01,-2.070576e-02
1.653199e-01,1.653199e-01,6.492166e-03
1.724804e-01,1.724804e-01,1.683717e-02
1.890814e-01,1.890814e-01,-1.993331e-02
1.690069e-01,1.690069e-01,-1.874430e-03
1.670726e-01,1.670726e-01,2.004199e-02
1.892997e-01,1.892997e-01,-1.311747e-02
1.742542e-01,1.742542e-01,-1.020462e-02
1.641401e-01,1.641401e-01,1.829812e-02
1.853420e-01,1.853420e-01,-1.906670e-03
1.802972e-01,1.802972e-01,-1.716683e-02
1.637407e-01,1.637407e-01,1.299023e-02
1.786265e-01,1.786265e-01,9.617305e-03
1.858733e-01,1.858733e-01,-2.091214e-02
1.656585e-01,1.656585e-01,5.535838e-03
1.717287e-01,1.717287e-01,1.750246e-02
1.893210e-01,1.893210e-01,-1.943870e-02
1.695582e-01,1.695582e-01,-2.886526e-03
1.665892e-01,1.665892e-01,2.007181e-02
1.890405e-01,1.890405e-01,-1.195314e-02
1.749492e-01,1.749492e-01,-1.113216e-02
1.639637e-01,1.639637e-01,1.782487e-02
1.846430e-01,1.846430e-01,-4.673670e-04
1.810122e-01,1.810122e-01,-1.781993e-02
1.638523e-01,1.638523e-01,1.219439e-02
1.777695e-01,1.777695e-01,1.079990e-02
1.864279e-01,1.864279e-01,-2.104391e-02
1.660255e-01,1.660255e-01,4.565991e-03
1.710028e-01,1.710028e-01,1.809039e-02
1.895068e-01,1.895068e-01,-1.885589e-02
1.701309e-01,1.701309e-01,-3.896303e-03
1.661420e-01,1.661420e-01,2.003287e-02
1.887205e-01,1.887205e-01,-1.072968e-02
1.756539e-01,1.756539e-01,-1.203865e-02
1.638230e-01,1.638230e-01,1.730433e-02
1.839080e-01,1.839080e-01,9.682171e-04
1.817185e-01,1.817185e-01,-1.842456e-02
1.639957e-01,1.639957e-01,1.137066e-02
1.769147e-01,1.769147e-01,1.192333e-02
1.869499e-01,1.869499e-01,-2.109801e-02
1.664196e-01,1.664196e-01,3.584411e-03
1.703052e-01,1.703052e-01,1.860072e-02
1.896368e-01,1.896368e-01,-1.818576e-02
1.707241e-01,1.707241e-01,-4.901853e-03
1.657314e-01,1.657314e-01,1.992743e-02
1.883413e-01,1.883413e-01,-9.453460e-03
1.763671e-01,1.763671e-01,-1.292119e-02
1.637174e-01,1.637174e-01,1.673906e-02
1.831414e-01,1.831414e-01,2.392304e-03
1.824134e-01,1.824134e-01,-1.897710e-02
1.641714e-01,1.641714e-01,1.052123e-02
1.760671e-01,1.760671e-01,1.298332e-02
1.874358e-01,1.874358e-01,-2.107188e-02
1.668402e-01,1.668402e-01,2.592992e-03
1.696375e-01,1.696375e-01,1.903362e-02
1.897089e-01,1.897089e-01,-1.742989e-02
1.713367e-01,1.713367e-01,-5.901217e-03
1.653576e-01,1.653576e-01,1.975787e-02
1.879046e-01,1.879046e-01,-8.131383e-03
1.770864e-01,1.770864e-01,-1.377687e-02
1.636464e-01,1.636464e-01,1.613158e-02
1.823479e-01,1.823479e-01,3.797318e-03
1.830943e-01,1.830943e-01,-1.947389e-02
1.643780e-01,1.643780e-01,9.647901e-03
1.752301e-01,1.752301e-01,1.397615e-02
1.878827e-01,1.878827e-01,-2.096295e-02
1.672869e-01,1.672869e-01,1.593648e-03
1.690017e-01,1.690017e-01,1.938969e-02
1.897215e-01,1.897215e-01,-1.659052e-02
1.719672e-01,1.719672e-01,-6.892363e-03
1.650204e-01,1.650204e-01,1.952662e-02
1.874126e-01,1.874126e-01,-6.770676e-03
1.778100e-01,1.778100e-01,-1.460269e-02
1.636098e-01,1.636098e-01,1.548437e-02
1.815323e-01,1.815323e-01,5.175921e-03
1.837588e-01,1.837588e-01,-1.991120e-02
1.646159e-01,1.646159e-01,8.752696e-03
1.744070e-01,1.744070e-01,1.489870e-02
1.882878e-01,1.882878e-01,-2.076921e-02
1.677583e-01,1.677583e-01,5.881812e-04
1.683982e-01,1.683982e-01,1.966975e-02
1.896737e-01,1.896737e-01,-1.567060e-02
1.726148e-01,1.726148e-01,-7.873164e-03
1.647198e-01,1.647198e-01,1.923626e-02
1.868680e-01,1.868680e-01,-5.378814e-03
1.785355e-01,1.785355e-01,-1.539539e-02
1.636071e-01,1.636071e-01,1.479979e-02
1.806992e-01,1.806992e-01,6.521075e-03
1.844033e-01,1.844033e-01,-2.028562e-02
1.648835e-01,1.648835e-01,7.837349e-03
1.736011e-01,1.736011e-01,1.574842e-02
1.886481e-01,1.886481e-01,-2.048900e-02
1.682541e-01,1.682541e-01,-4.214676e-04
1.678288e-01,1.678288e-01,1.987502e-02
1.895646e-01,1.895646e-01,-1.467380e-02
1.732780e-01,1.732780e-01,-8.841383e-03
1.644559e-01,1.644559e-01,1.888944e-02
1.862741e-01,1.862741e-01,-3.963527e-03
1.792611e-01,1.792611e-01,-1.615165e-02
1.636380e-01,1.636380e-01,1.408016e-02
1.798534e-01,1.798534e-01,7.826157e-03
1.850254e-01,1.850254e-01,-2.059344e-02
1.651813e-01,1.651813e-01,6.903929e-03
1.728157e-01,1.728157e-01,1.652341e-02
1.889608e-01,1.889608e-01,-2.012111e-02
1.687735e-01,1.687735e-01,-1.433442e-03
1.672943e-01,1.672943e-01,2.000700e-02
1.893934e-01,1.893934e-01,-1.360458e-02
1.739555e-01,1.739555e-01,-9.794651e-03
1.642280e-01,1.642280e-01,1.848877e-02
1.856342e-01,1.856342e-01,-2.532693e-03
1.799838e-01,1.799838e-01,-1.686813e-02
1.637024e-01,1.637024e-01,1.332769e-02
1.789998e-01,1.789998e-01,9.084979e-03
1.856220e-01,1.856220e-01,-2.083129e-02
1.655074e-01,1.655074e-01,5.954115e-03
1.720529e-01,1.720529e-01,1.722217e-02
1.892231e-01,1.892231e-01,-1.966501e-02
1.693152e-01,1.693152e-01,-2.445916e-03
1.667954e-01,1.667954e-01,2.006740e-02
1.891609e-01,1.891609e-01,-1.246786e-02
1.746451e-01,1.746451e-01,-1.073064e-02
1.640362e-01,1.640362e-01,1.803698e-02
1.849521e-01,1.849521e-01,-1.094245e-03
1.807017e-01,1.807017e-01,-1.754120e-02
1.637998e-01,1.637998e-01,1.254456e-02
1.781426e-01,1.781426e-01,1.029183e-02
1.861902e-01,1.861902e-01,-2.099589e-02
1.658623e-01,1.658623e-01,4.989952e-03
1.713154e-01,1.713154e-01,1.784383e-02
1.894327e-01,1.894327e-01,-1.912048e-02
1.698789e-01,1.698789e-01,-3.456902e-03
1.663323e-01,1.663323e-01,2.005812e-02
1.888672e-01,1.888672e-01,-1.126940e-02
1.753461e-01,1.753461e-01,-1.164658e-02
1.638798e-01,1.638798e-01,1.753667e-02
1.842323e-01,1.842323e-01,3.439266e-04
1.814121e-01,1.814121e-01,-1.816740e-02
1.639292e-01,1.639292e-01,1.173269e-02
1.772864e-01,1.772864e-01,1.144160e-02
1.867269e-01,1.867269e-01,-2.108415e-02
1.662446e-01,1.662446e-01,4.013246e-03
1.706053e-01,1.706053e-01,1.838797e-02
1.895872e-01,1.895872e-01,-1.848825e-02
1.704635e-01,1.704635e-01,-4.464506e-03
1.659058e-01,1.659058e-01,1.998140e-02
1.885137e-01,1.885137e-01,-1.001536e-02
1.760556e-01,1.760556e-01,-1.253992e-02
1.637589e-01,1.637589e-01,1.699055e-02
1.834788e-01,1.834788e-01,1.773963e-03
1.821124e-01,1.821124e-01,-1.874306e-02
1.640911e-01,1.640911e-01,1.089426e-02
1.764352e-01,1.764352e-01,1.252971e-02
1.872287e-01,1.872287e-01,-2.109331e-02
