x,y,z
1.407926e-01,1.407926e-01,2.297588e-02
1.552481e-01,1.552481e-01,5.377275e-02
2.086609e-01,2.086609e-01,-3.712976e-02
1.714910e-01,1.714910e-01,-3.310528e-02
1.401063e-01,1.401063e-01,2.465861e-02
1.562532e-01,1.562532e-01,5.357863e-02
2.091657e-01,2.091657e-01,-3.859975e-02
1.713080e-01,1.713080e-01,-3.362149e-02
1.395504e-01,1.395504e-01,2.439081e-02
1.548782e-01,1.548782e-01,5.512503e-02
2.091716e-01,2.091716e-01,-3.603724e-02
1.730894e-01,1.730894e-01,-3.581272e-02
1.398889e-01,1.398889e-01,2.250033e-02
1.530167e-01,1.530167e-01,5.614228e-02
2.084055e-01,2.084055e-01,-3.249388e-02
1.745375e-01,1.745375e-01,-3.680075e-02
1.407106e-01,1.407106e-01,2.144798e-02
1.531058e-01,1.531058e-01,5.535518e-02
2.081295e-01,2.081295e-01,-3.296961e-02
1.736874e-01,1.736874e-01,-3.530129e-02
1.408599e-01,1.408599e-01,2.262720e-02
1.549064e-01,1.549064e-01,5.396931e-02
2.085659e-01,2.085659e-01,-3.654276e-02
1.717441e-01,1.717441e-01,-3.328818e-02
1.402425e-01,1.402425e-01,2.446822e-02
1.562467e-01,1.562467e-01,5.346766e-02
2.090907e-01,2.090907e-01,-3.863511e-02
1.711665e-01,1.711665e-01,-3.334259e-02
1.395980e-01,1.395980e-01,2.460721e-02
1.552524e-01,1.552524e-01,5.480055e-02
2.092443e-01,2.092443e-01,-3.672559e-02
1.727139e-01,1.727139e-01,-3.543680e-02
1.397571e-01,1.397571e-01,2.284468e-02
1.532278e-01,1.532278e-01,5.611858e-02
2.085383e-01,2.085383e-01,-3.288820e-02
1.744442e-01,1.744442e-01,-3.682621e-02
1.405976e-01,1.405976e-01,2.146250e-02
1.529274e-01,1.529274e-01,5.557178e-02
2.081062e-01,2.081062e-01,-3.255142e-02
1.739824e-01,1.739824e-01,-3.568204e-02
1.409022e-01,1.409022e-01,2.230178e-02
1.545535e-01,1.545535e-01,5.419008e-02
2.084717e-01,2.084717e-01,-3.590773e-02
1.720403e-01,1.720403e-01,-3.353709e-02
1.403772e-01,1.403772e-01,2.422348e-02
1.561637e-01,1.561637e-01,5.341875e-02
2.090074e-01,2.090074e-01,-3.854477e-02
1.710948e-01,1.710948e-01,-3.313295e-02
1.396704e-01,1.396704e-01,2.475967e-02
1.555881e-01,1.555881e-01,5.447863e-02
2.092836e-01,2.092836e-01,-3.733673e-02
1.723489e-01,1.723489e-01,-3.503944e-02
1.396514e-01,1.396514e-01,2.319928e-02
1.534981e-01,1.534981e-01,5.602855e-02
2.086822e-01,2.086822e-01,-3.340633e-02
1.742743e-01,1.742743e-01,-3.676375e-02
1.404650e-01,1.404650e-01,2.155420e-02
1.528135e-01,1.528135e-01,5.576278e-02
2.081118e-01,2.081118e-01,-3.226241e-02
1.742254e-01,1.742254e-01,-3.602689e-02
1.409165e-01,1.409165e-01,2.201502e-02
1.542031e-01,1.542031e-01,5.442772e-02
2.083813e-01,2.083813e-01,-3.524842e-02
1.723695e-01,1.723695e-01,-3.384406e-02
1.405053e-01,1.405053e-01,2.393260e-02
1.560064e-01,1.560064e-01,5.343404e-02
2.089197e-01,2.089197e-01,-3.832854e-02
1.710980e-01,1.710980e-01,-3.300539e-02
1.397645e-01,1.397645e-01,2.483852e-02
1.558661e-01,1.558661e-01,5.417963e-02
2.092892e-01,2.092892e-01,-3.784210e-02
1.720110e-01,1.720110e-01,-3.463694e-02
1.395776e-01,1.395776e-01,2.354943e-02
1.538211e-01,1.538211e-01,5.586942e-02
2.088291e-01,2.088291e-01,-3.403004e-02
1.740320e-01,1.740320e-01,-3.661308e-02
1.403176e-01,1.403176e-01,2.172181e-02
1.527703e-01,1.527703e-01,5.592184e-02
2.081486e-01,2.081486e-01,-3.211853e-02
1.744058e-01,1.744058e-01,-3.632162e-02
1.409009e-01,1.409009e-01,2.177901e-02
1.538677e-01,1.538677e-01,5.467529e-02
2.082979e-01,2.082979e-01,-3.458968e-02
1.727197e-01,1.727197e-01,-3.419821e-02
1.406224e-01,1.406224e-01,2.360606e-02
1.557810e-01,1.557810e-01,5.351063e-02
2.088288e-01,2.088288e-01,-3.799098e-02
1.711777e-01,1.711777e-01,-3.296565e-02
1.398759e-01,1.398759e-01,2.483962e-02
1.560733e-01,1.560733e-01,5.391938e-02
2.092648e-01,2.092648e-01,-3.822602e-02
1.717129e-01,1.717129e-01,-3.424569e-02
1.395380e-01,1.395380e-01,2.388119e-02
1.541843e-01,1.541843e-01,5.564570e-02
2.089693e-01,2.089693e-01,-3.472859e-02
1.737285e-01,1.737285e-01,-3.638202e-02
1.401615e-01,1.401615e-01,2.195670e-02
1.527982e-01,1.527982e-01,5.604270e-02
2.082171e-01,2.082171e-01,-3.212466e-02
1.745175e-01,1.745175e-01,-3.655596e-02
1.408564e-01,1.408564e-01,2.160190e-02
1.535589e-01,1.535589e-01,5.492535e-02
2.082245e-01,2.082245e-01,-3.395648e-02
1.730773e-01,1.730773e-01,-3.458466e-02
1.407245e-01,1.407245e-01,2.325729e-02
1.554996e-01,1.554996e-01,5.364010e-02
2.087359e-01,2.087359e-01,-3.754583e-02
1.713281e-01,1.713281e-01,-3.301197e-02
1.400010e-01,1.400010e-01,2.476573e-02
1.562043e-01,1.562043e-01,5.370780e-02
2.092168e-01,2.092168e-01,-3.848428e-02
1.714646e-01,1.714646e-01,-3.388115e-02
1.395326e-01,1.395326e-01,2.418217e-02
1.545702e-01,1.545702e-01,5.536948e-02
2.090923e-01,2.090923e-01,-3.546149e-02
1.733817e-01,1.733817e-01,-3.608451e-02
1.400058e-01,1.400058e-01,2.224494e-02
1.528942e-01,1.528942e-01,5.611878e-02
2.083131e-01,2.083131e-01,-3.227590e-02
1.745576e-01,1.745576e-01,-3.672230e-02
1.407846e-01,1.407846e-01,2.148877e-02
1.532876e-01,1.532876e-01,5.517023e-02
2.081642e-01,2.081642e-01,-3.337460e-02
1.734270e-01,1.734270e-01,-3.498582e-02
1.408083e-01,1.408083e-01,2.290197e-02
1.551783e-01,1.551783e-01,5.381133e-02
2.086409e-01,2.086409e-01,-3.701219e-02
1.715398e-01,1.715398e-01,-3.313766e-02
1.401346e-01,1.401346e-01,2.462372e-02
1.562581e-01,1.562581e-01,5.355055e-02
2.091512e-01,2.091512e-01,-3.861762e-02
1.712731e-01,1.712731e-01,-3.355831e-02
1.395582e-01,1.395582e-01,2.444068e-02
1.549585e-01,1.549585e-01,5.505820e-02
2.091896e-01,2.091896e-01,-3.618568e-02
1.730110e-01,1.730110e-01,-3.573683e-02
1.398597e-01,1.398597e-01,2.257061e-02
1.530555e-01,1.530555e-01,5.614246e-02
2.084319e-01,2.084319e-01,-3.256532e-02
1.745243e-01,1.745243e-01,-3.681310e-02
1.406890e-01,1.406890e-01,2.144484e-02
1.530636e-01,1.530636e-01,5.540216e-02
2.081225e-01,2.081225e-01,-3.287289e-02
1.737525e-01,1.737525e-01,-3.538292e-02
1.408711e-01,1.408711e-01,2.255688e-02
1.548333e-01,1.548333e-01,5.401365e-02
2.085461e-01,2.085461e-01,-3.641340e-02
1.718026e-01,1.718026e-01,-3.333496e-02
1.402709e-01,1.402709e-01,2.442137e-02
1.562355e-01,1.562355e-01,5.345218e-02
2.090734e-01,2.090734e-01,-3.862633e-02
1.711456e-01,1.711456e-01,-3.329261e-02
1.396110e-01,1.396110e-01,2.464465e-02
1.553261e-01,1.553261e-01,5.473242e-02
2.092555e-01,2.092555e-01,-3.686075e-02
1.726363e-01,1.726363e-01,-3.535510e-02
1.397326e-01,1.397326e-01,2.291832e-02
1.532792e-01,1.532792e-01,5.610544e-02
2.085677e-01,2.085677e-01,-3.298656e-02
1.744153e-01,1.744153e-01,-3.682051e-02
1.405714e-01,1.405714e-01,2.147519e-02
1.528980e-01,1.528980e-01,5.561398e-02
2.081050e-01,2.081050e-01,-3.247983e-02
1.740378e-01,1.740378e-01,-3.575754e-02
1.409078e-01,1.409078e-01,2.223832e-02
1.544799e-01,1.544799e-01,5.423852e-02
2.084526e-01,2.084526e-01,-3.577145e-02
1.721069e-01,1.721069e-01,-3.359660e-02
1.404048e-01,1.404048e-01,2.416633e-02
1.561371e-01,1.561371e-01,5.341668e-02
2.089891e-01,2.089891e-01,-3.850973e-02
1.710891e-01,1.710891e-01,-3.309927e-02
1.396883e-01,1.396883e-01,2.478243e-02
1.556514e-01,1.556514e-01,5.441372e-02
2.092876e-01,2.092876e-01,-3.745175e-02
1.722755e-01,1.722755e-01,-3.495533e-02
1.396331e-01,1.396331e-01,2.327319e-02
1.535614e-01,1.535614e-01,5.600101e-02
2.087130e-01,2.087130e-01,-3.352858e-02
1.742296e-01,1.742296e-01,-3.673944e-02
1.404353e-01,1.404353e-01,2.158310e-02
1.527985e-01,1.527985e-01,5.579881e-02
2.081166e-01,2.081166e-01,-3.221987e-02
1.742687e-01,1.742687e-01,-3.609290e-02
1.409159e-01,1.409159e-01,2.196128e-02
1.541314e-01,1.541314e-01,5.447880e-02
2.083633e-01,2.083633e-01,-3.511021e-02
1.724415e-01,1.724415e-01,-3.391445e-02
1.405308e-01,1.405308e-01,2.386700e-02
1.559647e-01,1.559647e-01,5.344519e-02
2.089009e-01,2.089009e-01,-3.826776e-02
1.711085e-01,1.711085e-01,-3.298979e-02
1.397861e-01,1.397861e-01,2.484512e-02
1.559156e-01,1.559156e-01,5.412172e-02
2.092862e-01,2.092862e-01,-3.793242e-02
1.719452e-01,1.719452e-01,-3.455381e-02
1.395665e-01,1.395665e-01,2.362062e-02
1.538943e-01,1.538943e-01,5.582779e-02
2.088595e-01,2.088595e-01,-3.417101e-02
1.739731e-01,1.739731e-01,-3.657111e-02
1.402853e-01,1.402853e-01,2.176566e-02
1.527704e-01,1.527704e-01,5.595043e-02
2.081603e-01,2.081603e-01,-3.210742e-02
1.744351e-01,1.744351e-01,-3.637573e-02
1.408943e-01,1.408943e-01,2.173706e-02
1.538009e-01,1.538009e-01,5.472753e-02
2.082815e-01,2.082815e-01,-3.445444e-02
1.727945e-01,1.727945e-01,-3.427669e-02
1.406449e-01,1.406449e-01,2.353457e-02
1.557264e-01,1.557264e-01,5.353362e-02
2.088096e-01,2.088096e-01,-3.790634e-02
1.712034e-01,1.712034e-01,-3.296843e-02
1.399014e-01,1.399014e-01,2.483028e-02
1.561073e-01,1.561073e-01,5.387103e-02
2.092566e-01,2.092566e-01,-3.829038e-02
1.716567e-01,1.716567e-01,-3.416692e-02
1.395342e-01,1.395342e-01,2.394695e-02
1.542639e-01,1.542639e-01,5.559192e-02
2.089966e-01,2.089966e-01,-3.488000e-02
1.736593e-01,1.736593e-01,-3.632484e-02
1.401287e-01,1.401287e-01,2.201298e-02
1.528126e-01,1.528126e-01,5.606250e-02
2.082347e-01,2.082347e-01,-3.214427e-02
1.745318e-01,1.745318e-01,-3.659656e-02
1.408432e-01,1.408432e-01,2.157276e-02
1.534989e-01,1.534989e-01,5.497716e-02
2.082107e-01,2.082107e-01,-3.382993e-02
1.731514e-01,1.731514e-01,-3.466780e-02
1.407438e-01,1.407438e-01,2.318319e-02
1.554355e-01,1.554355e-01,5.367281e-02
2.087163e-01,2.087163e-01,-3.744108e-02
1.713673e-01,1.713673e-01,-3.303197e-02
1.400287e-01,1.400287e-01,2.474154e-02
1.562217e-01,1.562217e-01,5.367032e-02
2.092040e-01,2.092040e-01,-3.852204e-02
1.714197e-01,1.714197e-01,-3.380982e-02
1.395355e-01,1.395355e-01,2.424002e-02
1.546518e-01,1.546518e-01,5.530676e-02
2.091150e-01,2.091150e-01,-3.561472e-02
1.733056e-01,1.733056e-01,-3.601556e-02
1.399742e-01,1.399742e-01,2.231035e-02
1.529227e-01,1.529227e-01,5.612834e-02
2.083360e-01,2.083360e-01,-3.232494e-02
1.745567e-01,1.745567e-01,-3.674777e-02
1.407664e-01,1.407664e-01,2.147369e-02
1.532365e-01,1.532365e-01,5.521993e-02
2.081537e-01,2.081537e-01,-3.326232e-02
1.734974e-01,1.734974e-01,-3.506965e-02
1.408233e-01,1.408233e-01,2.282855e-02
1.551077e-01,1.551077e-01,5.385131e-02
2.086210e-01,2.086210e-01,-3.689180e-02
1.715905e-01,1.715905e-01,-3.317319e-02
1.401629e-01,1.401629e-01,2.458621e-02
1.562596e-01,1.562596e-01,5.352500e-02
2.091354e-01,2.091354e-01,-3.862946e-02
1.712410e-01,1.712410e-01,-3.349762e-02
1.395673e-01,1.395673e-01,2.448819e-02
1.550375e-01,1.550375e-01,5.499067e-02
2.092062e-01,2.092062e-01,-3.633195e-02
1.729328e-01,1.729328e-01,-3.565940e-02
1.398313e-01,1.398313e-01,2.264187e-02
1.530971e-01,1.530971e-01,5.614000e-02
2.084588e-01,2.084588e-01,-3.264246e-02
1.745081e-01,1.745081e-01,-3.682170e-02
1.406659e-01,1.406659e-01,2.144481e-02
1.530240e-01,1.530240e-01,5.544826e-02
2.081166e-01,2.081166e-01,-3.278087e-02
1.738158e-01,1.738158e-01,-3.546356e-02
1.408807e-01,1.408807e-01,2.248761e-02
1.547598e-01,1.547598e-01,5.405897e-02
2.085263e-01,2.085263e-01,-3.628212e-02
1.718631e-01,1.718631e-01,-3.338447e-02
1.402995e-01,1.402995e-01,2.437230e-02
1.562215e-01,1.562215e-01,5.343953e-02
2.090567e-01,2.090567e-01,-3.861281e-02
1.711279e-01,1.711279e-01,-3.324580e-02
1.396251e-01,1.396251e-01,2.467922e-02
1.553982e-01,1.553982e-01,5.466462e-02
2.092651e-01,2.092651e-01,-3.699214e-02
1.725595e-01,1.725595e-01,-3.527258e-02
1.397094e-01,1.397094e-01,2.299228e-02
1.533334e-01,1.533334e-01,5.608935e-02
2.085973e-01,2.085973e-01,-3.309005e-02
1.743825e-01,1.743825e-01,-3.681103e-02
1.405446e-01,1.405446e-01,2.149135e-02
1.528714e-01,1.528714e-01,5.565498e-02
2.081050e-01,2.081050e-01,-3.241404e-02
1.740910e-01,1.740910e-01,-3.583121e-02
1.409120e-01,1.409120e-01,2.217666e-02
1.544061e-01,1.544061e-01,5.428759e-02
2.084335e-01,2.084335e-01,-3.563427e-02
1.721743e-01,1.721743e-01,-3.365870e-02
1.404320e-01,1.404320e-01,2.410720e-02
1.561068e-01,1.561068e-01,5.341737e-02
2.089712e-01,2.089712e-01,-3.846970e-02
1.710867e-01,1.710867e-01,-3.306925e-02
1.397069e-01,1.397069e-01,2.480187e-02
1.557124e-01,1.557124e-01,5.435005e-02
2.092900e-01,2.092900e-01,-3.756180e-02
1.722036e-01,1.722036e-01,-3.487114e-02
1.396163e-01,1.396163e-01,2.334678e-02
1.536272e-01,1.536272e-01,5.597048e-02
2.087439e-01,2.087439e-01,-3.365549e-02
1.741815e-01,1.741815e-01,-3.671133e-02
1.404052e-01,1.404052e-01,2.161532e-02
1.527867e-01,1.527867e-01,5.583341e-02
2.081231e-01,2.081231e-01,-3.218403e-02
1.743089e-01,1.743089e-01,-3.615664e-02
1.409139e-01,1.409139e-01,2.190985e-02
1.540604e-01,1.540604e-01,5.453022e-02
2.083456e-01,2.083456e-01,-3.497220e-02
1.725138e-01,1.725138e-01,-3.398690e-02
1.405561e-01,1.405561e-01,2.380000e-02
1.559199e-01,1.559199e-01,5.345892e-02
2.088820e-01,2.088820e-01,-3.820174e-02
1.711224e-01,1.711224e-01,-3.297803e-02
1.398089e-01,1.398089e-01,2.484839e-02
1.559618e-01,1.559618e-01,5.406563e-02
2.092825e-01,2.092825e-01,-3.801776e-02
1.718810e-01,1.718810e-01,-3.447137e-02
1.395569e-01,1.395569e-01,2.369091e-02
1.539687e-01,1.539687e-01,5.578336e-02
2.088893e-01,2.088893e-01,-3.431488e-02
1.739118e-01,1.739118e-01,-3.652572e-02
1.402529e-01,1.402529e-01,2.181236e-02
