x,y,z
1.603501e-01,1.603501e-01,1.331447e-02
1.745804e-01,1.745804e-01,1.815796e-02
1.903553e-01,1.903553e-01,-2.704101e-02
1.643720e-01,1.643720e-01,1.838379e-03
1.654006e-01,1.654006e-01,2.565259e-02
1.931180e-01,1.931180e-01,-2.012042e-02
1.713081e-01,1.713081e-01,-1.029542e-02
1.604914e-01,1.604914e-01,2.392562e-02
1.881108e-01,1.881108e-01,-3.469350e-03
1.801301e-01,1.801301e-01,-2.107256e-02
1.598515e-01,1.598515e-01,1.611439e-02
1.776255e-01,1.776255e-01,1.434177e-02
1.885444e-01,1.885444e-01,-2.693319e-02
1.629392e-01,1.629392e-01,5.153691e-03
1.675543e-01,1.675543e-01,2.459377e-02
1.930743e-01,1.930743e-01,-2.321049e-02
1.691422e-01,1.691422e-01,-6.982266e-03
1.613924e-01,1.613924e-01,2.516497e-02
1.902521e-01,1.902521e-01,-8.625763e-03
1.776149e-01,1.776149e-01,-1.839895e-02
1.596381e-01,1.596381e-01,1.868194e-02
1.807265e-01,1.807265e-01,9.897058e-03
1.864407e-01,1.864407e-01,-2.607938e-02
1.617430e-01,1.617430e-01,8.379693e-03
1.700222e-01,1.700222e-01,2.277129e-02
1.924434e-01,1.924434e-01,-2.540807e-02
1.671588e-01,1.671588e-01,-3.621682e-03
1.626363e-01,1.626363e-01,2.586327e-02
1.918470e-01,1.918470e-01,-1.346970e-02
1.751323e-01,1.751323e-01,-1.545157e-02
1.597170e-01,1.597170e-01,2.096979e-02
1.837494e-01,1.837494e-01,4.981632e-03
1.841284e-01,1.841284e-01,-2.458436e-02
1.608005e-01,1.608005e-01,1.147415e-02
1.727636e-01,1.727636e-01,2.016621e-02
1.912945e-01,1.912945e-01,-2.669103e-02
1.653748e-01,1.653748e-01,-2.489881e-04
1.642320e-01,1.642320e-01,2.594403e-02
1.928290e-01,1.928290e-01,-1.778638e-02
1.727347e-01,1.727347e-01,-1.231280e-02
1.600971e-01,1.600971e-01,2.291766e-02
1.865477e-01,1.865477e-01,-2.049316e-04
1.816850e-01,1.816850e-01,-2.255600e-02
1.601282e-01,1.601282e-01,1.439849e-02
1.757184e-01,1.757184e-01,1.679581e-02
1.897102e-01,1.897102e-01,-2.709418e-02
1.638033e-01,1.638033e-01,3.100502e-03
1.661765e-01,1.661765e-01,2.533948e-02
1.931740e-01,1.931740e-01,-2.139022e-02
1.704688e-01,1.704688e-01,-9.049957e-03
1.607929e-01,1.607929e-01,2.445307e-02
1.889795e-01,1.889795e-01,-5.442800e-03
1.791783e-01,1.791783e-01,-2.009892e-02
1.597368e-01,1.597368e-01,1.711542e-02
1.787990e-01,1.787990e-01,1.272668e-02
1.877783e-01,1.877783e-01,-2.669239e-02
1.624579e-01,1.624579e-01,6.387071e-03
1.684530e-01,1.684530e-01,2.399572e-02
1.929013e-01,1.929013e-01,-2.414952e-02
1.683694e-01,1.683694e-01,-5.714382e-03
1.618220e-01,1.618220e-01,2.549705e-02
1.909243e-01,1.909243e-01,-1.050713e-02
1.766688e-01,1.766688e-01,-1.731131e-02
1.596332e-01,1.596332e-01,1.958338e-02
1.818872e-01,1.818872e-01,8.082611e-03
1.855861e-01,1.855861e-01,-2.558330e-02
1.613554e-01,1.613554e-01,9.568044e-03
1.710298e-01,1.710298e-01,2.187770e-02
1.920654e-01,1.920654e-01,-2.600029e-02
1.664596e-01,1.664596e-01,-2.345250e-03
1.631986e-01,1.631986e-01,2.597037e-02
1.922929e-01,1.922929e-01,-1.517583e-02
1.742124e-01,1.742124e-01,-1.428257e-02
1.598247e-01,1.598247e-01,2.175043e-02
1.848426e-01,1.848426e-01,3.039582e-03
1.832156e-01,1.832156e-01,-2.387387e-02
1.605138e-01,1.605138e-01,1.260259e-02
1.738607e-01,1.738607e-01,1.897867e-02
1.907416e-01,1.907416e-01,-2.694364e-02
1.647548e-01,1.647548e-01,1.023069e-03
1.649272e-01,1.649272e-01,2.579915e-02
1.930343e-01,1.930343e-01,-1.924225e-02
1.718597e-01,1.718597e-01,-1.108982e-02
1.603221e-01,1.603221e-01,2.355123e-02
1.875179e-01,1.875179e-01,-2.192738e-03
1.807405e-01,1.807405e-01,-2.167136e-02
1.599468e-01,1.599468e-01,1.545292e-02
1.768749e-01,1.768749e-01,1.533304e-02
1.890154e-01,1.890154e-01,-2.703189e-02
1.632668e-01,1.632668e-01,4.353623e-03
1.670002e-01,1.670002e-01,2.492041e-02
1.931412e-01,1.931412e-01,-2.253845e-02
1.696533e-01,1.696533e-01,-7.794231e-03
1.611421e-01,1.611421e-01,2.491016e-02
1.897781e-01,1.897781e-01,-7.391394e-03
1.782261e-01,1.782261e-01,-1.907807e-02
1.596634e-01,1.596634e-01,1.808096e-02
1.799737e-01,1.799737e-01,1.102874e-02
1.869748e-01,1.869748e-01,-2.635032e-02
1.620111e-01,1.620111e-01,7.605242e-03
1.693946e-01,1.693946e-01,2.328653e-02
1.926476e-01,1.926476e-01,-2.495777e-02
1.676237e-01,1.676237e-01,-4.441745e-03
1.623014e-01,1.623014e-01,2.574739e-02
1.915135e-01,1.915135e-01,-1.233173e-02
1.757303e-01,1.757303e-01,-1.618930e-02
1.596705e-01,1.596705e-01,2.044189e-02
1.830290e-01,1.830290e-01,6.210711e-03
1.847059e-01,1.847059e-01,-2.500135e-02
1.610057e-01,1.610057e-01,1.073552e-02
1.720742e-01,1.720742e-01,2.087191e-02
1.916175e-01,1.916175e-01,-2.646204e-02
1.657897e-01,1.657897e-01,-1.068914e-03
1.638114e-01,1.638114e-01,2.598509e-02
1.926486e-01,1.926486e-01,-1.679535e-02
1.733076e-01,1.733076e-01,-1.309024e-02
1.599760e-01,1.599760e-01,2.247871e-02
1.858955e-01,1.858955e-01,1.070319e-03
1.822878e-01,1.822878e-01,-2.309287e-02
1.602664e-01,1.602664e-01,1.370463e-02
1.749841e-01,1.749841e-01,1.768369e-02
1.901311e-01,1.901311e-01,-2.707355e-02
1.641653e-01,1.641653e-01,2.289692e-03
1.656719e-01,1.656719e-01,2.555284e-02
1.931483e-01,1.931483e-01,-2.058721e-02
1.710060e-01,1.710060e-01,-9.852229e-03
1.605935e-01,1.605935e-01,2.412163e-02
1.884285e-01,1.884285e-01,-4.175733e-03
1.797906e-01,1.797906e-01,-2.073083e-02
1.598060e-01,1.598060e-01,1.647560e-02
1.780438e-01,1.780438e-01,1.377539e-02
1.882756e-01,1.882756e-01,-2.685925e-02
1.627634e-01,1.627634e-01,5.595446e-03
1.678698e-01,1.678698e-01,2.439298e-02
1.930221e-01,1.930221e-01,-2.356045e-02
1.688635e-01,1.688635e-01,-6.530418e-03
1.615401e-01,1.615401e-01,2.529261e-02
1.905013e-01,1.905013e-01,-9.302964e-03
1.772766e-01,1.772766e-01,-1.801500e-02
1.596316e-01,1.596316e-01,1.900838e-02
1.811425e-01,1.811425e-01,9.256772e-03
1.861388e-01,1.861388e-01,-2.591262e-02
1.616005e-01,1.616005e-01,8.806092e-03
1.703774e-01,1.703774e-01,2.246528e-02
1.923168e-01,1.923168e-01,-2.563452e-02
1.669061e-01,1.669061e-01,-3.166218e-03
1.628311e-01,1.628311e-01,2.591184e-02
1.920164e-01,1.920164e-01,-1.408787e-02
1.748023e-01,1.748023e-01,-1.503732e-02
1.597506e-01,1.597506e-01,2.125419e-02
1.841437e-01,1.841437e-01,4.292412e-03
1.838046e-01,1.838046e-01,-2.433925e-02
1.606937e-01,1.606937e-01,1.187977e-02
1.731518e-01,1.731518e-01,1.975491e-02
1.911041e-01,1.911041e-01,-2.679555e-02
1.651499e-01,1.651499e-01,2.054516e-04
1.644745e-01,1.644745e-01,2.590378e-02
1.929128e-01,1.929128e-01,-1.831816e-02
1.724203e-01,1.724203e-01,-1.187816e-02
1.601721e-01,1.601721e-01,2.315073e-02
1.869004e-01,1.869004e-01,-9.141374e-04
1.813488e-01,1.813488e-01,-2.224701e-02
1.600587e-01,1.600587e-01,1.477829e-02
1.761294e-01,1.761294e-01,1.628505e-02
1.894677e-01,1.894677e-01,-2.708495e-02
1.636081e-01,1.636081e-01,3.548875e-03
1.664651e-01,1.664651e-01,2.520222e-02
1.931723e-01,1.931723e-01,-2.181429e-02
1.701748e-01,1.701748e-01,-8.602876e-03
1.609120e-01,1.609120e-01,2.462450e-02
1.892728e-01,1.892728e-01,-6.141710e-03
1.788384e-01,1.788384e-01,-1.973974e-02
1.597060e-01,1.597060e-01,1.746423e-02
1.792184e-01,1.792184e-01,1.212978e-02
1.874956e-01,1.874956e-01,-2.658161e-02
1.622945e-01,1.622945e-01,6.823686e-03
1.687840e-01,1.687840e-01,2.375541e-02
1.928199e-01,1.928199e-01,-2.445299e-02
1.681002e-01,1.681002e-01,-5.260631e-03
1.619873e-01,1.619873e-01,2.559598e-02
1.911443e-01,1.911443e-01,-1.116543e-02
1.763327e-01,1.763327e-01,-1.691461e-02
1.596417e-01,1.596417e-01,1.989488e-02
1.822973e-01,1.822973e-01,7.420589e-03
1.852746e-01,1.852746e-01,-2.538521e-02
1.612261e-01,1.612261e-01,9.987195e-03
1.713985e-01,1.713985e-01,2.153159e-02
1.919134e-01,1.919134e-01,-2.617993e-02
1.662172e-01,1.662172e-01,-1.889619e-03
1.634114e-01,1.634114e-01,2.598641e-02
1.924302e-01,1.924302e-01,-1.576430e-02
1.738876e-01,1.738876e-01,-1.385952e-02
1.598735e-01,1.598735e-01,2.201653e-02
1.852234e-01,1.852234e-01,2.339282e-03
1.828859e-01,1.828859e-01,-2.360297e-02
1.604209e-01,1.604209e-01,1.299902e-02
1.742587e-01,1.742587e-01,1.852866e-02
1.905302e-01,1.905302e-01,-2.700383e-02
1.645409e-01,1.645409e-01,1.475859e-03
1.651875e-01,1.651875e-01,2.572305e-02
1.930854e-01,1.930854e-01,-1.973538e-02
1.715526e-01,1.715526e-01,-1.064965e-02
1.604137e-01,1.604137e-01,2.376231e-02
1.878501e-01,1.878501e-01,-2.901629e-03
1.804019e-01,1.804019e-01,-2.134183e-02
1.598917e-01,1.598917e-01,1.582163e-02
1.772911e-01,1.772911e-01,1.478770e-02
1.887562e-01,1.887562e-01,-2.698267e-02
1.630833e-01,1.630833e-01,4.798231e-03
1.673052e-01,1.673052e-01,2.474470e-02
1.931084e-01,1.931084e-01,-2.291791e-02
1.693686e-01,1.693686e-01,-7.343984e-03
1.612787e-01,1.612787e-01,2.505549e-02
1.900451e-01,1.900451e-01,-8.078487e-03
1.778867e-01,1.778867e-01,-1.870327e-02
1.596473e-01,1.596473e-01,1.841647e-02
1.803918e-01,1.803918e-01,1.040435e-02
1.866800e-01,1.866800e-01,-2.620474e-02
1.618603e-01,1.618603e-01,8.035908e-03
1.697409e-01,1.697409e-01,2.300635e-02
1.925381e-01,1.925381e-01,-2.521445e-02
1.673643e-01,1.673643e-01,-3.986770e-03
1.624847e-01,1.624847e-01,2.581616e-02
1.917031e-01,1.917031e-01,-1.296692e-02
1.753980e-01,1.753980e-01,-1.578134e-02
1.596943e-01,1.596943e-01,2.073731e-02
1.834303e-01,1.834303e-01,5.530829e-03
1.843865e-01,1.843865e-01,-2.477391e-02
1.608901e-01,1.608901e-01,1.114667e-02
1.724551e-01,1.724551e-01,2.048595e-02
1.914415e-01,1.914415e-01,-2.659561e-02
1.655579e-01,1.655579e-01,-6.137828e-04
1.640423e-01,1.640423e-01,2.596728e-02
1.927534e-01,1.927534e-01,-1.735041e-02
1.729888e-01,1.729888e-01,-1.265975e-02
1.600411e-01,1.600411e-01,2.272528e-02
1.862600e-01,1.862600e-01,3.632078e-04
1.819537e-01,1.819537e-01,-2.279818e-02
1.601877e-01,1.601877e-01,1.409118e-02
1.753908e-01,1.753908e-01,1.719620e-02
1.899001e-01,1.899001e-01,-2.709097e-02
1.639628e-01,1.639628e-01,2.740047e-03
1.659496e-01,1.659496e-01,2.543983e-02
1.931672e-01,1.931672e-01,-2.103893e-02
1.707066e-01,1.707066e-01,-9.407608e-03
1.607018e-01,1.607018e-01,2.430910e-02
1.887377e-01,1.887377e-01,-4.879949e-03
1.794508e-01,1.794508e-01,-2.038268e-02
1.597656e-01,1.597656e-01,1.683246e-02
1.784626e-01,1.784626e-01,1.319779e-02
1.880016e-01,1.880016e-01,-2.677190e-02
1.625921e-01,1.625921e-01,6.035466e-03
1.681911e-01,1.681911e-01,2.417818e-02
1.929592e-01,1.929592e-01,-2.389400e-02
1.685879e-01,1.685879e-01,-6.077841e-03
1.616939e-01,1.616939e-01,2.541015e-02
1.907402e-01,1.907402e-01,-9.973909e-03
1.769389e-01,1.769389e-01,-1.762635e-02
1.596305e-01,1.596305e-01,1.932964e-02
1.815565e-01,1.815565e-01,8.608295e-03
1.858334e-01,1.858334e-01,-2.573436e-02
1.614627e-01,1.614627e-01,9.229989e-03
1.707375e-01,1.707375e-01,2.214495e-02
1.921810e-01,1.921810e-01,-2.584411e-02
1.666570e-01,1.666570e-01,-2.710621e-03
1.630324e-01,1.630324e-01,2.594897e-02
1.921744e-01,1.921744e-01,-1.469587e-02
1.744743e-01,1.744743e-01,-1.461972e-02
1.597894e-01,1.597894e-01,2.153215e-02
1.845334e-01,1.845334e-01,3.598753e-03
1.834784e-01,1.834784e-01,-2.408473e-02
1.605918e-01,1.605918e-01,1.228218e-02
1.735437e-01,1.735437e-01,1.932969e-02
1.909060e-01,1.909060e-01,-2.688409e-02
1.649289e-01,1.649289e-01,6.593860e-04
1.647234e-01,1.647234e-01,2.585088e-02
1.929849e-01,1.929849e-01,-1.883651e-02
1.721081e-01,1.721081e-01,-1.144148e-02
1.602530e-01,1.602530e-01,2.337615e-02
1.872460e-01,1.872460e-01,-1.623731e-03
1.810117e-01,1.810117e-01,-2.193047e-02
1.599944e-01,1.599944e-01,1.515423e-02
1.765425e-01,1.765425e-01,1.576170e-02
1.892190e-01,1.892190e-01,-2.706123e-02
1.634170e-01,1.634170e-01,3.996003e-03
1.667596e-01,1.667596e-01,2.505132e-02
1.931595e-01,1.931595e-01,-2.222257e-02
1.698843e-01,1.698843e-01,-8.154549e-03
1.610372e-01,1.610372e-01,2.478678e-02
1.895570e-01,1.895570e-01,-6.836902e-03
1.784984e-01,1.784984e-01,-1.937481e-02
1.596804e-01,1.596804e-01,1.780841e-02
1.796377e-01,1.796377e-01,1.152270e-02
1.872083e-01,1.872083e-01,-2.645825e-02
1.621355e-01,1.621355e-01,7.258266e-03
1.691207e-01,1.691207e-01,2.350093e-02
1.927282e-01,1.927282e-01,-2.473990e-02
1.678342e-01,1.678342e-01,-4.806412e-03
1.621591e-01,1.621591e-01,2.568434e-02
1.913535e-01,1.913535e-01,-1.181597e-02
1.759980e-01,1.759980e-01,-1.651369e-02
1.596557e-01,1.596557e-01,2.020078e-02
1.827048e-01,1.827048e-01,6.751738e-03
1.849603e-01,1.849603e-01,-2.517632e-02
1.611017e-01,1.611017e-01,1.040357e-02
1.717717e-01,1.717717e-01,2.117122e-02
1.917526e-01,1.917526e-01,-2.634302e-02
1.659786e-01,1.659786e-01,-1.434081e-03
1.636307e-01,1.636307e-01,2.599052e-02
1.925561e-01,1.925561e-01,-1.634125e-02
1.735649e-01,1.735649e-01,-1.343368e-02
1.599282e-01,1.599282e-01,2.227583e-02
1.855987e-01,1.855987e-01,1.636058e-03
1.825545e-01,1.825545e-01,-2.332333e-02
1.603331e-01,1.603331e-01,1.339200e-02
1.746600e-01,1.746600e-01,1.806512e-02
1.903115e-01,1.903115e-01,-2.704861e-02
1.643311e-01,1.643311e-01,1.927871e-03
1.654540e-01,1.654540e-01,2.563391e-02
1.931249e-01,1.931249e-01,-2.021402e-02
