x,y,z
1.789503e-01,1.789503e-01,-2.362856e-03
1.767097e-01,1.767097e-01,-1.959869e-03
1.753125e-01,1.753125e-01,2.605520e-03
1.786227e-01,1.786227e-01,-1.286702e-03
1.774486e-01,1.774486e-01,-2.847848e-03
1.750733e-01,1.750733e-01,2.218751e-03
1.780563e-01,1.780563e-01,-8.515317e-05
1.781353e-01,1.781353e-01,-3.408470e-03
1.751043e-01,1.751043e-01,1.466877e-03
1.773395e-01,1.773395e-01,1.056206e-03
1.786688e-01,1.786688e-01,-3.552217e-03
1.753979e-01,1.753979e-01,4.564951e-04
1.765822e-01,1.765822e-01,1.965154e-03
1.789664e-01,1.789664e-01,-3.245207e-03
1.759143e-01,1.759143e-01,-6.770997e-04
1.758970e-01,1.758970e-01,2.512518e-03
1.789783e-01,1.789783e-01,-2.521548e-03
1.765855e-01,1.765855e-01,-1.784389e-03
1.753787e-01,1.753787e-01,2.629688e-03
1.786977e-01,1.786977e-01,-1.484332e-03
1.773234e-01,1.773234e-01,-2.716212e-03
1.750953e-01,1.750953e-01,2.313013e-03
1.781667e-01,1.781667e-01,-2.912056e-04
1.780261e-01,1.780261e-01,-3.340403e-03
1.750798e-01,1.750798e-01,1.616966e-03
1.774679e-01,1.774679e-01,8.733912e-04
1.785924e-01,1.785924e-01,-3.559467e-03
1.753304e-01,1.753304e-01,6.417499e-04
1.767094e-01,1.767094e-01,1.832670e-03
1.789350e-01,1.789350e-01,-3.328979e-03
1.758127e-01,1.758127e-01,-4.811976e-04
1.760045e-01,1.760045e-01,2.448434e-03
1.789972e-01,1.789972e-01,-2.670994e-03
1.764636e-01,1.764636e-01,-1.603702e-03
1.754520e-01,1.754520e-01,2.641088e-03
1.787649e-01,1.787649e-01,-1.677389e-03
1.771969e-01,1.771969e-01,-2.575570e-03
1.751252e-01,1.751252e-01,2.396114e-03
1.782719e-01,1.782719e-01,-4.981437e-04
1.779130e-01,1.779130e-01,-3.260383e-03
1.750633e-01,1.750633e-01,1.758868e-03
1.775946e-01,1.775946e-01,6.845000e-04
1.785095e-01,1.785095e-01,-3.553441e-03
1.752700e-01,1.752700e-01,8.226834e-04
1.768382e-01,1.768382e-01,1.690027e-03
1.788953e-01,1.788953e-01,-3.400111e-03
1.757164e-01,1.757164e-01,-2.852564e-04
1.761164e-01,1.761164e-01,2.371849e-03
1.790076e-01,1.790076e-01,-2.810509e-03
1.763439e-01,1.763439e-01,-1.418621e-03
1.755321e-01,1.755321e-01,2.639597e-03
1.788246e-01,1.788246e-01,-1.864942e-03
1.770701e-01,1.770701e-01,-2.426452e-03
1.751629e-01,1.751629e-01,2.467663e-03
1.783716e-01,1.783716e-01,-7.049799e-04
1.777965e-01,1.777965e-01,-3.168804e-03
1.750543e-01,1.750543e-01,1.891915e-03
1.777190e-01,1.777190e-01,4.903698e-04
1.784203e-01,1.784203e-01,-3.534236e-03
1.752165e-01,1.752165e-01,9.985568e-04
1.769681e-01,1.769681e-01,1.537807e-03
1.788475e-01,1.788475e-01,-3.458348e-03
1.756256e-01,1.756256e-01,-9.004044e-05
1.762325e-01,1.762325e-01,2.283039e-03
1.790094e-01,1.790094e-01,-2.939478e-03
1.762273e-01,1.762273e-01,-1.229844e-03
1.756183e-01,1.756183e-01,2.625097e-03
1.788764e-01,1.788764e-01,-2.046128e-03
1.769432e-01,1.769432e-01,-2.269538e-03
1.752083e-01,1.752083e-01,2.527310e-03
1.784656e-01,1.784656e-01,-9.107525e-04
1.776770e-01,1.776770e-01,-3.066124e-03
1.750536e-01,1.750536e-01,2.015651e-03
1.778406e-01,1.778406e-01,2.918682e-04
1.783254e-01,1.783254e-01,-3.502011e-03
1.751702e-01,1.751702e-01,1.168656e-03
1.770984e-01,1.770984e-01,1.376647e-03
1.787919e-01,1.787919e-01,-3.503496e-03
1.755400e-01,1.755400e-01,1.036050e-04
1.763522e-01,1.763522e-01,2.182319e-03
1.790025e-01,1.790025e-01,-3.057358e-03
1.761141e-01,1.761141e-01,-1.038102e-03
1.757106e-01,1.757106e-01,2.597644e-03
1.789198e-01,1.789198e-01,-2.220178e-03
1.768169e-01,1.768169e-01,-2.105468e-03
1.752612e-01,1.752612e-01,2.574767e-03
1.785532e-01,1.785532e-01,-1.114554e-03
1.775547e-01,1.775547e-01,-2.952852e-03
1.750608e-01,1.750608e-01,2.129516e-03
1.779585e-01,1.779585e-01,8.982904e-05
1.782250e-01,1.782250e-01,-3.456995e-03
1.751315e-01,1.751315e-01,1.332368e-03
1.772287e-01,1.772287e-01,1.207229e-03
1.787288e-01,1.787288e-01,-3.535423e-03
1.754607e-01,1.754607e-01,2.950191e-04
1.764751e-01,1.764751e-01,2.070063e-03
1.789868e-01,1.789868e-01,-3.163697e-03
1.760044e-01,1.760044e-01,-8.442317e-04
1.758089e-01,1.758089e-01,2.557278e-03
1.789548e-01,1.789548e-01,-2.386286e-03
1.766916e-01,1.766916e-01,-1.934937e-03
1.753215e-01,1.753215e-01,2.609780e-03
1.786339e-01,1.786339e-01,-1.315450e-03
1.774307e-01,1.774307e-01,-2.829443e-03
1.750759e-01,1.750759e-01,2.232999e-03
1.780725e-01,1.780725e-01,-1.147779e-04
1.781197e-01,1.781197e-01,-3.399423e-03
1.751004e-01,1.751004e-01,1.489024e-03
1.773582e-01,1.773582e-01,1.030272e-03
1.786583e-01,1.786583e-01,-3.554064e-03
1.753879e-01,1.753879e-01,4.834596e-04
1.766005e-01,1.766005e-01,1.946702e-03
1.789624e-01,1.789624e-01,-3.258048e-03
1.758992e-01,1.758992e-01,-6.489039e-04
1.759121e-01,1.759121e-01,2.504051e-03
1.789814e-01,1.789814e-01,-2.543694e-03
1.765679e-01,1.765679e-01,-1.758626e-03
1.753888e-01,1.753888e-01,2.632121e-03
1.787078e-01,1.787078e-01,-1.512481e-03
1.773052e-01,1.773052e-01,-2.696488e-03
1.750993e-01,1.750993e-01,2.325719e-03
1.781821e-01,1.781821e-01,-3.210210e-04
1.780100e-01,1.780100e-01,-3.329598e-03
1.750769e-01,1.750769e-01,1.637938e-03
1.774863e-01,1.774863e-01,8.465230e-04
1.785810e-01,1.785810e-01,-3.559393e-03
1.753214e-01,1.753214e-01,6.681303e-04
1.767279e-01,1.767279e-01,1.812719e-03
1.789297e-01,1.789297e-01,-3.340024e-03
1.757987e-01,1.757987e-01,-4.529083e-04
1.760202e-01,1.760202e-01,2.438145e-03
1.789994e-01,1.789994e-01,-2.691720e-03
1.764461e-01,1.764461e-01,-1.577290e-03
1.754633e-01,1.754633e-01,2.641691e-03
1.787741e-01,1.787741e-01,-1.704777e-03
1.771786e-01,1.771786e-01,-2.554581e-03
1.751301e-01,1.751301e-01,2.407143e-03
1.782867e-01,1.782867e-01,-5.279788e-04
1.778965e-01,1.778965e-01,-3.247874e-03
1.750614e-01,1.750614e-01,1.778586e-03
1.776127e-01,1.776127e-01,6.568154e-04
1.784970e-01,1.784970e-01,-3.551470e-03
1.752617e-01,1.752617e-01,8.483523e-04
1.768569e-01,1.768569e-01,1.668655e-03
1.788888e-01,1.788888e-01,-3.409317e-03
1.757029e-01,1.757029e-01,-2.570559e-04
1.761329e-01,1.761329e-01,2.359788e-03
1.790084e-01,1.790084e-01,-2.829763e-03
1.763272e-01,1.763272e-01,-1.391586e-03
1.755440e-01,1.755440e-01,2.638291e-03
1.788325e-01,1.788325e-01,-1.891478e-03
1.770519e-01,1.770519e-01,-2.404278e-03
1.751692e-01,1.751692e-01,2.477023e-03
1.783855e-01,1.783855e-01,-7.347339e-04
1.777796e-01,1.777796e-01,-3.154658e-03
1.750539e-01,1.750539e-01,1.910363e-03
1.777366e-01,1.777366e-01,4.619910e-04
1.784069e-01,1.784069e-01,-3.530395e-03
1.752093e-01,1.752093e-01,1.023446e-03
1.769868e-01,1.769868e-01,1.515103e-03
1.788399e-01,1.788399e-01,-3.465683e-03
1.756127e-01,1.756127e-01,-6.203584e-05
1.762496e-01,1.762496e-01,2.269246e-03
1.790088e-01,1.790088e-01,-2.957176e-03
1.762107e-01,1.762107e-01,-1.202370e-03
1.756312e-01,1.756312e-01,2.621939e-03
1.788831e-01,1.788831e-01,-2.071692e-03
1.769249e-01,1.769249e-01,-2.246317e-03
1.752154e-01,1.752154e-01,2.534903e-03
1.784786e-01,1.784786e-01,-9.402889e-04
1.776594e-01,1.776594e-01,-3.050453e-03
1.750541e-01,1.750541e-01,2.032677e-03
1.778578e-01,1.778578e-01,2.629218e-04
1.783111e-01,1.783111e-01,-3.496325e-03
1.751642e-01,1.751642e-01,1.192688e-03
1.771171e-01,1.771171e-01,1.352705e-03
1.787831e-01,1.787831e-01,-3.508936e-03
1.755284e-01,1.755284e-01,1.313871e-04
1.763698e-01,1.763698e-01,2.166843e-03
1.790007e-01,1.790007e-01,-3.073427e-03
1.760979e-01,1.760979e-01,-1.010283e-03
1.757246e-01,1.757246e-01,2.592636e-03
1.789255e-01,1.789255e-01,-2.244619e-03
1.767989e-01,1.767989e-01,-2.081241e-03
1.752697e-01,1.752697e-01,2.580613e-03
1.785654e-01,1.785654e-01,-1.143704e-03
1.775370e-01,1.775370e-01,-2.935669e-03
1.750626e-01,1.750626e-01,2.145092e-03
1.779753e-01,1.779753e-01,6.048110e-05
1.782100e-01,1.782100e-01,-3.449475e-03
1.751264e-01,1.751264e-01,1.355393e-03
1.772473e-01,1.772473e-01,1.182150e-03
1.787189e-01,1.787189e-01,-3.538952e-03
1.754498e-01,1.754498e-01,3.223884e-04
1.764931e-01,1.764931e-01,2.052960e-03
1.789839e-01,1.789839e-01,-3.178038e-03
1.759892e-01,1.759892e-01,-8.161224e-04
1.758233e-01,1.758233e-01,2.550385e-03
1.789592e-01,1.789592e-01,-2.409532e-03
1.766736e-01,1.766736e-01,-1.909865e-03
1.753307e-01,1.753307e-01,2.613775e-03
1.786451e-01,1.786451e-01,-1.344113e-03
1.774129e-01,1.774129e-01,-2.810832e-03
1.750788e-01,1.750788e-01,2.247044e-03
1.780886e-01,1.780886e-01,-1.444315e-04
1.781041e-01,1.781041e-01,-3.390106e-03
1.750965e-01,1.750965e-01,1.510969e-03
1.773767e-01,1.773767e-01,1.004172e-03
1.786475e-01,1.786475e-01,-3.555671e-03
1.753777e-01,1.753777e-01,5.103096e-04
1.766188e-01,1.766188e-01,1.928037e-03
1.789583e-01,1.789583e-01,-3.270625e-03
1.758843e-01,1.758843e-01,-6.206814e-04
1.759273e-01,1.759273e-01,2.495315e-03
1.789845e-01,1.789845e-01,-2.565639e-03
1.765503e-01,1.765503e-01,-1.732768e-03
1.753992e-01,1.753992e-01,2.634304e-03
1.787177e-01,1.787177e-01,-1.540528e-03
1.772869e-01,1.772869e-01,-2.676581e-03
1.751031e-01,1.751031e-01,2.338139e-03
1.781974e-01,1.781974e-01,-3.508457e-04
1.779939e-01,1.779939e-01,-3.318533e-03
1.750743e-01,1.750743e-01,1.658761e-03
1.775048e-01,1.775048e-01,8.195372e-04
1.785691e-01,1.785691e-01,-3.559088e-03
1.753125e-01,1.753125e-01,6.944212e-04
1.767465e-01,1.767465e-01,1.792566e-03
1.789244e-01,1.789244e-01,-3.350797e-03
1.757845e-01,1.757845e-01,-4.246568e-04
1.760362e-01,1.760362e-01,2.427609e-03
1.790013e-01,1.790013e-01,-2.712256e-03
1.764288e-01,1.764288e-01,-1.550768e-03
1.754744e-01,1.754744e-01,2.641986e-03
1.787831e-01,1.787831e-01,-1.732047e-03
1.771604e-01,1.771604e-01,-2.533401e-03
1.751353e-01,1.751353e-01,2.417950e-03
1.783013e-01,1.783013e-01,-5.578179e-04
1.778800e-01,1.778800e-01,-3.235113e-03
1.750597e-01,1.750597e-01,1.798135e-03
1.776308e-01,1.776308e-01,6.290304e-04
1.784843e-01,1.784843e-01,-3.549258e-03
1.752538e-01,1.752538e-01,8.739392e-04
1.768756e-01,1.768756e-01,1.647095e-03
1.788822e-01,1.788822e-01,-3.418247e-03
1.756897e-01,1.756897e-01,-2.288490e-04
1.761495e-01,1.761495e-01,2.347485e-03
1.790091e-01,1.790091e-01,-2.848789e-03
1.763100e-01,1.763100e-01,-1.364531e-03
1.755561e-01,1.755561e-01,2.636731e-03
1.788403e-01,1.788403e-01,-1.917875e-03
1.770334e-01,1.770334e-01,-2.381985e-03
1.751752e-01,1.751752e-01,2.486092e-03
1.783994e-01,1.783994e-01,-7.644579e-04
1.777622e-01,1.777622e-01,-3.140324e-03
1.750534e-01,1.750534e-01,1.928587e-03
1.777543e-01,1.777543e-01,4.335298e-04
1.783934e-01,1.783934e-01,-3.526294e-03
1.752023e-01,1.752023e-01,1.048207e-03
1.770056e-01,1.770056e-01,1.492224e-03
1.788321e-01,1.788321e-01,-3.472736e-03
1.756001e-01,1.756001e-01,-3.404245e-05
1.762668e-01,1.762668e-01,2.255217e-03
1.790082e-01,1.790082e-01,-2.974637e-03
1.761943e-01,1.761943e-01,-1.174814e-03
1.756444e-01,1.756444e-01,2.618526e-03
1.788896e-01,1.788896e-01,-2.097099e-03
1.769067e-01,1.769067e-01,-2.222930e-03
1.752228e-01,1.752228e-01,2.542261e-03
1.784915e-01,1.784915e-01,-9.697765e-04
1.776419e-01,1.776419e-01,-3.034546e-03
1.750549e-01,1.750549e-01,2.049518e-03
1.778749e-01,1.778749e-01,2.339111e-04
1.782968e-01,1.782968e-01,-3.490362e-03
1.751583e-01,1.751583e-01,1.216563e-03
1.771359e-01,1.771359e-01,1.328602e-03
1.787743e-01,1.787743e-01,-3.514090e-03
1.755166e-01,1.755166e-01,1.590666e-04
1.763875e-01,1.763875e-01,2.151137e-03
1.789987e-01,1.789987e-01,-3.089248e-03
1.760819e-01,1.760819e-01,-9.824123e-04
1.757385e-01,1.757385e-01,2.587337e-03
1.789309e-01,1.789309e-01,-2.268909e-03
1.767806e-01,1.767806e-01,-2.056932e-03
1.752778e-01,1.752778e-01,2.586149e-03
1.785773e-01,1.785773e-01,-1.172815e-03
1.775193e-01,1.775193e-01,-2.918261e-03
1.750643e-01,1.750643e-01,2.160428e-03
1.779920e-01,1.779920e-01,3.107453e-05
1.781950e-01,1.781950e-01,-3.441682e-03
1.751217e-01,1.751217e-01,1.378295e-03
1.772659e-01,1.772659e-01,1.156924e-03
1.787090e-01,1.787090e-01,-3.542195e-03
1.754392e-01,1.754392e-01,3.497178e-04
1.765112e-01,1.765112e-01,2.035638e-03
1.789806e-01,1.789806e-01,-3.192153e-03
1.759737e-01,1.759737e-01,-7.880088e-04
1.758379e-01,1.758379e-01,2.543221e-03
1.789634e-01,1.789634e-01,-2.432588e-03
1.766558e-01,1.766558e-01,-1.884654e-03
1.753402e-01,1.753402e-01,2.617522e-03
1.786560e-01,1.786560e-01,-1.372688e-03
1.773946e-01,1.773946e-01,-2.792067e-03
1.750820e-01,1.750820e-01,2.260884e-03
1.781046e-01,1.781046e-01,-1.741112e-04
1.780885e-01,1.780885e-01,-3.380523e-03
1.750927e-01,1.750927e-01,1.532759e-03
1.773952e-01,1.773952e-01,9.779325e-04
1.786365e-01,1.786365e-01,-3.556995e-03
1.753679e-01,1.753679e-01,5.371051e-04
1.766373e-01,1.766373e-01,1.909162e-03
1.789541e-01,1.789541e-01,-3.282943e-03
1.758698e-01,1.758698e-01,-5.924229e-04
1.759427e-01,1.759427e-01,2.486328e-03
1.789874e-01,1.789874e-01,-2.587382e-03
1.765325e-01,1.765325e-01,-1.706835e-03
1.754097e-01,1.754097e-01,2.636217e-03
1.787276e-01,1.787276e-01,-1.568467e-03
