Reading dimension parameterDimension parameter readRunning with:
Resource Path=[/home/djimenez/bs-solctra/resources/].
JobId=[49789.meta.cnca].
Steps=[500000].
Steps size=[0.001].
Particles=[10].
Mode=[1].
Output path=[results_49789.meta.cnca].
