Running with:
Resource Path=[/home/djimenez/bs-solctra/resources/].
JobId=[49639.meta.cnca].
Steps=[500000].
Steps size=[0.001].
Particles=[8].
Mode=[1].
Output path=[results_49639.meta.cnca].
Loading /home/djimenez/bs-solctra/input.txt with length=8
Loading /home/djimenez/bs-solctra/resources//Bobina0m.txt with length=361
Loading /home/djimenez/bs-solctra/resources//Bobina1m.txt with length=361
Loading /home/djimenez/bs-solctra/resources//Bobina2m.txt with length=361
Loading /home/djimenez/bs-solctra/resources//Bobina3m.txt with length=361
Loading /home/djimenez/bs-solctra/resources//Bobina4m.txt with length=361
Loading /home/djimenez/bs-solctra/resources//Bobina5m.txt with length=361
Loading /home/djimenez/bs-solctra/resources//Bobina6m.txt with length=361
Loading /home/djimenez/bs-solctra/resources//Bobina7m.txt with length=361
Loading /home/djimenez/bs-solctra/resources//Bobina8m.txt with length=361
Loading /home/djimenez/bs-solctra/resources//Bobina9m.txt with length=361
Loading /home/djimenez/bs-solctra/resources//Bobina10m.txt with length=361
Loading /home/djimenez/bs-solctra/resources//Bobina11m.txt with length=361
Executing simulation
X=[3.320448e-01]. Y=[0.000000e+00]. Z=[0.000000e+00].
X=[3.325165e-01]. Y=[0.000000e+00]. Z=[0.000000e+00].
X=[3.278954e-01]. Y=[0.000000e+00]. Z=[0.000000e+00].
X=[3.306345e-01]. Y=[0.000000e+00]. Z=[0.000000e+00].
X=[1.436835e-01]. Y=[0.000000e+00]. Z=[0.000000e+00].
X=[3.144846e-01]. Y=[0.000000e+00]. Z=[0.000000e+00].
X=[3.282995e-01]. Y=[0.000000e+00]. Z=[0.000000e+00].
X=[1.908917e-01]. Y=[0.000000e+00]. Z=[0.000000e+00].
