49621.meta.cnca,128,500000,0.001,results_49621.meta.cnca,55.4843
49630.meta.cnca,32,500000,0.001,results_49630.meta.cnca,12701.3
49639.meta.cnca,8,500000,0.001,results_49639.meta.cnca,8.31508
49640.meta.cnca,8,500000,0.001,results_49640.meta.cnca,8.46999
49654.meta.cnca,8,500000,0.001,results_49654.meta.cnca,8.83311
49657.meta.cnca,8,500000,0.001,results_49657.meta.cnca,625.292
49663.meta.cnca,8,500000,0.001,results_49663.meta.cnca,614.08
49664.meta.cnca,8,500000,0.001,results_49664.meta.cnca,8.1928
49665.meta.cnca,128,500000,0.001,results_49665.meta.cnca,62288
49800.meta.cnca,10,500000,0.001,results_49800.meta.cnca,1049.8
666,10,500000,0.001,results_666,321.258
<<<<<<< HEAD
49853.meta.cnca,10,500000,0.001,results_49853.meta.cnca,1050.26
49865.meta.cnca,128,500000,0.001,results_49865.meta.cnca,78398.6
=======
7777,10,500000,0.001,results_7777,339.615
7777,10,500000,0.001,results_7777,335.694
>>>>>>> 2e1ee2aa2498e7b7b5f8b809a95c422fac59e281
