x,y,z,R
-1.757074e-01,1.757074e-01,2.190016e-03,2.484878e-01
-1.806631e-01,1.806631e-01,4.851064e-03,2.554962e-01
-1.752530e-01,1.752530e-01,-4.820115e-03,2.478452e-01
-1.745574e-01,1.745574e-01,1.061547e-04,2.468614e-01
-1.804262e-01,1.804262e-01,5.939254e-03,2.551611e-01
-1.766080e-01,1.766080e-01,-3.561914e-03,2.497615e-01
-1.737456e-01,1.737456e-01,-1.923843e-03,2.457133e-01
-1.796619e-01,1.796619e-01,6.163802e-03,2.540803e-01
-1.780476e-01,1.780476e-01,-1.650987e-03,2.517973e-01
-1.733740e-01,1.733740e-01,-3.641567e-03,2.451878e-01
-1.785114e-01,1.785114e-01,5.535462e-03,2.524533e-01
-1.793394e-01,1.793394e-01,6.206491e-04,2.536242e-01
-1.734963e-01,1.734963e-01,-4.816154e-03,2.453609e-01
-1.771616e-01,1.771616e-01,4.191871e-03,2.505444e-01
-1.802618e-01,1.802618e-01,2.874956e-03,2.549287e-01
-1.741112e-01,1.741112e-01,-5.265773e-03,2.462305e-01
-1.758105e-01,1.758105e-01,2.352243e-03,2.486336e-01
-1.806567e-01,1.806567e-01,4.729017e-03,2.554871e-01
-1.751539e-01,1.751539e-01,-4.887312e-03,2.477050e-01
-1.746395e-01,1.746395e-01,2.756696e-04,2.469775e-01
-1.804662e-01,1.804662e-01,5.882643e-03,2.552177e-01
-1.764927e-01,1.764927e-01,-3.690559e-03,2.495983e-01
-1.737960e-01,1.737960e-01,-1.768497e-03,2.457846e-01
-1.797401e-01,1.797401e-01,6.178371e-03,2.541909e-01
-1.779339e-01,1.779339e-01,-1.823022e-03,2.516365e-01
-1.733862e-01,1.733862e-01,-3.520432e-03,2.452052e-01
-1.786141e-01,1.786141e-01,5.615114e-03,2.525984e-01
-1.792461e-01,1.792461e-01,4.328761e-04,2.534923e-01
-1.734681e-01,1.734681e-01,-4.746357e-03,2.453209e-01
-1.772732e-01,1.772732e-01,4.321814e-03,2.507022e-01
-1.802053e-01,1.802053e-01,2.703303e-03,2.548487e-01
-1.740443e-01,1.740443e-01,-5.259457e-03,2.461359e-01
-1.759153e-01,1.759153e-01,2.512858e-03,2.487818e-01
-1.806464e-01,1.806464e-01,4.602337e-03,2.554725e-01
-1.750567e-01,1.750567e-01,-4.949117e-03,2.475676e-01
-1.747232e-01,1.747232e-01,4.454627e-04,2.470960e-01
-1.805027e-01,1.805027e-01,5.820361e-03,2.552694e-01
-1.763780e-01,1.763780e-01,-3.814772e-03,2.494362e-01
-1.738488e-01,1.738488e-01,-1.611168e-03,2.458593e-01
-1.798157e-01,1.798157e-01,6.187290e-03,2.542978e-01
-1.778194e-01,1.778194e-01,-1.992491e-03,2.514746e-01
-1.734013e-01,1.734013e-01,-3.395784e-03,2.452264e-01
-1.787154e-01,1.787154e-01,5.689966e-03,2.527417e-01
-1.791507e-01,1.791507e-01,2.451821e-04,2.533573e-01
-1.734426e-01,1.734426e-01,-4.671827e-03,2.452849e-01
-1.773844e-01,1.773844e-01,4.448432e-03,2.508594e-01
-1.801456e-01,1.801456e-01,2.529166e-03,2.547643e-01
-1.739806e-01,1.739806e-01,-5.247750e-03,2.460457e-01
-1.760206e-01,1.760206e-01,2.671864e-03,2.489307e-01
-1.806323e-01,1.806323e-01,4.471130e-03,2.554527e-01
-1.749617e-01,1.749617e-01,-5.005500e-03,2.474331e-01
-1.748095e-01,1.748095e-01,6.152790e-04,2.472179e-01
-1.805357e-01,1.805357e-01,5.752454e-03,2.553160e-01
-1.762642e-01,1.762642e-01,-3.934438e-03,2.492752e-01
-1.739048e-01,1.739048e-01,-1.452120e-03,2.459385e-01
-1.798886e-01,1.798886e-01,6.190518e-03,2.544009e-01
-1.777041e-01,1.777041e-01,-2.159190e-03,2.513116e-01
-1.734199e-01,1.734199e-01,-3.267871e-03,2.452528e-01
-1.788153e-01,1.788153e-01,5.759929e-03,2.528830e-01
-1.790532e-01,1.790532e-01,5.778334e-05,2.532194e-01
-1.734207e-01,1.734207e-01,-4.592752e-03,2.452538e-01
-1.774955e-01,1.774955e-01,4.571520e-03,2.510165e-01
-1.800826e-01,1.800826e-01,2.352751e-03,2.546752e-01
-1.739199e-01,1.739199e-01,-5.230695e-03,2.459598e-01
-1.761273e-01,1.761273e-01,2.828983e-03,2.490816e-01
-1.806145e-01,1.806145e-01,4.335561e-03,2.554275e-01
-1.748686e-01,1.748686e-01,-5.056407e-03,2.473015e-01
-1.748974e-01,1.748974e-01,7.850682e-04,2.473423e-01
-1.805650e-01,1.805650e-01,5.678990e-03,2.553575e-01
-1.761513e-01,1.761513e-01,-4.049452e-03,2.491156e-01
-1.739632e-01,1.739632e-01,-1.291375e-03,2.460212e-01
-1.799587e-01,1.799587e-01,6.188026e-03,2.545000e-01
-1.775881e-01,1.775881e-01,-2.322952e-03,2.511475e-01
-1.734413e-01,1.734413e-01,-3.136692e-03,2.452831e-01
-1.789136e-01,1.789136e-01,5.824914e-03,2.530221e-01
-1.789532e-01,1.789532e-01,-1.290515e-04,2.530781e-01
-1.734019e-01,1.734019e-01,-4.509157e-03,2.452273e-01
-1.776066e-01,1.776066e-01,4.690956e-03,2.511736e-01
-1.800160e-01,1.800160e-01,2.174313e-03,2.545811e-01
-1.738617e-01,1.738617e-01,-5.208248e-03,2.458776e-01
-1.762347e-01,1.762347e-01,2.984176e-03,2.492335e-01
-1.805926e-01,1.805926e-01,4.195784e-03,2.553965e-01
-1.747777e-01,1.747777e-01,-5.101820e-03,2.471729e-01
-1.749875e-01,1.749875e-01,9.546188e-04,2.474697e-01
-1.805905e-01,1.805905e-01,5.600037e-03,2.553936e-01
-1.760394e-01,1.760394e-01,-4.159714e-03,2.489574e-01
-1.740246e-01,1.740246e-01,-1.129150e-03,2.461079e-01
-1.800258e-01,1.800258e-01,6.179790e-03,2.545950e-01
-1.774717e-01,1.774717e-01,-2.483626e-03,2.509829e-01
-1.734663e-01,1.734663e-01,-3.002464e-03,2.453184e-01
-1.790102e-01,1.790102e-01,5.884835e-03,2.531586e-01
-1.788515e-01,1.788515e-01,-3.151760e-04,2.529342e-01
-1.733864e-01,1.733864e-01,-4.421153e-03,2.452054e-01
-1.777168e-01,1.777168e-01,4.806697e-03,2.513295e-01
-1.799464e-01,1.799464e-01,1.993983e-03,2.544827e-01
-1.738067e-01,1.738067e-01,-5.180536e-03,2.457997e-01
-1.763431e-01,1.763431e-01,3.137243e-03,2.493868e-01
-1.805671e-01,1.805671e-01,4.051903e-03,2.553604e-01
-1.746890e-01,1.746890e-01,-5.141736e-03,2.470475e-01
-1.750794e-01,1.750794e-01,1.123841e-03,2.475996e-01
-1.806124e-01,1.806124e-01,5.515627e-03,2.554245e-01
-1.759287e-01,1.759287e-01,-4.265128e-03,2.488008e-01
-1.740885e-01,1.740885e-01,-9.655351e-04,2.461983e-01
-1.800901e-01,1.800901e-01,6.165791e-03,2.546859e-01
-1.773551e-01,1.773551e-01,-2.641046e-03,2.508180e-01
-1.734941e-01,1.734941e-01,-2.865226e-03,2.453577e-01
-1.791051e-01,1.791051e-01,5.939610e-03,2.532928e-01
-1.787480e-01,1.787480e-01,-5.003821e-04,2.527879e-01
-1.733743e-01,1.733743e-01,-4.328842e-03,2.451883e-01
-1.778266e-01,1.778266e-01,4.918551e-03,2.514848e-01
-1.798738e-01,1.798738e-01,1.811989e-03,2.543800e-01
-1.737550e-01,1.737550e-01,-5.147616e-03,2.457267e-01
-1.764522e-01,1.764522e-01,3.288057e-03,2.495411e-01
-1.805378e-01,1.805378e-01,3.904082e-03,2.553191e-01
-1.746028e-01,1.746028e-01,-5.176144e-03,2.469256e-01
-1.751731e-01,1.751731e-01,1.292557e-03,2.477322e-01
-1.806306e-01,1.806306e-01,5.425831e-03,2.554503e-01
-1.758192e-01,1.758192e-01,-4.365606e-03,2.486459e-01
-1.741550e-01,1.741550e-01,-8.006716e-04,2.462924e-01
-1.801513e-01,1.801513e-01,6.146014e-03,2.547724e-01
-1.772383e-01,1.772383e-01,-2.795051e-03,2.506528e-01
-1.735252e-01,1.735252e-01,-2.725159e-03,2.454017e-01
-1.791979e-01,1.791979e-01,5.989169e-03,2.534241e-01
-1.786425e-01,1.786425e-01,-6.844161e-04,2.526387e-01
-1.733653e-01,1.733653e-01,-4.232286e-03,2.451756e-01
-1.779360e-01,1.779360e-01,5.026393e-03,2.516395e-01
-1.797978e-01,1.797978e-01,1.628568e-03,2.542726e-01
-1.737060e-01,1.737060e-01,-5.109459e-03,2.456574e-01
-1.765618e-01,1.765618e-01,3.436518e-03,2.496960e-01
-1.805045e-01,1.805045e-01,3.752524e-03,2.552719e-01
-1.745191e-01,1.745191e-01,-5.205037e-03,2.468073e-01
-1.752685e-01,1.752685e-01,1.460649e-03,2.478671e-01
-1.806452e-01,1.806452e-01,5.330724e-03,2.554709e-01
-1.757110e-01,1.757110e-01,-4.461066e-03,2.484929e-01
-1.742243e-01,1.742243e-01,-6.347297e-04,2.463903e-01
-1.802095e-01,1.802095e-01,6.120454e-03,2.548547e-01
-1.771214e-01,1.771214e-01,-2.945479e-03,2.504875e-01
-1.735594e-01,1.735594e-01,-2.582354e-03,2.454500e-01
-1.792886e-01,1.792886e-01,6.033447e-03,2.535524e-01
-1.785354e-01,1.785354e-01,-8.671076e-04,2.524872e-01
-1.733599e-01,1.733599e-01,-4.131636e-03,2.451679e-01
-1.780447e-01,1.780447e-01,5.130120e-03,2.517932e-01
-1.797192e-01,1.797192e-01,1.443875e-03,2.541613e-01
-1.736602e-01,1.736602e-01,-5.066194e-03,2.455926e-01
-1.766722e-01,1.766722e-01,3.582408e-03,2.498522e-01
-1.804677e-01,1.804677e-01,3.597330e-03,2.552198e-01
-1.744379e-01,1.744379e-01,-5.228417e-03,2.466925e-01
-1.753656e-01,1.753656e-01,1.627954e-03,2.480043e-01
-1.806556e-01,1.806556e-01,5.230447e-03,2.554857e-01
-1.756043e-01,1.756043e-01,-4.551433e-03,2.483420e-01
-1.742957e-01,1.742957e-01,-4.677748e-04,2.464913e-01
-1.802643e-01,1.802643e-01,6.089136e-03,2.549323e-01
-1.770044e-01,1.770044e-01,-3.092160e-03,2.503220e-01
-1.735965e-01,1.735965e-01,-2.436935e-03,2.455025e-01
-1.793772e-01,1.793772e-01,6.072360e-03,2.536777e-01
-1.784270e-01,1.784270e-01,-1.048270e-03,2.523338e-01
-1.733574e-01,1.733574e-01,-4.026921e-03,2.451644e-01
-1.781522e-01,1.781522e-01,5.229670e-03,2.519452e-01
-1.796376e-01,1.796376e-01,1.258143e-03,2.540459e-01
-1.736178e-01,1.736178e-01,-5.017896e-03,2.455326e-01
-1.767827e-01,1.767827e-01,3.725699e-03,2.500085e-01
-1.804272e-01,1.804272e-01,3.438679e-03,2.551626e-01
-1.743592e-01,1.743592e-01,-5.246254e-03,2.465811e-01
-1.754641e-01,1.754641e-01,1.794351e-03,2.481437e-01
-1.806624e-01,1.806624e-01,5.125046e-03,2.554952e-01
-1.754991e-01,1.754991e-01,-4.636638e-03,2.481932e-01
-1.743700e-01,1.743700e-01,-3.000535e-04,2.465964e-01
-1.803158e-01,1.803158e-01,6.052049e-03,2.550050e-01
-1.768876e-01,1.768876e-01,-3.234977e-03,2.501568e-01
-1.736368e-01,1.736368e-01,-2.289061e-03,2.455596e-01
-1.794637e-01,1.794637e-01,6.105842e-03,2.537999e-01
-1.783172e-01,1.783172e-01,-1.227694e-03,2.521786e-01
-1.733585e-01,1.733585e-01,-3.918330e-03,2.451660e-01
-1.782589e-01,1.782589e-01,5.324870e-03,2.520962e-01
-1.795531e-01,1.795531e-01,1.071605e-03,2.539264e-01
-1.735781e-01,1.735781e-01,-4.964532e-03,2.454766e-01
-1.768937e-01,1.768937e-01,3.866169e-03,2.501655e-01
-1.803828e-01,1.803828e-01,3.276801e-03,2.550998e-01
-1.742830e-01,1.742830e-01,-5.258572e-03,2.464734e-01
-1.755643e-01,1.755643e-01,1.959676e-03,2.482854e-01
-1.806653e-01,1.806653e-01,5.014606e-03,2.554994e-01
-1.753956e-01,1.753956e-01,-4.716619e-03,2.480468e-01
-1.744461e-01,1.744461e-01,-1.315598e-04,2.467040e-01
-1.803640e-01,1.803640e-01,6.009199e-03,2.550732e-01
-1.767710e-01,1.767710e-01,-3.373792e-03,2.499920e-01
-1.736799e-01,1.736799e-01,-2.138792e-03,2.456204e-01
-1.795478e-01,1.795478e-01,6.133832e-03,2.539189e-01
-1.782058e-01,1.782058e-01,-1.405147e-03,2.520211e-01
-1.733625e-01,1.733625e-01,-3.805873e-03,2.451717e-01
-1.783647e-01,1.783647e-01,5.415616e-03,2.522457e-01
-1.794661e-01,1.794661e-01,8.844251e-04,2.538033e-01
-1.735420e-01,1.735420e-01,-4.906277e-03,2.454254e-01
-1.770051e-01,1.770051e-01,4.003690e-03,2.503230e-01
-1.803349e-01,1.803349e-01,3.111803e-03,2.550321e-01
-1.742096e-01,1.742096e-01,-5.265405e-03,2.463696e-01
-1.756657e-01,1.756657e-01,2.123813e-03,2.484288e-01
-1.806646e-01,1.806646e-01,4.899239e-03,2.554984e-01
-1.752938e-01,1.752938e-01,-4.791318e-03,2.479028e-01
-1.745250e-01,1.745250e-01,3.742041e-05,2.468156e-01
-1.804089e-01,1.804089e-01,5.960608e-03,2.551367e-01
-1.766549e-01,1.766549e-01,-3.508470e-03,2.498278e-01
-1.737262e-01,1.737262e-01,-1.986359e-03,2.456860e-01
-1.796295e-01,1.796295e-01,6.156277e-03,2.540345e-01
-1.780934e-01,1.780934e-01,-1.580484e-03,2.518621e-01
-1.733702e-01,1.733702e-01,-3.689755e-03,2.451824e-01
-1.784693e-01,1.784693e-01,5.501803e-03,2.523937e-01
-1.793765e-01,1.793765e-01,6.968410e-04,2.536766e-01
-1.735090e-01,1.735090e-01,-4.843154e-03,2.453787e-01
-1.771164e-01,1.771164e-01,4.138206e-03,2.504804e-01
-1.802837e-01,1.802837e-01,2.943885e-03,2.549596e-01
-1.741391e-01,1.741391e-01,-5.266777e-03,2.462698e-01
-1.757686e-01,1.757686e-01,2.286583e-03,2.485743e-01
-1.806596e-01,1.806596e-01,4.779119e-03,2.554913e-01
-1.751938e-01,1.751938e-01,-4.860686e-03,2.477615e-01
-1.746058e-01,1.746058e-01,2.068629e-04,2.469298e-01
-1.804503e-01,1.804503e-01,5.906298e-03,2.551953e-01
-1.765394e-01,1.765394e-01,-3.638885e-03,2.496644e-01
-1.737750e-01,1.737750e-01,-1.831753e-03,2.457550e-01
-1.797087e-01,1.797087e-01,6.173129e-03,2.541466e-01
-1.779802e-01,1.779802e-01,-1.753518e-03,2.517019e-01
-1.733807e-01,1.733807e-01,-3.569991e-03,2.451974e-01
-1.785727e-01,1.785727e-01,5.583342e-03,2.525400e-01
-1.792842e-01,1.792842e-01,5.090824e-04,2.535461e-01
-1.734790e-01,1.734790e-01,-4.775231e-03,2.453364e-01
-1.772279e-01,1.772279e-01,4.269495e-03,2.506381e-01
-1.802286e-01,1.802286e-01,2.773278e-03,2.548817e-01
-1.740713e-01,1.740713e-01,-5.262688e-03,2.461740e-01
-1.758725e-01,1.758725e-01,2.447896e-03,2.487212e-01
-1.806510e-01,1.806510e-01,4.654296e-03,2.554790e-01
-1.750958e-01,1.750958e-01,-4.924680e-03,2.476229e-01
-1.746890e-01,1.746890e-01,3.765415e-04,2.470476e-01
-1.804884e-01,1.804884e-01,5.846303e-03,2.552491e-01
-1.764245e-01,1.764245e-01,-3.764915e-03,2.495019e-01
-1.738271e-01,1.738271e-01,-1.675243e-03,2.458286e-01
-1.797854e-01,1.797854e-01,6.184347e-03,2.542550e-01
-1.778660e-01,1.778660e-01,-1.924056e-03,2.515406e-01
-1.733948e-01,1.733948e-01,-3.446779e-03,2.452173e-01
-1.786745e-01,1.786745e-01,5.660163e-03,2.526840e-01
-1.791897e-01,1.791897e-01,3.213172e-04,2.534125e-01
-1.734527e-01,1.734527e-01,-4.702652e-03,2.452992e-01
-1.773394e-01,1.773394e-01,4.397449e-03,2.507958e-01
-1.801702e-01,1.801702e-01,2.600110e-03,2.547992e-01
-1.740061e-01,1.740061e-01,-5.253150e-03,2.460818e-01
-1.759778e-01,1.759778e-01,2.607538e-03,2.488702e-01
-1.806386e-01,1.806386e-01,4.524897e-03,2.554616e-01
-1.749999e-01,1.749999e-01,-4.983261e-03,2.474872e-01
-1.747742e-01,1.747742e-01,5.463744e-04,2.471680e-01
-1.805229e-01,1.805229e-01,5.780664e-03,2.552979e-01
-1.763104e-01,1.763104e-01,-3.886442e-03,2.493406e-01
-1.738816e-01,1.738816e-01,-1.516855e-03,2.459057e-01
-1.798594e-01,1.798594e-01,6.189884e-03,2.543596e-01
-1.777509e-01,1.777509e-01,-2.091879e-03,2.513778e-01
-1.734119e-01,1.734119e-01,-3.320159e-03,2.452414e-01
-1.787750e-01,1.787750e-01,5.732130e-03,2.528260e-01
-1.790931e-01,1.790931e-01,1.337764e-04,2.532758e-01
-1.734291e-01,1.734291e-01,-4.625378e-03,2.452658e-01
-1.774504e-01,1.774504e-01,4.522003e-03,2.509528e-01
-1.801085e-01,1.801085e-01,2.424597e-03,2.547119e-01
-1.739440e-01,1.739440e-01,-5.238243e-03,2.459940e-01
-1.760838e-01,1.760838e-01,2.765468e-03,2.490201e-01
-1.806222e-01,1.806222e-01,4.391096e-03,2.554383e-01
-1.749060e-01,1.749060e-01,-5.036398e-03,2.473545e-01
-1.748615e-01,1.748615e-01,7.161868e-04,2.472914e-01
-1.805535e-01,1.805535e-01,5.709477e-03,2.553412e-01
-1.761971e-01,1.761971e-01,-4.003359e-03,2.491804e-01
-1.739392e-01,1.739392e-01,-1.356793e-03,2.459872e-01
-1.799306e-01,1.799306e-01,6.189716e-03,2.544604e-01
-1.776352e-01,1.776352e-01,-2.256854e-03,2.512141e-01
-1.734323e-01,1.734323e-01,-3.190307e-03,2.452703e-01
-1.788739e-01,1.788739e-01,5.799153e-03,2.529658e-01
-1.789939e-01,1.789939e-01,-5.329983e-05,2.531357e-01
-1.734092e-01,1.734092e-01,-4.543626e-03,2.452377e-01
-1.775614e-01,1.775614e-01,4.642952e-03,2.511097e-01
-1.800433e-01,1.800433e-01,2.246969e-03,2.546197e-01
-1.738851e-01,1.738851e-01,-5.218012e-03,2.459106e-01
-1.761911e-01,1.761911e-01,2.921427e-03,2.491719e-01
-1.806019e-01,1.806019e-01,4.253013e-03,2.554097e-01
-1.748144e-01,1.748144e-01,-5.084066e-03,2.472248e-01
-1.749507e-01,1.749507e-01,8.858488e-04,2.474177e-01
-1.805805e-01,1.805805e-01,5.632746e-03,2.553794e-01
-1.760848e-01,1.760848e-01,-4.115563e-03,2.490215e-01
-1.739994e-01,1.739994e-01,-1.195158e-03,2.460723e-01
-1.799990e-01,1.799990e-01,6.183810e-03,2.545570e-01
-1.775191e-01,1.775191e-01,-2.418810e-03,2.510499e-01
-1.734558e-01,1.734558e-01,-3.057294e-03,2.453035e-01
-1.789712e-01,1.789712e-01,5.861145e-03,2.531034e-01
-1.788931e-01,1.788931e-01,-2.397509e-04,2.529930e-01
-1.733923e-01,1.733923e-01,-4.457386e-03,2.452137e-01
-1.776722e-01,1.776722e-01,4.760177e-03,2.512664e-01
-1.799751e-01,1.799751e-01,2.067367e-03,2.545232e-01
-1.738287e-01,1.738287e-01,-5.192419e-03,2.458308e-01
-1.762990e-01,1.762990e-01,3.075397e-03,2.493244e-01
-1.805780e-01,1.805780e-01,4.110767e-03,2.553758e-01
-1.747248e-01,1.747248e-01,-5.126217e-03,2.470982e-01
-1.750418e-01,1.750418e-01,1.055227e-03,2.475465e-01
-1.806040e-01,1.806040e-01,5.550533e-03,2.554126e-01
-1.759736e-01,1.759736e-01,-4.222957e-03,2.488643e-01
-1.740622e-01,1.740622e-01,-1.032078e-03,2.461611e-01
-1.800646e-01,1.800646e-01,6.172147e-03,2.546497e-01
-1.774026e-01,1.774026e-01,-2.577578e-03,2.508851e-01
-1.734825e-01,1.734825e-01,-2.921265e-03,2.453412e-01
-1.790666e-01,1.790666e-01,5.918024e-03,2.532385e-01
-1.787904e-01,1.787904e-01,-4.253661e-04,2.528477e-01
-1.733788e-01,1.733788e-01,-4.366817e-03,2.451947e-01
-1.777822e-01,1.777822e-01,4.873628e-03,2.514219e-01
-1.799036e-01,1.799036e-01,1.886028e-03,2.544221e-01
-1.737755e-01,1.737755e-01,-5.161587e-03,2.457557e-01
-1.764078e-01,1.764078e-01,3.227139e-03,2.494783e-01
-1.805502e-01,1.805502e-01,3.964532e-03,2.553365e-01
-1.746375e-01,1.746375e-01,-5.162853e-03,2.469747e-01
-1.751349e-01,1.751349e-01,1.224155e-03,2.476782e-01
-1.806238e-01,1.806238e-01,5.462902e-03,2.554406e-01
-1.758636e-01,1.758636e-01,-4.325448e-03,2.487087e-01
-1.741278e-01,1.741278e-01,-8.677335e-04,2.462540e-01
-1.801270e-01,1.801270e-01,6.154722e-03,2.547380e-01
-1.772859e-01,1.772859e-01,-2.732995e-03,2.507201e-01
-1.735123e-01,1.735123e-01,-2.782340e-03,2.453834e-01
