x,y,z,R
-1.785882e-01,1.785882e-01,-2.811053e-03,2.525619e-01
-1.713002e-01,1.713002e-01,-5.953851e-03,2.422550e-01
-1.790351e-01,1.790351e-01,8.145789e-03,2.531938e-01
-1.807017e-01,1.807017e-01,9.502717e-04,2.555508e-01
-1.715192e-01,1.715192e-01,-7.790255e-03,2.425648e-01
-1.768600e-01,1.768600e-01,5.867027e-03,2.501178e-01
-1.821550e-01,1.821550e-01,4.643086e-03,2.576061e-01
-1.725316e-01,1.725316e-01,-8.460745e-03,2.439966e-01
-1.747495e-01,1.747495e-01,2.877443e-03,2.471331e-01
-1.826624e-01,1.826624e-01,7.549691e-03,2.583236e-01
-1.742470e-01,1.742470e-01,-7.760976e-03,2.464225e-01
-1.729846e-01,1.729846e-01,-3.974577e-04,2.446372e-01
-1.821569e-01,1.821569e-01,9.153969e-03,2.576087e-01
-1.764521e-01,1.764521e-01,-5.679796e-03,2.495410e-01
-1.717808e-01,1.717808e-01,-3.543454e-03,2.429347e-01
-1.807854e-01,1.807854e-01,9.259217e-03,2.556691e-01
-1.788037e-01,1.788037e-01,-2.475756e-03,2.528666e-01
-1.712864e-01,1.712864e-01,-6.167551e-03,2.422356e-01
-1.788371e-01,1.788371e-01,7.973651e-03,2.529139e-01
-1.808718e-01,1.808718e-01,1.311127e-03,2.557913e-01
-1.715810e-01,1.715810e-01,-7.906831e-03,2.426522e-01
-1.766548e-01,1.766548e-01,5.610346e-03,2.498277e-01
-1.822455e-01,1.822455e-01,4.958999e-03,2.577340e-01
-1.726648e-01,1.726648e-01,-8.455212e-03,2.441849e-01
-1.745656e-01,1.745656e-01,2.576006e-03,2.468730e-01
-1.826571e-01,1.826571e-01,7.760952e-03,2.583162e-01
-1.744373e-01,1.744373e-01,-7.622707e-03,2.466916e-01
-1.728451e-01,1.728451e-01,-7.041126e-04,2.444400e-01
-1.820613e-01,1.820613e-01,9.227870e-03,2.574735e-01
-1.766725e-01,1.766725e-01,-5.420711e-03,2.498526e-01
-1.717027e-01,1.717027e-01,-3.817530e-03,2.428243e-01
-1.806221e-01,1.806221e-01,9.194060e-03,2.554383e-01
-1.790163e-01,1.790163e-01,-2.135163e-03,2.531673e-01
-1.712799e-01,1.712799e-01,-6.373480e-03,2.422264e-01
-1.786371e-01,1.786371e-01,7.791975e-03,2.526311e-01
-1.810356e-01,1.810356e-01,1.670750e-03,2.560230e-01
-1.716498e-01,1.716498e-01,-8.012858e-03,2.427494e-01
-1.764500e-01,1.764500e-01,5.347838e-03,2.495380e-01
-1.823274e-01,1.823274e-01,5.267313e-03,2.578498e-01
-1.728041e-01,1.728041e-01,-8.437407e-03,2.443819e-01
-1.743850e-01,1.743850e-01,2.272410e-03,2.466177e-01
-1.826430e-01,1.826430e-01,7.960216e-03,2.582962e-01
-1.746317e-01,1.746317e-01,-7.472203e-03,2.469664e-01
-1.727110e-01,1.727110e-01,-1.009311e-03,2.442502e-01
-1.819584e-01,1.819584e-01,9.288328e-03,2.573280e-01
-1.768942e-01,1.768942e-01,-5.151919e-03,2.501661e-01
-1.716308e-01,1.716308e-01,-4.086643e-03,2.427226e-01
-1.804541e-01,1.804541e-01,9.116729e-03,2.552007e-01
-1.792263e-01,1.792263e-01,-1.789876e-03,2.534642e-01
-1.712805e-01,1.712805e-01,-6.571319e-03,2.422272e-01
-1.784354e-01,1.784354e-01,7.601077e-03,2.523458e-01
-1.811930e-01,1.811930e-01,2.028507e-03,2.562455e-01
-1.717257e-01,1.717257e-01,-8.108150e-03,2.428568e-01
-1.762468e-01,1.762468e-01,5.079713e-03,2.492506e-01
-1.824005e-01,1.824005e-01,5.567502e-03,2.579532e-01
-1.729495e-01,1.729495e-01,-8.407242e-03,2.445875e-01
-1.742076e-01,1.742076e-01,1.967056e-03,2.463668e-01
-1.826198e-01,1.826198e-01,8.147254e-03,2.582634e-01
-1.748301e-01,1.748301e-01,-7.309591e-03,2.472471e-01
-1.725818e-01,1.725818e-01,-1.312656e-03,2.440676e-01
-1.818480e-01,1.818480e-01,9.335417e-03,2.571719e-01
-1.771161e-01,1.771161e-01,-4.873729e-03,2.504800e-01
-1.715653e-01,1.715653e-01,-4.350524e-03,2.426300e-01
-1.802814e-01,1.802814e-01,9.027481e-03,2.549564e-01
-1.794330e-01,1.794330e-01,-1.440467e-03,2.537566e-01
-1.712879e-01,1.712879e-01,-6.760745e-03,2.422376e-01
-1.782324e-01,1.782324e-01,7.401276e-03,2.520586e-01
-1.813435e-01,1.813435e-01,2.383765e-03,2.564585e-01
-1.718082e-01,1.718082e-01,-8.192424e-03,2.429735e-01
-1.760446e-01,1.760446e-01,4.806430e-03,2.489646e-01
-1.824648e-01,1.824648e-01,5.859069e-03,2.580441e-01
-1.731008e-01,1.731008e-01,-8.364645e-03,2.448015e-01
-1.740343e-01,1.740343e-01,1.660205e-03,2.461216e-01
-1.825877e-01,1.825877e-01,8.321828e-03,2.582180e-01
-1.750324e-01,1.750324e-01,-7.135023e-03,2.475331e-01
-1.724580e-01,1.724580e-01,-1.613855e-03,2.438925e-01
-1.817307e-01,1.817307e-01,9.369107e-03,2.570061e-01
-1.773388e-01,1.773388e-01,-4.586605e-03,2.507949e-01
-1.715065e-01,1.715065e-01,-4.608890e-03,2.425468e-01
-1.801044e-01,1.801044e-01,8.926532e-03,2.547061e-01
-1.796362e-01,1.796362e-01,-1.087522e-03,2.540439e-01
-1.713027e-01,1.713027e-01,-6.941580e-03,2.422586e-01
-1.780278e-01,1.780278e-01,7.192971e-03,2.517693e-01
-1.814870e-01,1.814870e-01,2.735899e-03,2.566614e-01
-1.718979e-01,1.718979e-01,-8.265576e-03,2.431003e-01
-1.758442e-01,1.758442e-01,4.528271e-03,2.486813e-01
-1.825201e-01,1.825201e-01,6.141533e-03,2.581224e-01
-1.732578e-01,1.732578e-01,-8.309564e-03,2.450235e-01
-1.738647e-01,1.738647e-01,1.352251e-03,2.458818e-01
-1.825469e-01,1.825469e-01,8.483686e-03,2.581604e-01
-1.752376e-01,1.752376e-01,-6.948612e-03,2.478234e-01
-1.723399e-01,1.723399e-01,-1.912607e-03,2.437254e-01
-1.816064e-01,1.816064e-01,9.389553e-03,2.568302e-01
-1.775611e-01,1.775611e-01,-4.290893e-03,2.511093e-01
-1.714545e-01,1.714545e-01,-4.861441e-03,2.424733e-01
-1.799235e-01,1.799235e-01,8.814116e-03,2.544502e-01
-1.798354e-01,1.798354e-01,-7.316380e-04,2.543256e-01
-1.713242e-01,1.713242e-01,-7.113445e-03,2.422891e-01
-1.778224e-01,1.778224e-01,6.976431e-03,2.514788e-01
-1.816232e-01,1.816232e-01,3.084286e-03,2.568540e-01
-1.719942e-01,1.719942e-01,-8.327358e-03,2.432366e-01
-1.756455e-01,1.756455e-01,4.245644e-03,2.484002e-01
-1.825664e-01,1.825664e-01,6.414435e-03,2.581879e-01
-1.734204e-01,1.734204e-01,-8.241964e-03,2.452534e-01
-1.736989e-01,1.736989e-01,1.043563e-03,2.456473e-01
-1.824977e-01,1.824977e-01,8.632655e-03,2.580907e-01
-1.754462e-01,1.754462e-01,-6.750600e-03,2.481183e-01
-1.722276e-01,1.722276e-01,-2.208586e-03,2.435666e-01
-1.814757e-01,1.814757e-01,9.396738e-03,2.566455e-01
-1.777831e-01,1.777831e-01,-3.987079e-03,2.514233e-01
-1.714087e-01,1.714087e-01,-5.107772e-03,2.424085e-01
-1.797389e-01,1.797389e-01,8.690495e-03,2.541892e-01
-1.800302e-01,1.800302e-01,-3.734114e-04,2.546011e-01
-1.713530e-01,1.713530e-01,-7.276165e-03,2.423298e-01
-1.776164e-01,1.776164e-01,6.751987e-03,2.511876e-01
-1.817518e-01,1.817518e-01,3.428315e-03,2.570358e-01
-1.720972e-01,1.720972e-01,-8.377593e-03,2.433821e-01
-1.754491e-01,1.754491e-01,3.958850e-03,2.481225e-01
-1.826038e-01,1.826038e-01,6.677343e-03,2.582407e-01
-1.735883e-01,1.735883e-01,-8.161829e-03,2.454909e-01
-1.735376e-01,1.735376e-01,7.344154e-04,2.454192e-01
-1.824395e-01,1.824395e-01,8.768649e-03,2.580085e-01
-1.756577e-01,1.756577e-01,-6.541218e-03,2.484176e-01
-1.721208e-01,1.721208e-01,-2.501415e-03,2.434156e-01
-1.813385e-01,1.813385e-01,9.390844e-03,2.564514e-01
-1.780047e-01,1.780047e-01,-3.675627e-03,2.517366e-01
-1.713699e-01,1.713699e-01,-5.347679e-03,2.423536e-01
-1.795509e-01,1.795509e-01,8.555949e-03,2.539233e-01
-1.802202e-01,1.802202e-01,-1.346035e-05,2.548698e-01
-1.713889e-01,1.713889e-01,-7.429443e-03,2.423805e-01
-1.774103e-01,1.774103e-01,6.519982e-03,2.508961e-01
-1.818726e-01,1.818726e-01,3.767381e-03,2.572067e-01
-1.722070e-01,1.722070e-01,-8.416163e-03,2.435375e-01
-1.752547e-01,1.752547e-01,3.668311e-03,2.478476e-01
-1.826320e-01,1.826320e-01,6.929844e-03,2.582807e-01
-1.737613e-01,1.737613e-01,-8.069164e-03,2.457356e-01
-1.733808e-01,1.733808e-01,4.251625e-04,2.451975e-01
-1.823733e-01,1.823733e-01,8.891449e-03,2.579147e-01
-1.758715e-01,1.758715e-01,-6.320630e-03,2.487198e-01
-1.720199e-01,1.720199e-01,-2.790789e-03,2.432729e-01
-1.811952e-01,1.811952e-01,9.371963e-03,2.562487e-01
-1.782246e-01,1.782246e-01,-3.356958e-03,2.520477e-01
-1.713381e-01,1.713381e-01,-5.580871e-03,2.423086e-01
-1.793598e-01,1.793598e-01,8.410754e-03,2.536531e-01
-1.804052e-01,1.804052e-01,3.475790e-04,2.551315e-01
-1.714318e-01,1.714318e-01,-7.573030e-03,2.424412e-01
-1.772037e-01,1.772037e-01,6.280851e-03,2.506038e-01
-1.819854e-01,1.819854e-01,4.100894e-03,2.573662e-01
-1.723235e-01,1.723235e-01,-8.442908e-03,2.437022e-01
-1.750632e-01,1.750632e-01,3.374281e-03,2.475768e-01
-1.826510e-01,1.826510e-01,7.171580e-03,2.583075e-01
-1.739394e-01,1.739394e-01,-7.963994e-03,2.459875e-01
-1.732282e-01,1.732282e-01,1.162258e-04,2.449817e-01
-1.822989e-01,1.822989e-01,9.000991e-03,2.578095e-01
-1.760876e-01,1.760876e-01,-6.089172e-03,2.490255e-01
-1.719252e-01,1.719252e-01,-3.076423e-03,2.431389e-01
-1.810463e-01,1.810463e-01,9.340217e-03,2.560381e-01
-1.784433e-01,1.784433e-01,-3.031624e-03,2.523569e-01
-1.713129e-01,1.713129e-01,-5.806987e-03,2.422731e-01
-1.791660e-01,1.791660e-01,8.255202e-03,2.533789e-01
-1.805849e-01,1.805849e-01,7.090770e-04,2.553856e-01
-1.714819e-01,1.714819e-01,-7.706697e-03,2.425121e-01
-1.769974e-01,1.769974e-01,6.034839e-03,2.503121e-01
-1.820899e-01,1.820899e-01,4.428285e-03,2.575140e-01
-1.724460e-01,1.724460e-01,-8.457619e-03,2.438755e-01
-1.748740e-01,1.748740e-01,3.077244e-03,2.473092e-01
-1.826608e-01,1.826608e-01,7.402175e-03,2.583213e-01
-1.741223e-01,1.741223e-01,-7.846365e-03,2.462462e-01
-1.730804e-01,1.730804e-01,-1.921487e-04,2.447727e-01
-1.822162e-01,1.822162e-01,9.097224e-03,2.576927e-01
-1.763057e-01,1.763057e-01,-5.847095e-03,2.493339e-01
-1.718367e-01,1.718367e-01,-3.357998e-03,2.430137e-01
-1.808916e-01,1.808916e-01,9.295797e-03,2.558194e-01
-1.786602e-01,1.786602e-01,-2.700139e-03,2.526636e-01
-1.712947e-01,1.712947e-01,-6.025759e-03,2.422472e-01
-1.789696e-01,1.789696e-01,8.089597e-03,2.531012e-01
-1.807590e-01,1.807590e-01,1.070401e-03,2.556318e-01
-1.715390e-01,1.715390e-01,-7.830185e-03,2.425928e-01
-1.767917e-01,1.767917e-01,5.782306e-03,2.500213e-01
-1.821860e-01,1.821860e-01,4.748978e-03,2.576500e-01
-1.725751e-01,1.725751e-01,-8.460238e-03,2.440580e-01
-1.746881e-01,1.746881e-01,2.777421e-03,2.470462e-01
-1.826616e-01,1.826616e-01,7.621278e-03,2.583225e-01
-1.743098e-01,1.743098e-01,-7.716346e-03,2.465113e-01
-1.729378e-01,1.729378e-01,-4.996238e-04,2.445709e-01
-1.821260e-01,1.821260e-01,9.180019e-03,2.575651e-01
-1.765252e-01,1.765252e-01,-5.594713e-03,2.496444e-01
-1.717542e-01,1.717542e-01,-3.635159e-03,2.428972e-01
-1.807316e-01,1.807316e-01,9.238905e-03,2.555931e-01
-1.788747e-01,1.788747e-01,-2.363021e-03,2.529671e-01
-1.712836e-01,1.712836e-01,-6.236949e-03,2.422316e-01
-1.787709e-01,1.787709e-01,7.914239e-03,2.528203e-01
-1.809270e-01,1.809270e-01,1.430917e-03,2.558694e-01
-1.716031e-01,1.716031e-01,-7.943278e-03,2.426834e-01
-1.765864e-01,1.765864e-01,5.523694e-03,2.497309e-01
-1.822737e-01,1.822737e-01,5.062425e-03,2.577740e-01
-1.727104e-01,1.727104e-01,-8.450648e-03,2.442494e-01
-1.745051e-01,1.745051e-01,2.475243e-03,2.467875e-01
-1.826534e-01,1.826534e-01,7.828578e-03,2.583109e-01
-1.745016e-01,1.745016e-01,-7.574022e-03,2.467826e-01
-1.728000e-01,1.728000e-01,-8.058258e-04,2.443762e-01
-1.820278e-01,1.820278e-01,9.249478e-03,2.574263e-01
-1.767461e-01,1.767461e-01,-5.332365e-03,2.499567e-01
-1.716779e-01,1.716779e-01,-3.907581e-03,2.427893e-01
-1.805667e-01,1.805667e-01,9.169695e-03,2.553598e-01
-1.790865e-01,1.790865e-01,-2.020803e-03,2.532666e-01
-1.712793e-01,1.712793e-01,-6.440198e-03,2.422255e-01
-1.785704e-01,1.785704e-01,7.729453e-03,2.525367e-01
-1.810887e-01,1.810887e-01,1.789990e-03,2.560981e-01
-1.716743e-01,1.716743e-01,-8.045770e-03,2.427841e-01
-1.763824e-01,1.763824e-01,5.259233e-03,2.494424e-01
-1.823527e-01,1.823527e-01,5.368091e-03,2.578856e-01
-1.728518e-01,1.728518e-01,-8.428753e-03,2.444494e-01
-1.743255e-01,1.743255e-01,2.171039e-03,2.465335e-01
-1.826363e-01,1.826363e-01,8.023794e-03,2.582867e-01
-1.746973e-01,1.746973e-01,-7.419459e-03,2.470594e-01
-1.726673e-01,1.726673e-01,-1.110405e-03,2.441884e-01
-1.819226e-01,1.819226e-01,9.305452e-03,2.572774e-01
-1.769679e-01,1.769679e-01,-5.060400e-03,2.502704e-01
-1.716082e-01,1.716082e-01,-4.175005e-03,2.426906e-01
-1.803970e-01,1.803970e-01,9.088382e-03,2.551199e-01
-1.792954e-01,1.792954e-01,-1.674080e-03,2.535620e-01
-1.712821e-01,1.712821e-01,-6.635255e-03,2.422294e-01
-1.783680e-01,1.783680e-01,7.535595e-03,2.522504e-01
-1.812438e-01,1.812438e-01,2.146985e-03,2.563174e-01
-1.717522e-01,1.717522e-01,-8.137392e-03,2.428943e-01
-1.761792e-01,1.761792e-01,4.989383e-03,2.491550e-01
-1.824228e-01,1.824228e-01,5.665468e-03,2.579849e-01
-1.729993e-01,1.729993e-01,-8.394468e-03,2.446579e-01
-1.741497e-01,1.741497e-01,1.865106e-03,2.462849e-01
-1.826101e-01,1.826101e-01,8.206720e-03,2.582496e-01
-1.748968e-01,1.748968e-01,-7.252834e-03,2.473415e-01
-1.725400e-01,1.725400e-01,-1.413087e-03,2.440084e-01
-1.818097e-01,1.818097e-01,9.348115e-03,2.571178e-01
-1.771902e-01,1.771902e-01,-4.779194e-03,2.505847e-01
-1.715451e-01,1.715451e-01,-4.437119e-03,2.426014e-01
-1.802230e-01,1.802230e-01,8.995194e-03,2.548738e-01
-1.795010e-01,1.795010e-01,-1.323429e-03,2.538527e-01
-1.712922e-01,1.712922e-01,-6.821899e-03,2.422438e-01
-1.781643e-01,1.781643e-01,7.332950e-03,2.519623e-01
-1.813920e-01,1.813920e-01,2.501274e-03,2.565271e-01
-1.718374e-01,1.718374e-01,-8.218026e-03,2.430148e-01
-1.759778e-01,1.759778e-01,4.714418e-03,2.488702e-01
-1.824841e-01,1.824841e-01,5.954058e-03,2.580715e-01
-1.731525e-01,1.731525e-01,-8.347728e-03,2.448747e-01
-1.739773e-01,1.739773e-01,1.557885e-03,2.460411e-01
-1.825751e-01,1.825751e-01,8.377088e-03,2.582001e-01
-1.751002e-01,1.751002e-01,-7.074306e-03,2.476290e-01
-1.724182e-01,1.724182e-01,-1.713539e-03,2.438362e-01
-1.816902e-01,1.816902e-01,9.377378e-03,2.569487e-01
-1.774128e-01,1.774128e-01,-4.489177e-03,2.508996e-01
-1.714885e-01,1.714885e-01,-4.693562e-03,2.425213e-01
-1.800448e-01,1.800448e-01,8.890379e-03,2.546218e-01
-1.797029e-01,1.797029e-01,-9.694389e-04,2.541383e-01
-1.713089e-01,1.713089e-01,-6.999731e-03,2.422674e-01
-1.779595e-01,1.779595e-01,7.121846e-03,2.516727e-01
-1.815331e-01,1.815331e-01,2.852231e-03,2.567266e-01
-1.719291e-01,1.719291e-01,-8.287388e-03,2.431445e-01
-1.757778e-01,1.757778e-01,4.434747e-03,2.485874e-01
-1.825365e-01,1.825365e-01,6.233393e-03,2.581456e-01
-1.733114e-01,1.733114e-01,-8.288491e-03,2.450994e-01
-1.738089e-01,1.738089e-01,1.249655e-03,2.458030e-01
-1.825315e-01,1.825315e-01,8.534676e-03,2.581385e-01
-1.753068e-01,1.753068e-01,-6.884043e-03,2.479213e-01
-1.723020e-01,1.723020e-01,-2.011403e-03,2.436719e-01
-1.815637e-01,1.815637e-01,9.393406e-03,2.567698e-01
-1.776350e-01,1.776350e-01,-4.190711e-03,2.512138e-01
-1.714383e-01,1.714383e-01,-4.944045e-03,2.424504e-01
-1.798626e-01,1.798626e-01,8.774195e-03,2.543642e-01
-1.799006e-01,1.799006e-01,-6.127113e-04,2.544179e-01
-1.713331e-01,1.713331e-01,-7.168613e-03,2.423016e-01
-1.777540e-01,1.777540e-01,6.902615e-03,2.513821e-01
-1.816668e-01,1.816668e-01,3.199237e-03,2.569156e-01
-1.720276e-01,1.720276e-01,-8.345346e-03,2.432838e-01
-1.755800e-01,1.755800e-01,4.150682e-03,2.483076e-01
-1.825798e-01,1.825798e-01,6.503018e-03,2.582069e-01
-1.734758e-01,1.734758e-01,-8.216720e-03,2.453318e-01
-1.736449e-01,1.736449e-01,9.407376e-04,2.455710e-01
-1.824793e-01,1.824793e-01,8.679343e-03,2.580647e-01
-1.755162e-01,1.755162e-01,-6.682199e-03,2.482173e-01
-1.721913e-01,1.721913e-01,-2.306330e-03,2.435153e-01
-1.814307e-01,1.814307e-01,9.396240e-03,2.565818e-01
-1.778569e-01,1.778569e-01,-3.884305e-03,2.515277e-01
-1.713951e-01,1.713951e-01,-5.188305e-03,2.423892e-01
-1.796769e-01,1.796769e-01,8.646909e-03,2.541015e-01
-1.800939e-01,1.800939e-01,-2.538407e-04,2.546913e-01
-1.713642e-01,1.713642e-01,-7.328206e-03,2.423456e-01
-1.775479e-01,1.775479e-01,6.675630e-03,2.510907e-01
-1.817928e-01,1.817928e-01,3.541681e-03,2.570939e-01
-1.721331e-01,1.721331e-01,-8.391748e-03,2.434330e-01
-1.753841e-01,1.753841e-01,3.862622e-03,2.480306e-01
-1.826141e-01,1.826141e-01,6.762511e-03,2.582554e-01
-1.736455e-01,1.736455e-01,-8.132413e-03,2.455718e-01
-1.734850e-01,1.734850e-01,6.315432e-04,2.453448e-01
-1.824184e-01,1.824184e-01,8.810966e-03,2.579786e-01
-1.757285e-01,1.757285e-01,-6.469060e-03,2.485176e-01
-1.720865e-01,1.720865e-01,-2.598053e-03,2.433671e-01
-1.812917e-01,1.812917e-01,9.385969e-03,2.563851e-01
-1.780780e-01,1.780780e-01,-3.570401e-03,2.518403e-01
-1.713588e-01,1.713588e-01,-5.426042e-03,2.423379e-01
-1.794879e-01,1.794879e-01,8.508788e-03,2.538342e-01
-1.802823e-01,1.802823e-01,1.065422e-04,2.549577e-01
-1.714024e-01,1.714024e-01,-7.478290e-03,2.423996e-01
-1.773414e-01,1.773414e-01,6.441247e-03,2.507986e-01
-1.819110e-01,1.819110e-01,3.878964e-03,2.572610e-01
-1.722450e-01,1.722450e-01,-8.426383e-03,2.435912e-01
-1.751908e-01,1.751908e-01,3.570855e-03,2.477572e-01
-1.826394e-01,1.826394e-01,7.011462e-03,2.582911e-01
-1.738201e-01,1.738201e-01,-8.035580e-03,2.458188e-01
-1.733293e-01,1.733293e-01,3.223843e-04,2.451247e-01
-1.823495e-01,1.823495e-01,8.929353e-03,2.578811e-01
-1.759432e-01,1.759432e-01,-6.244843e-03,2.488213e-01
-1.719878e-01,1.719878e-01,-2.886248e-03,2.432275e-01
-1.811463e-01,1.811463e-01,9.362823e-03,2.561795e-01
-1.782975e-01,1.782975e-01,-3.249457e-03,2.521508e-01
-1.713289e-01,1.713289e-01,-5.656864e-03,2.422956e-01
-1.792958e-01,1.792958e-01,8.360113e-03,2.535625e-01
