x,y,z,R
-1.799512e-01,1.799512e-01,-9.190493e-03,2.544894e-01
-1.618824e-01,1.618824e-01,-1.585897e-02,2.289363e-01
-1.789094e-01,1.789094e-01,1.756425e-02,2.530161e-01
-1.877542e-01,1.877542e-01,5.266247e-03,2.655245e-01
-1.629454e-01,1.629454e-01,-2.151655e-02,2.304396e-01
-1.718364e-01,1.718364e-01,8.633666e-03,2.430134e-01
-1.912346e-01,1.912346e-01,1.793215e-02,2.704465e-01
-1.672490e-01,1.672490e-01,-2.225431e-02,2.365258e-01
-1.661725e-01,1.661725e-01,-1.352700e-03,2.350034e-01
-1.891920e-01,1.891920e-01,2.360149e-02,2.675579e-01
-1.745950e-01,1.745950e-01,-1.623208e-02,2.469146e-01
-1.626991e-01,1.626991e-01,-1.086935e-02,2.300913e-01
-1.833237e-01,1.833237e-01,2.156497e-02,2.592589e-01
-1.832738e-01,1.832738e-01,-3.801785e-03,2.591883e-01
-1.619289e-01,1.619289e-01,-1.849066e-02,2.290021e-01
-1.760808e-01,1.760808e-01,1.435302e-02,2.490159e-01
-1.897602e-01,1.897602e-01,1.074153e-02,2.683615e-01
-1.642159e-01,1.642159e-01,-2.250939e-02,2.322363e-01
-1.694207e-01,1.694207e-01,4.799183e-03,2.395970e-01
-1.910489e-01,1.910489e-01,2.110826e-02,2.701840e-01
-1.697842e-01,1.697842e-01,-2.077834e-02,2.401112e-01
-1.645358e-01,1.645358e-01,-5.171866e-03,2.326887e-01
-1.872342e-01,1.872342e-01,2.362205e-02,2.647892e-01
-1.779611e-01,1.779611e-01,-1.203249e-02,2.516751e-01
-1.620584e-01,1.620584e-01,-1.412697e-02,2.291852e-01
-1.805590e-01,1.805590e-01,1.921593e-02,2.553490e-01
-1.862625e-01,1.862625e-01,1.927919e-03,2.634149e-01
-1.624331e-01,1.624331e-01,-2.059011e-02,2.297151e-01
-1.733480e-01,1.733480e-01,1.080291e-02,2.451511e-01
-1.909467e-01,1.909467e-01,1.556026e-02,2.700395e-01
-1.659892e-01,1.659892e-01,-2.263096e-02,2.347442e-01
-1.672783e-01,1.672783e-01,9.066466e-04,2.365673e-01
-1.900741e-01,1.900741e-01,2.304735e-02,2.688053e-01
-1.727305e-01,1.727305e-01,-1.821722e-02,2.442778e-01
-1.632616e-01,1.632616e-01,-8.838814e-03,2.308867e-01
-1.848492e-01,1.848492e-01,2.258611e-02,2.614162e-01
-1.813656e-01,1.813656e-01,-7.001676e-03,2.564897e-01
-1.618473e-01,1.618473e-01,-1.701675e-02,2.288867e-01
-1.777210e-01,1.777210e-01,1.627203e-02,2.513354e-01
-1.886855e-01,1.886855e-01,7.612306e-03,2.668416e-01
-1.634161e-01,1.634161e-01,-2.202950e-02,2.311053e-01
-1.707958e-01,1.707958e-01,7.042588e-03,2.415418e-01
-1.912593e-01,1.912593e-01,1.940571e-02,2.704815e-01
-1.682545e-01,1.682545e-01,-2.176721e-02,2.379479e-01
-1.654460e-01,1.654460e-01,-2.963027e-03,2.339760e-01
-1.884351e-01,1.884351e-01,2.374850e-02,2.664875e-01
-1.759848e-01,1.759848e-01,-1.459105e-02,2.488801e-01
-1.623800e-01,1.623800e-01,-1.227075e-02,2.296401e-01
-1.821843e-01,1.821843e-01,2.066643e-02,2.576476e-01
-1.845784e-01,1.845784e-01,-1.425596e-03,2.610333e-01
-1.620831e-01,1.620831e-01,-1.944041e-02,2.292201e-01
-1.749208e-01,1.749208e-01,1.290159e-02,2.473754e-01
-1.903613e-01,1.903613e-01,1.285680e-02,2.692115e-01
-1.648963e-01,1.648963e-01,-2.267340e-02,2.331986e-01
-1.684891e-01,1.684891e-01,3.173716e-03,2.382795e-01
-1.907309e-01,1.907309e-01,2.207240e-02,2.697342e-01
-1.709713e-01,1.709713e-01,-1.984004e-02,2.417899e-01
-1.639569e-01,1.639569e-01,-6.728657e-03,2.318701e-01
-1.862801e-01,1.862801e-01,2.330796e-02,2.634398e-01
-1.793924e-01,1.793924e-01,-1.001552e-02,2.536992e-01
-1.619169e-01,1.619169e-01,-1.538548e-02,2.289851e-01
-1.793744e-01,1.793744e-01,1.804707e-02,2.536737e-01
-1.873565e-01,1.873565e-01,4.333543e-03,2.649622e-01
-1.627846e-01,1.627846e-01,-2.128011e-02,2.302121e-01
-1.722546e-01,1.722546e-01,9.249554e-03,2.436048e-01
-1.911836e-01,1.911836e-01,1.730161e-02,2.703745e-01
-1.668783e-01,1.668783e-01,-2.239512e-02,2.360015e-01
-1.664724e-01,1.664724e-01,-7.190001e-04,2.354275e-01
-1.894612e-01,1.894612e-01,2.348744e-02,2.679386e-01
-1.740615e-01,1.740615e-01,-1.682613e-02,2.461602e-01
-1.628434e-01,1.628434e-01,-1.030727e-02,2.302953e-01
-1.837607e-01,1.837607e-01,2.188027e-02,2.598768e-01
-1.827465e-01,1.827465e-01,-4.716554e-03,2.584425e-01
-1.618906e-01,1.618906e-01,-1.809335e-02,2.289479e-01
-1.765397e-01,1.765397e-01,1.490544e-02,2.496648e-01
-1.894853e-01,1.894853e-01,9.881035e-03,2.679727e-01
-1.639737e-01,1.639737e-01,-2.240319e-02,2.318939e-01
-1.697987e-01,1.697987e-01,5.432687e-03,2.401316e-01
-1.911360e-01,1.911360e-01,2.067149e-02,2.703072e-01
-1.693394e-01,1.693394e-01,-2.109349e-02,2.394820e-01
-1.647796e-01,1.647796e-01,-4.555191e-03,2.330335e-01
-1.875880e-01,1.875880e-01,2.369511e-02,2.652895e-01
-1.774020e-01,1.774020e-01,-1.278261e-02,2.508843e-01
-1.621342e-01,1.621342e-01,-1.361676e-02,2.292924e-01
-1.810196e-01,1.810196e-01,1.964567e-02,2.560004e-01
-1.858065e-01,1.858065e-01,9.829860e-04,2.627701e-01
-1.623185e-01,1.623185e-01,-2.028821e-02,2.295530e-01
-1.737847e-01,1.737847e-01,1.140125e-02,2.457686e-01
-1.908121e-01,1.908121e-01,1.483117e-02,2.698490e-01
-1.656646e-01,1.656646e-01,-2.267579e-02,2.342851e-01
-1.676083e-01,1.676083e-01,1.544110e-03,2.370340e-01
-1.902827e-01,1.902827e-01,2.281618e-02,2.691004e-01
-1.722243e-01,1.722243e-01,-1.871073e-02,2.435619e-01
-1.634441e-01,1.634441e-01,-8.252765e-03,2.311448e-01
-1.852624e-01,1.852624e-01,2.282090e-02,2.620006e-01
-1.808151e-01,1.808151e-01,-7.870839e-03,2.557111e-01
-1.618520e-01,1.618520e-01,-1.657305e-02,2.288933e-01
-1.781855e-01,1.781855e-01,1.678711e-02,2.519924e-01
-1.883362e-01,1.883362e-01,6.702056e-03,2.663476e-01
-1.632216e-01,1.632216e-01,-2.184484e-02,2.308302e-01
-1.711983e-01,1.711983e-01,7.667633e-03,2.421110e-01
-1.912676e-01,1.912676e-01,1.885329e-02,2.704932e-01
-1.678515e-01,1.678515e-01,-2.197978e-02,2.373778e-01
-1.657231e-01,1.657231e-01,-2.334799e-03,2.343679e-01
-1.887426e-01,1.887426e-01,2.371536e-02,2.669223e-01
-1.754370e-01,1.754370e-01,-1.525369e-02,2.481054e-01
-1.624962e-01,1.624962e-01,-1.172870e-02,2.298043e-01
-1.826335e-01,1.826335e-01,2.103331e-02,2.582828e-01
-1.840762e-01,1.840762e-01,-2.360691e-03,2.603231e-01
-1.620130e-01,1.620130e-01,-1.908042e-02,2.291210e-01
-1.753723e-01,1.753723e-01,1.347580e-02,2.480139e-01
-1.901438e-01,1.901438e-01,1.204465e-02,2.689039e-01
-1.646198e-01,1.646198e-01,-2.262803e-02,2.328076e-01
-1.688476e-01,1.688476e-01,3.810487e-03,2.387866e-01
-1.908713e-01,1.908713e-01,2.172139e-02,2.699328e-01
-1.704985e-01,1.704985e-01,-2.022991e-02,2.411213e-01
-1.641757e-01,1.641757e-01,-6.123141e-03,2.321795e-01
-1.866617e-01,1.866617e-01,2.345208e-02,2.639795e-01
-1.788327e-01,1.788327e-01,-1.082098e-02,2.529076e-01
-1.619631e-01,1.619631e-01,-1.490114e-02,2.290505e-01
-1.798389e-01,1.798389e-01,1.851590e-02,2.543306e-01
-1.869414e-01,1.869414e-01,3.395155e-03,2.643750e-01
-1.626369e-01,1.626369e-01,-2.102451e-02,2.300033e-01
-1.726780e-01,1.726780e-01,9.861155e-03,2.442036e-01
-1.911092e-01,1.911092e-01,1.664199e-02,2.702693e-01
-1.665202e-01,1.665202e-01,-2.250840e-02,2.354951e-01
-1.667809e-01,1.667809e-01,-8.379141e-05,2.358638e-01
-1.897141e-01,1.897141e-01,2.334092e-02,2.682963e-01
-1.735348e-01,1.735348e-01,-1.739239e-02,2.454153e-01
-1.629986e-01,1.629986e-01,-9.737998e-03,2.305148e-01
-1.841917e-01,1.841917e-01,2.217399e-02,2.604864e-01
-1.822113e-01,1.822113e-01,-5.620476e-03,2.576857e-01
-1.618642e-01,1.618642e-01,-1.768230e-02,2.289105e-01
-1.770006e-01,1.770006e-01,1.544822e-02,2.503166e-01
-1.891887e-01,1.891887e-01,9.004425e-03,2.675533e-01
-1.637451e-01,1.637451e-01,-2.227419e-02,2.315705e-01
-1.701833e-01,1.701833e-01,6.064402e-03,2.406755e-01
-1.912015e-01,1.912015e-01,2.020158e-02,2.703998e-01
-1.689059e-01,1.689059e-01,-2.137957e-02,2.388690e-01
-1.650329e-01,1.650329e-01,-3.934805e-03,2.333918e-01
-1.879294e-01,1.879294e-01,2.373925e-02,2.657722e-01
-1.768451e-01,1.768451e-01,-1.350926e-02,2.500967e-01
-1.622216e-01,1.622216e-01,-1.309713e-02,2.294160e-01
-1.814776e-01,1.814776e-01,2.005876e-02,2.566481e-01
-1.853362e-01,1.853362e-01,3.861273e-05,2.621049e-01
-1.622164e-01,1.622164e-01,-1.996922e-02,2.294086e-01
-1.742259e-01,1.742259e-01,1.199348e-02,2.463926e-01
-1.906539e-01,1.906539e-01,1.407702e-02,2.696253e-01
-1.653537e-01,1.653537e-01,-2.269467e-02,2.338455e-01
-1.679466e-01,1.679466e-01,2.181817e-03,2.375124e-01
-1.904729e-01,1.904729e-01,2.255145e-02,2.693694e-01
-1.717265e-01,1.717265e-01,-1.917522e-02,2.428579e-01
-1.636368e-01,1.636368e-01,-7.660763e-03,2.314174e-01
-1.856673e-01,1.856673e-01,2.303125e-02,2.625733e-01
-1.802606e-01,1.802606e-01,-8.723802e-03,2.549270e-01
-1.618681e-01,1.618681e-01,-1.611730e-02,2.289161e-01
-1.786508e-01,1.786508e-01,1.729009e-02,2.526503e-01
-1.879674e-01,1.879674e-01,5.781672e-03,2.658260e-01
-1.630403e-01,1.630403e-01,-2.163946e-02,2.305738e-01
-1.716066e-01,1.716066e-01,8.289526e-03,2.426884e-01
-1.912528e-01,1.912528e-01,1.826977e-02,2.704723e-01
-1.674608e-01,1.674608e-01,-2.216401e-02,2.368253e-01
-1.660093e-01,1.660093e-01,-1.704156e-03,2.347725e-01
-1.890356e-01,1.890356e-01,2.365096e-02,2.673368e-01
-1.748943e-01,1.748943e-01,-1.588997e-02,2.473379e-01
-1.626234e-01,1.626234e-01,-1.117855e-02,2.299842e-01
-1.830783e-01,1.830783e-01,2.138065e-02,2.589119e-01
-1.835632e-01,1.835632e-01,-3.289124e-03,2.595976e-01
-1.619557e-01,1.619557e-01,-1.870547e-02,2.290400e-01
-1.758270e-01,1.758270e-01,1.404195e-02,2.486569e-01
-1.899035e-01,1.899035e-01,1.121239e-02,2.685640e-01
-1.643565e-01,1.643565e-01,-2.255839e-02,2.324351e-01
-1.692140e-01,1.692140e-01,4.446240e-03,2.393048e-01
-1.909913e-01,1.909913e-01,2.133665e-02,2.701024e-01
-1.700365e-01,1.700365e-01,-2.059052e-02,2.404680e-01
-1.644044e-01,1.644044e-01,-5.512979e-03,2.325030e-01
-1.870327e-01,1.870327e-01,2.356908e-02,2.645042e-01
-1.782722e-01,1.782722e-01,-1.160565e-02,2.521149e-01
-1.620211e-01,1.620211e-01,-1.440638e-02,2.291325e-01
-1.803022e-01,1.803022e-01,1.897006e-02,2.549858e-01
-1.865095e-01,1.865095e-01,2.452844e-03,2.637642e-01
-1.625024e-01,1.625024e-01,-2.075036e-02,2.298131e-01
-1.731072e-01,1.731072e-01,1.046787e-02,2.448106e-01
-1.910113e-01,1.910113e-01,1.595433e-02,2.701308e-01
-1.661751e-01,1.661751e-01,-2.259459e-02,2.350071e-01
-1.670980e-01,1.670980e-01,5.525605e-04,2.363123e-01
-1.899503e-01,1.899503e-01,2.316150e-02,2.686303e-01
-1.730157e-01,1.730157e-01,-1.793043e-02,2.446812e-01
-1.631645e-01,1.631645e-01,-9.161878e-03,2.307495e-01
-1.846162e-01,1.846162e-01,2.244529e-02,2.610867e-01
-1.816693e-01,1.816693e-01,-6.511978e-03,2.569193e-01
-1.618502e-01,1.618502e-01,-1.725814e-02,2.288907e-01
-1.774633e-01,1.774633e-01,1.598070e-02,2.509709e-01
-1.888710e-01,1.888710e-01,8.113344e-03,2.671040e-01
-1.635299e-01,1.635299e-01,-2.212295e-02,2.312661e-01
-1.705752e-01,1.705752e-01,6.693788e-03,2.412297e-01
-1.912449e-01,1.912449e-01,1.969907e-02,2.704611e-01
-1.684839e-01,1.684839e-01,-2.163670e-02,2.382722e-01
-1.652957e-01,1.652957e-01,-3.311073e-03,2.337635e-01
-1.882581e-01,1.882581e-01,2.375360e-02,2.662372e-01
-1.762913e-01,1.762913e-01,-1.421151e-02,2.493135e-01
-1.623203e-01,1.623203e-01,-1.256845e-02,2.295556e-01
-1.819326e-01,1.819326e-01,2.045439e-02,2.572916e-01
-1.848526e-01,1.848526e-01,-9.034709e-04,2.614210e-01
-1.621275e-01,1.621275e-01,-1.963384e-02,2.292829e-01
-1.746715e-01,1.746715e-01,1.257907e-02,2.470228e-01
-1.904722e-01,1.904722e-01,1.329908e-02,2.693684e-01
-1.650559e-01,1.650559e-01,-2.268797e-02,2.334243e-01
-1.682930e-01,1.682930e-01,2.819413e-03,2.380022e-01
-1.906442e-01,1.906442e-01,2.225295e-02,2.696115e-01
-1.712385e-01,1.712385e-01,-1.961062e-02,2.421678e-01
-1.638398e-01,1.638398e-01,-7.063192e-03,2.317045e-01
-1.860637e-01,1.860637e-01,2.321630e-02,2.631338e-01
-1.797034e-01,1.797034e-01,-9.559192e-03,2.541390e-01
-1.618961e-01,1.618961e-01,-1.565004e-02,2.289557e-01
-1.791160e-01,1.791160e-01,1.778031e-02,2.533083e-01
-1.875798e-01,1.875798e-01,4.852883e-03,2.652779e-01
-1.628722e-01,1.628722e-01,-2.141395e-02,2.303361e-01
-1.720216e-01,1.720216e-01,8.907622e-03,2.432753e-01
-1.912148e-01,1.912148e-01,1.765580e-02,2.704186e-01
-1.670827e-01,1.670827e-01,-2.232023e-02,2.362906e-01
-1.663043e-01,1.663043e-01,-1.071457e-03,2.351898e-01
-1.893135e-01,1.893135e-01,2.355479e-02,2.677298e-01
-1.743573e-01,1.743573e-01,-1.649926e-02,2.465785e-01
-1.627617e-01,1.627617e-01,-1.062065e-02,2.301798e-01
-1.835183e-01,1.835183e-01,2.170762e-02,2.595341e-01
-1.830408e-01,1.830408e-01,-4.209230e-03,2.588587e-01
-1.619103e-01,1.619103e-01,-1.831594e-02,2.289758e-01
-1.762844e-01,1.762844e-01,1.459946e-02,2.493038e-01
-1.896408e-01,1.896408e-01,1.036154e-02,2.681926e-01
-1.641067e-01,1.641067e-01,-2.246508e-02,2.320819e-01
-1.695876e-01,1.695876e-01,5.080709e-03,2.398331e-01
-1.910903e-01,1.910903e-01,2.091842e-02,2.702424e-01
-1.695854e-01,1.695854e-01,-2.092190e-02,2.398300e-01
-1.646429e-01,1.646429e-01,-4.898537e-03,2.328403e-01
-1.873928e-01,1.873928e-01,2.365800e-02,2.650135e-01
-1.777127e-01,1.777127e-01,-1.236842e-02,2.513236e-01
-1.620907e-01,1.620907e-01,-1.390161e-02,2.292309e-01
-1.807638e-01,1.807638e-01,1.940877e-02,2.556386e-01
-1.860618e-01,1.860618e-01,1.508368e-03,2.631312e-01
-1.623807e-01,1.623807e-01,-2.045820e-02,2.296409e-01
-1.735412e-01,1.735412e-01,1.106934e-02,2.454244e-01
-1.908898e-01,1.908898e-01,1.523971e-02,2.699589e-01
-1.658436e-01,1.658436e-01,-2.265414e-02,2.345383e-01
-1.674236e-01,1.674236e-01,1.189701e-03,2.367727e-01
-1.901689e-01,1.901689e-01,2.294885e-02,2.689395e-01
-1.725047e-01,1.725047e-01,-1.843992e-02,2.439585e-01
-1.633410e-01,1.633410e-01,-8.579272e-03,2.309991e-01
-1.850335e-01,1.850335e-01,2.269337e-02,2.616769e-01
-1.811218e-01,1.811218e-01,-7.389542e-03,2.561449e-01
-1.618479e-01,1.618479e-01,-1.682123e-02,2.288875e-01
-1.779272e-01,1.779272e-01,1.650219e-02,2.516271e-01
-1.885329e-01,1.885329e-01,7.209467e-03,2.666258e-01
-1.633279e-01,1.633279e-01,-2.195008e-02,2.309806e-01
-1.709738e-01,1.709738e-01,7.320515e-03,2.417934e-01
-1.912657e-01,1.912657e-01,1.916433e-02,2.704906e-01
-1.680741e-01,1.680741e-01,-2.186512e-02,2.376927e-01
-1.655678e-01,1.655678e-01,-2.684361e-03,2.341483e-01
-1.885735e-01,1.885735e-01,2.373758e-02,2.666831e-01
-1.757411e-01,1.757411e-01,-1.488852e-02,2.485355e-01
-1.624303e-01,1.624303e-01,-1.203110e-02,2.297112e-01
-1.823843e-01,1.823843e-01,2.083171e-02,2.579303e-01
-1.843567e-01,1.843567e-01,-1.841538e-03,2.607197e-01
-1.620503e-01,1.620503e-01,-1.928243e-02,2.291738e-01
-1.751211e-01,1.751211e-01,1.315750e-02,2.476586e-01
-1.902675e-01,1.902675e-01,1.249876e-02,2.690789e-01
-1.647717e-01,1.647717e-01,-2.265626e-02,2.330224e-01
-1.686475e-01,1.686475e-01,3.456545e-03,2.385036e-01
-1.907957e-01,1.907957e-01,2.192068e-02,2.698259e-01
-1.707600e-01,1.707600e-01,-2.001677e-02,2.414912e-01
-1.640530e-01,1.640530e-01,-6.460405e-03,2.320060e-01
-1.864509e-01,1.864509e-01,2.337523e-02,2.636813e-01
-1.791439e-01,1.791439e-01,-1.037568e-02,2.533478e-01
-1.619360e-01,1.619360e-01,-1.517171e-02,2.290121e-01
-1.795807e-01,1.795807e-01,1.825704e-02,2.539655e-01
-1.871743e-01,1.871743e-01,3.917439e-03,2.647045e-01
-1.627173e-01,1.627173e-01,-2.116894e-02,2.301171e-01
-1.724418e-01,1.724418e-01,9.521721e-03,2.438695e-01
-1.911535e-01,1.911535e-01,1.701224e-02,2.703318e-01
-1.667176e-01,1.667176e-01,-2.244878e-02,2.357743e-01
-1.666082e-01,1.666082e-01,-4.370637e-04,2.356195e-01
-1.895756e-01,1.895756e-01,2.342639e-02,2.681004e-01
-1.738268e-01,1.738268e-01,-1.708104e-02,2.458282e-01
-1.629110e-01,1.629110e-01,-1.005534e-02,2.303909e-01
-1.839527e-01,1.839527e-01,2.201344e-02,2.601484e-01
-1.825098e-01,1.825098e-01,-5.119377e-03,2.581078e-01
-1.618773e-01,1.618773e-01,-1.791247e-02,2.289291e-01
-1.767442e-01,1.767442e-01,1.514767e-02,2.499540e-01
-1.893562e-01,1.893562e-01,9.493674e-03,2.677901e-01
-1.638705e-01,1.638705e-01,-2.234867e-02,2.317479e-01
-1.699684e-01,1.699684e-01,5.713492e-03,2.403717e-01
-1.911678e-01,1.911678e-01,2.046690e-02,2.703521e-01
-1.691453e-01,1.691453e-01,-2.122409e-02,2.392076e-01
-1.648911e-01,1.648911e-01,-4.280180e-03,2.331912e-01
-1.877410e-01,1.877410e-01,2.371838e-02,2.655059e-01
-1.771544e-01,1.771544e-01,-1.310824e-02,2.505342e-01
-1.621718e-01,1.621718e-01,-1.338720e-02,2.293456e-01
-1.812233e-01,1.812233e-01,1.983122e-02,2.562884e-01
-1.855993e-01,1.855993e-01,5.634699e-04,2.624770e-01
-1.622715e-01,1.622715e-01,-2.014862e-02,2.294866e-01
-1.739800e-01,1.739800e-01,1.166501e-02,2.460449e-01
-1.907446e-01,1.907446e-01,1.449933e-02,2.697536e-01
-1.655248e-01,1.655248e-01,-2.268734e-02,2.340874e-01
-1.677575e-01,1.677575e-01,1.827277e-03,2.372449e-01
-1.903696e-01,1.903696e-01,2.270272e-02,2.692232e-01
-1.720020e-01,1.720020e-01,-1.892055e-02,2.432475e-01
-1.635280e-01,1.635280e-01,-7.990533e-03,2.312636e-01
-1.854432e-01,1.854432e-01,2.291740e-02,2.622562e-01
-1.805693e-01,1.805693e-01,-8.251683e-03,2.553636e-01
-1.618574e-01,1.618574e-01,-1.637209e-02,2.289010e-01
-1.783920e-01,1.783920e-01,1.701201e-02,2.522844e-01
-1.881748e-01,1.881748e-01,6.294499e-03,2.661194e-01
-1.631393e-01,1.631393e-01,-2.175614e-02,2.307139e-01
-1.713787e-01,1.713787e-01,7.944243e-03,2.423661e-01
-1.912638e-01,1.912638e-01,1.859798e-02,2.704879e-01
-1.676766e-01,1.676766e-01,-2.206509e-02,2.371306e-01
-1.658491e-01,1.658491e-01,-2.055034e-03,2.345460e-01
-1.888747e-01,1.888747e-01,2.369059e-02,2.671091e-01
-1.751954e-01,1.751954e-01,-1.553954e-02,2.477638e-01
