x,y,z,R
-1.627171e-01,1.627171e-01,6.352315e-03,2.301168e-01
-1.979709e-01,1.979709e-01,3.745813e-02,2.799731e-01
-1.673059e-01,1.673059e-01,-3.264166e-02,2.366063e-01
-1.531038e-01,1.531038e-01,-1.616178e-02,2.165215e-01
-1.827858e-01,1.827858e-01,3.198726e-02,2.584981e-01
-1.906026e-01,1.906026e-01,4.347078e-04,2.695528e-01
-1.526839e-01,1.526839e-01,-3.354842e-02,2.159277e-01
-1.652936e-01,1.652936e-01,1.041401e-02,2.337605e-01
-1.991069e-01,1.991069e-01,3.452479e-02,2.815796e-01
-1.638567e-01,1.638567e-01,-3.520731e-02,2.317283e-01
-1.544203e-01,1.544203e-01,-1.212307e-02,2.183833e-01
-1.862581e-01,1.862581e-01,3.482906e-02,2.634088e-01
-1.862119e-01,1.862119e-01,-7.524373e-03,2.633434e-01
-1.521727e-01,1.521727e-01,-3.057443e-02,2.152047e-01
-1.686028e-01,1.686028e-01,1.506523e-02,2.384404e-01
-1.994084e-01,1.994084e-01,2.939966e-02,2.820060e-01
-1.604138e-01,1.604138e-01,-3.681338e-02,2.268593e-01
-1.562991e-01,1.562991e-01,-7.272683e-03,2.210403e-01
-1.900568e-01,1.900568e-01,3.724687e-02,2.687809e-01
-1.807882e-01,1.807882e-01,-1.610510e-02,2.556731e-01
-1.519420e-01,1.519420e-01,-2.685538e-02,2.148785e-01
-1.725007e-01,1.725007e-01,2.021278e-02,2.439528e-01
-1.984942e-01,1.984942e-01,2.223608e-02,2.807132e-01
-1.573082e-01,1.573082e-01,-3.732764e-02,2.224675e-01
-1.584617e-01,1.584617e-01,-2.153623e-03,2.240987e-01
-1.935730e-01,1.935730e-01,3.867656e-02,2.737535e-01
-1.753784e-01,1.753784e-01,-2.365085e-02,2.480225e-01
-1.519797e-01,1.519797e-01,-2.305267e-02,2.149318e-01
-1.763165e-01,1.763165e-01,2.501105e-02,2.493492e-01
-1.964838e-01,1.964838e-01,1.454250e-02,2.778701e-01
-1.550122e-01,1.550122e-01,-3.682560e-02,2.192204e-01
-1.606028e-01,1.606028e-01,2.440747e-03,2.271267e-01
-1.962219e-01,1.962219e-01,3.873302e-02,2.774996e-01
-1.708902e-01,1.708902e-01,-2.907436e-02,2.416752e-01
-1.523473e-01,1.523473e-01,-1.954538e-02,2.154516e-01
-1.796867e-01,1.796867e-01,2.890073e-02,2.541154e-01
-1.938244e-01,1.938244e-01,7.353863e-03,2.741091e-01
-1.535460e-01,1.535460e-01,-3.553999e-02,2.171469e-01
-1.627907e-01,1.627907e-01,6.477329e-03,2.302208e-01
-1.980171e-01,1.980171e-01,3.739265e-02,2.800384e-01
-1.671949e-01,1.671949e-01,-3.273831e-02,2.364493e-01
-1.531366e-01,1.531366e-01,-1.604478e-02,2.165678e-01
-1.828900e-01,1.828900e-01,3.208174e-02,2.586455e-01
-1.904818e-01,1.904818e-01,1.977602e-04,2.693820e-01
-1.526628e-01,1.526628e-01,-3.346882e-02,2.158979e-01
-1.653867e-01,1.653867e-01,1.055072e-02,2.338921e-01
-1.991313e-01,1.991313e-01,3.439836e-02,2.816142e-01
-1.637470e-01,1.637470e-01,-3.527353e-02,2.315732e-01
-1.544718e-01,1.544718e-01,-1.198089e-02,2.184560e-01
-1.863755e-01,1.863755e-01,3.491450e-02,2.635747e-01
-1.860523e-01,1.860523e-01,-7.793396e-03,2.631176e-01
-1.521615e-01,1.521615e-01,-3.046508e-02,2.151889e-01
-1.687202e-01,1.687202e-01,1.522428e-02,2.386064e-01
-1.993993e-01,1.993993e-01,2.919820e-02,2.819933e-01
-1.603069e-01,1.603069e-01,-3.684709e-02,2.267082e-01
-1.563657e-01,1.563657e-01,-7.109305e-03,2.211345e-01
-1.901771e-01,1.901771e-01,3.731086e-02,2.689510e-01
-1.806092e-01,1.806092e-01,-1.637066e-02,2.554199e-01
-1.519390e-01,1.519390e-01,-2.673217e-02,2.148742e-01
-1.726271e-01,1.726271e-01,2.037555e-02,2.441316e-01
-1.984446e-01,1.984446e-01,2.199042e-02,2.806431e-01
-1.572214e-01,1.572214e-01,-3.732600e-02,2.223447e-01
-1.585311e-01,1.585311e-01,-1.997021e-03,2.241969e-01
-1.936719e-01,1.936719e-01,3.870003e-02,2.738934e-01
-1.752197e-01,1.752197e-01,-2.385671e-02,2.477981e-01
-1.519857e-01,1.519857e-01,-2.293662e-02,2.149402e-01
-1.764304e-01,1.764304e-01,2.514911e-02,2.495103e-01
-1.964078e-01,1.964078e-01,1.430557e-02,2.777626e-01
-1.549542e-01,1.549542e-01,-3.679602e-02,2.191383e-01
-1.606702e-01,1.606702e-01,2.575363e-03,2.272220e-01
-1.962907e-01,1.962907e-01,3.871199e-02,2.775970e-01
-1.707634e-01,1.707634e-01,-2.921385e-02,2.414959e-01
-1.523651e-01,1.523651e-01,-1.943689e-02,2.154768e-01
-1.797885e-01,1.797885e-01,2.901036e-02,2.542594e-01
-1.937305e-01,1.937305e-01,7.131214e-03,2.739764e-01
-1.535100e-01,1.535100e-01,-3.548703e-02,2.170960e-01
-1.628646e-01,1.628646e-01,6.602392e-03,2.303253e-01
-1.980626e-01,1.980626e-01,3.732562e-02,2.801029e-01
-1.670843e-01,1.670843e-01,-3.283387e-02,2.362929e-01
-1.531702e-01,1.531702e-01,-1.592727e-02,2.166154e-01
-1.829945e-01,1.829945e-01,3.217589e-02,2.587933e-01
-1.903597e-01,1.903597e-01,-4.012621e-05,2.692093e-01
-1.526415e-01,1.526415e-01,-3.338812e-02,2.158677e-01
-1.654800e-01,1.654800e-01,1.068822e-02,2.340241e-01
-1.991548e-01,1.991548e-01,3.426948e-02,2.816474e-01
-1.636373e-01,1.636373e-01,-3.533881e-02,2.314181e-01
-1.545243e-01,1.545243e-01,-1.183794e-02,2.185304e-01
-1.864931e-01,1.864931e-01,3.499956e-02,2.637411e-01
-1.858918e-01,1.858918e-01,-8.063161e-03,2.628906e-01
-1.521504e-01,1.521504e-01,-3.035490e-02,2.151731e-01
-1.688386e-01,1.688386e-01,1.538380e-02,2.387739e-01
-1.993892e-01,1.993892e-01,2.899482e-02,2.819789e-01
-1.602006e-01,1.602006e-01,-3.687967e-02,2.265578e-01
-1.564325e-01,1.564325e-01,-6.945636e-03,2.212290e-01
-1.902972e-01,1.902972e-01,3.737383e-02,2.691208e-01
-1.804299e-01,1.804299e-01,-1.663506e-02,2.551664e-01
-1.519360e-01,1.519360e-01,-2.660888e-02,2.148699e-01
-1.727529e-01,1.727529e-01,2.053800e-02,2.443095e-01
-1.983939e-01,1.983939e-01,2.174446e-02,2.805714e-01
-1.571357e-01,1.571357e-01,-3.732334e-02,2.222234e-01
-1.585998e-01,1.585998e-01,-1.840890e-03,2.242940e-01
-1.937697e-01,1.937697e-01,3.872206e-02,2.740318e-01
-1.750621e-01,1.750621e-01,-2.406027e-02,2.475752e-01
-1.519926e-01,1.519926e-01,-2.282109e-02,2.149499e-01
-1.765435e-01,1.765435e-01,2.528625e-02,2.496702e-01
-1.963312e-01,1.963312e-01,1.406920e-02,2.776543e-01
-1.548967e-01,1.548967e-01,-3.676564e-02,2.190571e-01
-1.607376e-01,1.607376e-01,2.709392e-03,2.273172e-01
-1.963588e-01,1.963588e-01,3.868972e-02,2.776933e-01
-1.706373e-01,1.706373e-01,-2.935157e-02,2.413176e-01
-1.523838e-01,1.523838e-01,-1.932855e-02,2.155033e-01
-1.798903e-01,1.798903e-01,2.911924e-02,2.544033e-01
-1.936360e-01,1.936360e-01,6.908646e-03,2.738426e-01
-1.534750e-01,1.534750e-01,-3.543335e-02,2.170464e-01
-1.629390e-01,1.629390e-01,6.727501e-03,2.304305e-01
-1.981075e-01,1.981075e-01,3.725707e-02,2.801664e-01
-1.669738e-01,1.669738e-01,-3.292836e-02,2.361366e-01
-1.532039e-01,1.532039e-01,-1.580902e-02,2.166630e-01
-1.830995e-01,1.830995e-01,3.226971e-02,2.589418e-01
-1.902367e-01,1.902367e-01,-2.789800e-04,2.690353e-01
-1.526211e-01,1.526211e-01,-3.330654e-02,2.158389e-01
-1.655747e-01,1.655747e-01,1.082630e-02,2.341580e-01
-1.991777e-01,1.991777e-01,3.413863e-02,2.816798e-01
-1.635276e-01,1.635276e-01,-3.540314e-02,2.312630e-01
-1.545769e-01,1.545769e-01,-1.169394e-02,2.186048e-01
-1.866112e-01,1.866112e-01,3.508421e-02,2.639081e-01
-1.857298e-01,1.857298e-01,-8.333663e-03,2.626616e-01
-1.521397e-01,1.521397e-01,-3.024399e-02,2.151580e-01
-1.689571e-01,1.689571e-01,1.554399e-02,2.389414e-01
-1.993777e-01,1.993777e-01,2.878904e-02,2.819626e-01
-1.600942e-01,1.600942e-01,-3.691109e-02,2.264074e-01
-1.564994e-01,1.564994e-01,-6.781682e-03,2.213236e-01
-1.904169e-01,1.904169e-01,3.743571e-02,2.692901e-01
-1.802510e-01,1.802510e-01,-1.689819e-02,2.549134e-01
-1.519335e-01,1.519335e-01,-2.648567e-02,2.148665e-01
-1.728789e-01,1.728789e-01,2.069994e-02,2.444876e-01
-1.983421e-01,1.983421e-01,2.149801e-02,2.804981e-01
-1.570505e-01,1.570505e-01,-3.731962e-02,2.221029e-01
-1.586690e-01,1.586690e-01,-1.685540e-03,2.243918e-01
-1.938667e-01,1.938667e-01,3.874263e-02,2.741690e-01
-1.749058e-01,1.749058e-01,-2.426154e-02,2.473542e-01
-1.519991e-01,1.519991e-01,-2.270574e-02,2.149591e-01
-1.766564e-01,1.766564e-01,2.542232e-02,2.498299e-01
-1.962540e-01,1.962540e-01,1.383361e-02,2.775451e-01
-1.548400e-01,1.548400e-01,-3.673448e-02,2.189768e-01
-1.608051e-01,1.608051e-01,2.842770e-03,2.274128e-01
-1.964261e-01,1.964261e-01,3.866610e-02,2.777884e-01
-1.705121e-01,1.705121e-01,-2.948758e-02,2.411406e-01
-1.524023e-01,1.524023e-01,-1.922004e-02,2.155295e-01
-1.799915e-01,1.799915e-01,2.922755e-02,2.545465e-01
-1.935408e-01,1.935408e-01,6.686042e-03,2.737080e-01
-1.534405e-01,1.534405e-01,-3.537888e-02,2.169977e-01
-1.630137e-01,1.630137e-01,6.852724e-03,2.305362e-01
-1.981518e-01,1.981518e-01,3.718679e-02,2.802290e-01
-1.668635e-01,1.668635e-01,-3.302178e-02,2.359807e-01
-1.532387e-01,1.532387e-01,-1.569028e-02,2.167122e-01
-1.832046e-01,1.832046e-01,3.236331e-02,2.590905e-01
-1.901123e-01,1.901123e-01,-5.188170e-04,2.688594e-01
-1.526006e-01,1.526006e-01,-3.322391e-02,2.158098e-01
-1.656697e-01,1.656697e-01,1.096515e-02,2.342923e-01
-1.991995e-01,1.991995e-01,3.400520e-02,2.817106e-01
-1.634178e-01,1.634178e-01,-3.546651e-02,2.311076e-01
-1.546304e-01,1.546304e-01,-1.154914e-02,2.186804e-01
-1.867297e-01,1.867297e-01,3.516846e-02,2.640756e-01
-1.855670e-01,1.855670e-01,-8.604825e-03,2.624314e-01
-1.521291e-01,1.521291e-01,-3.013227e-02,2.151431e-01
-1.690766e-01,1.690766e-01,1.570460e-02,2.391105e-01
-1.993648e-01,1.993648e-01,2.858132e-02,2.819445e-01
-1.599884e-01,1.599884e-01,-3.694135e-02,2.262577e-01
-1.565670e-01,1.565670e-01,-6.617648e-03,2.214192e-01
-1.905362e-01,1.905362e-01,3.749650e-02,2.694588e-01
-1.800722e-01,1.800722e-01,-1.716003e-02,2.546605e-01
-1.519310e-01,1.519310e-01,-2.636237e-02,2.148629e-01
-1.730047e-01,1.730047e-01,2.086137e-02,2.446656e-01
-1.982892e-01,1.982892e-01,2.125136e-02,2.804232e-01
-1.569662e-01,1.569662e-01,-3.731486e-02,2.219837e-01
-1.587377e-01,1.587377e-01,-1.530774e-03,2.244891e-01
-1.939627e-01,1.939627e-01,3.876173e-02,2.743047e-01
-1.747504e-01,1.747504e-01,-2.446051e-02,2.471344e-01
-1.520066e-01,1.520066e-01,-2.259091e-02,2.149698e-01
-1.767688e-01,1.767688e-01,2.555739e-02,2.499888e-01
-1.961763e-01,1.961763e-01,1.359857e-02,2.774352e-01
-1.547844e-01,1.547844e-01,-3.670262e-02,2.188981e-01
-1.608724e-01,1.608724e-01,2.975676e-03,2.275079e-01
-1.964925e-01,1.964925e-01,3.864105e-02,2.778823e-01
-1.703878e-01,1.703878e-01,-2.962187e-02,2.409647e-01
-1.524218e-01,1.524218e-01,-1.911164e-02,2.155570e-01
-1.800928e-01,1.800928e-01,2.933513e-02,2.546897e-01
-1.934449e-01,1.934449e-01,6.463418e-03,2.735724e-01
-1.534064e-01,1.534064e-01,-3.532358e-02,2.169494e-01
-1.630890e-01,1.630890e-01,6.978023e-03,2.306427e-01
-1.981954e-01,1.981954e-01,3.711475e-02,2.802906e-01
-1.667535e-01,1.667535e-01,-3.311415e-02,2.358250e-01
-1.532735e-01,1.532735e-01,-1.557076e-02,2.167615e-01
-1.833101e-01,1.833101e-01,3.245663e-02,2.592396e-01
-1.899868e-01,1.899868e-01,-7.596587e-04,2.686819e-01
-1.525808e-01,1.525808e-01,-3.314036e-02,2.157818e-01
-1.657658e-01,1.657658e-01,1.110464e-02,2.344283e-01
-1.992206e-01,1.992206e-01,3.386952e-02,2.817404e-01
-1.633078e-01,1.633078e-01,-3.552893e-02,2.309521e-01
-1.546845e-01,1.546845e-01,-1.140346e-02,2.187569e-01
-1.868484e-01,1.868484e-01,3.525227e-02,2.642436e-01
-1.854030e-01,1.854030e-01,-8.876631e-03,2.621995e-01
-1.521190e-01,1.521190e-01,-3.001987e-02,2.151288e-01
-1.691964e-01,1.691964e-01,1.586579e-02,2.392799e-01
-1.993507e-01,1.993507e-01,2.837146e-02,2.819244e-01
-1.598830e-01,1.598830e-01,-3.697048e-02,2.261087e-01
-1.566342e-01,1.566342e-01,-6.453285e-03,2.215142e-01
-1.906551e-01,1.906551e-01,3.755617e-02,2.696270e-01
-1.798936e-01,1.798936e-01,-1.742048e-02,2.544080e-01
-1.519292e-01,1.519292e-01,-2.623924e-02,2.148604e-01
-1.731300e-01,1.731300e-01,2.102236e-02,2.448427e-01
-1.982352e-01,1.982352e-01,2.100449e-02,2.803469e-01
-1.568828e-01,1.568828e-01,-3.730913e-02,2.218658e-01
-1.588065e-01,1.588065e-01,-1.376700e-03,2.245863e-01
-1.940578e-01,1.940578e-01,3.877940e-02,2.744391e-01
-1.745960e-01,1.745960e-01,-2.465718e-02,2.469160e-01
-1.520139e-01,1.520139e-01,-2.247631e-02,2.149801e-01
-1.768804e-01,1.768804e-01,2.569152e-02,2.501466e-01
-1.960980e-01,1.960980e-01,1.336432e-02,2.773244e-01
-1.547296e-01,1.547296e-01,-3.667005e-02,2.188207e-01
-1.609403e-01,1.609403e-01,3.107881e-03,2.276039e-01
-1.965580e-01,1.965580e-01,3.861461e-02,2.779750e-01
-1.702641e-01,1.702641e-01,-2.975449e-02,2.407898e-01
-1.524413e-01,1.524413e-01,-1.900310e-02,2.155846e-01
-1.801941e-01,1.801941e-01,2.944200e-02,2.548329e-01
-1.933483e-01,1.933483e-01,6.240719e-03,2.734358e-01
-1.533733e-01,1.533733e-01,-3.526757e-02,2.169026e-01
-1.631647e-01,1.631647e-01,7.103497e-03,2.307497e-01
-1.982383e-01,1.982383e-01,3.704093e-02,2.803514e-01
-1.666434e-01,1.666434e-01,-3.320548e-02,2.356694e-01
-1.533092e-01,1.533092e-01,-1.545066e-02,2.168120e-01
-1.834160e-01,1.834160e-01,3.254965e-02,2.593893e-01
-1.898602e-01,1.898602e-01,-1.001520e-03,2.685028e-01
-1.525611e-01,1.525611e-01,-3.305578e-02,2.157540e-01
-1.658626e-01,1.658626e-01,1.124487e-02,2.345652e-01
-1.992408e-01,1.992408e-01,3.373154e-02,2.817690e-01
-1.631978e-01,1.631978e-01,-3.559040e-02,2.307966e-01
-1.547389e-01,1.547389e-01,-1.125684e-02,2.188339e-01
-1.869676e-01,1.869676e-01,3.533562e-02,2.644121e-01
-1.852381e-01,1.852381e-01,-9.149014e-03,2.619662e-01
-1.521089e-01,1.521089e-01,-2.990670e-02,2.151145e-01
-1.693169e-01,1.693169e-01,1.602741e-02,2.394503e-01
-1.993352e-01,1.993352e-01,2.815947e-02,2.819025e-01
-1.597780e-01,1.597780e-01,-3.699847e-02,2.259602e-01
-1.567020e-01,1.567020e-01,-6.288877e-03,2.216101e-01
-1.907736e-01,1.907736e-01,3.761470e-02,2.697946e-01
-1.797153e-01,1.797153e-01,-1.767950e-02,2.541558e-01
-1.519271e-01,1.519271e-01,-2.611604e-02,2.148574e-01
-1.732554e-01,1.732554e-01,2.118272e-02,2.450201e-01
-1.981801e-01,1.981801e-01,2.075732e-02,2.802690e-01
-1.568005e-01,1.568005e-01,-3.730240e-02,2.217494e-01
-1.588755e-01,1.588755e-01,-1.223380e-03,2.246839e-01
-1.941519e-01,1.941519e-01,3.879577e-02,2.745722e-01
-1.744428e-01,1.744428e-01,-2.485157e-02,2.466993e-01
-1.520219e-01,1.520219e-01,-2.236216e-02,2.149914e-01
-1.769918e-01,1.769918e-01,2.582460e-02,2.503042e-01
-1.960191e-01,1.960191e-01,1.313062e-02,2.772129e-01
-1.546753e-01,1.546753e-01,-3.663664e-02,2.187439e-01
-1.610076e-01,1.610076e-01,3.239727e-03,2.276991e-01
-1.966227e-01,1.966227e-01,3.858674e-02,2.780665e-01
-1.701412e-01,1.701412e-01,-2.988544e-02,2.406160e-01
-1.524616e-01,1.524616e-01,-1.889455e-02,2.156132e-01
-1.802953e-01,1.802953e-01,2.954823e-02,2.549760e-01
-1.932510e-01,1.932510e-01,6.017899e-03,2.732982e-01
-1.533401e-01,1.533401e-01,-3.521064e-02,2.168556e-01
-1.632409e-01,1.632409e-01,7.229083e-03,2.308576e-01
-1.982806e-01,1.982806e-01,3.696551e-02,2.804112e-01
-1.665336e-01,1.665336e-01,-3.329578e-02,2.355141e-01
-1.533456e-01,1.533456e-01,-1.532986e-02,2.168634e-01
-1.835223e-01,1.835223e-01,3.264238e-02,2.595397e-01
-1.897322e-01,1.897322e-01,-1.244418e-03,2.683219e-01
-1.525420e-01,1.525420e-01,-3.297025e-02,2.157269e-01
-1.659602e-01,1.659602e-01,1.138581e-02,2.347032e-01
-1.992599e-01,1.992599e-01,3.359093e-02,2.817961e-01
-1.630878e-01,1.630878e-01,-3.565090e-02,2.306410e-01
-1.547944e-01,1.547944e-01,-1.110948e-02,2.189123e-01
-1.870870e-01,1.870870e-01,3.541853e-02,2.645810e-01
-1.850720e-01,1.850720e-01,-9.421935e-03,2.617314e-01
-1.520994e-01,1.520994e-01,-2.979290e-02,2.151010e-01
-1.694381e-01,1.694381e-01,1.618946e-02,2.396216e-01
-1.993184e-01,1.993184e-01,2.794567e-02,2.818788e-01
-1.596734e-01,1.596734e-01,-3.702531e-02,2.258123e-01
-1.567701e-01,1.567701e-01,-6.124385e-03,2.217064e-01
-1.908917e-01,1.908917e-01,3.767205e-02,2.699616e-01
-1.795373e-01,1.795373e-01,-1.793702e-02,2.539042e-01
-1.519260e-01,1.519260e-01,-2.599307e-02,2.148558e-01
-1.733803e-01,1.733803e-01,2.134255e-02,2.451968e-01
-1.981241e-01,1.981241e-01,2.051021e-02,2.801897e-01
-1.567192e-01,1.567192e-01,-3.729473e-02,2.216344e-01
-1.589439e-01,1.589439e-01,-1.070631e-03,2.247806e-01
-1.942449e-01,1.942449e-01,3.881071e-02,2.747038e-01
-1.742907e-01,1.742907e-01,-2.504368e-02,2.464843e-01
-1.520301e-01,1.520301e-01,-2.224831e-02,2.150030e-01
-1.771026e-01,1.771026e-01,2.595669e-02,2.504609e-01
-1.959397e-01,1.959397e-01,1.289767e-02,2.771005e-01
-1.546221e-01,1.546221e-01,-3.660255e-02,2.186686e-01
-1.610755e-01,1.610755e-01,3.370895e-03,2.277951e-01
-1.966866e-01,1.966866e-01,3.855747e-02,2.781568e-01
-1.700190e-01,1.700190e-01,-3.001477e-02,2.404432e-01
-1.524822e-01,1.524822e-01,-1.878592e-02,2.156424e-01
-1.803961e-01,1.803961e-01,2.965390e-02,2.551186e-01
-1.931529e-01,1.931529e-01,5.794966e-03,2.731595e-01
-1.533078e-01,1.533078e-01,-3.515297e-02,2.168100e-01
-1.633175e-01,1.633175e-01,7.354903e-03,2.309659e-01
-1.983223e-01,1.983223e-01,3.688847e-02,2.804701e-01
-1.664238e-01,1.664238e-01,-3.338507e-02,2.353589e-01
-1.533822e-01,1.533822e-01,-1.520832e-02,2.169152e-01
-1.836290e-01,1.836290e-01,3.273482e-02,2.596906e-01
-1.896033e-01,1.896033e-01,-1.488365e-03,2.681395e-01
-1.525231e-01,1.525231e-01,-3.288370e-02,2.157003e-01
-1.660588e-01,1.660588e-01,1.152745e-02,2.348426e-01
-1.992784e-01,1.992784e-01,3.344834e-02,2.818223e-01
-1.629778e-01,1.629778e-01,-3.571042e-02,2.304855e-01
-1.548498e-01,1.548498e-01,-1.096110e-02,2.189907e-01
-1.872068e-01,1.872068e-01,3.550094e-02,2.647504e-01
-1.849050e-01,1.849050e-01,-9.695340e-03,2.614951e-01
-1.520898e-01,1.520898e-01,-2.967835e-02,2.150874e-01
-1.695594e-01,1.695594e-01,1.635199e-02,2.397933e-01
-1.993002e-01,1.993002e-01,2.772970e-02,2.818530e-01
-1.595694e-01,1.595694e-01,-3.705102e-02,2.256652e-01
-1.568380e-01,1.568380e-01,-5.959735e-03,2.218025e-01
