x,y,z,R
-1.792784e-01,1.792784e-01,-5.248903e-03,2.535380e-01
-1.675345e-01,1.675345e-01,-9.948161e-03,2.369295e-01
-1.795744e-01,1.795744e-01,1.251025e-02,2.539566e-01
-1.832295e-01,1.832295e-01,1.837208e-03,2.591256e-01
-1.679488e-01,1.679488e-01,-1.315745e-02,2.375154e-01
-1.757007e-01,1.757007e-01,8.150640e-03,2.484783e-01
-1.857106e-01,1.857106e-01,8.652620e-03,2.626345e-01
-1.698450e-01,1.698450e-01,-1.420018e-02,2.401971e-01
-1.721551e-01,1.721551e-01,2.769012e-03,2.434641e-01
-1.860812e-01,1.860812e-01,1.343219e-02,2.631586e-01
-1.731056e-01,1.731056e-01,-1.252738e-02,2.448082e-01
-1.694194e-01,1.694194e-01,-2.840287e-03,2.395952e-01
-1.844011e-01,1.844011e-01,1.517952e-02,2.607825e-01
-1.772924e-01,1.772924e-01,-8.046200e-03,2.507293e-01
-1.678215e-01,1.678215e-01,-7.969018e-03,2.373354e-01
-1.812632e-01,1.812632e-01,1.390609e-02,2.563448e-01
-1.815639e-01,1.815639e-01,-1.451489e-03,2.567701e-01
-1.675785e-01,1.675785e-01,-1.193305e-02,2.369918e-01
-1.774486e-01,1.774486e-01,1.030203e-02,2.509502e-01
-1.848264e-01,1.848264e-01,5.725822e-03,2.613841e-01
-1.688053e-01,1.688053e-01,-1.403823e-02,2.387267e-01
-1.736839e-01,1.736839e-01,5.276970e-03,2.456261e-01
-1.861872e-01,1.861872e-01,1.160965e-02,2.633085e-01
-1.714802e-01,1.714802e-01,-1.364155e-02,2.425096e-01
-1.705331e-01,1.705331e-01,-3.205474e-04,2.411702e-01
-1.853855e-01,1.853855e-01,1.478509e-02,2.621747e-01
-1.753281e-01,1.753281e-01,-1.039839e-02,2.479514e-01
-1.683875e-01,1.683875e-01,-5.751764e-03,2.381359e-01
-1.828144e-01,1.828144e-01,1.482220e-02,2.585385e-01
-1.796890e-01,1.796891e-01,-4.615584e-03,2.541187e-01
-1.675109e-01,1.675109e-01,-1.032783e-02,2.368962e-01
-1.792088e-01,1.792088e-01,1.216386e-02,2.534395e-01
-1.835437e-01,1.835437e-01,2.527424e-03,2.595699e-01
-1.680654e-01,1.680654e-01,-1.336026e-02,2.376804e-01
-1.753404e-01,1.753404e-01,7.669480e-03,2.479688e-01
-1.858412e-01,1.858412e-01,9.217894e-03,2.628191e-01
-1.701005e-01,1.701005e-01,-1.416401e-02,2.405584e-01
-1.718542e-01,1.718542e-01,2.233849e-03,2.430386e-01
-1.860033e-01,1.860033e-01,1.373574e-02,2.630483e-01
-1.734742e-01,1.734742e-01,-1.221794e-02,2.453295e-01
-1.692143e-01,1.692143e-01,-3.359401e-03,2.393052e-01
-1.841537e-01,1.841537e-01,1.518105e-02,2.604327e-01
-1.777113e-01,1.777113e-01,-7.491603e-03,2.513217e-01
-1.677376e-01,1.677376e-01,-8.406868e-03,2.372168e-01
-1.809174e-01,1.809174e-01,1.364974e-02,2.558559e-01
-1.819350e-01,1.819350e-01,-7.648196e-04,2.572950e-01
-1.676312e-01,1.676312e-01,-1.222418e-02,2.370664e-01
-1.770781e-01,1.770781e-01,9.871118e-03,2.504263e-01
-1.850473e-01,1.850473e-01,6.369118e-03,2.616965e-01
-1.689992e-01,1.689992e-01,-1.411686e-02,2.390010e-01
-1.733504e-01,1.733504e-01,4.757103e-03,2.451545e-01
-1.862021e-01,1.862021e-01,1.204284e-02,2.633295e-01
-1.718027e-01,1.718027e-01,-1.345678e-02,2.429658e-01
-1.702808e-01,1.702808e-01,-8.551190e-04,2.408134e-01
-1.852070e-01,1.852070e-01,1.492194e-02,2.619223e-01
-1.757343e-01,1.757343e-01,-9.945918e-03,2.485258e-01
-1.682460e-01,1.682460e-01,-6.234333e-03,2.379358e-01
-1.825034e-01,1.825034e-01,1.467351e-02,2.580988e-01
-1.800952e-01,1.800952e-01,-3.969439e-03,2.546931e-01
-1.675003e-01,1.675003e-01,-1.069355e-02,2.368812e-01
-1.788408e-01,1.788408e-01,1.180087e-02,2.529191e-01
-1.838429e-01,1.838429e-01,3.213523e-03,2.599932e-01
-1.681956e-01,1.681956e-01,-1.354283e-02,2.378646e-01
-1.749839e-01,1.749839e-01,7.179914e-03,2.474646e-01
-1.859516e-01,1.859516e-01,9.762878e-03,2.629753e-01
-1.703680e-01,1.703680e-01,-1.410256e-02,2.409368e-01
-1.715607e-01,1.715607e-01,1.697411e-03,2.426234e-01
-1.859067e-01,1.859067e-01,1.401071e-02,2.629118e-01
-1.738506e-01,1.738506e-01,-1.188268e-02,2.458618e-01
-1.690201e-01,1.690201e-01,-3.873612e-03,2.390305e-01
-1.838934e-01,1.838934e-01,1.515525e-02,2.600645e-01
-1.781302e-01,1.781302e-01,-6.918246e-03,2.519141e-01
-1.676660e-01,1.676660e-01,-8.833558e-03,2.371155e-01
-1.805660e-01,1.805660e-01,1.337299e-02,2.553588e-01
-1.822954e-01,1.822954e-01,-7.420136e-05,2.578047e-01
-1.676971e-01,1.676971e-01,-1.249785e-02,2.371595e-01
-1.767088e-01,1.767088e-01,9.428207e-03,2.499040e-01
-1.852499e-01,1.852499e-01,6.998780e-03,2.619829e-01
-1.692066e-01,1.692066e-01,-1.417220e-02,2.392942e-01
-1.730232e-01,1.730232e-01,4.232780e-03,2.446917e-01
-1.861971e-01,1.861971e-01,1.244991e-02,2.633224e-01
-1.721359e-01,1.721359e-01,-1.324572e-02,2.434369e-01
-1.700380e-01,1.700380e-01,-1.387563e-03,2.404701e-01
-1.850130e-01,1.850130e-01,1.502983e-02,2.616479e-01
-1.761449e-01,1.761449e-01,-9.470475e-03,2.491065e-01
-1.681166e-01,1.681166e-01,-6.708648e-03,2.377528e-01
-1.821839e-01,1.821839e-01,1.450084e-02,2.576469e-01
-1.804960e-01,1.804960e-01,-3.311905e-03,2.552599e-01
-1.675031e-01,1.675031e-01,-1.104478e-02,2.368852e-01
-1.784715e-01,1.784715e-01,1.142205e-02,2.523968e-01
-1.841274e-01,1.841274e-01,3.893719e-03,2.603955e-01
-1.683394e-01,1.683394e-01,-1.370458e-02,2.380678e-01
-1.746314e-01,1.746314e-01,6.682655e-03,2.469661e-01
-1.860421e-01,1.860421e-01,1.028632e-02,2.631033e-01
-1.706480e-01,1.706480e-01,-1.401563e-02,2.413327e-01
-1.712756e-01,1.712756e-01,1.160140e-03,2.422203e-01
-1.857921e-01,1.857921e-01,1.425683e-02,2.627497e-01
-1.742346e-01,1.742346e-01,-1.152197e-02,2.464050e-01
-1.688361e-01,1.688361e-01,-4.382207e-03,2.387704e-01
-1.836214e-01,1.836214e-01,1.510250e-02,2.596799e-01
-1.785483e-01,1.785483e-01,-6.327240e-03,2.525054e-01
-1.676072e-01,1.676072e-01,-9.248595e-03,2.370324e-01
-1.802098e-01,1.802098e-01,1.307662e-02,2.548552e-01
-1.826451e-01,1.826451e-01,6.186353e-04,2.582991e-01
-1.677764e-01,1.677764e-01,-1.275348e-02,2.372716e-01
-1.763412e-01,1.763412e-01,8.974067e-03,2.493841e-01
-1.854339e-01,1.854339e-01,7.613274e-03,2.622431e-01
-1.694267e-01,1.694267e-01,-1.420371e-02,2.396055e-01
-1.727026e-01,1.727026e-01,3.704671e-03,2.442384e-01
-1.861721e-01,1.861721e-01,1.283024e-02,2.632871e-01
-1.724791e-01,1.724791e-01,-1.300835e-02,2.439222e-01
-1.698051e-01,1.698051e-01,-1.917309e-03,2.401406e-01
-1.848037e-01,1.848037e-01,1.510907e-02,2.613518e-01
-1.765591e-01,1.765591e-01,-8.972786e-03,2.496923e-01
-1.679990e-01,1.679990e-01,-7.174057e-03,2.375865e-01
-1.818563e-01,1.818563e-01,1.430488e-02,2.571836e-01
-1.808899e-01,1.808899e-01,-2.644439e-03,2.558170e-01
-1.675186e-01,1.675186e-01,-1.138076e-02,2.369070e-01
-1.781007e-01,1.781007e-01,1.102832e-02,2.518724e-01
-1.843954e-01,1.843954e-01,4.566405e-03,2.607745e-01
-1.684965e-01,1.684965e-01,-1.384494e-02,2.382901e-01
-1.742835e-01,1.742835e-01,6.178402e-03,2.464741e-01
-1.861125e-01,1.861125e-01,1.078709e-02,2.632028e-01
-1.709397e-01,1.709397e-01,-1.390290e-02,2.417452e-01
-1.709986e-01,1.709986e-01,6.228176e-04,2.418285e-01
-1.856598e-01,1.856598e-01,1.447392e-02,2.625626e-01
-1.746259e-01,1.746259e-01,-1.113619e-02,2.469583e-01
-1.686636e-01,1.686636e-01,-4.884746e-03,2.385264e-01
-1.833380e-01,1.833380e-01,1.502339e-02,2.592791e-01
-1.789645e-01,1.789645e-01,-5.719774e-03,2.530940e-01
-1.675609e-01,1.675609e-01,-9.651307e-03,2.369669e-01
-1.798499e-01,1.798499e-01,1.276134e-02,2.543462e-01
-1.829823e-01,1.829823e-01,1.312047e-03,2.587760e-01
-1.678692e-01,1.678692e-01,-1.299049e-02,2.374030e-01
-1.759759e-01,1.759759e-01,8.509472e-03,2.488676e-01
-1.855987e-01,1.855987e-01,8.211160e-03,2.624762e-01
-1.696598e-01,1.696598e-01,-1.421102e-02,2.399351e-01
-1.723884e-01,1.723884e-01,3.173519e-03,2.437940e-01
-1.861277e-01,1.861277e-01,1.318316e-02,2.632243e-01
-1.728319e-01,1.728319e-01,-1.274472e-02,2.444212e-01
-1.695818e-01,1.695818e-01,-2.443667e-03,2.398248e-01
-1.845800e-01,1.845800e-01,1.515980e-02,2.610355e-01
-1.769755e-01,1.769755e-01,-8.453638e-03,2.502811e-01
-1.678933e-01,1.678933e-01,-7.629957e-03,2.374370e-01
-1.815215e-01,1.815215e-01,1.408637e-02,2.567102e-01
-1.812764e-01,1.812764e-01,-1.968609e-03,2.563636e-01
-1.675477e-01,1.675477e-01,-1.170105e-02,2.369482e-01
-1.777297e-01,1.777297e-01,1.062038e-02,2.513477e-01
-1.846472e-01,1.846472e-01,5.229838e-03,2.611306e-01
-1.686673e-01,1.686673e-01,-1.396340e-02,2.385316e-01
-1.739405e-01,1.739405e-01,5.667887e-03,2.459890e-01
-1.861626e-01,1.861626e-01,1.126422e-02,2.632737e-01
-1.712428e-01,1.712428e-01,-1.376417e-02,2.421738e-01
-1.707307e-01,1.707307e-01,8.587895e-05,2.414497e-01
-1.855102e-01,1.855102e-01,1.466190e-02,2.623511e-01
-1.750229e-01,1.750229e-01,-1.072573e-02,2.475197e-01
-1.685022e-01,1.685022e-01,-5.380563e-03,2.382981e-01
-1.830440e-01,1.830440e-01,1.491854e-02,2.588633e-01
-1.793780e-01,1.793780e-01,-5.097107e-03,2.536788e-01
-1.675277e-01,1.675277e-01,-1.004117e-02,2.369199e-01
-1.794863e-01,1.794863e-01,1.242812e-02,2.538319e-01
-1.833067e-01,1.833067e-01,2.004289e-03,2.592349e-01
-1.679757e-01,1.679757e-01,-1.320828e-02,2.375534e-01
-1.756133e-01,1.756133e-01,8.035173e-03,2.483547e-01
-1.857440e-01,1.857440e-01,8.791013e-03,2.626817e-01
-1.699056e-01,1.699056e-01,-1.419374e-02,2.402829e-01
-1.720818e-01,1.720818e-01,2.639825e-03,2.433604e-01
-1.860640e-01,1.860640e-01,1.350817e-02,2.631343e-01
-1.731938e-01,1.731938e-01,-1.245497e-02,2.449330e-01
-1.693690e-01,1.693690e-01,-2.966179e-03,2.395239e-01
-1.843425e-01,1.843425e-01,1.518242e-02,2.606997e-01
-1.773936e-01,1.773936e-01,-7.913957e-03,2.508724e-01
-1.678003e-01,1.678003e-01,-8.075853e-03,2.373054e-01
-1.811801e-01,1.811801e-01,1.384605e-02,2.562274e-01
-1.816546e-01,1.816546e-01,-1.286009e-03,2.568984e-01
-1.675902e-01,1.675902e-01,-1.200500e-02,2.370083e-01
-1.773589e-01,1.773589e-01,1.019905e-02,2.508234e-01
-1.848815e-01,1.848815e-01,5.882449e-03,2.614619e-01
-1.688510e-01,1.688510e-01,-1.405936e-02,2.387914e-01
-1.736026e-01,1.736026e-01,5.151807e-03,2.455112e-01
-1.861927e-01,1.861927e-01,1.171668e-02,2.633162e-01
-1.715571e-01,1.715571e-01,-1.359930e-02,2.426184e-01
-1.704712e-01,1.704712e-01,-4.498738e-04,2.410826e-01
-1.853439e-01,1.853439e-01,1.482081e-02,2.621159e-01
-1.754258e-01,1.754258e-01,-1.029118e-02,2.480895e-01
-1.683521e-01,1.683521e-01,-5.869074e-03,2.380858e-01
-1.827400e-01,1.827400e-01,1.478851e-02,2.584334e-01
-1.797877e-01,1.797877e-01,-4.460565e-03,2.542582e-01
-1.675071e-01,1.675071e-01,-1.041749e-02,2.368908e-01
-1.791202e-01,1.791202e-01,1.207760e-02,2.533142e-01
-1.836172e-01,1.836172e-01,2.693685e-03,2.596739e-01
-1.680956e-01,1.680956e-01,-1.340625e-02,2.377231e-01
-1.752540e-01,1.752540e-01,7.551910e-03,2.478466e-01
-1.858696e-01,1.858696e-01,9.351508e-03,2.628593e-01
-1.701640e-01,1.701640e-01,-1.415148e-02,2.406482e-01
-1.717824e-01,1.717824e-01,2.104346e-03,2.429370e-01
-1.859815e-01,1.859815e-01,1.380484e-02,2.630176e-01
-1.735645e-01,1.735645e-01,-1.213927e-02,2.454573e-01
-1.691663e-01,1.691663e-01,-3.484136e-03,2.392373e-01
-1.840919e-01,1.840919e-01,1.517731e-02,2.603453e-01
-1.778125e-01,1.778125e-01,-7.354727e-03,2.514649e-01
-1.677190e-01,1.677190e-01,-8.510996e-03,2.371905e-01
-1.808330e-01,1.808330e-01,1.358469e-02,2.557365e-01
-1.820230e-01,1.820230e-01,-5.982117e-04,2.574193e-01
-1.676458e-01,1.676458e-01,-1.229192e-02,2.370870e-01
-1.769889e-01,1.769889e-01,9.765126e-03,2.503001e-01
-1.850981e-01,1.850981e-01,6.522581e-03,2.617682e-01
-1.690481e-01,1.690481e-01,-1.413238e-02,2.390701e-01
-1.732708e-01,1.732708e-01,4.630774e-03,2.450419e-01
-1.862028e-01,1.862028e-01,1.214360e-02,2.633305e-01
-1.718823e-01,1.718823e-01,-1.340818e-02,2.430783e-01
-1.702214e-01,1.702214e-01,-9.840269e-04,2.407294e-01
-1.851615e-01,1.851615e-01,1.495067e-02,2.618580e-01
-1.758332e-01,1.758332e-01,-9.833109e-03,2.486657e-01
-1.682139e-01,1.682139e-01,-6.349781e-03,2.378904e-01
-1.824270e-01,1.824270e-01,1.463396e-02,2.579907e-01
-1.801927e-01,1.801927e-01,-3.811540e-03,2.548310e-01
-1.674999e-01,1.674999e-01,-1.077981e-02,2.368807e-01
-1.787517e-01,1.787517e-01,1.171075e-02,2.527930e-01
-1.839131e-01,1.839131e-01,3.378492e-03,2.600925e-01
-1.682291e-01,1.682291e-01,-1.358384e-02,2.379118e-01
-1.748984e-01,1.748984e-01,7.060408e-03,2.473437e-01
-1.859753e-01,1.859753e-01,9.891391e-03,2.630088e-01
-1.704346e-01,1.704346e-01,-1.408390e-02,2.410309e-01
-1.714911e-01,1.714911e-01,1.567610e-03,2.425250e-01
-1.858806e-01,1.858806e-01,1.407285e-02,2.628749e-01
-1.739427e-01,1.739427e-01,-1.179783e-02,2.459922e-01
-1.689745e-01,1.689745e-01,-3.997018e-03,2.389660e-01
-1.838287e-01,1.838287e-01,1.514495e-02,2.599731e-01
-1.782313e-01,1.782313e-01,-6.776999e-03,2.520571e-01
-1.676509e-01,1.676509e-01,-8.934987e-03,2.370941e-01
-1.804803e-01,1.804803e-01,1.330315e-02,2.552377e-01
-1.823810e-01,1.823810e-01,9.308282e-05,2.579257e-01
-1.677149e-01,1.677149e-01,-1.256128e-02,2.371847e-01
-1.766199e-01,1.766199e-01,9.319432e-03,2.497783e-01
-1.852961e-01,1.852961e-01,7.148725e-03,2.620482e-01
-1.692585e-01,1.692585e-01,-1.418199e-02,2.393676e-01
-1.729453e-01,1.729453e-01,4.105450e-03,2.445816e-01
-1.861927e-01,1.861927e-01,1.254432e-02,2.633163e-01
-1.722179e-01,1.722179e-01,-1.319076e-02,2.435529e-01
-1.699808e-01,1.699808e-01,-1.515848e-03,2.403891e-01
-1.849637e-01,1.849637e-01,1.505162e-02,2.615782e-01
-1.762447e-01,1.762447e-01,-9.352208e-03,2.492476e-01
-1.680870e-01,1.680870e-01,-6.821940e-03,2.377110e-01
-1.821054e-01,1.821054e-01,1.445559e-02,2.575360e-01
-1.805917e-01,1.805917e-01,-3.151449e-03,2.553953e-01
-1.675054e-01,1.675054e-01,-1.112734e-02,2.368885e-01
-1.783819e-01,1.783819e-01,1.132825e-02,2.522701e-01
-1.841935e-01,1.841935e-01,4.057049e-03,2.604890e-01
-1.683760e-01,1.683760e-01,-1.374046e-02,2.381196e-01
-1.745471e-01,1.745471e-01,6.561378e-03,2.468469e-01
-1.860611e-01,1.860611e-01,1.040943e-02,2.631301e-01
-1.707175e-01,1.707175e-01,-1.399078e-02,2.414310e-01
-1.712078e-01,1.712078e-01,1.030305e-03,2.421244e-01
-1.857616e-01,1.857616e-01,1.431197e-02,2.627066e-01
-1.743286e-01,1.743286e-01,-1.143103e-02,2.465378e-01
-1.687937e-01,1.687937e-01,-4.504275e-03,2.387103e-01
-1.835540e-01,1.835540e-01,1.508577e-02,2.595845e-01
-1.786491e-01,1.786491e-01,-6.181904e-03,2.526480e-01
-1.675947e-01,1.675947e-01,-9.347044e-03,2.370147e-01
-1.801232e-01,1.801232e-01,1.300213e-02,2.547326e-01
-1.827276e-01,1.827276e-01,7.862214e-04,2.584159e-01
-1.677976e-01,1.677976e-01,-1.281248e-02,2.373016e-01
-1.762529e-01,1.762529e-01,8.862702e-03,2.492592e-01
-1.854755e-01,1.854755e-01,7.759332e-03,2.623020e-01
-1.694819e-01,1.694819e-01,-1.420772e-02,2.396836e-01
-1.726258e-01,1.726258e-01,3.576603e-03,2.441298e-01
-1.861631e-01,1.861631e-01,1.291807e-02,2.632744e-01
-1.725634e-01,1.725634e-01,-1.294704e-02,2.440415e-01
-1.697501e-01,1.697501e-01,-2.044816e-03,2.400629e-01
-1.847509e-01,1.847509e-01,1.512391e-02,2.612772e-01
-1.766594e-01,1.766594e-01,-8.849251e-03,2.498341e-01
-1.679724e-01,1.679724e-01,-7.285121e-03,2.375488e-01
-1.817760e-01,1.817760e-01,1.425411e-02,2.570701e-01
-1.809840e-01,1.809840e-01,-2.481825e-03,2.559501e-01
-1.675244e-01,1.675244e-01,-1.145963e-02,2.369153e-01
-1.780112e-01,1.780112e-01,1.093099e-02,2.517458e-01
-1.844580e-01,1.844580e-01,4.727623e-03,2.608630e-01
-1.685364e-01,1.685364e-01,-1.387557e-02,2.383465e-01
-1.742001e-01,1.742001e-01,6.055592e-03,2.463561e-01
-1.861264e-01,1.861264e-01,1.090462e-02,2.632225e-01
-1.710119e-01,1.710119e-01,-1.387177e-02,2.418473e-01
-1.709331e-01,1.709331e-01,4.929845e-04,2.417359e-01
-1.856251e-01,1.856251e-01,1.452204e-02,2.625135e-01
-1.747212e-01,1.747212e-01,-1.103923e-02,2.470931e-01
-1.686235e-01,1.686235e-01,-5.005181e-03,2.384696e-01
-1.832679e-01,1.832679e-01,1.500039e-02,2.591800e-01
-1.790647e-01,1.790647e-01,-5.570649e-03,2.532358e-01
-1.675519e-01,1.675519e-01,-9.746759e-03,2.369542e-01
-1.797624e-01,1.797624e-01,1.268243e-02,2.542224e-01
-1.830619e-01,1.830619e-01,1.479502e-03,2.588886e-01
-1.678938e-01,1.678938e-01,-1.304491e-02,2.374377e-01
-1.758881e-01,1.758881e-01,8.395693e-03,2.487434e-01
-1.856356e-01,1.856356e-01,8.352995e-03,2.625283e-01
-1.697179e-01,1.697179e-01,-1.420911e-02,2.400174e-01
-1.723137e-01,1.723137e-01,3.044739e-03,2.436884e-01
-1.861140e-01,1.861140e-01,1.326428e-02,2.632050e-01
-1.729185e-01,1.729185e-01,-1.267710e-02,2.445437e-01
-1.695296e-01,1.695296e-01,-2.570344e-03,2.397510e-01
-1.845238e-01,1.845238e-01,1.516784e-02,2.609560e-01
-1.770765e-01,1.770765e-01,-8.325075e-03,2.504241e-01
-1.678698e-01,1.678698e-01,-7.738660e-03,2.374037e-01
-1.814396e-01,1.814396e-01,1.403026e-02,2.565943e-01
-1.813687e-01,1.813687e-01,-1.804222e-03,2.564941e-01
-1.675569e-01,1.675569e-01,-1.177605e-02,2.369613e-01
-1.776400e-01,1.776400e-01,1.051977e-02,2.512209e-01
-1.847053e-01,1.847053e-01,5.388615e-03,2.612128e-01
-1.687103e-01,1.687103e-01,-1.398864e-02,2.385924e-01
-1.738582e-01,1.738582e-01,5.543682e-03,2.458726e-01
-1.861717e-01,1.861717e-01,1.137584e-02,2.632866e-01
-1.713177e-01,1.713177e-01,-1.372673e-02,2.422798e-01
-1.706669e-01,1.706669e-01,-4.367481e-05,2.413595e-01
-1.854715e-01,1.854715e-01,1.470298e-02,2.622964e-01
-1.751198e-01,1.751198e-01,-1.062291e-02,2.476568e-01
-1.684649e-01,1.684649e-01,-5.499307e-03,2.382453e-01
-1.829714e-01,1.829714e-01,1.488940e-02,2.587606e-01
-1.794775e-01,1.794775e-01,-4.944510e-03,2.538195e-01
-1.675214e-01,1.675214e-01,-1.013335e-02,2.369110e-01
