x,y,z,R
-1.740363e-01,1.740363e-01,3.666078e-03,2.461245e-01
-1.843471e-01,1.843471e-01,9.736200e-03,2.607061e-01
-1.731849e-01,1.731849e-01,-1.040175e-02,2.449205e-01
-1.716920e-01,1.716920e-01,-6.723457e-04,2.428092e-01
-1.836141e-01,1.836141e-01,1.188056e-02,2.596695e-01
-1.761686e-01,1.761686e-01,-7.641720e-03,2.491400e-01
-1.701151e-01,1.701151e-01,-4.830457e-03,2.405791e-01
-1.816624e-01,1.816624e-01,1.185343e-02,2.569094e-01
-1.794016e-01,1.794016e-01,-3.218399e-03,2.537122e-01
-1.695004e-01,1.695004e-01,-8.288013e-03,2.397097e-01
-1.789586e-01,1.789586e-01,9.902513e-03,2.530857e-01
-1.822185e-01,1.822185e-01,2.046677e-03,2.576958e-01
-1.699570e-01,1.699570e-01,-1.054591e-02,2.403555e-01
-1.760164e-01,1.760164e-01,6.556521e-03,2.489247e-01
-1.839722e-01,1.839722e-01,7.008552e-03,2.601760e-01
-1.714968e-01,1.714968e-01,-1.115225e-02,2.425331e-01
-1.732929e-01,1.732929e-01,2.422329e-03,2.450732e-01
-1.842809e-01,1.842809e-01,1.057717e-02,2.606126e-01
-1.739904e-01,1.739904e-01,-9.802043e-03,2.460596e-01
-1.711458e-01,1.711458e-01,-1.918843e-03,2.420368e-01
-1.831557e-01,1.831557e-01,1.209297e-02,2.590213e-01
-1.771068e-01,1.771068e-01,-6.504037e-03,2.504668e-01
-1.698317e-01,1.698317e-01,-5.926634e-03,2.401783e-01
-1.809336e-01,1.809336e-01,1.146607e-02,2.558787e-01
-1.802917e-01,1.802917e-01,-1.732560e-03,2.549709e-01
-1.695199e-01,1.695199e-01,-9.086911e-03,2.397373e-01
-1.781089e-01,1.781089e-01,9.050061e-03,2.518841e-01
-1.828597e-01,1.828597e-01,3.568275e-03,2.586027e-01
-1.702940e-01,1.702940e-01,-1.090899e-02,2.408321e-01
-1.751869e-01,1.751869e-01,5.413457e-03,2.477518e-01
-1.842173e-01,1.842173e-01,8.225409e-03,2.605226e-01
-1.721312e-01,1.721312e-01,-1.096954e-02,2.434303e-01
-1.725987e-01,1.725987e-01,1.161464e-03,2.440915e-01
-1.840925e-01,1.840925e-01,1.124192e-02,2.603462e-01
-1.748496e-01,1.748496e-01,-9.035769e-03,2.472746e-01
-1.706703e-01,1.706703e-01,-3.137244e-03,2.413643e-01
-1.826045e-01,1.826045e-01,1.212262e-02,2.582418e-01
-1.780517e-01,1.780517e-01,-5.239463e-03,2.518031e-01
-1.696329e-01,1.696329e-01,-6.951583e-03,2.398972e-01
-1.801541e-01,1.801541e-01,1.092726e-02,2.547764e-01
-1.811293e-01,1.811293e-01,-2.006620e-04,2.561555e-01
-1.696311e-01,1.696311e-01,-9.773149e-03,2.398946e-01
-1.772517e-01,1.772517e-01,8.095037e-03,2.506718e-01
-1.833971e-01,1.833971e-01,5.034647e-03,2.593627e-01
-1.707214e-01,1.707214e-01,-1.112312e-02,2.414365e-01
-1.743864e-01,1.743864e-01,4.219024e-03,2.466197e-01
-1.843354e-01,1.843354e-01,9.301103e-03,2.606896e-01
-1.728411e-01,1.728411e-01,-1.061710e-02,2.444342e-01
-1.719602e-01,1.719602e-01,-1.030095e-04,2.431884e-01
-1.837878e-01,1.837878e-01,1.172370e-02,2.599152e-01
-1.757510e-01,1.757510e-01,-8.109920e-03,2.485494e-01
-1.702703e-01,1.702703e-01,-4.314889e-03,2.407985e-01
-1.819719e-01,1.819719e-01,1.197560e-02,2.573471e-01
-1.789869e-01,1.789869e-01,-3.867670e-03,2.531257e-01
-1.695215e-01,1.695215e-01,-7.893057e-03,2.397396e-01
-1.793369e-01,1.793369e-01,1.025019e-02,2.536207e-01
-1.818979e-01,1.818979e-01,1.348597e-03,2.572425e-01
-1.698347e-01,1.698347e-01,-1.033537e-02,2.401825e-01
-1.763981e-01,1.763981e-01,7.052496e-03,2.494647e-01
-1.838204e-01,1.838204e-01,6.417732e-03,2.599613e-01
-1.712361e-01,1.712361e-01,-1.117998e-02,2.421644e-01
-1.736233e-01,1.736233e-01,2.987489e-03,2.455404e-01
-1.843262e-01,1.843262e-01,1.021828e-02,2.606766e-01
-1.736188e-01,1.736188e-01,-1.009405e-02,2.455341e-01
-1.713843e-01,1.713843e-01,-1.358082e-03,2.423739e-01
-1.833751e-01,1.833751e-01,1.201984e-02,2.593316e-01
-1.766809e-01,1.766809e-01,-7.035082e-03,2.498645e-01
-1.699496e-01,1.699496e-01,-5.439218e-03,2.403450e-01
-1.812700e-01,1.812700e-01,1.166068e-02,2.563545e-01
-1.798947e-01,1.798947e-01,-2.411586e-03,2.544096e-01
-1.694997e-01,1.694997e-01,-8.739025e-03,2.397088e-01
-1.784947e-01,1.784947e-01,9.449016e-03,2.524296e-01
-1.825821e-01,1.825821e-01,2.885528e-03,2.582101e-01
-1.701304e-01,1.701304e-01,-1.076276e-02,2.406007e-01
-1.755588e-01,1.755588e-01,5.937407e-03,2.482777e-01
-1.841222e-01,1.841222e-01,7.691618e-03,2.603881e-01
-1.718345e-01,1.718345e-01,-1.107299e-02,2.430107e-01
-1.729059e-01,1.729059e-01,1.732696e-03,2.445259e-01
-1.841925e-01,1.841925e-01,1.096378e-02,2.604876e-01
-1.744552e-01,1.744552e-01,-9.402424e-03,2.467169e-01
-1.708765e-01,1.708765e-01,-2.590806e-03,2.416558e-01
-1.828647e-01,1.828647e-01,1.213149e-02,2.586097e-01
-1.776248e-01,1.776248e-01,-5.825651e-03,2.511994e-01
-1.697119e-01,1.697119e-01,-6.497850e-03,2.400089e-01
-1.805119e-01,1.805119e-01,1.118877e-02,2.552824e-01
-1.807582e-01,1.807582e-01,-8.970457e-04,2.556307e-01
-1.695694e-01,1.695694e-01,-9.477623e-03,2.398073e-01
-1.776393e-01,1.776393e-01,8.538513e-03,2.512199e-01
-1.831677e-01,1.831677e-01,4.380466e-03,2.590382e-01
-1.705171e-01,1.705171e-01,-1.104533e-02,2.411476e-01
-1.747442e-01,1.747442e-01,4.764391e-03,2.471256e-01
-1.842980e-01,1.842980e-01,8.833502e-03,2.606368e-01
-1.725112e-01,1.725112e-01,-1.079756e-02,2.439677e-01
-1.722415e-01,1.722415e-01,4.681997e-04,2.435863e-01
-1.839395e-01,1.839395e-01,1.152883e-02,2.601298e-01
-1.753392e-01,1.753392e-01,-8.547624e-03,2.479670e-01
-1.704415e-01,1.704415e-01,-3.788389e-03,2.410407e-01
-1.822672e-01,1.822672e-01,1.206342e-02,2.577647e-01
-1.785664e-01,1.785664e-01,-4.499657e-03,2.525310e-01
-1.695610e-01,1.695610e-01,-7.478611e-03,2.397955e-01
-1.797102e-01,1.797102e-01,1.057249e-02,2.541487e-01
-1.815601e-01,1.815601e-01,6.479914e-04,2.567648e-01
-1.697312e-01,1.697312e-01,-1.009728e-02,2.400362e-01
-1.767827e-01,1.767827e-01,7.533677e-03,2.500084e-01
-1.836437e-01,1.836437e-01,5.804547e-03,2.597115e-01
-1.709928e-01,1.709928e-01,-1.117421e-02,2.418203e-01
-1.739632e-01,1.739632e-01,3.547888e-03,2.460210e-01
-1.843461e-01,1.843461e-01,9.824233e-03,2.607048e-01
-1.732594e-01,1.732594e-01,-1.035156e-02,2.450258e-01
-1.716365e-01,1.716365e-01,-7.927450e-04,2.427307e-01
-1.835744e-01,1.835744e-01,1.190897e-02,2.596135e-01
-1.762578e-01,1.762578e-01,-7.538569e-03,2.492662e-01
-1.700843e-01,1.700843e-01,-4.938343e-03,2.405356e-01
-1.815951e-01,1.815951e-01,1.182317e-02,2.568142e-01
-1.794889e-01,1.794889e-01,-3.078648e-03,2.538357e-01
-1.694984e-01,1.694984e-01,-8.369205e-03,2.397069e-01
-1.788777e-01,1.788777e-01,9.825619e-03,2.529713e-01
-1.822842e-01,1.822842e-01,2.194203e-03,2.577888e-01
-1.699855e-01,1.699855e-01,-1.058694e-02,2.403958e-01
-1.759357e-01,1.759357e-01,6.449532e-03,2.488107e-01
-1.840012e-01,1.840012e-01,7.130816e-03,2.602171e-01
-1.715539e-01,1.715539e-01,-1.114199e-02,2.426139e-01
-1.732241e-01,1.732241e-01,2.301929e-03,2.449758e-01
-1.842681e-01,1.842681e-01,1.064872e-02,2.605944e-01
-1.740705e-01,1.740705e-01,-9.735674e-03,2.461729e-01
-1.710970e-01,1.710970e-01,-2.037119e-03,2.419678e-01
-1.831068e-01,1.831068e-01,1.210365e-02,2.589521e-01
-1.771975e-01,1.771975e-01,-6.387977e-03,2.505951e-01
-1.698090e-01,1.698090e-01,-6.028245e-03,2.401462e-01
-1.808608e-01,1.808608e-01,1.142076e-02,2.557758e-01
-1.803747e-01,1.803747e-01,-1.587196e-03,2.550883e-01
-1.695265e-01,1.695265e-01,-9.157791e-03,2.397467e-01
-1.780268e-01,1.780268e-01,8.962677e-03,2.517680e-01
-1.829159e-01,1.829159e-01,3.711776e-03,2.586821e-01
-1.703314e-01,1.703314e-01,-1.093616e-02,2.408849e-01
-1.751089e-01,1.751089e-01,5.300875e-03,2.476413e-01
-1.842342e-01,1.842342e-01,8.335003e-03,2.605466e-01
-1.721960e-01,1.721960e-01,-1.094312e-02,2.435219e-01
-1.725349e-01,1.725349e-01,1.040147e-03,2.440011e-01
-1.840682e-01,1.840682e-01,1.129615e-02,2.603117e-01
-1.749343e-01,1.749343e-01,-8.953740e-03,2.473945e-01
-1.706287e-01,1.706287e-01,-3.252173e-03,2.413054e-01
-1.825472e-01,1.825472e-01,1.211605e-02,2.581607e-01
-1.781421e-01,1.781421e-01,-5.112203e-03,2.519310e-01
-1.696183e-01,1.696183e-01,-7.045674e-03,2.398764e-01
-1.800773e-01,1.800773e-01,1.086809e-02,2.546677e-01
-1.812064e-01,1.812064e-01,-5.236271e-05,2.562645e-01
-1.696466e-01,1.696466e-01,-9.832624e-03,2.399165e-01
-1.771693e-01,1.771693e-01,7.998633e-03,2.505552e-01
-1.834429e-01,1.834429e-01,5.171331e-03,2.594275e-01
-1.707670e-01,1.707670e-01,-1.113551e-02,2.415010e-01
-1.743116e-01,1.743116e-01,4.102262e-03,2.465139e-01
-1.843400e-01,1.843400e-01,9.396184e-03,2.606961e-01
-1.729129e-01,1.729129e-01,-1.057433e-02,2.445358e-01
-1.719021e-01,1.719021e-01,-2.240029e-04,2.431063e-01
-1.837527e-01,1.837527e-01,1.176017e-02,2.598656e-01
-1.758390e-01,1.758390e-01,-8.013076e-03,2.486739e-01
-1.702361e-01,1.702361e-01,-4.425254e-03,2.407502e-01
-1.819074e-01,1.819074e-01,1.195250e-02,2.572559e-01
-1.790753e-01,1.790753e-01,-3.731267e-03,2.532507e-01
-1.695156e-01,1.695156e-01,-7.978554e-03,2.397313e-01
-1.792572e-01,1.792572e-01,1.017847e-02,2.535080e-01
-1.819674e-01,1.819674e-01,1.497018e-03,2.573408e-01
-1.698593e-01,1.698593e-01,-1.038241e-02,2.402173e-01
-1.763167e-01,1.763167e-01,6.948476e-03,2.493495e-01
-1.838547e-01,1.838547e-01,6.545033e-03,2.600098e-01
-1.712900e-01,1.712900e-01,-1.117691e-02,2.422406e-01
-1.735525e-01,1.735525e-01,2.867914e-03,2.454403e-01
-1.843188e-01,1.843188e-01,1.029738e-02,2.606662e-01
-1.736967e-01,1.736967e-01,-1.003496e-02,2.456442e-01
-1.713326e-01,1.713326e-01,-1.477512e-03,2.423009e-01
-1.833302e-01,1.833302e-01,1.203850e-02,2.592680e-01
-1.767712e-01,1.767712e-01,-6.924675e-03,2.499923e-01
-1.699230e-01,1.699230e-01,-5.543781e-03,2.403075e-01
-1.811997e-01,1.811997e-01,1.162200e-02,2.562551e-01
-1.799797e-01,1.799797e-01,-2.268426e-03,2.545298e-01
-1.695025e-01,1.695025e-01,-8.814713e-03,2.397127e-01
-1.784130e-01,1.784130e-01,9.366195e-03,2.523140e-01
-1.826427e-01,1.826427e-01,3.031209e-03,2.582958e-01
-1.701636e-01,1.701636e-01,-1.079629e-02,2.406476e-01
-1.754796e-01,1.754796e-01,5.827162e-03,2.481656e-01
-1.841445e-01,1.841445e-01,7.807208e-03,2.604196e-01
-1.718962e-01,1.718962e-01,-1.105393e-02,2.430979e-01
-1.728397e-01,1.728397e-01,1.611633e-03,2.444323e-01
-1.841732e-01,1.841732e-01,1.102592e-02,2.604603e-01
-1.745381e-01,1.745381e-01,-9.327395e-03,2.468342e-01
-1.708313e-01,1.708313e-01,-2.707369e-03,2.415920e-01
-1.828107e-01,1.828107e-01,1.213269e-02,2.585334e-01
-1.777157e-01,1.777157e-01,-5.703225e-03,2.513280e-01
-1.696937e-01,1.696937e-01,-6.595494e-03,2.399832e-01
-1.804368e-01,1.804368e-01,1.113570e-02,2.551761e-01
-1.808380e-01,1.808380e-01,-7.497194e-04,2.557436e-01
-1.695809e-01,1.695809e-01,-9.542397e-03,2.398236e-01
-1.775572e-01,1.775572e-01,8.445955e-03,2.511038e-01
-1.832183e-01,1.832183e-01,4.520566e-03,2.591098e-01
-1.705589e-01,1.705589e-01,-1.106449e-02,2.412067e-01
-1.746679e-01,1.746679e-01,4.649344e-03,2.470177e-01
-1.843081e-01,1.843081e-01,8.935369e-03,2.606510e-01
-1.725801e-01,1.725801e-01,-1.076220e-02,2.440652e-01
-1.721809e-01,1.721809e-01,3.468670e-04,2.435006e-01
-1.839091e-01,1.839091e-01,1.157338e-02,2.600867e-01
-1.754259e-01,1.754259e-01,-8.457345e-03,2.480897e-01
-1.704038e-01,1.704038e-01,-3.900941e-03,2.409873e-01
-1.822057e-01,1.822057e-01,1.204772e-02,2.576778e-01
-1.786560e-01,1.786560e-01,-4.367118e-03,2.526577e-01
-1.695510e-01,1.695510e-01,-7.568100e-03,2.397813e-01
-1.796316e-01,1.796316e-01,1.050627e-02,2.540375e-01
-1.816331e-01,1.816331e-01,7.967213e-04,2.568680e-01
-1.697517e-01,1.697517e-01,-1.015008e-02,2.400652e-01
-1.767010e-01,1.767010e-01,7.432866e-03,2.498930e-01
-1.836832e-01,1.836832e-01,5.936411e-03,2.597673e-01
-1.710431e-01,1.710431e-01,-1.117823e-02,2.418914e-01
-1.738905e-01,1.738905e-01,3.429410e-03,2.459183e-01
-1.843440e-01,1.843440e-01,9.910736e-03,2.607017e-01
-1.733348e-01,1.733348e-01,-1.029985e-02,2.451325e-01
-1.715818e-01,1.715818e-01,-9.130051e-04,2.426533e-01
-1.835338e-01,1.835338e-01,1.193567e-02,2.595560e-01
-1.763475e-01,1.763475e-01,-7.434132e-03,2.493930e-01
-1.700544e-01,1.700544e-01,-5.045690e-03,2.404932e-01
-1.815272e-01,1.815272e-01,1.179143e-02,2.567182e-01
-1.795758e-01,1.795758e-01,-2.938246e-03,2.539585e-01
-1.694972e-01,1.694972e-01,-8.449475e-03,2.397053e-01
-1.787969e-01,1.787969e-01,9.747622e-03,2.528570e-01
-1.823491e-01,1.823491e-01,2.341460e-03,2.578806e-01
-1.700145e-01,1.700145e-01,-1.062666e-02,2.404368e-01
-1.758554e-01,1.758554e-01,6.341919e-03,2.486971e-01
-1.840291e-01,1.840291e-01,7.251954e-03,2.602565e-01
-1.716123e-01,1.716123e-01,-1.113022e-02,2.426964e-01
-1.731557e-01,1.731557e-01,2.181366e-03,2.448792e-01
-1.842541e-01,1.842541e-01,1.071861e-02,2.605747e-01
-1.741513e-01,1.741513e-01,-9.667787e-03,2.462871e-01
-1.710490e-01,1.710490e-01,-2.155139e-03,2.418999e-01
-1.830570e-01,1.830570e-01,1.211265e-02,2.588817e-01
-1.772882e-01,1.772882e-01,-6.270749e-03,2.507233e-01
-1.697870e-01,1.697870e-01,-6.129165e-03,2.401151e-01
-1.807876e-01,1.807876e-01,1.137406e-02,2.556722e-01
-1.804570e-01,1.804570e-01,-1.441412e-03,2.552047e-01
-1.695341e-01,1.695341e-01,-9.227642e-03,2.397574e-01
-1.779446e-01,1.779446e-01,8.874371e-03,2.516517e-01
-1.829711e-01,1.829711e-01,3.854740e-03,2.587603e-01
-1.703691e-01,1.703691e-01,-1.096189e-02,2.409383e-01
-1.750310e-01,1.750310e-01,5.187838e-03,2.475313e-01
-1.842500e-01,1.842500e-01,8.443273e-03,2.605688e-01
-1.722618e-01,1.722618e-01,-1.091516e-02,2.436150e-01
-1.724715e-01,1.724715e-01,9.188098e-04,2.439116e-01
-1.840427e-01,1.840427e-01,1.134869e-02,2.602757e-01
-1.750198e-01,1.750198e-01,-8.870278e-03,2.475154e-01
-1.705878e-01,1.705878e-01,-3.366728e-03,2.412476e-01
-1.824892e-01,1.824892e-01,1.210786e-02,2.580787e-01
-1.782326e-01,1.782326e-01,-4.983984e-03,2.520590e-01
-1.696045e-01,1.696045e-01,-7.139003e-03,2.398570e-01
-1.799999e-01,1.799999e-01,1.080767e-02,2.545583e-01
-1.812828e-01,1.812828e-01,9.607078e-05,2.563725e-01
-1.696631e-01,1.696631e-01,-9.890974e-03,2.399399e-01
-1.770872e-01,1.770872e-01,7.901394e-03,2.504391e-01
-1.834875e-01,1.834875e-01,5.307245e-03,2.594905e-01
-1.708133e-01,1.708133e-01,-1.114643e-02,2.415665e-01
-1.742370e-01,1.742370e-01,3.985213e-03,2.464083e-01
-1.843435e-01,1.843435e-01,9.489779e-03,2.607011e-01
-1.729853e-01,1.729853e-01,-1.052998e-02,2.446382e-01
-1.718447e-01,1.718447e-01,-3.449117e-04,2.430252e-01
-1.837166e-01,1.837166e-01,1.179494e-02,2.598145e-01
-1.759276e-01,1.759276e-01,-7.914894e-03,2.487991e-01
-1.702024e-01,1.702024e-01,-4.535071e-03,2.407026e-01
-1.818421e-01,1.818421e-01,1.192790e-02,2.571636e-01
-1.791636e-01,1.791636e-01,-3.594115e-03,2.533756e-01
-1.695104e-01,1.695104e-01,-8.063127e-03,2.397239e-01
-1.791769e-01,1.791769e-01,1.010567e-02,2.533945e-01
-1.820361e-01,1.820361e-01,1.645294e-03,2.574380e-01
-1.698843e-01,1.698843e-01,-1.042813e-02,2.402526e-01
-1.762355e-01,1.762355e-01,6.843789e-03,2.492347e-01
-1.838879e-01,1.838879e-01,6.671304e-03,2.600567e-01
-1.713447e-01,1.713447e-01,-1.117233e-02,2.423180e-01
-1.734822e-01,1.734822e-01,2.748128e-03,2.453409e-01
-1.843102e-01,1.843102e-01,1.037491e-02,2.606540e-01
-1.737751e-01,1.737751e-01,-9.974330e-03,2.457552e-01
-1.712814e-01,1.712814e-01,-1.596687e-03,2.422285e-01
-1.832845e-01,1.832845e-01,1.205543e-02,2.592035e-01
-1.768614e-01,1.768614e-01,-6.813014e-03,2.501198e-01
-1.698973e-01,1.698973e-01,-5.647742e-03,2.402711e-01
-1.811286e-01,1.811286e-01,1.158195e-02,2.561545e-01
-1.800644e-01,1.800644e-01,-2.124756e-03,2.546495e-01
-1.695062e-01,1.695062e-01,-8.889423e-03,2.397180e-01
-1.783313e-01,1.783313e-01,9.282348e-03,2.521986e-01
-1.827023e-01,1.827023e-01,3.176473e-03,2.583801e-01
-1.701979e-01,1.701979e-01,-1.082852e-02,2.406961e-01
-1.754006e-01,1.754006e-01,5.716398e-03,2.480538e-01
-1.841657e-01,1.841657e-01,7.921553e-03,2.604496e-01
-1.719585e-01,1.719585e-01,-1.103331e-02,2.431860e-01
-1.727741e-01,1.727741e-01,1.490477e-03,2.443395e-01
-1.841529e-01,1.841529e-01,1.108637e-02,2.604316e-01
-1.746214e-01,1.746214e-01,-9.250864e-03,2.469519e-01
-1.707870e-01,1.707870e-01,-2.823611e-03,2.415293e-01
-1.827563e-01,1.827563e-01,1.213220e-02,2.584564e-01
-1.778062e-01,1.778062e-01,-5.579710e-03,2.514559e-01
-1.696764e-01,1.696764e-01,-6.692426e-03,2.399587e-01
-1.803611e-01,1.803611e-01,1.108133e-02,2.550691e-01
-1.809173e-01,1.809173e-01,-6.021417e-04,2.558557e-01
-1.695935e-01,1.695935e-01,-9.606090e-03,2.398414e-01
-1.774747e-01,1.774747e-01,8.352611e-03,2.509871e-01
-1.832679e-01,1.832679e-01,4.659983e-03,2.591800e-01
-1.706017e-01,1.706017e-01,-1.108225e-02,2.412673e-01
-1.745915e-01,1.745915e-01,4.533972e-03,2.469096e-01
-1.843169e-01,1.843169e-01,9.035819e-03,2.606635e-01
-1.726494e-01,1.726494e-01,-1.072525e-02,2.441632e-01
-1.721206e-01,1.721206e-01,2.256366e-04,2.434153e-01
-1.838777e-01,1.838777e-01,1.161619e-02,2.600423e-01
-1.755130e-01,1.755130e-01,-8.365664e-03,2.482128e-01
-1.703668e-01,1.703668e-01,-4.013058e-03,2.409350e-01
-1.821438e-01,1.821438e-01,1.203038e-02,2.575903e-01
-1.787455e-01,1.787455e-01,-4.233730e-03,2.527843e-01
-1.695418e-01,1.695418e-01,-7.656766e-03,2.397683e-01
-1.795525e-01,1.795525e-01,1.043891e-02,2.539256e-01
-1.817054e-01,1.817054e-01,9.454316e-04,2.569703e-01
-1.697729e-01,1.697729e-01,-1.020163e-02,2.400951e-01
-1.766191e-01,1.766191e-01,7.331400e-03,2.497771e-01
-1.837216e-01,1.837216e-01,6.067342e-03,2.598216e-01
-1.710939e-01,1.710939e-01,-1.118071e-02,2.419633e-01
