x,y,z,R
-1.610888e-01,1.610888e-01,6.275441e-03,2.278139e-01
-1.987194e-01,1.987194e-01,4.099960e-02,2.810317e-01
-1.681131e-01,1.681131e-01,-3.373225e-02,2.377479e-01
-1.505107e-01,1.505107e-01,-1.978871e-02,2.128543e-01
-1.795683e-01,1.795683e-01,3.094390e-02,2.539479e-01
-1.954842e-01,1.954842e-01,8.839132e-03,2.764564e-01
-1.519742e-01,1.519742e-01,-3.878407e-02,2.149240e-01
-1.599023e-01,1.599023e-01,4.309779e-03,2.261360e-01
-1.978310e-01,1.978310e-01,4.185334e-02,2.797753e-01
-1.700478e-01,1.700478e-01,-3.187941e-02,2.404839e-01
-1.499945e-01,1.499945e-01,-2.172880e-02,2.121242e-01
-1.777299e-01,1.777299e-01,2.913821e-02,2.513481e-01
-1.971914e-01,1.971914e-01,1.296236e-02,2.788708e-01
-1.525353e-01,1.525353e-01,-3.996796e-02,2.157174e-01
-1.583787e-01,1.583787e-01,1.874704e-03,2.239812e-01
-1.965963e-01,1.965963e-01,4.273313e-02,2.780291e-01
-1.726297e-01,1.726297e-01,-2.925219e-02,2.441352e-01
-1.493015e-01,1.493015e-01,-2.430248e-02,2.111442e-01
-1.752463e-01,1.752463e-01,2.668565e-02,2.478357e-01
-1.992057e-01,1.992057e-01,1.846099e-02,2.817194e-01
-1.534341e-01,1.534341e-01,-4.137368e-02,2.169886e-01
-1.563773e-01,1.563773e-01,-1.440694e-03,2.211509e-01
-1.946304e-01,1.946304e-01,4.325385e-02,2.752489e-01
-1.763585e-01,1.763585e-01,-2.495090e-02,2.494085e-01
-1.486015e-01,1.486015e-01,-2.765726e-02,2.101542e-01
-1.719579e-01,1.719579e-01,2.317330e-02,2.431851e-01
-2.011317e-01,2.011317e-01,2.541152e-02,2.844432e-01
-1.551554e-01,1.551554e-01,-4.237303e-02,2.194229e-01
-1.541801e-01,1.541801e-01,-5.653853e-03,2.180436e-01
-1.916911e-01,1.916911e-01,4.250259e-02,2.710921e-01
-1.812348e-01,1.812348e-01,-1.829681e-02,2.563047e-01
-1.484321e-01,1.484321e-01,-3.122727e-02,2.099147e-01
-1.684228e-01,1.684228e-01,1.874678e-02,2.381857e-01
-2.019860e-01,2.019860e-01,3.213158e-02,2.856514e-01
-1.580102e-01,1.580102e-01,-4.182282e-02,2.234601e-01
-1.525399e-01,1.525399e-01,-9.982365e-03,2.157241e-01
-1.882724e-01,1.882724e-01,4.007653e-02,2.662574e-01
-1.860878e-01,1.860878e-01,-1.045718e-02,2.631679e-01
-1.490726e-01,1.490726e-01,-3.401281e-02,2.108206e-01
-1.655873e-01,1.655873e-01,1.439601e-02,2.341759e-01
-2.015185e-01,2.015185e-01,3.654091e-02,2.849902e-01
-1.612654e-01,1.612654e-01,-3.981937e-02,2.280638e-01
-1.516841e-01,1.516841e-01,-1.350150e-02,2.145138e-01
-1.852786e-01,1.852786e-01,3.711329e-02,2.620235e-01
-1.896954e-01,1.896954e-01,-3.740314e-03,2.682698e-01
-1.500080e-01,1.500080e-01,-3.576714e-02,2.121433e-01
-1.636572e-01,1.636572e-01,1.096714e-02,2.314462e-01
-2.005526e-01,2.005526e-01,3.881479e-02,2.836242e-01
-1.640110e-01,1.640110e-01,-3.755436e-02,2.319466e-01
-1.512439e-01,1.512439e-01,-1.603216e-02,2.138912e-01
-1.830303e-01,1.830303e-01,3.464274e-02,2.588439e-01
-1.920822e-01,1.920822e-01,1.197022e-03,2.716452e-01
-1.508109e-01,1.508109e-01,-3.687989e-02,2.132788e-01
-1.623136e-01,1.623136e-01,8.465289e-03,2.295461e-01
-1.996289e-01,1.996289e-01,4.003799e-02,2.823179e-01
-1.661274e-01,1.661274e-01,-3.560962e-02,2.349396e-01
-1.509199e-01,1.509199e-01,-1.792036e-02,2.134329e-01
-1.813073e-01,1.813073e-01,3.274794e-02,2.564072e-01
-1.937955e-01,1.937955e-01,4.974479e-03,2.740682e-01
-1.514196e-01,1.514196e-01,-3.775514e-02,2.141397e-01
-1.612058e-01,1.612058e-01,6.477070e-03,2.279795e-01
-1.988064e-01,1.988064e-01,4.091108e-02,2.811548e-01
-1.679233e-01,1.679233e-01,-3.391222e-02,2.374793e-01
-1.505564e-01,1.505564e-01,-1.960356e-02,2.129189e-01
-1.797419e-01,1.797419e-01,3.111855e-02,2.541935e-01
-1.953172e-01,1.953172e-01,8.450332e-03,2.762203e-01
-1.519214e-01,1.519214e-01,-3.867443e-02,2.148493e-01
-1.600411e-01,1.600411e-01,4.534070e-03,2.263324e-01
-1.979367e-01,1.979367e-01,4.175910e-02,2.799247e-01
-1.698196e-01,1.698196e-01,-3.210127e-02,2.401612e-01
-1.500585e-01,1.500585e-01,-2.149729e-02,2.122147e-01
-1.779508e-01,1.779508e-01,2.935350e-02,2.516604e-01
-1.969937e-01,1.969937e-01,1.246712e-02,2.785912e-01
-1.524656e-01,1.524656e-01,-3.982727e-02,2.156190e-01
-1.585639e-01,1.585639e-01,2.171070e-03,2.242432e-01
-1.967559e-01,1.967559e-01,4.264469e-02,2.782548e-01
-1.723064e-01,1.723064e-01,-2.959499e-02,2.436780e-01
-1.493818e-01,1.493818e-01,-2.398861e-02,2.112578e-01
-1.755515e-01,1.755515e-01,2.699317e-02,2.482673e-01
-1.989813e-01,1.989813e-01,1.779403e-02,2.814020e-01
-1.533091e-01,1.533091e-01,-4.122434e-02,2.168118e-01
-1.566110e-01,1.566110e-01,-1.037598e-03,2.214814e-01
-1.948868e-01,1.948868e-01,4.324021e-02,2.756115e-01
-1.758965e-01,1.758965e-01,-2.551983e-02,2.487552e-01
-1.486625e-01,1.486625e-01,-2.727075e-02,2.102405e-01
-1.723386e-01,1.723386e-01,2.360296e-02,2.437236e-01
-2.009590e-01,2.009590e-01,2.463360e-02,2.841989e-01
-1.549162e-01,1.549162e-01,-4.232294e-02,2.190846e-01
-1.544017e-01,1.544017e-01,-5.178486e-03,2.183570e-01
-1.920444e-01,1.920444e-01,4.266965e-02,2.715917e-01
-1.806853e-01,1.806853e-01,-1.910647e-02,2.555277e-01
-1.484081e-01,1.484081e-01,-3.086881e-02,2.098807e-01
-1.687798e-01,1.687798e-01,1.923756e-02,2.386907e-01
-2.019671e-01,2.019671e-01,3.150349e-02,2.856246e-01
-1.576649e-01,1.576649e-01,-4.196963e-02,2.229718e-01
-1.526734e-01,1.526734e-01,-9.547104e-03,2.159127e-01
-1.886305e-01,1.886305e-01,4.038866e-02,2.667639e-01
-1.856176e-01,1.856176e-01,-1.127323e-02,2.625029e-01
-1.489788e-01,1.489788e-01,-3.376826e-02,2.106879e-01
-1.658441e-01,1.658441e-01,1.482454e-02,2.345390e-01
-2.016076e-01,2.016076e-01,3.619059e-02,2.851162e-01
-1.609323e-01,1.609323e-01,-4.006486e-02,2.275927e-01
-1.517486e-01,1.517486e-01,-1.317585e-02,2.146049e-01
-1.855624e-01,1.855624e-01,3.741529e-02,2.624248e-01
-1.893765e-01,1.893765e-01,-4.368863e-03,2.678189e-01
-1.499107e-01,1.499107e-01,-3.561853e-02,2.120057e-01
-1.638288e-01,1.638288e-01,1.128389e-02,2.316889e-01
-2.006581e-01,2.006581e-01,3.863874e-02,2.837734e-01
-1.637508e-01,1.637508e-01,-3.778418e-02,2.315786e-01
-1.512819e-01,1.512819e-01,-1.580016e-02,2.139448e-01
-1.832395e-01,1.832395e-01,3.487558e-02,2.591397e-01
-1.918690e-01,1.918690e-01,7.395624e-04,2.713438e-01
-1.507351e-01,1.507351e-01,-3.677828e-02,2.131716e-01
-1.624402e-01,1.624402e-01,8.699894e-03,2.297251e-01
-1.997214e-01,1.997214e-01,3.993244e-02,2.824488e-01
-1.659233e-01,1.659233e-01,-3.580120e-02,2.346510e-01
-1.509541e-01,1.509541e-01,-1.773582e-02,2.134814e-01
-1.814771e-01,1.814771e-01,3.293125e-02,2.566474e-01
-1.936288e-01,1.936288e-01,4.600226e-03,2.738325e-01
-1.513617e-01,1.513617e-01,-3.766362e-02,2.140577e-01
-1.613222e-01,1.613222e-01,6.679200e-03,2.281441e-01
-1.988930e-01,1.988930e-01,4.082247e-02,2.812772e-01
-1.677345e-01,1.677345e-01,-3.409107e-02,2.372124e-01
-1.506002e-01,1.506002e-01,-1.942077e-02,2.129808e-01
-1.799132e-01,1.799132e-01,3.129164e-02,2.544358e-01
-1.951522e-01,1.951522e-01,8.067676e-03,2.759869e-01
-1.518690e-01,1.518690e-01,-3.856758e-02,2.147752e-01
-1.601763e-01,1.601763e-01,4.753559e-03,2.265236e-01
-1.980389e-01,1.980389e-01,4.166546e-02,2.800693e-01
-1.695980e-01,1.695980e-01,-3.231550e-02,2.398478e-01
-1.501203e-01,1.501203e-01,-2.127272e-02,2.123022e-01
-1.781649e-01,1.781649e-01,2.956193e-02,2.519633e-01
-1.967999e-01,1.967999e-01,1.198722e-02,2.783172e-01
-1.523993e-01,1.523993e-01,-3.968988e-02,2.155252e-01
-1.587434e-01,1.587434e-01,2.457520e-03,2.244971e-01
-1.969075e-01,1.969075e-01,4.255352e-02,2.784693e-01
-1.719962e-01,1.719962e-01,-2.992000e-02,2.432394e-01
-1.494613e-01,1.494613e-01,-2.368444e-02,2.113701e-01
-1.758468e-01,1.758468e-01,2.728851e-02,2.486849e-01
-1.987575e-01,1.987575e-01,1.714612e-02,2.810856e-01
-1.531926e-01,1.531926e-01,-4.107253e-02,2.166471e-01
-1.568409e-01,1.568409e-01,-6.460431e-04,2.218066e-01
-1.951314e-01,1.951314e-01,4.321346e-02,2.759574e-01
-1.754498e-01,1.754498e-01,-2.606032e-02,2.481234e-01
-1.487289e-01,1.487289e-01,-2.688869e-02,2.103345e-01
-1.727145e-01,1.727145e-01,2.402042e-02,2.442552e-01
-2.007746e-01,2.007746e-01,2.385751e-02,2.839382e-01
-1.546909e-01,1.546909e-01,-4.225497e-02,2.187660e-01
-1.546291e-01,1.546291e-01,-4.706026e-03,2.186786e-01
-1.923904e-01,1.923904e-01,4.281487e-02,2.720812e-01
-1.801380e-01,1.801380e-01,-1.989777e-02,2.547536e-01
-1.483948e-01,1.483948e-01,-3.050143e-02,2.098620e-01
-1.691450e-01,1.691450e-01,1.972782e-02,2.392071e-01
-2.019310e-01,2.019310e-01,3.084739e-02,2.855735e-01
-1.573259e-01,1.573259e-01,-4.209710e-02,2.224924e-01
-1.528170e-01,1.528170e-01,-9.102550e-03,2.161159e-01
-1.889934e-01,1.889934e-01,4.069300e-02,2.672770e-01
-1.851323e-01,1.851323e-01,-1.210211e-02,2.618166e-01
-1.488883e-01,1.488883e-01,-3.351090e-02,2.105599e-01
-1.661113e-01,1.661113e-01,1.526420e-02,2.349168e-01
-2.016906e-01,2.016906e-01,3.581403e-02,2.852336e-01
-1.605932e-01,1.605932e-01,-4.030693e-02,2.271131e-01
-1.518182e-01,1.518182e-01,-1.283818e-02,2.147033e-01
-1.858552e-01,1.858552e-01,3.772335e-02,2.628390e-01
-1.890427e-01,1.890427e-01,-5.019254e-03,2.673468e-01
-1.498116e-01,1.498116e-01,-3.546203e-02,2.118656e-01
-1.640075e-01,1.640075e-01,1.161196e-02,2.319417e-01
-2.007642e-01,2.007642e-01,3.845002e-02,2.839235e-01
-1.634829e-01,1.634829e-01,-3.801809e-02,2.311998e-01
-1.513212e-01,1.513212e-01,-1.556023e-02,2.140005e-01
-1.834551e-01,1.834551e-01,3.511558e-02,2.594447e-01
-1.916476e-01,1.916476e-01,2.676910e-04,2.710307e-01
-1.506570e-01,1.506570e-01,-3.667369e-02,2.130612e-01
-1.625699e-01,1.625699e-01,8.940950e-03,2.299085e-01
-1.998154e-01,1.998154e-01,3.982281e-02,2.825817e-01
-1.657150e-01,1.657150e-01,-3.599615e-02,2.343565e-01
-1.509882e-01,1.509882e-01,-1.754848e-02,2.135296e-01
-1.816494e-01,1.816494e-01,3.311803e-02,2.568910e-01
-1.934596e-01,1.934596e-01,4.221503e-03,2.735932e-01
-1.513024e-01,1.513024e-01,-3.757238e-02,2.139738e-01
-1.614384e-01,1.614384e-01,6.882398e-03,2.283083e-01
-1.989794e-01,1.989794e-01,4.073356e-02,2.813993e-01
-1.675464e-01,1.675464e-01,-3.426938e-02,2.369464e-01
-1.506424e-01,1.506424e-01,-1.923986e-02,2.130405e-01
-1.800824e-01,1.800824e-01,3.146378e-02,2.546749e-01
-1.949887e-01,1.949887e-01,7.690238e-03,2.757556e-01
-1.518168e-01,1.518168e-01,-3.846335e-02,2.147013e-01
-1.603082e-01,1.603082e-01,4.968816e-03,2.267101e-01
-1.981379e-01,1.981379e-01,4.157253e-02,2.802093e-01
-1.693824e-01,1.693824e-01,-3.252294e-02,2.395430e-01
-1.501796e-01,1.501796e-01,-2.105456e-02,2.123860e-01
-1.783723e-01,1.783723e-01,2.976425e-02,2.522565e-01
-1.966101e-01,1.966101e-01,1.152180e-02,2.780487e-01
-1.523355e-01,1.523355e-01,-3.955586e-02,2.154349e-01
-1.589172e-01,1.589172e-01,2.734553e-03,2.247428e-01
-1.970518e-01,1.970518e-01,4.246017e-02,2.786734e-01
-1.716982e-01,1.716982e-01,-3.022848e-02,2.428179e-01
-1.495395e-01,1.495395e-01,-2.338991e-02,2.114807e-01
-1.761322e-01,1.761322e-01,2.757213e-02,2.490886e-01
-1.985353e-01,1.985353e-01,1.651752e-02,2.807713e-01
-1.530838e-01,1.530838e-01,-4.091936e-02,2.164932e-01
-1.570667e-01,1.570667e-01,-2.663014e-04,2.221259e-01
-1.953643e-01,1.953643e-01,4.317456e-02,2.762868e-01
-1.750179e-01,1.750179e-01,-2.657307e-02,2.475127e-01
-1.487999e-01,1.487999e-01,-2.651224e-02,2.104348e-01
-1.730846e-01,1.730846e-01,2.442511e-02,2.447785e-01
-2.005802e-01,2.005802e-01,2.308631e-02,2.836632e-01
-1.544800e-01,1.544800e-01,-4.217088e-02,2.184678e-01
-1.548613e-01,1.548613e-01,-4.237864e-03,2.190069e-01
-1.927282e-01,1.927282e-01,4.293864e-02,2.725589e-01
-1.795951e-01,1.795951e-01,-2.066792e-02,2.539858e-01
-1.483925e-01,1.483925e-01,-3.012642e-02,2.098586e-01
-1.695171e-01,1.695171e-01,2.021597e-02,2.397334e-01
-2.018772e-01,2.018772e-01,3.016525e-02,2.854975e-01
-1.569947e-01,1.569947e-01,-4.220402e-02,2.220240e-01
-1.529710e-01,1.529710e-01,-8.649676e-03,2.163337e-01
-1.893599e-01,1.893599e-01,4.098743e-02,2.677953e-01
-1.846329e-01,1.846329e-01,-1.294114e-02,2.611104e-01
-1.488030e-01,1.488030e-01,-3.324068e-02,2.104392e-01
-1.663902e-01,1.663902e-01,1.571403e-02,2.353112e-01
-2.017661e-01,2.017661e-01,3.540958e-02,2.853404e-01
-1.602488e-01,1.602488e-01,-4.054407e-02,2.266261e-01
-1.518934e-01,1.518934e-01,-1.248829e-02,2.148097e-01
-1.861573e-01,1.861573e-01,3.803674e-02,2.632661e-01
-1.886934e-01,1.886934e-01,-5.691681e-03,2.668528e-01
-1.497114e-01,1.497114e-01,-3.529714e-02,2.117239e-01
-1.641940e-01,1.641940e-01,1.195172e-02,2.322053e-01
-2.008708e-01,2.008708e-01,3.824756e-02,2.840742e-01
-1.632071e-01,1.632071e-01,-3.825580e-02,2.308098e-01
-1.513622e-01,1.513622e-01,-1.531180e-02,2.140585e-01
-1.836778e-01,1.836778e-01,3.536295e-02,2.597596e-01
-1.914172e-01,1.914172e-01,-2.196272e-04,2.707049e-01
-1.505767e-01,1.505767e-01,-3.656570e-02,2.129476e-01
-1.627030e-01,1.627030e-01,9.189038e-03,2.300968e-01
-1.999109e-01,1.999109e-01,3.970819e-02,2.827167e-01
-1.655021e-01,1.655021e-01,-3.619474e-02,2.340553e-01
-1.510221e-01,1.510221e-01,-1.735778e-02,2.135775e-01
-1.818244e-01,1.818244e-01,3.330881e-02,2.571385e-01
-1.932872e-01,1.932872e-01,3.837287e-03,2.733494e-01
-1.512416e-01,1.512416e-01,-3.748115e-02,2.138879e-01
-1.615542e-01,1.615542e-01,7.087313e-03,2.284721e-01
-1.990658e-01,1.990658e-01,4.064404e-02,2.815215e-01
-1.673580e-01,1.673580e-01,-3.444758e-02,2.366800e-01
-1.506834e-01,1.506834e-01,-1.906040e-02,2.130985e-01
-1.802498e-01,1.802498e-01,3.163549e-02,2.549117e-01
-1.948264e-01,1.948264e-01,7.316912e-03,2.755262e-01
-1.517646e-01,1.517646e-01,-3.836150e-02,2.146275e-01
-1.604371e-01,1.604371e-01,5.180414e-03,2.268923e-01
-1.982343e-01,1.982343e-01,4.148041e-02,2.803457e-01
-1.691723e-01,1.691723e-01,-3.272442e-02,2.392458e-01
-1.502369e-01,1.502369e-01,-2.084245e-02,2.124670e-01
-1.785737e-01,1.785737e-01,2.996096e-02,2.525413e-01
-1.964241e-01,1.964241e-01,1.106991e-02,2.777857e-01
-1.522741e-01,1.522741e-01,-3.942530e-02,2.153481e-01
-1.590854e-01,1.590854e-01,3.002670e-03,2.249808e-01
-1.971894e-01,1.971894e-01,4.236575e-02,2.788680e-01
-1.714120e-01,1.714120e-01,-3.052168e-02,2.424132e-01
-1.496162e-01,1.496162e-01,-2.310489e-02,2.115892e-01
-1.764076e-01,1.764076e-01,2.784467e-02,2.494780e-01
-1.983152e-01,1.983152e-01,1.590829e-02,2.804601e-01
-1.529826e-01,1.529826e-01,-4.076590e-02,2.163500e-01
-1.572879e-01,1.572879e-01,1.015439e-04,2.224386e-01
-1.955858e-01,1.955858e-01,4.312502e-02,2.766001e-01
-1.746019e-01,1.746019e-01,-2.705900e-02,2.469243e-01
-1.488744e-01,1.488744e-01,-2.614237e-02,2.105402e-01
-1.734477e-01,1.734477e-01,2.481662e-02,2.452922e-01
-2.003772e-01,2.003772e-01,2.232303e-02,2.833762e-01
-1.542830e-01,1.542830e-01,-4.207237e-02,2.181891e-01
-1.550975e-01,1.550975e-01,-3.775485e-03,2.193410e-01
-1.930567e-01,1.930567e-01,4.304077e-02,2.730234e-01
-1.790583e-01,1.790583e-01,-2.141453e-02,2.532267e-01
-1.484002e-01,1.484002e-01,-2.974501e-02,2.098696e-01
-1.698950e-01,1.698950e-01,2.070042e-02,2.402678e-01
-2.018054e-01,2.018054e-01,2.945951e-02,2.853960e-01
-1.566728e-01,1.566728e-01,-4.228946e-02,2.215689e-01
-1.531354e-01,1.531354e-01,-8.189511e-03,2.165661e-01
-1.897287e-01,1.897287e-01,4.126985e-02,2.683170e-01
-1.841209e-01,1.841209e-01,-1.378730e-02,2.603863e-01
-1.487237e-01,1.487237e-01,-3.295748e-02,2.103270e-01
-1.666802e-01,1.666802e-01,1.617337e-02,2.357214e-01
-2.018329e-01,2.018329e-01,3.497629e-02,2.854349e-01
-1.599001e-01,1.599001e-01,-4.077462e-02,2.261329e-01
-1.519747e-01,1.519747e-01,-1.212610e-02,2.149247e-01
-1.864681e-01,1.864681e-01,3.835458e-02,2.637057e-01
-1.883280e-01,1.883280e-01,-6.386124e-03,2.663361e-01
-1.496099e-01,1.496099e-01,-3.512312e-02,2.115804e-01
-1.643886e-01,1.643886e-01,1.230344e-02,2.324806e-01
-2.009772e-01,2.009772e-01,3.802971e-02,2.842246e-01
-1.629230e-01,1.629230e-01,-3.849687e-02,2.304079e-01
-1.514051e-01,1.514051e-01,-1.505433e-02,2.141191e-01
-1.839077e-01,1.839077e-01,3.561792e-02,2.600847e-01
-1.911772e-01,1.911772e-01,-7.234080e-04,2.703654e-01
-1.504934e-01,1.504934e-01,-3.645373e-02,2.128298e-01
-1.628400e-01,1.628400e-01,9.444738e-03,2.302906e-01
-2.000078e-01,2.000078e-01,3.958781e-02,2.828538e-01
-1.652840e-01,1.652840e-01,-3.639722e-02,2.337468e-01
-1.510560e-01,1.510560e-01,-1.716323e-02,2.136255e-01
-1.820024e-01,1.820024e-01,3.350410e-02,2.573902e-01
-1.931113e-01,1.931113e-01,3.446493e-03,2.731006e-01
-1.511791e-01,1.511791e-01,-3.738961e-02,2.137995e-01
-1.616703e-01,1.616703e-01,7.294431e-03,2.286363e-01
-1.991525e-01,1.991525e-01,4.055361e-02,2.816441e-01
-1.671691e-01,1.671691e-01,-3.462626e-02,2.364128e-01
-1.507232e-01,1.507232e-01,-1.888189e-02,2.131548e-01
-1.804163e-01,1.804163e-01,3.180716e-02,2.551472e-01
-1.946649e-01,1.946649e-01,6.946763e-03,2.752977e-01
-1.517119e-01,1.517119e-01,-3.826182e-02,2.145531e-01
-1.605633e-01,1.605633e-01,5.388921e-03,2.270708e-01
-1.983284e-01,1.983284e-01,4.138913e-02,2.804787e-01
-1.689669e-01,1.689669e-01,-3.292068e-02,2.389553e-01
-1.502922e-01,1.502922e-01,-2.063590e-02,2.125453e-01
-1.787693e-01,1.787693e-01,3.015272e-02,2.528180e-01
-1.962417e-01,1.962417e-01,1.063060e-02,2.775277e-01
-1.522149e-01,1.522149e-01,-3.929825e-02,2.152644e-01
-1.592485e-01,1.592485e-01,3.262392e-03,2.252114e-01
-1.973207e-01,1.973207e-01,4.227030e-02,2.790536e-01
-1.711365e-01,1.711365e-01,-3.080077e-02,2.420236e-01
-1.496912e-01,1.496912e-01,-2.282916e-02,2.116953e-01
-1.766735e-01,1.766735e-01,2.810657e-02,2.498541e-01
-1.980979e-01,1.980979e-01,1.531840e-02,2.801527e-01
-1.528874e-01,1.528874e-01,-4.061291e-02,2.162154e-01
-1.575039e-01,1.575039e-01,4.575178e-04,2.227442e-01
-1.957964e-01,1.957964e-01,4.306653e-02,2.768979e-01
