x,y,z,R
-1.810778e-01,1.810778e-01,-1.673991e-02,2.560826e-01
-1.506286e-01,1.506286e-01,-2.854611e-02,2.130211e-01
-1.709927e-01,1.709927e-01,1.969904e-02,2.418203e-01
-1.999515e-01,1.999515e-01,2.591932e-02,2.827741e-01
-1.573475e-01,1.573475e-01,-3.922956e-02,2.225229e-01
-1.561989e-01,1.561989e-01,-4.951714e-03,2.208986e-01
-1.919837e-01,1.919837e-01,3.991009e-02,2.715059e-01
-1.789433e-01,1.789433e-01,-1.989673e-02,2.530640e-01
-1.505193e-01,1.505193e-01,-2.717946e-02,2.128664e-01
-1.723816e-01,1.723816e-01,2.159585e-02,2.437845e-01
-1.995599e-01,1.995599e-01,2.330330e-02,2.822204e-01
-1.562562e-01,1.562562e-01,-3.945031e-02,2.209796e-01
-1.567825e-01,1.567825e-01,-3.336013e-03,2.217239e-01
-1.931291e-01,1.931291e-01,4.057676e-02,2.731258e-01
-1.772997e-01,1.772997e-01,-2.232343e-02,2.507397e-01
-1.503406e-01,1.503406e-01,-2.625349e-02,2.126137e-01
-1.733202e-01,1.733202e-01,2.299928e-02,2.451118e-01
-1.993082e-01,1.993082e-01,2.156904e-02,2.818643e-01
-1.554774e-01,1.554774e-01,-3.972219e-02,2.198783e-01
-1.570149e-01,1.570149e-01,-2.395783e-03,2.220526e-01
-1.937999e-01,1.937999e-01,4.112319e-02,2.740744e-01
-1.764485e-01,1.764485e-01,-2.367849e-02,2.495358e-01
-1.500864e-01,1.500864e-01,-2.596706e-02,2.122542e-01
-1.736184e-01,1.736184e-01,2.366765e-02,2.455335e-01
-1.993680e-01,1.993680e-01,2.114263e-02,2.819489e-01
-1.550812e-01,1.550812e-01,-4.011750e-02,2.193180e-01
-1.568233e-01,1.568233e-01,-2.297686e-03,2.217816e-01
-1.939157e-01,1.939157e-01,4.157105e-02,2.742382e-01
-1.765259e-01,1.765259e-01,-2.382613e-02,2.496453e-01
-1.497609e-01,1.497609e-01,-2.640029e-02,2.117940e-01
-1.732027e-01,1.732027e-01,2.349332e-02,2.449456e-01
-1.997940e-01,1.997940e-01,2.217923e-02,2.825514e-01
-1.551085e-01,1.551085e-01,-4.063432e-02,2.193565e-01
-1.562133e-01,1.562133e-01,-3.079181e-03,2.209190e-01
-1.934385e-01,1.934385e-01,4.185379e-02,2.735633e-01
-1.775608e-01,1.775608e-01,-2.268603e-02,2.511089e-01
-1.494172e-01,1.494172e-01,-2.751041e-02,2.113079e-01
-1.721132e-01,1.721132e-01,2.246327e-02,2.434048e-01
-2.004677e-01,2.004677e-01,2.453845e-02,2.835041e-01
-1.556180e-01,1.556180e-01,-4.112211e-02,2.200771e-01
-1.553032e-01,1.553032e-01,-4.637131e-03,2.196319e-01
-1.923788e-01,1.923788e-01,4.177248e-02,2.720648e-01
-1.794374e-01,1.794374e-01,-2.025714e-02,2.537628e-01
-1.491849e-01,1.491849e-01,-2.907589e-02,2.109793e-01
-1.705630e-01,1.705630e-01,2.070807e-02,2.412125e-01
-2.010966e-01,2.010966e-01,2.766296e-02,2.843935e-01
-1.566383e-01,1.566383e-01,-4.128477e-02,2.215201e-01
-1.543476e-01,1.543476e-01,-6.657739e-03,2.182804e-01
-1.908937e-01,1.908937e-01,4.112929e-02,2.699645e-01
-1.817736e-01,1.817736e-01,-1.687429e-02,2.570668e-01
-1.492113e-01,1.492113e-01,-3.068342e-02,2.110166e-01
-1.689529e-01,1.689529e-01,1.859492e-02,2.389354e-01
-2.013855e-01,2.013855e-01,3.063519e-02,2.848021e-01
-1.580154e-01,1.580154e-01,-4.091107e-02,2.234675e-01
-1.536299e-01,1.536299e-01,-8.641988e-03,2.172654e-01
-1.893431e-01,1.893431e-01,4.001707e-02,2.677715e-01
-1.839522e-01,1.839522e-01,-1.337803e-02,2.601477e-01
-1.495040e-01,1.495040e-01,-3.191073e-02,2.114306e-01
-1.676932e-01,1.676932e-01,1.665987e-02,2.371539e-01
-2.013010e-01,2.013010e-01,3.269158e-02,2.846827e-01
-1.593627e-01,1.593627e-01,-4.015286e-02,2.253728e-01
-1.532793e-01,1.532793e-01,-1.011913e-02,2.167697e-01
-1.881370e-01,1.881370e-01,3.885128e-02,2.660659e-01
-1.854418e-01,1.854418e-01,-1.073200e-02,2.622544e-01
-1.499095e-01,1.499095e-01,-3.254183e-02,2.120040e-01
-1.670068e-01,1.670068e-01,1.535541e-02,2.361832e-01
-2.010442e-01,2.010442e-01,3.360572e-02,2.843194e-01
-1.602859e-01,1.602859e-01,-3.938949e-02,2.266785e-01
-1.532774e-01,1.532774e-01,-1.082698e-02,2.167670e-01
-1.875373e-01,1.875373e-01,3.803747e-02,2.652177e-01
-1.860118e-01,1.860118e-01,-9.516624e-03,2.630604e-01
-1.502721e-01,1.502721e-01,-3.255286e-02,2.125168e-01
-1.669458e-01,1.669458e-01,1.490308e-02,2.360970e-01
-2.008012e-01,2.008012e-01,3.346783e-02,2.839758e-01
-1.605794e-01,1.605794e-01,-3.890005e-02,2.270936e-01
-1.535717e-01,1.535717e-01,-1.069255e-02,2.171832e-01
-1.876279e-01,1.876279e-01,3.775953e-02,2.653460e-01
-1.856408e-01,1.856408e-01,-9.887521e-03,2.625357e-01
-1.505190e-01,1.505190e-01,-3.198965e-02,2.128660e-01
-1.674875e-01,1.674875e-01,1.534091e-02,2.368632e-01
-2.006243e-01,2.006243e-01,3.237913e-02,2.837255e-01
-1.602232e-01,1.602232e-01,-3.875444e-02,2.265899e-01
-1.541218e-01,1.541218e-01,-9.753621e-03,2.179612e-01
-1.883695e-01,1.883695e-01,3.800581e-02,2.663947e-01
-1.844030e-01,1.844030e-01,-1.171849e-02,2.607852e-01
-1.506423e-01,1.506423e-01,-3.092679e-02,2.130404e-01
-1.685622e-01,1.685622e-01,1.658287e-02,2.383829e-01
-2.004520e-01,2.004520e-01,3.041154e-02,2.834820e-01
-1.593335e-01,1.593335e-01,-3.886575e-02,2.253316e-01
-1.548713e-01,1.548713e-01,-8.155501e-03,2.190210e-01
-1.896108e-01,1.896108e-01,3.863253e-02,2.681501e-01
-1.824909e-01,1.824909e-01,-1.461845e-02,2.580811e-01
-1.506611e-01,1.506611e-01,-2.951476e-02,2.130670e-01
-1.700042e-01,1.700042e-01,1.840214e-02,2.404223e-01
-2.001863e-01,2.001863e-01,2.776374e-02,2.831062e-01
-1.581397e-01,1.581397e-01,-3.908487e-02,2.236434e-01
-1.557030e-01,1.557030e-01,-6.198328e-03,2.201974e-01
-1.910787e-01,1.910787e-01,3.941892e-02,2.702260e-01
-1.802832e-01,1.802832e-01,-1.792108e-02,2.549590e-01
-1.505974e-01,1.505974e-01,-2.802312e-02,2.129769e-01
-1.715253e-01,1.715253e-01,2.041358e-02,2.425734e-01
-1.998080e-01,1.998080e-01,2.491797e-02,2.825712e-01
-1.569282e-01,1.569282e-01,-3.930783e-02,2.219300e-01
-1.564414e-01,1.564414e-01,-4.311942e-03,2.212415e-01
-1.924403e-01,1.924403e-01,4.016442e-02,2.721517e-01
-1.782777e-01,1.782777e-01,-2.087491e-02,2.521227e-01
-1.504635e-01,1.504635e-01,-2.678376e-02,2.127875e-01
-1.727826e-01,1.727826e-01,2.217189e-02,2.443515e-01
-1.994430e-01,1.994430e-01,2.255188e-02,2.820550e-01
-1.559360e-01,1.559360e-01,-3.953752e-02,2.205268e-01
-1.569116e-01,1.569116e-01,-2.909399e-03,2.219065e-01
-1.934298e-01,1.934298e-01,4.078474e-02,2.735511e-01
-1.768934e-01,1.768934e-01,-2.294208e-02,2.501651e-01
-1.502585e-01,1.502585e-01,-2.607071e-02,2.124977e-01
-1.735068e-01,1.735068e-01,2.333126e-02,2.453757e-01
-1.992877e-01,1.992877e-01,2.125202e-02,2.818354e-01
-1.552894e-01,1.552894e-01,-3.984741e-02,2.196123e-01
-1.569964e-01,1.569964e-01,-2.259301e-03,2.220264e-01
-1.939077e-01,1.939077e-01,4.129577e-02,2.742268e-01
-1.763658e-01,1.763658e-01,-2.387477e-02,2.494189e-01
-1.499770e-01,1.499770e-01,-2.603896e-02,2.120995e-01
-1.735522e-01,1.735522e-01,2.370473e-02,2.454399e-01
-1.994806e-01,1.994806e-01,2.134605e-02,2.821082e-01
-1.550396e-01,1.550396e-01,-4.029285e-02,2.192591e-01
-1.566496e-01,1.566496e-01,-2.478502e-03,2.215360e-01
-1.938139e-01,1.938139e-01,4.169918e-02,2.740942e-01
-1.767886e-01,1.767886e-01,-2.356891e-02,2.500169e-01
-1.496349e-01,1.496349e-01,-2.672747e-02,2.116157e-01
-1.728831e-01,1.728831e-01,2.321976e-02,2.444936e-01
-2.000192e-01,2.000192e-01,2.289181e-02,2.828699e-01
-1.552326e-01,1.552326e-01,-4.082594e-02,2.195321e-01
-1.559109e-01,1.559109e-01,-3.559639e-03,2.204912e-01
-1.931218e-01,1.931218e-01,4.187953e-02,2.731155e-01
-1.781499e-01,1.781499e-01,-2.195657e-02,2.519419e-01
-1.493124e-01,1.493124e-01,-2.803761e-02,2.111596e-01
-1.715927e-01,1.715927e-01,2.190380e-02,2.426687e-01
-2.007166e-01,2.007166e-01,2.561411e-02,2.838562e-01
-1.559273e-01,1.559273e-01,-4.123439e-02,2.205145e-01
-1.549493e-01,1.549493e-01,-5.331855e-03,2.191315e-01
-1.918803e-01,1.918803e-01,4.161041e-02,2.713598e-01
-1.802516e-01,1.802516e-01,-1.911993e-02,2.549143e-01
-1.491600e-01,1.491600e-01,-2.967214e-02,2.109442e-01
-1.699689e-01,1.699689e-01,1.996504e-02,2.403724e-01
-2.012483e-01,2.012483e-01,2.879582e-02,2.846081e-01
-1.571074e-01,1.571074e-01,-4.121321e-02,2.221834e-01
-1.540516e-01,1.540516e-01,-7.401059e-03,2.178619e-01
-1.903225e-01,1.903225e-01,4.076698e-02,2.691567e-01
-1.826062e-01,1.826062e-01,-1.557957e-02,2.582442e-01
-1.492914e-01,1.492914e-01,-3.118378e-02,2.111299e-01
-1.684447e-01,1.684447e-01,1.785271e-02,2.382167e-01
-2.013902e-01,2.013902e-01,3.150092e-02,2.848088e-01
-1.585252e-01,1.585252e-01,-4.066472e-02,2.241884e-01
-1.534610e-01,1.534610e-01,-9.248575e-03,2.170266e-01
-1.888532e-01,1.888532e-01,3.958029e-02,2.670787e-01
-1.845840e-01,1.845840e-01,-1.229066e-02,2.610412e-01
-1.496457e-01,1.496457e-01,-3.220950e-02,2.116309e-01
-1.673759e-01,1.673759e-01,1.610314e-02,2.367052e-01
-2.012165e-01,2.012165e-01,3.314853e-02,2.845631e-01
-1.597577e-01,1.597577e-01,-3.986080e-02,2.259315e-01
-1.532417e-01,1.532417e-01,-1.046831e-02,2.167165e-01
-1.878447e-01,1.878447e-01,3.850435e-02,2.656525e-01
-1.857557e-01,1.857557e-01,-1.011629e-02,2.626982e-01
-1.500500e-01,1.500500e-01,-3.261525e-02,2.122028e-01
-1.669134e-01,1.669134e-01,1.509023e-02,2.360512e-01
-2.009497e-01,2.009497e-01,3.367056e-02,2.841858e-01
-1.604677e-01,1.604677e-01,-3.917458e-02,2.269357e-01
-1.533509e-01,1.533509e-01,-1.087553e-02,2.168710e-01
-1.874902e-01,1.874902e-01,3.787348e-02,2.651512e-01
-1.859849e-01,1.859849e-01,-9.468594e-03,2.630223e-01
-1.503753e-01,1.503753e-01,-3.241392e-02,2.126628e-01
-1.670732e-01,1.670732e-01,1.495962e-02,2.362772e-01
-2.007315e-01,2.007315e-01,3.318344e-02,2.838772e-01
-1.605229e-01,1.605229e-01,-3.881032e-02,2.270136e-01
-1.537413e-01,1.537413e-01,-1.044356e-02,2.174231e-01
-1.878243e-01,1.878243e-01,3.779267e-02,2.656236e-01
-1.852901e-01,1.852901e-01,-1.039023e-02,2.620397e-01
-1.505771e-01,1.505771e-01,-3.166061e-02,2.129481e-01
-1.678176e-01,1.678176e-01,1.570203e-02,2.373299e-01
-2.005674e-01,2.005674e-01,3.176942e-02,2.836451e-01
-1.599557e-01,1.599557e-01,-3.877232e-02,2.262116e-01
-1.543720e-01,1.543720e-01,-9.244439e-03,2.183149e-01
-1.887688e-01,1.887688e-01,3.819733e-02,2.669594e-01
-1.837794e-01,1.837794e-01,-1.266483e-02,2.599034e-01
-1.506599e-01,1.506599e-01,-3.044918e-02,2.130652e-01
-1.690495e-01,1.690495e-01,1.718576e-02,2.390722e-01
-2.003714e-01,2.003714e-01,2.952205e-02,2.833680e-01
-1.589257e-01,1.589257e-01,-3.893928e-02,2.247549e-01
-1.551681e-01,1.551681e-01,-7.474339e-03,2.194409e-01
-1.901283e-01,1.901283e-01,3.890829e-02,2.688820e-01
-1.817081e-01,1.817081e-01,-1.579685e-02,2.569740e-01
-1.506471e-01,1.506471e-01,-2.897199e-02,2.130472e-01
-1.705586e-01,1.705586e-01,1.912481e-02,2.412063e-01
-2.000601e-01,2.000601e-01,2.673238e-02,2.829277e-01
-1.576928e-01,1.576928e-01,-3.916655e-02,2.230113e-01
-1.559881e-01,1.559881e-01,-5.490120e-03,2.206004e-01
-1.915955e-01,1.915955e-01,3.969819e-02,2.709570e-01
-1.795154e-01,1.795154e-01,-1.905504e-02,2.538732e-01
-1.505574e-01,1.505574e-01,-2.753323e-02,2.129203e-01
-1.720231e-01,1.720231e-01,2.109450e-02,2.432773e-01
-1.996655e-01,1.996655e-01,2.397918e-02,2.823696e-01
-1.565383e-01,1.565383e-01,-3.938626e-02,2.213786e-01
-1.566481e-01,1.566481e-01,-3.735740e-03,2.215338e-01
-1.928476e-01,1.928476e-01,4.040164e-02,2.727277e-01
-1.776937e-01,1.776937e-01,-2.173609e-02,2.512969e-01
-1.503987e-01,1.503987e-01,-2.645694e-02,2.126959e-01
-1.731136e-01,1.731136e-01,2.266932e-02,2.448197e-01
-1.993537e-01,1.993537e-01,2.194038e-02,2.819287e-01
-1.556608e-01,1.556608e-01,-3.963520e-02,2.201376e-01
-1.569904e-01,1.569904e-01,-2.580929e-03,2.220179e-01
-1.936641e-01,1.936641e-01,4.097889e-02,2.738824e-01
-1.765987e-01,1.765987e-01,-2.341363e-02,2.497483e-01
-1.501666e-01,1.501666e-01,-2.597658e-02,2.123676e-01
-1.736051e-01,1.736051e-01,2.356123e-02,2.455147e-01
-1.993135e-01,1.993135e-01,2.111672e-02,2.818718e-01
-1.551522e-01,1.551522e-01,-3.999102e-02,2.194183e-01
-1.569218e-01,1.569218e-01,-2.235661e-03,2.219210e-01
-1.939418e-01,1.939418e-01,4.145562e-02,2.742751e-01
-1.764064e-01,1.764064e-01,-2.391179e-02,2.494764e-01
-1.498585e-01,1.498585e-01,-2.620450e-02,2.119319e-01
-1.733928e-01,1.733928e-01,2.363076e-02,2.452144e-01
-1.996396e-01,1.996396e-01,2.173912e-02,2.823330e-01
-1.550547e-01,1.550547e-01,-4.048116e-02,2.192805e-01
-1.564243e-01,1.564243e-01,-2.771575e-03,2.212173e-01
-1.936347e-01,1.936347e-01,4.180009e-02,2.738408e-01
-1.771738e-01,1.771738e-01,-2.314267e-02,2.505616e-01
-1.495101e-01,1.495101e-01,-2.713643e-02,2.114392e-01
-1.724816e-01,1.724816e-01,2.283771e-02,2.439258e-01
-2.002665e-01,2.002665e-01,2.376018e-02,2.832196e-01
-1.554215e-01,1.554215e-01,-4.100280e-02,2.197992e-01
-1.555784e-01,1.555784e-01,-4.131258e-03,2.200211e-01
-1.927326e-01,1.927326e-01,4.184689e-02,2.725651e-01
-1.788372e-01,1.788372e-01,-2.106530e-02,2.529141e-01
-1.492298e-01,1.492298e-01,-2.860826e-02,2.110428e-01
-1.710277e-01,1.710277e-01,2.126166e-02,2.418697e-01
-2.009434e-01,2.009434e-01,2.675168e-02,2.841769e-01
-1.563016e-01,1.563016e-01,-4.128937e-02,2.210438e-01
-1.546044e-01,1.546044e-01,-6.066247e-03,2.186436e-01
-1.913392e-01,1.913392e-01,4.137059e-02,2.705946e-01
-1.811000e-01,1.811000e-01,-1.788722e-02,2.561141e-01
-1.491733e-01,1.491733e-01,-3.025157e-02,2.109630e-01
-1.693882e-01,1.693882e-01,1.919877e-02,2.395511e-01
-2.013465e-01,2.013465e-01,2.986338e-02,2.847470e-01
-1.576093e-01,1.576093e-01,-4.106968e-02,2.228932e-01
-1.537973e-01,1.537973e-01,-8.114644e-03,2.175022e-01
-1.897631e-01,1.897631e-01,4.035826e-02,2.683655e-01
-1.833880e-01,1.833880e-01,-1.431843e-02,2.593498e-01
-1.494014e-01,1.494014e-01,-3.161917e-02,2.112855e-01
-1.679971e-01,1.679971e-01,1.715901e-02,2.375838e-01
-2.013528e-01,2.013528e-01,3.222517e-02,2.847559e-01
-1.590102e-01,1.590102e-01,-4.038475e-02,2.248744e-01
-1.533410e-01,1.533410e-01,-9.772182e-03,2.168569e-01
-1.884244e-01,1.884244e-01,3.915941e-02,2.664723e-01
-1.851090e-01,1.851090e-01,-1.135149e-02,2.617837e-01
-1.497935e-01,1.497935e-01,-3.242728e-02,2.118401e-01
-1.671377e-01,1.671377e-01,1.564343e-02,2.363685e-01
-2.011212e-01,2.011212e-01,3.345952e-02,2.844284e-01
-1.600835e-01,1.600835e-01,-3.958584e-02,2.263922e-01
-1.532459e-01,1.532459e-01,-1.071153e-02,2.167225e-01
-1.876379e-01,1.876379e-01,3.821704e-02,2.653600e-01
-1.859472e-01,1.859472e-01,-9.700194e-03,2.629691e-01
-1.501795e-01,1.501795e-01,-3.261040e-02,2.123860e-01
-1.669000e-01,1.669000e-01,1.493993e-02,2.360322e-01
-2.008628e-01,2.008628e-01,3.360629e-02,2.840630e-01
-1.605643e-01,1.605643e-01,-3.900309e-02,2.270722e-01
-1.534609e-01,1.534609e-01,-1.081553e-02,2.170265e-01
-1.875326e-01,1.875326e-01,3.778163e-02,2.652112e-01
-1.858386e-01,1.858386e-01,-9.624470e-03,2.628154e-01
-1.504622e-01,1.504622e-01,-3.220375e-02,2.127856e-01
-1.672762e-01,1.672762e-01,1.512943e-02,2.365643e-01
-2.006697e-01,2.006697e-01,3.278013e-02,2.837898e-01
-1.603854e-01,1.603854e-01,-3.876374e-02,2.268191e-01
-1.539428e-01,1.539428e-01,-1.009501e-02,2.177081e-01
-1.881001e-01,1.881001e-01,3.788936e-02,2.660137e-01
-1.848332e-01,1.848332e-01,-1.106951e-02,2.613937e-01
-1.506190e-01,1.506190e-01,-3.127158e-02,2.130075e-01
-1.682115e-01,1.682115e-01,1.615993e-02,2.378870e-01
-2.005065e-01,2.005065e-01,3.105052e-02,2.835590e-01
-1.596278e-01,1.596278e-01,-3.881677e-02,2.257478e-01
-1.546446e-01,1.546446e-01,-8.660341e-03,2.187005e-01
-1.892226e-01,1.892226e-01,3.842883e-02,2.676012e-01
-1.830819e-01,1.830819e-01,-1.372395e-02,2.589168e-01
-1.506653e-01,1.506653e-01,-2.993623e-02,2.130730e-01
-1.695736e-01,1.695736e-01,1.784869e-02,2.398133e-01
-2.002747e-01,2.002747e-01,2.855945e-02,2.832311e-01
-1.584919e-01,1.584919e-01,-3.901981e-02,2.241414e-01
-1.554691e-01,1.554691e-01,-6.764838e-03,2.198665e-01
-1.906599e-01,1.906599e-01,3.919337e-02,2.696338e-01
-1.809093e-01,1.809093e-01,-1.699119e-02,2.558443e-01
-1.506230e-01,1.506230e-01,-2.843391e-02,2.130131e-01
-1.711072e-01,1.711072e-01,1.985145e-02,2.419822e-01
-1.999216e-01,1.999216e-01,2.570468e-02,2.827319e-01
-1.572573e-01,1.572573e-01,-3.924621e-02,2.223953e-01
-1.562527e-01,1.562527e-01,-4.812426e-03,2.209747e-01
-1.920835e-01,1.920835e-01,3.996509e-02,2.716471e-01
-1.787970e-01,1.787970e-01,-2.011178e-02,2.528571e-01
-1.505085e-01,1.505085e-01,-2.709089e-02,2.128512e-01
-1.724716e-01,1.724716e-01,2.172318e-02,2.439117e-01
-1.995334e-01,1.995334e-01,2.313435e-02,2.821829e-01
-1.561850e-01,1.561850e-01,-3.946801e-02,2.208790e-01
-1.568137e-01,1.568137e-01,-3.238369e-03,2.217681e-01
-1.931978e-01,1.931978e-01,4.062187e-02,2.732229e-01
-1.772052e-01,1.772052e-01,-2.246576e-02,2.506060e-01
-1.503245e-01,1.503245e-01,-2.620787e-02,2.125909e-01
-1.733667e-01,1.733668e-01,2.307745e-02,2.451776e-01
-1.993003e-01,1.993003e-01,2.148764e-02,2.818531e-01
-1.554335e-01,1.554335e-01,-3.974712e-02,2.198162e-01
-1.570155e-01,1.570155e-01,-2.357735e-03,2.220535e-01
-1.938286e-01,1.938286e-01,4.116065e-02,2.741150e-01
-1.764210e-01,1.764210e-01,-2.373294e-02,2.494969e-01
-1.500640e-01,1.500640e-01,-2.597439e-02,2.122226e-01
-1.736121e-01,1.736121e-01,2.368465e-02,2.455245e-01
-1.993877e-01,1.993877e-01,2.116961e-02,2.819768e-01
-1.550678e-01,1.550678e-01,-4.015314e-02,2.192990e-01
-1.567913e-01,1.567913e-01,-2.326389e-03,2.217364e-01
-1.939006e-01,1.939006e-01,4.159995e-02,2.742169e-01
-1.765710e-01,1.765710e-01,-2.378582e-02,2.497091e-01
-1.497347e-01,1.497347e-01,-2.646211e-02,2.117569e-01
-1.731425e-01,1.731425e-01,2.344483e-02,2.448605e-01
-1.998390e-01,1.998390e-01,2.231549e-02,2.826150e-01
-1.551293e-01,1.551293e-01,-4.067525e-02,2.193859e-01
-1.561527e-01,1.561527e-01,-3.172331e-03,2.208333e-01
-1.933780e-01,1.933780e-01,4.186367e-02,2.734778e-01
-1.776761e-01,1.776761e-01,-2.254616e-02,2.512719e-01
