x,y,z
-1.685052e-01,1.685052e-01,5.941047e-03
-1.929382e-01,1.929382e-01,2.399148e-02
-1.682892e-01,1.682892e-01,-2.411052e-02
-1.625411e-01,1.625411e-01,-6.167989e-03
-1.879178e-01,1.879178e-01,2.674295e-02
-1.785892e-01,1.785892e-01,-1.302119e-02
-1.597543e-01,1.597543e-01,-1.693934e-02
-1.793482e-01,1.793482e-01,2.027627e-02
-1.888294e-01,1.888294e-01,5.092121e-03
-1.607355e-01,1.607355e-01,-2.436396e-02
-1.706168e-01,1.706168e-01,9.273036e-03
-1.931706e-01,1.931706e-01,2.117236e-02
-1.660345e-01,1.660345e-01,-2.540306e-02
-1.639024e-01,1.639024e-01,-2.875867e-03
-1.898292e-01,1.898292e-01,2.709323e-02
-1.755139e-01,1.755139e-01,-1.704640e-02
-1.601651e-01,1.601651e-01,-1.420722e-02
-1.818526e-01,1.818526e-01,2.270758e-02
-1.863689e-01,1.863689e-01,-1.493526e-04
-1.600615e-01,1.600615e-01,-2.279824e-02
-1.728931e-01,1.728931e-01,1.252923e-02
-1.927828e-01,1.927828e-01,1.751556e-02
-1.641132e-01,1.641132e-01,-2.595945e-02
-1.654887e-01,1.654887e-01,4.763793e-04
-1.913868e-01,1.913868e-01,2.663280e-02
-1.725711e-01,1.725711e-01,-2.036662e-02
-1.608560e-01,1.608560e-01,-1.127023e-02
-1.842895e-01,1.842895e-01,2.470331e-02
-1.835508e-01,1.835508e-01,-5.324411e-03
-1.597024e-01,1.597024e-01,-2.082531e-02
-1.752976e-01,1.752976e-01,1.565746e-02
-1.917581e-01,1.917581e-01,1.315697e-02
-1.625413e-01,1.625413e-01,-2.583475e-02
-1.672866e-01,1.672866e-01,3.849328e-03
-1.925032e-01,1.925032e-01,2.528865e-02
-1.698462e-01,1.698462e-01,-2.291889e-02
-1.618157e-01,1.618157e-01,-8.165516e-03
-1.865902e-01,1.865902e-01,2.615845e-02
-1.805179e-01,1.805179e-01,-1.021399e-02
-1.596436e-01,1.596436e-01,-1.851685e-02
-1.777843e-01,1.777843e-01,1.858907e-02
-1.901238e-01,1.901238e-01,8.284986e-03
-1.613209e-01,1.613209e-01,-2.509742e-02
-1.692832e-01,1.692832e-01,7.207816e-03
-1.930963e-01,1.930963e-01,2.302932e-02
-1.673987e-01,1.673987e-01,-2.468893e-02
-1.630289e-01,1.630289e-01,-4.932232e-03
-1.886770e-01,1.886770e-01,2.696503e-02
-1.774169e-01,1.774169e-01,-1.462066e-02
-1.598761e-01,1.598761e-01,-1.593216e-02
-1.802997e-01,1.802997e-01,2.124093e-02
-1.879489e-01,1.879489e-01,3.115517e-03
-1.604424e-01,1.604424e-01,-2.382440e-02
-1.714605e-01,1.714605e-01,1.051636e-02
-1.930986e-01,1.930986e-01,1.988147e-02
-1.652673e-01,1.652673e-01,-2.569752e-02
-1.644771e-01,1.644771e-01,-1.612447e-03
-1.904648e-01,1.904648e-01,2.701903e-02
-1.743798e-01,1.743798e-01,-1.839010e-02
-1.603938e-01,1.603938e-01,-1.311805e-02
-1.827860e-01,1.827860e-01,2.351941e-02
-1.853373e-01,1.853373e-01,-2.127181e-03
-1.598894e-01,1.598894e-01,-2.209558e-02
-1.737901e-01,1.737901e-01,1.373117e-02
-1.924695e-01,1.924695e-01,1.593978e-02
-1.634771e-01,1.634771e-01,-2.598894e-02
-1.661449e-01,1.661449e-01,1.752003e-03
-1.918657e-01,1.918657e-01,2.623097e-02
-1.715109e-01,1.715109e-01,-2.142427e-02
-1.611881e-01,1.611881e-01,-1.011325e-02
-1.851801e-01,1.851801e-01,2.532320e-02
-1.824207e-01,1.824207e-01,-7.219284e-03
-1.596454e-01,1.596454e-01,-1.998788e-02
-1.762316e-01,1.762316e-01,1.679393e-02
-1.912086e-01,1.912086e-01,1.136274e-02
-1.620386e-01,1.620386e-01,-2.562381e-02
-1.680194e-01,1.680194e-01,5.123523e-03
-1.927933e-01,1.927933e-01,2.454142e-02
-1.688851e-01,1.688851e-01,-2.368006e-02
-1.622461e-01,1.622461e-01,-6.955180e-03
-1.874092e-01,1.874092e-01,2.654572e-02
-1.793450e-01,1.793450e-01,-1.194749e-02
-1.596978e-01,1.596978e-01,-1.756870e-02
-1.787355e-01,1.787355e-01,1.963016e-02
-1.893596e-01,1.893596e-01,6.352088e-03
-1.609494e-01,1.609494e-01,-2.467453e-02
-1.700867e-01,1.700867e-01,8.467591e-03
-1.931696e-01,1.931696e-01,2.193927e-02
-1.665533e-01,1.665533e-01,-2.515807e-02
-1.635499e-01,1.635499e-01,-3.684032e-03
-1.893933e-01,1.893933e-01,2.707927e-02
-1.762539e-01,1.762539e-01,-1.612830e-02
-1.600388e-01,1.600388e-01,-1.489225e-02
-1.812470e-01,1.812470e-01,2.215222e-02
-1.870056e-01,1.870056e-01,1.128429e-03
-1.601958e-01,1.601958e-01,-2.321963e-02
-1.723256e-01,1.723256e-01,1.174651e-02
-1.929358e-01,1.929358e-01,1.847614e-02
-1.645490e-01,1.645490e-01,-2.588914e-02
-1.650828e-01,1.650828e-01,-3.425942e-04
-1.910452e-01,1.910452e-01,2.682391e-02
-1.732697e-01,1.732697e-01,-1.962794e-02
-1.606624e-01,1.606624e-01,-1.200165e-02
-1.837063e-01,1.837063e-01,2.426338e-02
-1.842619e-01,1.842619e-01,-4.083360e-03
-1.597617e-01,1.597617e-01,-2.133879e-02
-1.747032e-01,1.747032e-01,1.491151e-02
-1.920653e-01,1.920653e-01,1.427259e-02
-1.628914e-01,1.628914e-01,-2.592431e-02
-1.668305e-01,1.668305e-01,3.028629e-03
-1.922768e-01,1.922768e-01,2.569960e-02
-1.704856e-01,1.704856e-01,-2.237004e-02
-1.615584e-01,1.615584e-01,-8.934400e-03
-1.860469e-01,1.860469e-01,2.585997e-02
-1.812677e-01,1.812677e-01,-9.061764e-03
-1.596307e-01,1.596307e-01,-1.910597e-02
-1.771744e-01,1.771744e-01,1.789813e-02
-1.905745e-01,1.905745e-01,9.506285e-03
-1.615860e-01,1.615860e-01,-2.532918e-02
-1.687800e-01,1.687800e-01,6.393803e-03
-1.930042e-01,1.930042e-01,2.366289e-02
-1.679663e-01,1.679663e-01,-2.432959e-02
-1.627112e-01,1.627112e-01,-5.728518e-03
-1.881934e-01,1.881934e-01,2.683420e-02
-1.781702e-01,1.781702e-01,-1.360211e-02
-1.597932e-01,1.597932e-01,-1.658382e-02
-1.796880e-01,1.796880e-01,2.062635e-02
-1.885228e-01,1.885228e-01,4.388669e-03
-1.606257e-01,1.606257e-01,-2.417919e-02
-1.709152e-01,1.709152e-01,9.718122e-03
-1.931552e-01,1.931552e-01,2.072523e-02
-1.657554e-01,1.657554e-01,-2.552015e-02
-1.641038e-01,1.641038e-01,-2.425820e-03
-1.900621e-01,1.900621e-01,2.708031e-02
-1.751066e-01,1.751066e-01,-1.753784e-02
-1.602422e-01,1.602422e-01,-1.382178e-02
-1.821870e-01,1.821870e-01,2.300476e-02
-1.860063e-01,1.860063e-01,-8.569403e-04
-1.599951e-01,1.599951e-01,-2.255396e-02
-1.732110e-01,1.732110e-01,1.296049e-02
-1.926814e-01,1.926814e-01,1.696430e-02
-1.638803e-01,1.638803e-01,-2.598099e-02
-1.657193e-01,1.657193e-01,9.314206e-04
-1.915652e-01,1.915652e-01,2.650409e-02
-1.721889e-01,1.721889e-01,-2.075685e-02
-1.609701e-01,1.609701e-01,-1.085998e-02
-1.846097e-01,1.846097e-01,2.493372e-02
-1.831506e-01,1.831506e-01,-6.005977e-03
-1.596772e-01,1.596772e-01,-2.053176e-02
-1.756297e-01,1.756297e-01,1.606650e-02
-1.915719e-01,1.915719e-01,1.252451e-02
-1.623562e-01,1.623562e-01,-2.576935e-02
-1.675450e-01,1.675450e-01,4.304376e-03
-1.926156e-01,1.926156e-01,2.503702e-02
-1.694986e-01,1.694986e-01,-2.320342e-02
-1.619651e-01,1.619651e-01,-7.735544e-03
-1.868863e-01,1.868863e-01,2.630759e-02
-1.801001e-01,1.801001e-01,-1.084114e-02
-1.596580e-01,1.596580e-01,-1.818282e-02
-1.781234e-01,1.781234e-01,1.896547e-02
-1.898597e-01,1.898597e-01,7.599431e-03
-1.611826e-01,1.611826e-01,-2.495506e-02
-1.695670e-01,1.695670e-01,7.658341e-03
-1.931324e-01,1.931324e-01,2.265472e-02
-1.670916e-01,1.670916e-01,-2.486878e-02
-1.632110e-01,1.632110e-01,-4.488079e-03
-1.889377e-01,1.889377e-01,2.701848e-02
-1.770004e-01,1.770004e-01,-1.516960e-02
-1.599295e-01,1.599295e-01,-1.556468e-02
-1.806384e-01,1.806384e-01,2.157256e-02
-1.876191e-01,1.876191e-01,2.406923e-03
-1.603493e-01,1.603493e-01,-2.361588e-02
-1.717667e-01,1.717667e-01,1.095707e-02
-1.930510e-01,1.930510e-01,1.939269e-02
-1.650054e-01,1.650054e-01,-2.577757e-02
-1.646898e-01,1.646898e-01,-1.159891e-03
-1.906785e-01,1.906785e-01,2.696351e-02
-1.739806e-01,1.739806e-01,-1.884419e-02
-1.604852e-01,1.604852e-01,-1.272266e-02
-1.831161e-01,1.831161e-01,2.379303e-02
-1.849582e-01,1.849582e-01,-2.828422e-03
-1.598388e-01,1.598388e-01,-2.183148e-02
-1.741140e-01,1.741140e-01,1.415513e-02
-1.923356e-01,1.923356e-01,1.535474e-02
-1.632622e-01,1.632622e-01,-2.597646e-02
-1.663861e-01,1.663861e-01,2.207620e-03
-1.920204e-01,1.920204e-01,2.605628e-02
-1.711407e-01,1.711407e-01,-2.177469e-02
-1.613159e-01,1.613159e-01,-9.694923e-03
-1.854922e-01,1.854922e-01,2.552467e-02
-1.820113e-01,1.820113e-01,-7.883420e-03
-1.596353e-01,1.596353e-01,-1.967804e-02
-1.765672e-01,1.765672e-01,1.719194e-02
-1.909918e-01,1.909918e-01,1.070673e-02
-1.618715e-01,1.618715e-01,-2.552808e-02
-1.682878e-01,1.682878e-01,5.577384e-03
-1.928778e-01,1.928778e-01,2.424293e-02
-1.685522e-01,1.685522e-01,-2.392462e-02
-1.624082e-01,1.624082e-01,-6.519172e-03
-1.876934e-01,1.876934e-01,2.666029e-02
-1.789258e-01,1.789258e-01,-1.254751e-02
-1.597270e-01,1.597270e-01,-1.722127e-02
-1.790755e-01,1.790755e-01,1.999111e-02
-1.890690e-01,1.890690e-01,5.654241e-03
-1.608281e-01,1.608281e-01,-2.450577e-02
-1.703796e-01,1.703796e-01,8.915076e-03
-1.931747e-01,1.931747e-01,2.151995e-02
-1.662633e-01,1.662633e-01,-2.529949e-02
-1.637438e-01,1.637438e-01,-3.236026e-03
-1.896376e-01,1.896376e-01,2.709292e-02
-1.758424e-01,1.758424e-01,-1.664289e-02
-1.601067e-01,1.601067e-01,-1.451360e-02
-1.815835e-01,1.815835e-01,2.246350e-02
-1.866550e-01,1.866550e-01,4.190479e-04
-1.601191e-01,1.601191e-01,-2.298885e-02
-1.726397e-01,1.726397e-01,1.218173e-02
-1.928556e-01,1.928556e-01,1.794839e-02
-1.643047e-01,1.643047e-01,-2.593322e-02
-1.653065e-01,1.653065e-01,1.117054e-04
-1.912379e-01,1.912379e-01,2.672424e-02
-1.728804e-01,1.728804e-01,-2.004347e-02
-1.607677e-01,1.607677e-01,-1.159700e-02
-1.840308e-01,1.840308e-01,2.451137e-02
-1.838690e-01,1.838690e-01,-4.773977e-03
-1.597267e-01,1.597267e-01,-2.105637e-02
-1.750323e-01,1.750323e-01,1.532685e-02
-1.918994e-01,1.918994e-01,1.365744e-02
-1.626947e-01,1.626947e-01,-2.587918e-02
-1.670822e-01,1.670822e-01,3.484121e-03
-1.924062e-01,1.924062e-01,2.547817e-02
-1.701288e-01,1.701288e-01,-2.268036e-02
-1.616995e-01,1.616995e-01,-8.508731e-03
-1.863499e-01,1.863499e-01,2.603027e-02
-1.808523e-01,1.808523e-01,-9.704573e-03
-1.596356e-01,1.596356e-01,-1.878108e-02
-1.775125e-01,1.775125e-01,1.828354e-02
-1.903285e-01,1.903285e-01,8.830913e-03
-1.614362e-01,1.614362e-01,-2.520454e-02
-1.690578e-01,1.690578e-01,6.845872e-03
-1.930596e-01,1.930596e-01,2.331792e-02
-1.676489e-01,1.676489e-01,-2.453460e-02
-1.628857e-01,1.628857e-01,-5.287277e-03
-1.884638e-01,1.884638e-01,2.691226e-02
-1.777517e-01,1.777517e-01,-1.417192e-02
-1.598373e-01,1.598373e-01,-1.622395e-02
-1.800276e-01,1.800276e-01,2.097005e-02
-1.882076e-01,1.882076e-01,3.682882e-03
-1.605215e-01,1.605215e-01,-2.398569e-02
-1.712167e-01,1.712167e-01,1.016171e-02
-1.931284e-01,1.931284e-01,2.026297e-02
-1.654819e-01,1.654819e-01,-2.562385e-02
-1.643092e-01,1.643092e-01,-1.974786e-03
-1.902884e-01,1.902884e-01,2.705238e-02
-1.747020e-01,1.747020e-01,-1.801613e-02
-1.603244e-01,1.603244e-01,-1.343270e-02
-1.825200e-01,1.825200e-01,2.329375e-02
-1.856374e-01,1.856374e-01,-1.562756e-03
-1.599341e-01,1.599341e-01,-2.230239e-02
-1.735316e-01,1.735316e-01,1.338918e-02
-1.925685e-01,1.925685e-01,1.640060e-02
-1.636539e-01,1.636539e-01,-2.599025e-02
-1.659538e-01,1.659538e-01,1.386740e-03
-1.917354e-01,1.917354e-01,2.635903e-02
-1.718108e-01,1.718108e-01,-2.113292e-02
-1.610892e-01,1.610892e-01,-1.044677e-02
-1.849273e-01,1.849273e-01,2.515403e-02
-1.827469e-01,1.827469e-01,-6.681787e-03
-1.596572e-01,1.596572e-01,-2.023223e-02
-1.759634e-01,1.759634e-01,1.647172e-02
-1.913747e-01,1.913747e-01,1.188317e-02
-1.621775e-01,1.621775e-01,-2.569295e-02
-1.678069e-01,1.678069e-01,4.759100e-03
-1.927181e-01,1.927181e-01,2.476878e-02
-1.691561e-01,1.691561e-01,-2.347364e-02
-1.621191e-01,1.621191e-01,-7.303324e-03
-1.871782e-01,1.871782e-01,2.644471e-02
-1.796813e-01,1.796813e-01,-1.145898e-02
-1.596778e-01,1.596778e-01,-1.784389e-02
-1.784630e-01,1.784630e-01,1.933654e-02
-1.895860e-01,1.895860e-01,6.908990e-03
-1.610507e-01,1.610507e-01,-2.480315e-02
-1.698541e-01,1.698541e-01,8.107876e-03
-1.931575e-01,1.931575e-01,2.226412e-02
-1.667907e-01,1.667907e-01,-2.503486e-02
-1.633975e-01,1.633975e-01,-4.042457e-03
-1.891928e-01,1.891928e-01,2.705793e-02
-1.765856e-01,1.765856e-01,-1.570654e-02
-1.599882e-01,1.599882e-01,-1.519313e-02
-1.809764e-01,1.809764e-01,2.189714e-02
-1.872816e-01,1.872816e-01,1.697546e-03
-1.602617e-01,1.602617e-01,-2.339913e-02
-1.720758e-01,1.720758e-01,1.139593e-02
-1.929917e-01,1.929917e-01,1.888965e-02
-1.647495e-01,1.647495e-01,-2.584462e-02
-1.649065e-01,1.649065e-01,-7.066304e-04
-1.908850e-01,1.908850e-01,2.689240e-02
-1.735847e-01,1.735847e-01,-1.928465e-02
-1.605815e-01,1.605815e-01,-1.232387e-02
-1.834444e-01,1.834444e-01,2.405770e-02
-1.845737e-01,1.845737e-01,-3.526359e-03
-1.597939e-01,1.597939e-01,-2.156074e-02
-1.744404e-01,1.744404e-01,1.457607e-02
-1.921902e-01,1.921902e-01,1.475852e-02
-1.630538e-01,1.630538e-01,-2.595218e-02
-1.666311e-01,1.666311e-01,2.663272e-03
-1.921663e-01,1.921663e-01,2.586498e-02
-1.707752e-01,1.707752e-01,-2.211080e-02
-1.614484e-01,1.614484e-01,-9.273894e-03
-1.858015e-01,1.858015e-01,2.571515e-02
-1.815995e-01,1.815995e-01,-8.540384e-03
-1.596305e-01,1.596305e-01,-1.936272e-02
-1.769038e-01,1.769038e-01,1.758566e-02
-1.907644e-01,1.907644e-01,1.004333e-02
-1.617103e-01,1.617103e-01,-2.542180e-02
-1.685594e-01,1.685594e-01,6.030731e-03
-1.929521e-01,1.929521e-01,2.392775e-02
-1.682249e-01,1.682249e-01,-2.415503e-02
-1.625748e-01,1.625748e-01,-6.081198e-03
-1.879729e-01,1.879729e-01,2.676204e-02
-1.785062e-01,1.785062e-01,-1.313707e-02
