x,y,z
-1.593904e-01,1.593904e-01,6.132112e-03
-1.991844e-01,1.991844e-01,4.455437e-02
-1.696319e-01,1.696319e-01,-3.400855e-02
-1.478480e-01,1.478480e-01,-2.402921e-02
-1.753718e-01,1.753718e-01,2.857151e-02
-2.003931e-01,2.003931e-01,1.943813e-02
-1.522954e-01,1.522954e-01,-4.396352e-02
-1.540723e-01,1.540723e-01,-3.367356e-03
-1.933950e-01,1.933950e-01,4.517311e-02
-1.799873e-01,1.799873e-01,-2.132159e-02
-1.469002e-01,1.469002e-01,-3.221553e-02
-1.673579e-01,1.673579e-01,1.902386e-02
-2.030837e-01,2.030837e-01,3.515232e-02
-1.582501e-01,1.582501e-01,-4.340134e-02
-1.504097e-01,1.504097e-01,-1.280966e-02
-1.857850e-01,1.857850e-01,3.956521e-02
-1.906907e-01,1.906907e-01,-3.504552e-03
-1.485586e-01,1.485586e-01,-3.834850e-02
-1.611876e-01,1.611876e-01,9.233265e-03
-2.005926e-01,2.005926e-01,4.322908e-02
-1.666336e-01,1.666336e-01,-3.696476e-02
-1.484475e-01,1.484475e-01,-2.125767e-02
-1.780451e-01,1.780451e-01,3.144096e-02
-1.984288e-01,1.984288e-01,1.370142e-02
-1.511406e-01,1.511406e-01,-4.284966e-02
-1.557994e-01,1.557994e-01,-1.423471e-04
-1.956067e-01,1.956067e-01,4.562397e-02
-1.762978e-01,1.762978e-01,-2.632404e-02
-1.469431e-01,1.469431e-01,-2.962263e-02
-1.698920e-01,1.698920e-01,2.232567e-02
-2.028689e-01,2.028689e-01,3.056925e-02
-1.558247e-01,1.558247e-01,-4.440202e-02
-1.513231e-01,1.513231e-01,-9.777866e-03
-1.883730e-01,1.883730e-01,4.198327e-02
-1.874162e-01,1.874162e-01,-9.513003e-03
-1.478214e-01,1.478214e-01,-3.656749e-02
-1.630548e-01,1.630548e-01,1.240604e-02
-2.017712e-01,2.017712e-01,4.134253e-02
-1.637546e-01,1.637546e-01,-3.952285e-02
-1.490564e-01,1.490564e-01,-1.850939e-02
-1.806394e-01,1.806394e-01,3.420450e-02
-1.961571e-01,1.961571e-01,8.032636e-03
-1.501994e-01,1.501994e-01,-4.147614e-02
-1.575902e-01,1.575902e-01,3.014409e-03
-1.975283e-01,1.975283e-01,4.537686e-02
-1.728474e-01,1.728474e-01,-3.050553e-02
-1.473043e-01,1.473043e-01,-2.685442e-02
-1.726088e-01,1.726088e-01,2.552130e-02
-2.019400e-01,2.019400e-01,2.519484e-02
-1.538270e-01,1.538270e-01,-4.456911e-02
-1.525356e-01,1.525356e-01,-6.620923e-03
-1.909355e-01,1.909355e-01,4.392904e-02
-1.837944e-01,1.837944e-01,-1.556499e-02
-1.472248e-01,1.472248e-01,-3.454546e-02
-1.650787e-01,1.650787e-01,1.567588e-02
-2.026534e-01,2.026534e-01,3.872965e-02
-1.609523e-01,1.609523e-01,-4.170143e-02
-1.496869e-01,1.496869e-01,-1.572187e-02
-1.831987e-01,1.831987e-01,3.691299e-02
-1.935998e-01,1.935998e-01,2.352051e-03
-1.493584e-01,1.493584e-01,-3.997386e-02
-1.593787e-01,1.593787e-01,6.112128e-03
-1.991745e-01,1.991745e-01,4.456136e-02
-1.696517e-01,1.696517e-01,-3.398782e-02
-1.478439e-01,1.478439e-01,-2.404726e-02
-1.753540e-01,1.753540e-01,2.855245e-02
-2.004047e-01,2.004047e-01,1.947544e-02
-1.523039e-01,1.523039e-01,-4.396939e-02
-1.540614e-01,1.540614e-01,-3.388349e-03
-1.933799e-01,1.933799e-01,4.516781e-02
-1.800117e-01,1.800117e-01,-2.128651e-02
-1.469009e-01,1.469009e-01,-3.223146e-02
-1.673422e-01,1.673422e-01,1.900229e-02
-2.030826e-01,2.030826e-01,3.517852e-02
-1.582668e-01,1.582668e-01,-4.339237e-02
-1.504048e-01,1.504048e-01,-1.282894e-02
-1.857681e-01,1.857681e-01,3.954864e-02
-1.907107e-01,1.907107e-01,-3.466148e-03
-1.485636e-01,1.485636e-01,-3.835942e-02
-1.611756e-01,1.611756e-01,9.213030e-03
-2.005842e-01,2.005842e-01,4.323951e-02
-1.666526e-01,1.666526e-01,-3.694694e-02
-1.484437e-01,1.484437e-01,-2.127555e-02
-1.780279e-01,1.780279e-01,3.142278e-02
-1.984426e-01,1.984426e-01,1.373842e-02
-1.511471e-01,1.511471e-01,-4.285792e-02
-1.557877e-01,1.557877e-01,-1.630374e-04
-1.955933e-01,1.955933e-01,4.562340e-02
-1.763210e-01,1.763210e-01,-2.629427e-02
-1.469418e-01,1.469418e-01,-2.964020e-02
-1.698746e-01,1.698746e-01,2.230454e-02
-2.028728e-01,2.028728e-01,3.060221e-02
-1.558389e-01,1.558389e-01,-4.439810e-02
-1.513160e-01,1.513160e-01,-9.797882e-03
-1.883563e-01,1.883563e-01,4.196868e-02
-1.874387e-01,1.874387e-01,-9.473583e-03
-1.478260e-01,1.478260e-01,-3.657976e-02
-1.630421e-01,1.630421e-01,1.238518e-02
-2.017646e-01,2.017646e-01,4.135721e-02
-1.637731e-01,1.637731e-01,-3.950743e-02
-1.490525e-01,1.490525e-01,-1.852730e-02
-1.806228e-01,1.806228e-01,3.418674e-02
-1.961728e-01,1.961728e-01,8.069300e-03
-1.502052e-01,1.502052e-01,-4.148556e-02
-1.575789e-01,1.575789e-01,2.994073e-03
-1.975168e-01,1.975168e-01,4.538041e-02
-1.728689e-01,1.728689e-01,-3.048084e-02
-1.473011e-01,1.473011e-01,-2.687262e-02
-1.725909e-01,1.725909e-01,2.550105e-02
-2.019482e-01,2.019482e-01,2.523140e-02
-1.538385e-01,1.538385e-01,-4.457073e-02
-1.525267e-01,1.525267e-01,-6.641717e-03
-1.909191e-01,1.909191e-01,4.391854e-02
-1.838187e-01,1.838187e-01,-1.552630e-02
-1.472281e-01,1.472281e-01,-3.455951e-02
-1.650646e-01,1.650646e-01,1.565446e-02
-2.026487e-01,2.026487e-01,3.874919e-02
-1.609705e-01,1.609705e-01,-4.168872e-02
-1.496830e-01,1.496830e-01,-1.574032e-02
-1.831820e-01,1.831820e-01,3.689562e-02
-1.936174e-01,1.936174e-01,2.389233e-03
-1.493638e-01,1.493638e-01,-3.998395e-02
-1.593672e-01,1.593672e-01,6.092045e-03
-1.991646e-01,1.991646e-01,4.456821e-02
-1.696719e-01,1.696719e-01,-3.396710e-02
-1.478401e-01,1.478401e-01,-2.406539e-02
-1.753363e-01,1.753363e-01,2.853334e-02
-2.004162e-01,2.004162e-01,1.951291e-02
-1.523123e-01,1.523123e-01,-4.397525e-02
-1.540508e-01,1.540508e-01,-3.409459e-03
-1.933646e-01,1.933646e-01,4.516221e-02
-1.800363e-01,1.800363e-01,-2.125137e-02
-1.469018e-01,1.469018e-01,-3.224743e-02
-1.673266e-01,1.673266e-01,1.898070e-02
-2.030819e-01,2.030819e-01,3.520517e-02
-1.582837e-01,1.582837e-01,-4.338340e-02
-1.503995e-01,1.503995e-01,-1.284812e-02
-1.857514e-01,1.857514e-01,3.953199e-02
-1.907305e-01,1.907305e-01,-3.427759e-03
-1.485685e-01,1.485685e-01,-3.837034e-02
-1.611638e-01,1.611638e-01,9.192748e-03
-2.005757e-01,2.005757e-01,4.324954e-02
-1.666717e-01,1.666717e-01,-3.692912e-02
-1.484396e-01,1.484396e-01,-2.129336e-02
-1.780111e-01,1.780111e-01,3.140451e-02
-1.984564e-01,1.984564e-01,1.377539e-02
-1.511537e-01,1.511537e-01,-4.286619e-02
-1.557764e-01,1.557764e-01,-1.838415e-04
-1.955798e-01,1.955798e-01,4.562284e-02
-1.763443e-01,1.763443e-01,-2.626446e-02
-1.469405e-01,1.469405e-01,-2.965775e-02
-1.698577e-01,1.698577e-01,2.228331e-02
-2.028764e-01,2.028764e-01,3.063473e-02
-1.558536e-01,1.558536e-01,-4.439422e-02
-1.513093e-01,1.513093e-01,-9.818003e-03
-1.883394e-01,1.883394e-01,4.195429e-02
-1.874612e-01,1.874612e-01,-9.434146e-03
-1.478306e-01,1.478306e-01,-3.659202e-02
-1.630298e-01,1.630298e-01,1.236423e-02
-2.017576e-01,2.017576e-01,4.137129e-02
-1.637916e-01,1.637916e-01,-3.949199e-02
-1.490483e-01,1.490483e-01,-1.854512e-02
-1.806061e-01,1.806061e-01,3.416902e-02
-1.961884e-01,1.961884e-01,8.106016e-03
-1.502107e-01,1.502107e-01,-4.149491e-02
-1.575669e-01,1.575669e-01,2.973917e-03
-1.975053e-01,1.975053e-01,4.538399e-02
-1.728905e-01,1.728905e-01,-3.045612e-02
-1.472984e-01,1.472984e-01,-2.689091e-02
-1.725732e-01,1.725732e-01,2.548077e-02
-2.019563e-01,2.019563e-01,2.526779e-02
-1.538498e-01,1.538498e-01,-4.457226e-02
-1.525175e-01,1.525175e-01,-6.662476e-03
-1.909027e-01,1.909027e-01,4.390799e-02
-1.838430e-01,1.838430e-01,-1.548758e-02
-1.472310e-01,1.472310e-01,-3.457350e-02
-1.650509e-01,1.650509e-01,1.563295e-02
-2.026444e-01,2.026444e-01,3.876916e-02
-1.609882e-01,1.609882e-01,-4.167591e-02
-1.496784e-01,1.496784e-01,-1.575861e-02
-1.831656e-01,1.831656e-01,3.687813e-02
-1.936350e-01,1.936350e-01,2.426416e-03
-1.493692e-01,1.493692e-01,-3.999404e-02
-1.593556e-01,1.593556e-01,6.072024e-03
-1.991548e-01,1.991548e-01,4.457525e-02
-1.696917e-01,1.696917e-01,-3.394633e-02
-1.478366e-01,1.478366e-01,-2.408360e-02
-1.753188e-01,1.753188e-01,2.851419e-02
-2.004277e-01,2.004277e-01,1.955021e-02
-1.523212e-01,1.523212e-01,-4.398113e-02
-1.540401e-01,1.540401e-01,-3.430489e-03
-1.933494e-01,1.933494e-01,4.515678e-02
-1.800606e-01,1.800606e-01,-2.121624e-02
-1.469031e-01,1.469031e-01,-3.226345e-02
-1.673113e-01,1.673113e-01,1.895904e-02
-2.030808e-01,2.030808e-01,3.523129e-02
-1.583004e-01,1.583004e-01,-4.337435e-02
-1.503943e-01,1.503943e-01,-1.286729e-02
-1.857347e-01,1.857347e-01,3.951530e-02
-1.907505e-01,1.907505e-01,-3.389374e-03
-1.485737e-01,1.485737e-01,-3.838130e-02
-1.611523e-01,1.611523e-01,9.172373e-03
-2.005674e-01,2.005674e-01,4.326002e-02
-1.666906e-01,1.666906e-01,-3.691126e-02
-1.484357e-01,1.484357e-01,-2.131125e-02
-1.779938e-01,1.779938e-01,3.138634e-02
-1.984702e-01,1.984702e-01,1.381241e-02
-1.511607e-01,1.511607e-01,-4.287448e-02
-1.557648e-01,1.557648e-01,-2.045638e-04
-1.955664e-01,1.955664e-01,4.562229e-02
-1.763675e-01,1.763675e-01,-2.623463e-02
-1.469389e-01,1.469389e-01,-2.967524e-02
-1.698403e-01,1.698403e-01,2.226217e-02
-2.028801e-01,2.028801e-01,3.066757e-02
-1.558681e-01,1.558681e-01,-4.439024e-02
-1.513028e-01,1.513028e-01,-9.838174e-03
-1.883227e-01,1.883227e-01,4.193973e-02
-1.874836e-01,1.874836e-01,-9.394735e-03
-1.478348e-01,1.478348e-01,-3.660421e-02
-1.630172e-01,1.630172e-01,1.234333e-02
-2.017510e-01,2.017510e-01,4.138583e-02
-1.638099e-01,1.638099e-01,-3.947652e-02
-1.490445e-01,1.490445e-01,-1.856304e-02
-1.805894e-01,1.805894e-01,3.415131e-02
-1.962040e-01,1.962040e-01,8.142676e-03
-1.502165e-01,1.502165e-01,-4.150432e-02
-1.575553e-01,1.575553e-01,2.953654e-03
-1.974937e-01,1.974937e-01,4.538739e-02
-1.729120e-01,1.729120e-01,-3.043138e-02
-1.472950e-01,1.472950e-01,-2.690906e-02
-1.725551e-01,1.725551e-01,2.546056e-02
-2.019644e-01,2.019644e-01,2.530427e-02
-1.538615e-01,1.538615e-01,-4.457385e-02
-1.525089e-01,1.525089e-01,-6.683344e-03
-1.908864e-01,1.908864e-01,4.389735e-02
-1.838673e-01,1.838673e-01,-1.544886e-02
-1.472344e-01,1.472344e-01,-3.458754e-02
-1.650371e-01,1.650371e-01,1.561148e-02
-2.026397e-01,2.026397e-01,3.878860e-02
-1.610063e-01,1.610063e-01,-4.166315e-02
-1.496741e-01,1.496741e-01,-1.577696e-02
-1.831489e-01,1.831489e-01,3.686076e-02
-1.936526e-01,1.936526e-01,2.463584e-03
-1.493742e-01,1.493742e-01,-4.000408e-02
-1.593439e-01,1.593439e-01,6.052034e-03
-1.991448e-01,1.991448e-01,4.458194e-02
-1.697119e-01,1.697119e-01,-3.392556e-02
-1.478325e-01,1.478325e-01,-2.410166e-02
-1.753010e-01,1.753010e-01,2.849511e-02
-2.004392e-01,2.004392e-01,1.958770e-02
-1.523295e-01,1.523295e-01,-4.398689e-02
-1.540293e-01,1.540293e-01,-3.451501e-03
-1.933341e-01,1.933341e-01,4.515118e-02
-1.800853e-01,1.800853e-01,-2.118104e-02
-1.469038e-01,1.469038e-01,-3.227934e-02
-1.672955e-01,1.672955e-01,1.893750e-02
-2.030800e-01,2.030800e-01,3.525782e-02
-1.583175e-01,1.583175e-01,-4.336535e-02
-1.503894e-01,1.503894e-01,-1.288655e-02
-1.857178e-01,1.857178e-01,3.949872e-02
-1.907704e-01,1.907704e-01,-3.351005e-03
-1.485786e-01,1.485786e-01,-3.839218e-02
-1.611402e-01,1.611402e-01,9.152169e-03
-2.005587e-01,2.005587e-01,4.326990e-02
-1.667098e-01,1.667098e-01,-3.689343e-02
-1.484319e-01,1.484319e-01,-2.132913e-02
-1.779768e-01,1.779768e-01,3.136811e-02
-1.984839e-01,1.984839e-01,1.384938e-02
-1.511670e-01,1.511670e-01,-4.288268e-02
-1.557531e-01,1.557531e-01,-2.252754e-04
-1.955529e-01,1.955529e-01,4.562157e-02
-1.763909e-01,1.763909e-01,-2.620475e-02
-1.469376e-01,1.469376e-01,-2.969280e-02
-1.698231e-01,1.698231e-01,2.224100e-02
-2.028837e-01,2.028837e-01,3.070006e-02
-1.558826e-01,1.558826e-01,-4.438628e-02
-1.512956e-01,1.512956e-01,-9.858186e-03
-1.883059e-01,1.883059e-01,4.192519e-02
-1.875061e-01,1.875061e-01,-9.355302e-03
-1.478395e-01,1.478395e-01,-3.661648e-02
-1.630046e-01,1.630046e-01,1.232247e-02
-2.017440e-01,2.017440e-01,4.139991e-02
-1.638286e-01,1.638286e-01,-3.946107e-02
-1.490406e-01,1.490406e-01,-1.858093e-02
-1.805729e-01,1.805729e-01,3.413352e-02
-1.962196e-01,1.962196e-01,8.179386e-03
-1.502222e-01,1.502222e-01,-4.151371e-02
-1.575439e-01,1.575439e-01,2.933330e-03
-1.974821e-01,1.974821e-01,4.539102e-02
-1.729337e-01,1.729337e-01,-3.040660e-02
-1.472920e-01,1.472920e-01,-2.692727e-02
-1.725374e-01,1.725374e-01,2.544026e-02
-2.019725e-01,2.019725e-01,2.534067e-02
-1.538727e-01,1.538727e-01,-4.457529e-02
-1.524999e-01,1.524999e-01,-6.704095e-03
-1.908700e-01,1.908700e-01,4.388679e-02
-1.838916e-01,1.838916e-01,-1.541013e-02
-1.472375e-01,1.472375e-01,-3.460152e-02
-1.650232e-01,1.650232e-01,1.559004e-02
-2.026354e-01,2.026354e-01,3.880850e-02
-1.610241e-01,1.610241e-01,-4.165033e-02
-1.496702e-01,1.496702e-01,-1.579541e-02
-1.831323e-01,1.831323e-01,3.684333e-02
-1.936701e-01,1.936701e-01,2.500752e-03
-1.493797e-01,1.493797e-01,-4.001417e-02
-1.593325e-01,1.593325e-01,6.031943e-03
-1.991350e-01,1.991350e-01,4.458903e-02
-1.697319e-01,1.697319e-01,-3.390475e-02
-1.478287e-01,1.478287e-01,-2.411980e-02
-1.752835e-01,1.752835e-01,2.847593e-02
-2.004506e-01,2.004506e-01,1.962497e-02
-1.523382e-01,1.523382e-01,-4.399270e-02
-1.540188e-01,1.540188e-01,-3.472626e-03
-1.933188e-01,1.933188e-01,4.514559e-02
-1.801096e-01,1.801096e-01,-2.114583e-02
-1.469049e-01,1.469049e-01,-3.229528e-02
-1.672800e-01,1.672800e-01,1.891589e-02
-2.030788e-01,2.030788e-01,3.528389e-02
-1.583340e-01,1.583340e-01,-4.335622e-02
-1.503841e-01,1.503841e-01,-1.290570e-02
-1.857012e-01,1.857012e-01,3.948196e-02
-1.907904e-01,1.907904e-01,-3.312640e-03
-1.485836e-01,1.485836e-01,-3.840309e-02
-1.611284e-01,1.611284e-01,9.131888e-03
