x,y,z
-1.781516e-01,1.781516e-01,-1.674778e-03
-1.731804e-01,1.731804e-01,-3.908640e-03
-1.785192e-01,1.785192e-01,5.742109e-03
-1.795042e-01,1.795042e-01,7.315394e-04
-1.733297e-01,1.733297e-01,-5.118343e-03
-1.770935e-01,1.770935e-01,4.296079e-03
-1.804569e-01,1.804569e-01,3.102286e-03
-1.739964e-01,1.739964e-01,-5.559187e-03
-1.756771e-01,1.756771e-01,2.342139e-03
-1.808444e-01,1.808444e-01,5.030336e-03
-1.751109e-01,1.751109e-01,-5.124111e-03
-1.744598e-01,1.744598e-01,1.544612e-04
-1.806112e-01,1.806112e-01,6.202072e-03
-1.765318e-01,1.765318e-01,-3.826547e-03
-1.735946e-01,1.735946e-01,-1.984599e-03
-1.798169e-01,1.798169e-01,6.460273e-03
-1.780515e-01,1.780515e-01,-1.827975e-03
-1.731896e-01,1.731896e-01,-3.803741e-03
-1.786106e-01,1.786106e-01,5.815152e-03
-1.794232e-01,1.794232e-01,5.655393e-04
-1.733032e-01,1.733032e-01,-5.059183e-03
-1.771914e-01,1.771914e-01,4.412579e-03
-1.804092e-01,1.804092e-01,2.952013e-03
-1.739361e-01,1.739361e-01,-5.556362e-03
-1.757684e-01,1.757684e-01,2.484479e-03
-1.808378e-01,1.808378e-01,4.921290e-03
-1.750240e-01,1.750240e-01,-5.181500e-03
-1.745323e-01,1.745323e-01,3.036740e-04
-1.806458e-01,1.806458e-01,6.150932e-03
-1.764301e-01,1.764301e-01,-3.938785e-03
-1.736392e-01,1.736392e-01,-1.847384e-03
-1.798854e-01,1.798854e-01,6.472218e-03
-1.779508e-01,1.779508e-01,-1.979341e-03
-1.732008e-01,1.732008e-01,-3.696184e-03
-1.787012e-01,1.787012e-01,5.884704e-03
-1.793405e-01,1.793405e-01,3.994970e-04
-1.732787e-01,1.732787e-01,-4.996487e-03
-1.772896e-01,1.772896e-01,4.526638e-03
-1.803587e-01,1.803587e-01,2.799832e-03
-1.738781e-01,1.738781e-01,-5.549546e-03
-1.758604e-01,1.758604e-01,2.625681e-03
-1.808286e-01,1.808286e-01,4.808806e-03
-1.749387e-01,1.749387e-01,-5.234883e-03
-1.746065e-01,1.746065e-01,4.530037e-04
-1.806778e-01,1.806778e-01,6.095588e-03
-1.763291e-01,1.763291e-01,-4.047703e-03
-1.736864e-01,1.736864e-01,-1.708857e-03
-1.799521e-01,1.799521e-01,6.479976e-03
-1.778495e-01,1.778495e-01,-2.128764e-03
-1.732147e-01,1.732147e-01,-3.586187e-03
-1.787907e-01,1.787907e-01,5.950705e-03
-1.792560e-01,1.792560e-01,2.335715e-04
-1.732568e-01,1.732568e-01,-4.930392e-03
-1.773879e-01,1.773879e-01,4.638182e-03
-1.803057e-01,1.803057e-01,2.645821e-03
-1.738222e-01,1.738222e-01,-5.538730e-03
-1.759535e-01,1.759535e-01,2.765606e-03
-1.808161e-01,1.808161e-01,4.693015e-03
-1.748548e-01,1.748548e-01,-5.284243e-03
-1.746821e-01,1.746821e-01,6.024039e-04
-1.807073e-01,1.807073e-01,6.036067e-03
-1.762286e-01,1.762286e-01,-4.153232e-03
-1.737351e-01,1.737351e-01,-1.568957e-03
-1.800167e-01,1.800167e-01,6.483519e-03
-1.777478e-01,1.777478e-01,-2.276131e-03
-1.732305e-01,1.732305e-01,-3.473674e-03
-1.788789e-01,1.788789e-01,6.013145e-03
-1.791696e-01,1.791696e-01,6.789593e-05
-1.732373e-01,1.732373e-01,-4.860918e-03
-1.774857e-01,1.774857e-01,4.747223e-03
-1.802505e-01,1.802505e-01,2.490104e-03
-1.737681e-01,1.737681e-01,-5.523915e-03
-1.760470e-01,1.760470e-01,2.904257e-03
-1.808008e-01,1.808008e-01,4.573949e-03
-1.747727e-01,1.747727e-01,-5.329562e-03
-1.747593e-01,1.747593e-01,7.517555e-04
-1.807341e-01,1.807341e-01,5.972397e-03
-1.761289e-01,1.761289e-01,-4.255305e-03
-1.737863e-01,1.737863e-01,-1.427891e-03
-1.800793e-01,1.800793e-01,6.482830e-03
-1.776455e-01,1.776455e-01,-2.421318e-03
-1.732493e-01,1.732493e-01,-3.358862e-03
-1.789660e-01,1.789660e-01,6.071923e-03
-1.790819e-01,1.790819e-01,-9.742411e-05
-1.732201e-01,1.732201e-01,-4.788103e-03
-1.775834e-01,1.775834e-01,4.853591e-03
-1.801926e-01,1.801926e-01,2.332834e-03
-1.737165e-01,1.737165e-01,-5.505180e-03
-1.761415e-01,1.761415e-01,3.041436e-03
-1.807828e-01,1.807828e-01,4.451694e-03
-1.746921e-01,1.746921e-01,-5.370828e-03
-1.748378e-01,1.748378e-01,9.009989e-04
-1.807579e-01,1.807579e-01,5.904650e-03
-1.760299e-01,1.760299e-01,-4.353859e-03
-1.738392e-01,1.738392e-01,-1.285640e-03
-1.801397e-01,1.801397e-01,6.477893e-03
-1.775428e-01,1.775428e-01,-2.564219e-03
-1.732698e-01,1.732698e-01,-3.241678e-03
-1.790518e-01,1.790518e-01,6.126981e-03
-1.789927e-01,1.789927e-01,-2.622576e-04
-1.732056e-01,1.732056e-01,-4.712062e-03
-1.776811e-01,1.776811e-01,4.957210e-03
-1.801322e-01,1.801322e-01,2.174134e-03
-1.736673e-01,1.736673e-01,-5.482553e-03
-1.762363e-01,1.762363e-01,3.177172e-03
-1.807620e-01,1.807620e-01,4.326338e-03
-1.746133e-01,1.746133e-01,-5.408031e-03
-1.749179e-01,1.749179e-01,1.050022e-03
-1.807790e-01,1.807790e-01,5.832828e-03
-1.759317e-01,1.759317e-01,-4.448839e-03
-1.738943e-01,1.738943e-01,-1.142367e-03
-1.801980e-01,1.801980e-01,6.468689e-03
-1.774398e-01,1.774398e-01,-2.704745e-03
-1.732932e-01,1.732932e-01,-3.122344e-03
-1.791364e-01,1.791364e-01,6.178268e-03
-1.789021e-01,1.789021e-01,-4.264626e-04
-1.731931e-01,1.731931e-01,-4.632748e-03
-1.777781e-01,1.777781e-01,5.058067e-03
-1.800696e-01,1.800696e-01,2.014101e-03
-1.736198e-01,1.736198e-01,-5.455982e-03
-1.763320e-01,1.763320e-01,3.311288e-03
-1.807382e-01,1.807382e-01,4.198013e-03
-1.745360e-01,1.745360e-01,-5.441121e-03
-1.749992e-01,1.749992e-01,1.198763e-03
-1.807974e-01,1.807974e-01,5.756969e-03
-1.758343e-01,1.758343e-01,-4.540185e-03
-1.739512e-01,1.739512e-01,-9.980955e-04
-1.802541e-01,1.802541e-01,6.455212e-03
-1.773367e-01,1.773367e-01,-2.842796e-03
-1.733183e-01,1.733183e-01,-3.000781e-03
-1.792197e-01,1.792197e-01,6.225731e-03
-1.788099e-01,1.788099e-01,-5.898836e-04
-1.731835e-01,1.731835e-01,-4.550343e-03
-1.778748e-01,1.778748e-01,5.156054e-03
-1.800048e-01,1.800048e-01,1.852865e-03
-1.735749e-01,1.735749e-01,-5.425588e-03
-1.764282e-01,1.764282e-01,3.443733e-03
-1.807116e-01,1.807116e-01,4.066796e-03
-1.744605e-01,1.744605e-01,-5.470127e-03
-1.750819e-01,1.750819e-01,1.347108e-03
-1.808131e-01,1.808131e-01,5.677119e-03
-1.757379e-01,1.757379e-01,-4.627847e-03
-1.740101e-01,1.740101e-01,-8.529469e-04
-1.803079e-01,1.803079e-01,6.437453e-03
-1.772334e-01,1.772334e-01,-2.978271e-03
-1.733462e-01,1.733462e-01,-2.877214e-03
-1.793016e-01,1.793016e-01,6.269326e-03
-1.787165e-01,1.787165e-01,-7.524298e-04
-1.731758e-01,1.731758e-01,-4.464789e-03
-1.779712e-01,1.779712e-01,5.251069e-03
-1.799375e-01,1.799375e-01,1.690601e-03
-1.735324e-01,1.735324e-01,-5.391404e-03
-1.765246e-01,1.765246e-01,3.574444e-03
-1.806823e-01,1.806823e-01,3.932767e-03
-1.743869e-01,1.743869e-01,-5.495052e-03
-1.751658e-01,1.751658e-01,1.494999e-03
-1.808260e-01,1.808260e-01,5.593328e-03
-1.756426e-01,1.756426e-01,-4.711774e-03
-1.740708e-01,1.740708e-01,-7.069877e-04
-1.803594e-01,1.803594e-01,6.415407e-03
-1.771301e-01,1.771301e-01,-3.111074e-03
-1.733760e-01,1.733760e-01,-2.751578e-03
-1.793819e-01,1.793819e-01,6.309007e-03
-1.786220e-01,1.786220e-01,-9.139731e-04
-1.731709e-01,1.731709e-01,-4.376245e-03
-1.780671e-01,1.780671e-01,5.343046e-03
-1.798680e-01,1.798680e-01,1.527405e-03
-1.734918e-01,1.734918e-01,-5.353376e-03
-1.766218e-01,1.766218e-01,3.703267e-03
-1.806503e-01,1.806503e-01,3.796025e-03
-1.743152e-01,1.743152e-01,-5.515902e-03
-1.752510e-01,1.752510e-01,1.642312e-03
-1.808362e-01,1.808362e-01,5.505646e-03
-1.755483e-01,1.755483e-01,-4.791921e-03
-1.741334e-01,1.741334e-01,-5.602999e-04
-1.804085e-01,1.804085e-01,6.389072e-03
-1.770269e-01,1.770269e-01,-3.241112e-03
-1.734083e-01,1.734083e-01,-2.624080e-03
-1.794608e-01,1.794608e-01,6.344732e-03
-1.785264e-01,1.785264e-01,-1.074387e-03
-1.731682e-01,1.731682e-01,-4.284704e-03
-1.781621e-01,1.781621e-01,5.431986e-03
-1.797965e-01,1.797965e-01,1.363395e-03
-1.734537e-01,1.734537e-01,-5.311642e-03
-1.767190e-01,1.767190e-01,3.830217e-03
-1.806153e-01,1.806153e-01,3.656716e-03
-1.742455e-01,1.742455e-01,-5.532680e-03
-1.753372e-01,1.753372e-01,1.789007e-03
-1.808433e-01,1.808433e-01,5.414166e-03
-1.754552e-01,1.754552e-01,-4.868247e-03
-1.741978e-01,1.741978e-01,-4.129897e-04
-1.804553e-01,1.804553e-01,6.358451e-03
-1.769238e-01,1.769238e-01,-3.368296e-03
-1.734426e-01,1.734426e-01,-2.494680e-03
-1.795379e-01,1.795379e-01,6.376477e-03
-1.784297e-01,1.784297e-01,-1.233526e-03
-1.731680e-01,1.731680e-01,-4.190276e-03
-1.782566e-01,1.782566e-01,5.517746e-03
-1.797230e-01,1.797230e-01,1.198704e-03
-1.734181e-01,1.734181e-01,-5.266213e-03
-1.768167e-01,1.768167e-01,3.955133e-03
-1.805776e-01,1.805776e-01,3.514928e-03
-1.741774e-01,1.741774e-01,-5.545337e-03
-1.754248e-01,1.754248e-01,1.934934e-03
-1.808475e-01,1.808475e-01,5.318920e-03
-1.753632e-01,1.753632e-01,-4.940711e-03
-1.742638e-01,1.742638e-01,-2.651019e-04
-1.804996e-01,1.804996e-01,6.323548e-03
-1.768209e-01,1.768209e-01,-3.492536e-03
-1.734794e-01,1.734794e-01,-2.363558e-03
-1.796134e-01,1.796134e-01,6.404181e-03
-1.783319e-01,1.783319e-01,-1.391268e-03
-1.731702e-01,1.731702e-01,-4.092997e-03
-1.783504e-01,1.783504e-01,5.600262e-03
-1.796472e-01,1.796472e-01,1.033518e-03
-1.733845e-01,1.733845e-01,-5.217087e-03
-1.769147e-01,1.769147e-01,4.077928e-03
-1.805373e-01,1.805373e-01,3.370751e-03
-1.741113e-01,1.741113e-01,-5.553930e-03
-1.755132e-01,1.755132e-01,2.080086e-03
-1.808490e-01,1.808490e-01,5.219964e-03
-1.752725e-01,1.752725e-01,-5.009279e-03
-1.743319e-01,1.743319e-01,-1.167791e-04
-1.805415e-01,1.805415e-01,6.284376e-03
-1.767182e-01,1.767182e-01,-3.613749e-03
-1.735181e-01,1.735181e-01,-2.230707e-03
-1.796871e-01,1.796871e-01,6.427808e-03
-1.782332e-01,1.782332e-01,-1.547513e-03
-1.731748e-01,1.731748e-01,-3.992945e-03
-1.784435e-01,1.784435e-01,5.679464e-03
-1.795695e-01,1.795695e-01,8.679166e-04
-1.733536e-01,1.733536e-01,-5.164388e-03
-1.770126e-01,1.770126e-01,4.198603e-03
-1.804944e-01,1.804944e-01,3.224294e-03
-1.740474e-01,1.740474e-01,-5.558479e-03
-1.756029e-01,1.756029e-01,2.224273e-03
-1.808477e-01,1.808477e-01,5.117361e-03
-1.751832e-01,1.751832e-01,-5.073917e-03
-1.744013e-01,1.744013e-01,3.196619e-05
-1.805808e-01,1.805808e-01,6.240944e-03
-1.766158e-01,1.766158e-01,-3.731847e-03
-1.735591e-01,1.735591e-01,-2.096273e-03
-1.797591e-01,1.797591e-01,6.447326e-03
-1.781338e-01,1.781338e-01,-1.702140e-03
-1.731819e-01,1.731819e-01,-3.890189e-03
-1.785357e-01,1.785357e-01,5.755325e-03
-1.794900e-01,1.794900e-01,7.020314e-04
-1.733248e-01,1.733248e-01,-5.108086e-03
-1.771107e-01,1.771107e-01,4.316982e-03
-1.804486e-01,1.804486e-01,3.075721e-03
-1.739857e-01,1.739857e-01,-5.559002e-03
-1.756932e-01,1.756932e-01,2.367535e-03
-1.808436e-01,1.808436e-01,5.011183e-03
-1.750953e-01,1.750953e-01,-5.134599e-03
-1.744726e-01,1.744726e-01,1.809610e-04
-1.806177e-01,1.806177e-01,6.193269e-03
-1.765138e-01,1.765138e-01,-3.846753e-03
-1.736022e-01,1.736022e-01,-1.960288e-03
-1.798292e-01,1.798292e-01,6.462701e-03
-1.780337e-01,1.780337e-01,-1.855032e-03
-1.731913e-01,1.731913e-01,-3.784784e-03
-1.786269e-01,1.786269e-01,5.827771e-03
-1.794088e-01,1.794088e-01,5.359988e-04
-1.732985e-01,1.732985e-01,-5.048269e-03
-1.772091e-01,1.772091e-01,4.433010e-03
-1.804003e-01,1.804003e-01,2.925114e-03
-1.739257e-01,1.739257e-01,-5.555451e-03
-1.757848e-01,1.757848e-01,2.509649e-03
-1.808364e-01,1.808364e-01,4.901542e-03
-1.750088e-01,1.750088e-01,-5.191296e-03
-1.745453e-01,1.745453e-01,3.302190e-04
-1.806520e-01,1.806520e-01,6.141370e-03
-1.764123e-01,1.764123e-01,-3.958402e-03
-1.736474e-01,1.736474e-01,-1.822860e-03
-1.798974e-01,1.798974e-01,6.473907e-03
-1.779331e-01,1.779331e-01,-2.006074e-03
-1.732031e-01,1.732031e-01,-3.676818e-03
-1.787171e-01,1.787171e-01,5.896715e-03
-1.793255e-01,1.793255e-01,3.699977e-04
-1.732748e-01,1.732748e-01,-4.985010e-03
-1.773070e-01,1.773070e-01,4.546661e-03
-1.803495e-01,1.803495e-01,2.772578e-03
-1.738679e-01,1.738679e-01,-5.547899e-03
-1.758768e-01,1.758768e-01,2.650654e-03
-1.808264e-01,1.808264e-01,4.788488e-03
-1.749239e-01,1.749239e-01,-5.243978e-03
-1.746199e-01,1.746199e-01,4.795435e-04
-1.806833e-01,1.806833e-01,6.085301e-03
-1.763113e-01,1.763113e-01,-4.066717e-03
-1.736948e-01,1.736948e-01,-1.684065e-03
-1.799637e-01,1.799637e-01,6.480918e-03
-1.778315e-01,1.778315e-01,-2.155119e-03
-1.732172e-01,1.732172e-01,-3.566339e-03
-1.788063e-01,1.788063e-01,5.962099e-03
-1.792406e-01,1.792406e-01,2.041112e-04
-1.732531e-01,1.732531e-01,-4.918276e-03
-1.774051e-01,1.774051e-01,4.657780e-03
-1.802963e-01,1.802963e-01,2.618236e-03
-1.738124e-01,1.738124e-01,-5.536379e-03
-1.759700e-01,1.759700e-01,2.790361e-03
-1.808135e-01,1.808135e-01,4.672091e-03
-1.748402e-01,1.748402e-01,-5.292609e-03
-1.746956e-01,1.746956e-01,6.289669e-04
-1.807121e-01,1.807121e-01,6.025062e-03
-1.762109e-01,1.762109e-01,-4.171634e-03
-1.737440e-01,1.737440e-01,-1.543966e-03
-1.800279e-01,1.800279e-01,6.483713e-03
-1.777295e-01,1.777295e-01,-2.302087e-03
-1.732338e-01,1.732338e-01,-3.453441e-03
-1.788945e-01,1.788945e-01,6.023864e-03
-1.791542e-01,1.791542e-01,3.847163e-05
-1.732342e-01,1.732342e-01,-4.848228e-03
-1.775032e-01,1.775032e-01,4.766298e-03
-1.802403e-01,1.802403e-01,2.462266e-03
-1.737590e-01,1.737590e-01,-5.520891e-03
-1.760637e-01,1.760637e-01,2.928744e-03
-1.807979e-01,1.807979e-01,4.552431e-03
