x,y,z
-1.789621e-01,1.789621e-01,-4.004824e-03
-1.694180e-01,1.694180e-01,-7.963455e-03
-1.793926e-01,1.793926e-01,1.041012e-02
-1.819344e-01,1.819344e-01,1.298634e-03
-1.697214e-01,1.697214e-01,-1.046373e-02
-1.764066e-01,1.764066e-01,7.170180e-03
-1.839037e-01,1.839037e-01,6.466302e-03
-1.711325e-01,1.711325e-01,-1.134419e-02
-1.735859e-01,1.735859e-01,3.045509e-03
-1.844275e-01,1.844275e-01,1.034487e-02
-1.735463e-01,1.735463e-01,-1.025984e-02
-1.713096e-01,1.713096e-01,-1.366167e-03
-1.834630e-01,1.834630e-01,1.218252e-02
-1.766577e-01,1.766577e-01,-7.160418e-03
-1.698503e-01,1.698503e-01,-5.511017e-03
-1.813212e-01,1.813212e-01,1.181467e-02
-1.799286e-01,1.799286e-01,-2.458754e-03
-1.693923e-01,1.693923e-01,-8.863929e-03
-1.784984e-01,1.784984e-01,9.560306e-03
-1.826633e-01,1.826633e-01,2.933649e-03
-1.700330e-01,1.700330e-01,-1.092064e-02
-1.755158e-01,1.755158e-01,5.987013e-03
-1.842251e-01,1.842251e-01,7.821290e-03
-1.717667e-01,1.717667e-01,-1.123312e-02
-1.728251e-01,1.728251e-01,1.714569e-03
-1.842840e-01,1.842840e-01,1.113537e-02
-1.744346e-01,1.744346e-01,-9.525746e-03
-1.707716e-01,1.707716e-01,-2.673139e-03
-1.829182e-01,1.829182e-01,1.229675e-02
-1.776609e-01,1.776609e-01,-5.873740e-03
-1.695999e-01,1.695999e-01,-6.632850e-03
-1.805144e-01,1.805144e-01,1.130819e-02
-1.808456e-01,1.808456e-01,-8.472421e-04
-1.694683e-01,1.694683e-01,-9.645422e-03
-1.775900e-01,1.775900e-01,8.589468e-03
-1.832825e-01,1.832825e-01,4.521505e-03
-1.704461e-01,1.704461e-01,-1.121672e-02
-1.746529e-01,1.746529e-01,4.740091e-03
-1.844055e-01,1.844055e-01,9.028495e-03
-1.724881e-01,1.724881e-01,-1.093460e-02
-1.721235e-01,1.721235e-01,3.733482e-04
-1.840077e-01,1.840077e-01,1.172444e-02
-1.753757e-01,1.753757e-01,-8.609944e-03
-1.703150e-01,1.703150e-01,-3.940760e-03
-1.822775e-01,1.822775e-01,1.221112e-02
-1.786614e-01,1.786614e-01,-4.457724e-03
-1.694455e-01,1.694455e-01,-7.667843e-03
-1.796598e-01,1.796598e-01,1.064209e-02
-1.816931e-01,1.816931e-01,7.969575e-04
-1.696466e-01,1.696466e-01,-1.029446e-02
-1.766812e-01,1.766812e-01,7.515085e-03
-1.837788e-01,1.837788e-01,6.028529e-03
-1.709579e-01,1.709579e-01,-1.134157e-02
-1.738280e-01,1.738280e-01,3.446166e-03
-1.844439e-01,1.844439e-01,1.006569e-02
-1.732885e-01,1.732885e-01,-1.044616e-02
-1.714885e-01,1.714885e-01,-9.628016e-04
-1.836076e-01,1.836076e-01,1.210714e-02
-1.763546e-01,1.763546e-01,-7.522999e-03
-1.699450e-01,1.699450e-01,-5.154502e-03
-1.815551e-01,1.815551e-01,1.193483e-02
-1.796388e-01,1.796388e-01,-2.937683e-03
-1.693894e-01,1.693894e-01,-8.601827e-03
-1.787727e-01,1.787727e-01,9.832571e-03
-1.824523e-01,1.824523e-01,2.439431e-03
-1.699273e-01,1.699273e-01,-1.079808e-02
-1.757845e-01,1.757845e-01,6.354644e-03
-1.841420e-01,1.841420e-01,7.423398e-03
-1.715643e-01,1.715643e-01,-1.128660e-02
-1.730508e-01,1.730508e-01,2.121449e-03
-1.843420e-01,1.843420e-01,1.091575e-02
-1.741579e-01,1.741579e-01,-9.768762e-03
-1.709269e-01,1.709269e-01,-2.278826e-03
-1.830948e-01,1.830948e-01,1.228348e-02
-1.773550e-01,1.773550e-01,-6.280095e-03
-1.696662e-01,1.696662e-01,-6.299977e-03
-1.807656e-01,1.807656e-01,1.147996e-02
-1.805729e-01,1.805729e-01,-1.342719e-03
-1.694344e-01,1.694344e-01,-9.420982e-03
-1.778672e-01,1.778672e-01,8.896708e-03
-1.831066e-01,1.831066e-01,4.045272e-03
-1.703098e-01,1.703098e-01,-1.114429e-02
-1.749119e-01,1.749119e-01,5.125335e-03
-1.843656e-01,1.843656e-01,8.678154e-03
-1.722597e-01,1.722597e-01,-1.104551e-02
-1.723305e-01,1.723305e-01,7.816890e-04
-1.841055e-01,1.841055e-01,1.156684e-02
-1.750844e-01,1.750844e-01,-8.907344e-03
-1.704449e-01,1.704449e-01,-3.559985e-03
-1.824818e-01,1.824818e-01,1.225786e-02
-1.783583e-01,1.783583e-01,-4.900944e-03
-1.694821e-01,1.694821e-01,-7.362875e-03
-1.799242e-01,1.799242e-01,1.086074e-02
-1.814436e-01,1.814436e-01,2.951236e-04
-1.695814e-01,1.695814e-01,-1.011172e-02
-1.769570e-01,1.769570e-01,7.851992e-03
-1.836416e-01,1.836416e-01,5.580338e-03
-1.707917e-01,1.707917e-01,-1.132224e-02
-1.740744e-01,1.740744e-01,3.843976e-03
-1.844472e-01,1.844472e-01,9.769139e-03
-1.730371e-01,1.730371e-01,-1.061493e-02
-1.716741e-01,1.716741e-01,-5.575643e-04
-1.837419e-01,1.837419e-01,1.201259e-02
-1.760536e-01,1.760536e-01,-7.871116e-03
-1.700482e-01,1.700482e-01,-4.791674e-03
-1.817828e-01,1.817828e-01,1.203842e-02
-1.793450e-01,1.793450e-01,-3.409650e-03
-1.693959e-01,1.693959e-01,-8.329087e-03
-1.790454e-01,1.790454e-01,1.009309e-02
-1.822316e-01,1.822316e-01,1.941813e-03
-1.698312e-01,1.698312e-01,-1.066095e-02
-1.760555e-01,1.760555e-01,6.715885e-03
-1.840459e-01,1.840459e-01,7.012495e-03
-1.713698e-01,1.713698e-01,-1.132277e-02
-1.732817e-01,1.732817e-01,2.526940e-03
-1.843876e-01,1.843876e-01,1.067765e-02
-1.738867e-01,1.738867e-01,-9.994709e-03
-1.710896e-01,1.710896e-01,-1.881297e-03
-1.832622e-01,1.832622e-01,1.225144e-02
-1.770495e-01,1.770495e-01,-6.673809e-03
-1.697414e-01,1.697414e-01,-5.959466e-03
-1.810121e-01,1.810121e-01,1.163649e-02
-1.802944e-01,1.802944e-01,-1.834209e-03
-1.694099e-01,1.694099e-01,-9.184646e-03
-1.781439e-01,1.781439e-01,9.193873e-03
-1.829196e-01,1.829196e-01,3.562469e-03
-1.701829e-01,1.701829e-01,-1.105629e-02
-1.751742e-01,1.751742e-01,5.505758e-03
-1.843125e-01,1.843125e-01,8.312609e-03
-1.720390e-01,1.720390e-01,-1.113884e-02
-1.725433e-01,1.725433e-01,1.190100e-03
-1.841912e-01,1.841912e-01,1.139025e-02
-1.747972e-01,1.747972e-01,-9.188532e-03
-1.705829e-01,1.705829e-01,-3.174643e-03
-1.826782e-01,1.826782e-01,1.228660e-02
-1.780537e-01,1.780537e-01,-5.333749e-03
-1.695278e-01,1.695278e-01,-7.048955e-03
-1.801849e-01,1.801849e-01,1.106567e-02
-1.811865e-01,1.811865e-01,-2.058851e-04
-1.695258e-01,1.695258e-01,-9.915882e-03
-1.772339e-01,1.772339e-01,8.180397e-03
-1.834921e-01,1.834921e-01,5.122604e-03
-1.706348e-01,1.706348e-01,-1.128650e-02
-1.743249e-01,1.743249e-01,4.238483e-03
-1.844375e-01,1.844375e-01,9.455649e-03
-1.727923e-01,1.727923e-01,-1.076612e-02
-1.718665e-01,1.718665e-01,-1.508978e-04
-1.838654e-01,1.838654e-01,1.189887e-02
-1.757550e-01,1.757550e-01,-8.204264e-03
-1.701599e-01,1.701599e-01,-4.422942e-03
-1.820039e-01,1.820039e-01,1.212508e-02
-1.790476e-01,1.790476e-01,-3.873787e-03
-1.694117e-01,1.694117e-01,-8.046098e-03
-1.793157e-01,1.793157e-01,1.034148e-02
-1.820017e-01,1.820017e-01,1.441782e-03
-1.697444e-01,1.697444e-01,-1.050954e-02
-1.763283e-01,1.763283e-01,7.070275e-03
-1.839371e-01,1.839371e-01,6.589334e-03
-1.711841e-01,1.711841e-01,-1.134186e-02
-1.735176e-01,1.735176e-01,2.930601e-03
-1.844206e-01,1.844206e-01,1.042135e-02
-1.736210e-01,1.736210e-01,-1.020341e-02
-1.712596e-01,1.712596e-01,-1.480965e-03
-1.834197e-01,1.834197e-01,1.220057e-02
-1.767445e-01,1.767445e-01,-7.054241e-03
-1.698249e-01,1.698249e-01,-5.611659e-03
-1.812533e-01,1.812533e-01,1.177737e-02
-1.800105e-01,1.800105e-01,-2.320784e-03
-1.693949e-01,1.693949e-01,-8.936790e-03
-1.784198e-01,1.784198e-01,9.480455e-03
-1.827219e-01,1.827219e-01,3.074046e-03
-1.700649e-01,1.700649e-01,-1.095293e-02
-1.754395e-01,1.754395e-01,5.880888e-03
-1.842463e-01,1.842463e-01,7.932479e-03
-1.718262e-01,1.718262e-01,-1.121468e-02
-1.727617e-01,1.727617e-01,1.598131e-03
-1.842651e-01,1.842651e-01,1.119469e-02
-1.745145e-01,1.745145e-01,-9.453208e-03
-1.707287e-01,1.707287e-01,-2.785142e-03
-1.828662e-01,1.828662e-01,1.229710e-02
-1.777483e-01,1.777483e-01,-5.755427e-03
-1.695826e-01,1.695826e-01,-6.726481e-03
-1.804417e-01,1.804417e-01,1.125639e-02
-1.809222e-01,1.809222e-01,-7.050929e-04
-1.694797e-01,1.694797e-01,-9.707295e-03
-1.775108e-01,1.775108e-01,8.499917e-03
-1.833308e-01,1.833308e-01,4.656202e-03
-1.704867e-01,1.704867e-01,-1.123451e-02
-1.745794e-01,1.745794e-01,4.629233e-03
-1.844145e-01,1.844145e-01,9.125696e-03
-1.725546e-01,1.725546e-01,-1.089968e-02
-1.720654e-01,1.720654e-01,2.567766e-04
-1.839779e-01,1.839779e-01,1.176590e-02
-1.754594e-01,1.754594e-01,-8.522034e-03
-1.702794e-01,1.702794e-01,-4.048655e-03
-1.822179e-01,1.822179e-01,1.219449e-02
-1.787474e-01,1.787474e-01,-4.329286e-03
-1.694367e-01,1.694367e-01,-7.753260e-03
-1.795838e-01,1.795838e-01,1.057715e-02
-1.817629e-01,1.817629e-01,9.403251e-04
-1.696670e-01,1.696670e-01,-1.034419e-02
-1.766025e-01,1.766025e-01,7.417362e-03
-1.838157e-01,1.838157e-01,6.154697e-03
-1.710069e-01,1.710069e-01,-1.134403e-02
-1.737583e-01,1.737583e-01,3.331990e-03
-1.844407e-01,1.844407e-01,1.014720e-02
-1.733615e-01,1.733615e-01,-1.039471e-02
-1.714367e-01,1.714367e-01,-1.078246e-03
-1.835675e-01,1.835675e-01,1.213059e-02
-1.764412e-01,1.764412e-01,-7.420894e-03
-1.699171e-01,1.699171e-01,-5.257011e-03
-1.814889e-01,1.814889e-01,1.190219e-02
-1.797219e-01,1.797219e-01,-2.801532e-03
-1.693893e-01,1.693893e-01,-8.677795e-03
-1.786945e-01,1.786945e-01,9.755969e-03
-1.825137e-01,1.825137e-01,2.580985e-03
-1.699566e-01,1.699566e-01,-1.083460e-02
-1.757075e-01,1.757075e-01,6.250249e-03
-1.841670e-01,1.841670e-01,7.538426e-03
-1.716213e-01,1.716213e-01,-1.127308e-02
-1.729858e-01,1.729858e-01,2.005332e-03
-1.843268e-01,1.843268e-01,1.098036e-02
-1.742366e-01,1.742366e-01,-9.701084e-03
-1.708818e-01,1.708818e-01,-2.391828e-03
-1.830452e-01,1.830452e-01,1.228918e-02
-1.774426e-01,1.774426e-01,-6.165292e-03
-1.696463e-01,1.696463e-01,-6.395853e-03
-1.806942e-01,1.806942e-01,1.143243e-02
-1.806514e-01,1.806514e-01,-1.201536e-03
-1.694430e-01,1.694430e-01,-9.486327e-03
-1.777881e-01,1.777881e-01,8.809944e-03
-1.831580e-01,1.831580e-01,4.182028e-03
-1.703478e-01,1.703478e-01,-1.116659e-02
-1.748375e-01,1.748375e-01,5.015764e-03
-1.843784e-01,1.843784e-01,8.779804e-03
-1.723241e-01,1.723241e-01,-1.101562e-02
-1.722706e-01,1.722706e-01,6.650358e-04
-1.840787e-01,1.840787e-01,1.161384e-02
-1.751674e-01,1.751674e-01,-8.824041e-03
-1.704070e-01,1.704070e-01,-3.669247e-03
-1.824243e-01,1.824243e-01,1.224632e-02
-1.784450e-01,1.784450e-01,-4.775351e-03
-1.694709e-01,1.694709e-01,-7.450946e-03
-1.798491e-01,1.798491e-01,1.079964e-02
-1.815158e-01,1.815158e-01,4.384303e-04
-1.695990e-01,1.695990e-01,-1.016527e-02
-1.768781e-01,1.768781e-01,7.756590e-03
-1.836819e-01,1.836819e-01,5.709406e-03
-1.708383e-01,1.708383e-01,-1.132945e-02
-1.740035e-01,1.740035e-01,3.730660e-03
-1.844477e-01,1.844477e-01,9.855577e-03
-1.731082e-01,1.731082e-01,-1.056850e-02
-1.716205e-01,1.716205e-01,-6.735066e-04
-1.837046e-01,1.837046e-01,1.204157e-02
-1.761393e-01,1.761393e-01,-7.773170e-03
-1.700178e-01,1.700178e-01,-4.895936e-03
-1.817184e-01,1.817184e-01,1.201055e-02
-1.794291e-01,1.794291e-01,-3.275569e-03
-1.693930e-01,1.693930e-01,-8.408052e-03
-1.789677e-01,1.789677e-01,1.001989e-02
-1.822958e-01,1.822958e-01,2.084247e-03
-1.698578e-01,1.698578e-01,-1.070160e-02
-1.759779e-01,1.759779e-01,6.613355e-03
-1.840747e-01,1.840747e-01,7.131158e-03
-1.714245e-01,1.714245e-01,-1.131418e-02
-1.732152e-01,1.732152e-01,2.411269e-03
-1.843761e-01,1.843761e-01,1.074750e-02
-1.739637e-01,1.739637e-01,-9.931924e-03
-1.710423e-01,1.710423e-01,-1.995164e-03
-1.832153e-01,1.832153e-01,1.226253e-02
-1.771366e-01,1.771366e-01,-6.562654e-03
-1.697189e-01,1.697189e-01,-6.057475e-03
-1.809421e-01,1.809421e-01,1.159336e-02
-1.803744e-01,1.803744e-01,-1.694262e-03
-1.694159e-01,1.694159e-01,-9.253351e-03
-1.780649e-01,1.780649e-01,9.110040e-03
-1.829740e-01,1.829740e-01,3.701015e-03
-1.702182e-01,1.702182e-01,-1.108300e-02
-1.750990e-01,1.750990e-01,5.397606e-03
-1.843291e-01,1.843291e-01,8.418541e-03
-1.721013e-01,1.721013e-01,-1.111398e-02
-1.724818e-01,1.724818e-01,1.073454e-03
-1.841679e-01,1.841679e-01,1.144265e-02
-1.748788e-01,1.748788e-01,-9.109880e-03
-1.705427e-01,1.705427e-01,-3.285157e-03
-1.826229e-01,1.826229e-01,1.228025e-02
-1.781409e-01,1.781409e-01,-5.211221e-03
-1.695139e-01,1.695139e-01,-7.139536e-03
-1.801107e-01,1.801107e-01,1.100857e-02
-1.812609e-01,1.812609e-01,-6.291830e-05
-1.695407e-01,1.695407e-01,-9.973142e-03
-1.771548e-01,1.771548e-01,8.087459e-03
-1.835359e-01,1.835359e-01,5.254307e-03
-1.706788e-01,1.706788e-01,-1.129838e-02
-1.742529e-01,1.742529e-01,4.126158e-03
-1.844416e-01,1.844416e-01,9.546890e-03
-1.728615e-01,1.728615e-01,-1.072472e-02
-1.718109e-01,1.718109e-01,-2.671965e-04
-1.838314e-01,1.838314e-01,1.193329e-02
-1.758402e-01,1.758402e-01,-8.110664e-03
-1.701270e-01,1.701270e-01,-4.528839e-03
-1.819414e-01,1.819414e-01,1.210209e-02
-1.791328e-01,1.791328e-01,-3.742035e-03
-1.694062e-01,1.694062e-01,-8.127949e-03
-1.792387e-01,1.792387e-01,1.027181e-02
-1.820683e-01,1.820683e-01,1.584812e-03
-1.697682e-01,1.697682e-01,-1.055422e-02
-1.762502e-01,1.762502e-01,6.969773e-03
-1.839696e-01,1.839696e-01,6.711411e-03
-1.712363e-01,1.712363e-01,-1.133814e-02
-1.734497e-01,1.734497e-01,2.815501e-03
-1.844125e-01,1.844125e-01,1.049640e-02
-1.736963e-01,1.736963e-01,-1.014556e-02
-1.712102e-01,1.712102e-01,-1.595581e-03
-1.833758e-01,1.833758e-01,1.221703e-02
-1.768315e-01,1.768315e-01,-6.946956e-03
-1.698003e-01,1.698003e-01,-5.711748e-03
-1.811849e-01,1.811849e-01,1.173875e-02
