x,y,z
-1.557877e-01,1.557877e-01,5.658846e-03
-1.991141e-01,1.991141e-01,5.152396e-02
-1.754292e-01,1.754292e-01,-3.090725e-02
-1.426154e-01,1.426154e-01,-3.459969e-02
-1.640251e-01,1.640251e-01,1.940045e-02
-2.052869e-01,2.052869e-01,4.445347e-02
-1.618875e-01,1.618875e-01,-4.497780e-02
-1.444729e-01,1.444729e-01,-2.294109e-02
-1.754101e-01,1.754101e-01,3.285823e-02
-2.037583e-01,2.037583e-01,2.349067e-02
-1.505908e-01,1.505908e-01,-5.067554e-02
-1.474732e-01,1.474732e-01,-1.042415e-02
-1.868920e-01,1.868920e-01,4.567903e-02
-1.943685e-01,1.943685e-01,-5.957635e-04
-1.457719e-01,1.457719e-01,-4.574754e-02
-1.537934e-01,1.537934e-01,2.304382e-03
-1.969833e-01,1.969833e-01,5.172501e-02
-1.790302e-01,1.790302e-01,-2.612185e-02
-1.427143e-01,1.427143e-01,-3.702099e-02
-1.617892e-01,1.617892e-01,1.624480e-02
-2.043024e-01,2.043024e-01,4.763570e-02
-1.654451e-01,1.654451e-01,-4.208095e-02
-1.435093e-01,1.435093e-01,-2.664022e-02
-1.717030e-01,1.717030e-01,2.888955e-02
-2.054095e-01,2.054095e-01,3.091859e-02
-1.531165e-01,1.531165e-01,-5.045155e-02
-1.462819e-01,1.462819e-01,-1.406236e-02
-1.836267e-01,1.836267e-01,4.238521e-02
-1.981323e-01,1.981323e-01,7.146235e-03
-1.468508e-01,1.468508e-01,-4.839744e-02
-1.510187e-01,1.510187e-01,-2.413407e-03
-1.935415e-01,1.935415e-01,5.085426e-02
-1.846685e-01,1.846685e-01,-1.767017e-02
-1.435107e-01,1.435107e-01,-4.019927e-02
-1.589920e-01,1.589920e-01,1.158333e-02
-2.022864e-01,2.022864e-01,5.033750e-02
-1.700670e-01,1.700670e-01,-3.745209e-02
-1.427161e-01,1.427161e-01,-3.080461e-02
-1.675767e-01,1.675767e-01,2.415069e-02
-2.060324e-01,2.060324e-01,3.867276e-02
-1.571657e-01,1.571657e-01,-4.838630e-02
-1.454179e-01,1.454179e-01,-1.831265e-02
-1.797978e-01,1.797978e-01,3.789159e-02
-2.011292e-01,2.011292e-01,1.487338e-02
-1.483953e-01,1.483953e-01,-4.991669e-02
-1.491147e-01,1.491147e-01,-6.350224e-03
-1.903869e-01,1.903869e-01,4.874600e-02
-1.894786e-01,1.894786e-01,-9.548719e-03
-1.446171e-01,1.446171e-01,-4.268675e-02
-1.567736e-01,1.567736e-01,7.437600e-03
-2.001372e-01,2.001372e-01,5.129922e-02
-1.737343e-01,1.737343e-01,-3.305719e-02
-1.426118e-01,1.426118e-01,-3.343496e-02
-1.651070e-01,1.651070e-01,2.088392e-02
-2.056218e-01,2.056218e-01,4.276964e-02
-1.603208e-01,1.603208e-01,-4.615798e-02
-1.448465e-01,1.448465e-01,-2.135179e-02
-1.769579e-01,1.769579e-01,3.456473e-02
-2.028798e-01,2.028798e-01,2.039606e-02
-1.497514e-01,1.497514e-01,-5.046180e-02
-1.480708e-01,1.480708e-01,-8.919695e-03
-1.882177e-01,1.882177e-01,4.686742e-02
-1.925516e-01,1.925516e-01,-3.994906e-03
-1.453577e-01,1.453577e-01,-4.450114e-02
-1.550366e-01,1.550366e-01,4.368566e-03
-1.983270e-01,1.983270e-01,5.164981e-02
-1.767581e-01,1.767581e-01,-2.918535e-02
-1.426255e-01,1.426255e-01,-3.551677e-02
-1.631715e-01,1.631715e-01,1.822557e-02
-2.049648e-01,2.049648e-01,4.573426e-02
-1.632029e-01,1.632029e-01,-4.395408e-02
-1.441156e-01,1.441156e-01,-2.431786e-02
-1.740407e-01,1.740407e-01,3.139056e-02
-2.044609e-01,2.044609e-01,2.625209e-02
-1.514251e-01,1.514251e-01,-5.074682e-02
-1.469728e-01,1.469728e-01,-1.177954e-02
-1.856775e-01,1.856775e-01,4.452894e-02
-1.959141e-01,1.959141e-01,2.425861e-03
-1.461532e-01,1.461532e-01,-4.686087e-02
-1.526552e-01,1.526552e-01,4.214868e-04
-1.956677e-01,1.956677e-01,5.157696e-02
-1.812168e-01,1.812168e-01,-2.298969e-02
-1.429310e-01,1.429310e-01,-3.833658e-02
-1.606145e-01,1.606145e-01,1.440900e-02
-2.035708e-01,2.035708e-01,4.898816e-02
-1.673961e-01,1.673961e-01,-4.026725e-02
-1.430722e-01,1.430722e-01,-2.853292e-02
-1.698026e-01,1.698026e-01,2.679217e-02
-2.058867e-01,2.058867e-01,3.459969e-02
-1.547967e-01,1.547967e-01,-4.975781e-02
-1.458548e-01,1.458548e-01,-1.594364e-02
-1.819409e-01,1.819409e-01,4.045057e-02
-1.995930e-01,1.995930e-01,1.066538e-02
-1.474921e-01,1.474921e-01,-4.924500e-02
-1.500352e-01,1.500352e-01,-4.312753e-03
-1.920417e-01,1.920417e-01,4.999221e-02
-1.870176e-01,1.870176e-01,-1.380420e-02
-1.440214e-01,1.440214e-01,-4.140277e-02
-1.579369e-01,1.579369e-01,9.618299e-03
-2.013056e-01,2.013056e-01,5.090053e-02
-1.717962e-01,1.717962e-01,-3.543969e-02
-1.426294e-01,1.426294e-01,-3.208971e-02
-1.663588e-01,1.663588e-01,2.257889e-02
-2.059011e-01,2.059011e-01,4.074791e-02
-1.586517e-01,1.586517e-01,-4.737462e-02
-1.451656e-01,1.451656e-01,-1.973532e-02
-1.784855e-01,1.784855e-01,3.632936e-02
-2.019633e-01,2.019633e-01,1.740831e-02
-1.489975e-01,1.489975e-01,-5.019505e-02
-1.486339e-01,1.486339e-01,-7.520071e-03
-1.894139e-01,1.894139e-01,4.791798e-02
-1.908685e-01,1.908685e-01,-7.063263e-03
-1.449606e-01,1.449606e-01,-4.346278e-02
-1.560440e-01,1.560440e-01,6.111227e-03
-1.993808e-01,1.993808e-01,5.147192e-02
-1.749836e-01,1.749836e-01,-3.147701e-02
-1.426143e-01,1.426143e-01,-3.429203e-02
-1.643113e-01,1.643113e-01,1.979277e-02
-2.053830e-01,2.053830e-01,4.401307e-02
-1.614613e-01,1.614613e-01,-4.530178e-02
-1.445817e-01,1.445817e-01,-2.250141e-02
-1.758424e-01,1.758424e-01,3.332791e-02
-2.035198e-01,2.035198e-01,2.262097e-02
-1.503468e-01,1.503468e-01,-5.062575e-02
-1.476397e-01,1.476397e-01,-9.997516e-03
-1.872713e-01,1.872713e-01,4.602381e-02
-1.938587e-01,1.938587e-01,-1.562246e-03
-1.456545e-01,1.456545e-01,-4.538768e-02
-1.541557e-01,1.541557e-01,2.901410e-03
-1.973827e-01,1.973827e-01,5.172500e-02
-1.783579e-01,1.783579e-01,-2.704721e-02
-1.426750e-01,1.426750e-01,-3.658919e-02
-1.621824e-01,1.621824e-01,1.682365e-02
-2.045107e-01,2.045107e-01,4.712319e-02
-1.647974e-01,1.647974e-01,-4.264246e-02
-1.436781e-01,1.436781e-01,-2.598015e-02
-1.723687e-01,1.723687e-01,2.960647e-02
-2.051764e-01,2.051764e-01,2.960083e-02
-1.525961e-01,1.525961e-01,-5.059579e-02
-1.464568e-01,1.464568e-01,-1.341465e-02
-1.842077e-01,1.842077e-01,4.301930e-02
-1.975569e-01,1.975569e-01,5.862568e-03
-1.466442e-01,1.466442e-01,-4.801848e-02
-1.514332e-01,1.514332e-01,-1.669087e-03
-1.941148e-01,1.941148e-01,5.110751e-02
-1.837486e-01,1.837486e-01,-1.913082e-02
-1.433330e-01,1.433330e-01,-3.971976e-02
-1.594082e-01,1.594082e-01,1.233709e-02
-2.026443e-01,2.026443e-01,5.004997e-02
-1.693855e-01,1.693855e-01,-3.820689e-02
-1.427784e-01,1.427784e-01,-3.026178e-02
-1.681002e-01,1.681002e-01,2.479730e-02
-2.060425e-01,2.060425e-01,3.774499e-02
-1.565679e-01,1.565679e-01,-4.876483e-02
-1.455201e-01,1.455201e-01,-1.773237e-02
-1.803266e-01,1.803266e-01,3.852594e-02
-2.007742e-01,2.007742e-01,1.384913e-02
-1.481634e-01,1.481634e-01,-4.978163e-02
-1.493197e-01,1.493197e-01,-5.870522e-03
-1.907806e-01,1.907806e-01,4.906523e-02
-1.889060e-01,1.889060e-01,-1.055668e-02
-1.444755e-01,1.444755e-01,-4.238121e-02
-1.570551e-01,1.570551e-01,7.960912e-03
-2.004256e-01,2.004256e-01,5.121942e-02
-1.732602e-01,1.732602e-01,-3.364943e-02
-1.426119e-01,1.426119e-01,-3.310999e-02
-1.654084e-01,1.654084e-01,2.129633e-02
-2.057008e-01,2.057008e-01,4.229125e-02
-1.599052e-01,1.599052e-01,-4.646587e-02
-1.449326e-01,1.449326e-01,-2.094351e-02
-1.773479e-01,1.773479e-01,3.500791e-02
-2.026497e-01,2.026497e-01,1.962631e-02
-1.495529e-01,1.495529e-01,-5.039732e-02
-1.482182e-01,1.482182e-01,-8.553885e-03
-1.885342e-01,1.885342e-01,4.714654e-02
-1.921082e-01,1.921082e-01,-4.809069e-03
-1.452553e-01,1.452553e-01,-4.421551e-02
-1.553170e-01,1.553170e-01,4.843760e-03
-1.986218e-01,1.986218e-01,5.160834e-02
-1.762591e-01,1.762591e-01,-2.983678e-02
-1.426199e-01,1.426199e-01,-3.517335e-02
-1.634909e-01,1.634909e-01,1.866706e-02
-2.050921e-01,2.050921e-01,4.526194e-02
-1.627031e-01,1.627031e-01,-4.434794e-02
-1.442539e-01,1.442539e-01,-2.379295e-02
-1.745650e-01,1.745650e-01,3.195030e-02
-2.042026e-01,2.042026e-01,2.519472e-02
-1.510938e-01,1.510938e-01,-5.073749e-02
-1.471576e-01,1.471576e-01,-1.126126e-02
-1.861430e-01,1.861430e-01,4.497923e-02
-1.953395e-01,1.953395e-01,1.283853e-03
-1.460056e-01,1.460056e-01,-4.644537e-02
-1.530833e-01,1.530833e-01,1.133106e-03
-1.961745e-01,1.961745e-01,5.166088e-02
-1.803790e-01,1.803790e-01,-2.421214e-02
-1.428324e-01,1.428324e-01,-3.784824e-02
-1.610467e-01,1.610467e-01,1.510454e-02
-2.038591e-01,2.038591e-01,4.852436e-02
-1.666780e-01,1.666780e-01,-4.095748e-02
-1.432186e-01,1.432186e-01,-2.785625e-02
-1.704791e-01,1.704791e-01,2.755058e-02
-2.057505e-01,2.057505e-01,3.330488e-02
-1.541639e-01,1.541639e-01,-5.005383e-02
-1.459974e-01,1.459974e-01,-1.526422e-02
-1.825501e-01,1.825501e-01,4.116297e-02
-1.990972e-01,1.990972e-01,9.423898e-03
-1.472534e-01,1.472534e-01,-4.897866e-02
-1.503563e-01,1.503563e-01,-3.666681e-03
-1.925571e-01,1.925571e-01,5.032025e-02
-1.862217e-01,1.862217e-01,-1.513582e-02
-1.438406e-01,1.438406e-01,-4.099613e-02
-1.582962e-01,1.582962e-01,1.029303e-02
-2.016501e-01,2.016501e-01,5.073385e-02
-1.712062e-01,1.712062e-01,-3.614071e-02
-1.426488e-01,1.426488e-01,-3.166383e-02
-1.667593e-01,1.667593e-01,2.310591e-02
-2.059611e-01,2.059611e-01,4.007891e-02
-1.581485e-01,1.581485e-01,-4.772706e-02
-1.452523e-01,1.452523e-01,-1.925469e-02
-1.789318e-01,1.789318e-01,3.685738e-02
-2.016860e-01,2.016860e-01,1.654548e-02
-1.487883e-01,1.487883e-01,-5.010762e-02
-1.487949e-01,1.487949e-01,-7.122622e-03
-1.897468e-01,1.897468e-01,4.820579e-02
-1.903962e-01,1.903962e-01,-7.913493e-03
-1.448446e-01,1.448446e-01,-4.319229e-02
-1.563004e-01,1.563004e-01,6.572142e-03
-1.996478e-01,1.996478e-01,5.141564e-02
-1.745406e-01,1.745406e-01,-3.204035e-02
-1.426133e-01,1.426133e-01,-3.398724e-02
-1.645945e-01,1.645945e-01,2.018110e-02
-2.054729e-01,2.054729e-01,4.357359e-02
-1.610478e-01,1.610478e-01,-4.561381e-02
-1.446824e-01,1.446824e-01,-2.207974e-02
-1.762541e-01,1.762541e-01,3.377983e-02
-2.032869e-01,2.032869e-01,2.179565e-02
-1.501219e-01,1.501219e-01,-5.056995e-02
-1.477999e-01,1.477999e-01,-9.594873e-03
-1.876271e-01,1.876271e-01,4.634323e-02
-1.933719e-01,1.933719e-01,-2.474900e-03
-1.455440e-01,1.455440e-01,-4.505057e-02
-1.544930e-01,1.544930e-01,3.458857e-03
-1.977477e-01,1.977477e-01,5.170759e-02
-1.777406e-01,1.777406e-01,-2.788239e-02
-1.426488e-01,1.426488e-01,-3.618193e-02
-1.625562e-01,1.625562e-01,1.736118e-02
-2.046940e-01,2.046940e-01,4.661407e-02
-1.641879e-01,1.641879e-01,-4.315487e-02
-1.438426e-01,1.438426e-01,-2.534918e-02
-1.730047e-01,1.730047e-01,3.028652e-02
-2.049249e-01,2.049249e-01,2.833247e-02
-1.521286e-01,1.521286e-01,-5.068769e-02
-1.466396e-01,1.466396e-01,-1.279543e-02
-1.847640e-01,1.847640e-01,4.360688e-02
-1.969668e-01,1.969668e-01,4.593783e-03
-1.464533e-01,1.464533e-01,-4.761209e-02
-1.518683e-01,1.518683e-01,-9.107208e-04
-1.946885e-01,1.946885e-01,5.131787e-02
-1.828194e-01,1.828194e-01,-2.057507e-02
-1.431692e-01,1.431692e-01,-3.922527e-02
-1.598375e-01,1.598375e-01,1.309548e-02
-2.029940e-01,2.029940e-01,4.971190e-02
-1.686805e-01,1.686805e-01,-3.896213e-02
-1.428632e-01,1.428632e-01,-2.967430e-02
-1.686731e-01,1.686731e-01,2.548568e-02
-2.060212e-01,2.060212e-01,3.670644e-02
-1.559423e-01,1.559423e-01,-4.913948e-02
-1.456310e-01,1.456310e-01,-1.711502e-02
-1.808860e-01,1.808860e-01,3.919652e-02
-2.003833e-01,2.003833e-01,1.275827e-02
-1.479249e-01,1.479249e-01,-4.961937e-02
-1.495498e-01,1.495498e-01,-5.350248e-03
-1.912046e-01,1.912046e-01,4.939476e-02
-1.882806e-01,1.882806e-01,-1.164566e-02
-1.443223e-01,1.443223e-01,-4.205344e-02
-1.573536e-01,1.573536e-01,8.520323e-03
-2.007281e-01,2.007281e-01,5.112411e-02
-1.727611e-01,1.727611e-01,-3.426666e-02
-1.426141e-01,1.426141e-01,-3.276637e-02
-1.657276e-01,1.657276e-01,2.173084e-02
-2.057769e-01,2.057769e-01,4.177965e-02
-1.594749e-01,1.594749e-01,-4.678183e-02
-1.450163e-01,1.450163e-01,-2.052559e-02
-1.777442e-01,1.777442e-01,3.546353e-02
-2.024135e-01,2.024135e-01,1.884974e-02
-1.493555e-01,1.493555e-01,-5.032943e-02
-1.483649e-01,1.483649e-01,-8.188886e-03
-1.888472e-01,1.888472e-01,4.742212e-02
-1.916682e-01,1.916682e-01,-5.612751e-03
-1.451521e-01,1.451521e-01,-4.394069e-02
-1.555841e-01,1.555841e-01,5.303870e-03
-1.989017e-01,1.989017e-01,5.156255e-02
-1.757863e-01,1.757863e-01,-3.044817e-02
-1.426169e-01,1.426169e-01,-3.484669e-02
-1.637949e-01,1.637949e-01,1.908515e-02
-2.052055e-01,2.052055e-01,4.480397e-02
-1.622354e-01,1.622354e-01,-4.471082e-02
-1.443809e-01,1.443809e-01,-2.330328e-02
-1.750518e-01,1.750518e-01,3.247206e-02
-2.039505e-01,2.039505e-01,2.421267e-02
-1.507997e-01,1.507997e-01,-5.070817e-02
-1.473369e-01,1.473369e-01,-1.077881e-02
-1.865753e-01,1.865753e-01,4.538635e-02
-1.947856e-01,1.947856e-01,2.047675e-04
-1.458702e-01,1.458702e-01,-4.604585e-02
-1.534911e-01,1.534911e-01,1.806458e-03
-1.966435e-01,1.966435e-01,5.170862e-02
-1.795989e-01,1.795989e-01,-2.532542e-02
-1.427578e-01,1.427578e-01,-3.737619e-02
-1.614687e-01,1.614687e-01,1.576064e-02
-2.041190e-01,2.041190e-01,4.803265e-02
-1.659763e-01,1.659763e-01,-4.160592e-02
-1.433785e-01,1.433785e-01,-2.717169e-02
-1.711675e-01,1.711675e-01,2.830758e-02
-2.055731e-01,2.055731e-01,3.196926e-02
-1.535602e-01,1.535602e-01,-5.029894e-02
-1.461521e-01,1.461521e-01,-1.458544e-02
-1.831581e-01,1.831581e-01,4.185986e-02
-1.985675e-01,1.985675e-01,8.152663e-03
-1.470227e-01,1.470227e-01,-4.866910e-02
-1.507141e-01,1.507141e-01,-2.978225e-03
-1.931006e-01,1.931006e-01,5.063056e-02
-1.853691e-01,1.853691e-01,-1.653781e-02
-1.436550e-01,1.436550e-01,-4.055986e-02
-1.586781e-01,1.586781e-01,1.100500e-02
