x,y,z
-1.776482e-01,1.776482e-01,-6.020260e-04
-1.750583e-01,1.750583e-01,-1.816894e-03
-1.778637e-01,1.778637e-01,3.222561e-03
-1.783154e-01,1.783154e-01,5.866981e-04
-1.751405e-01,1.751405e-01,-2.428179e-03
-1.771428e-01,1.771428e-01,2.512737e-03
-1.787916e-01,1.787916e-01,1.758343e-03
-1.754854e-01,1.754854e-01,-2.642027e-03
-1.764120e-01,1.764120e-01,1.525004e-03
-1.790029e-01,1.790029e-01,2.731931e-03
-1.760517e-01,1.760517e-01,-2.417167e-03
-1.757709e-01,1.757709e-01,3.973072e-04
-1.789190e-01,1.789190e-01,3.360979e-03
-1.767645e-01,1.767645e-01,-1.772852e-03
-1.753038e-01,1.753038e-01,-7.197551e-04
-1.785577e-01,1.785577e-01,3.558512e-03
-1.775225e-01,1.775225e-01,-7.932823e-04
-1.750719e-01,1.750719e-01,-1.678747e-03
-1.779782e-01,1.779782e-01,3.307590e-03
-1.782122e-01,1.782122e-01,3.797218e-04
-1.751071e-01,1.751071e-01,-2.349959e-03
-1.772693e-01,1.772693e-01,2.657119e-03
-1.787273e-01,1.787273e-01,1.567573e-03
-1.754094e-01,1.754094e-01,-2.636157e-03
-1.765331e-01,1.765331e-01,1.707655e-03
-1.789873e-01,1.789873e-01,2.586688e-03
-1.759422e-01,1.759422e-01,-2.486619e-03
-1.758701e-01,1.758701e-01,5.933360e-04
-1.789541e-01,1.789541e-01,3.282566e-03
-1.766366e-01,1.766366e-01,-1.909753e-03
-1.753682e-01,1.753682e-01,-5.362473e-04
-1.786369e-01,1.786369e-01,3.556949e-03
-1.773947e-01,1.773947e-01,-9.787830e-04
-1.750928e-01,1.750928e-01,-1.532069e-03
-1.780889e-01,1.780889e-01,3.380841e-03
-1.781041e-01,1.781041e-01,1.731714e-04
-1.750817e-01,1.750817e-01,-2.260428e-03
-1.773953e-01,1.773953e-01,2.792655e-03
-1.786556e-01,1.786556e-01,1.371786e-03
-1.753398e-01,1.753398e-01,-2.617402e-03
-1.766563e-01,1.766563e-01,1.885471e-03
-1.789632e-01,1.789632e-01,2.431864e-03
-1.758375e-01,1.758375e-01,-2.543462e-03
-1.759744e-01,1.759744e-01,7.888884e-04
-1.789809e-01,1.789809e-01,3.191690e-03
-1.765105e-01,1.765105e-01,-2.036179e-03
-1.754394e-01,1.754394e-01,-3.488289e-04
-1.787093e-01,1.787093e-01,3.542086e-03
-1.772654e-01,1.772654e-01,-1.157737e-03
-1.751218e-01,1.751218e-01,-1.377554e-03
-1.781955e-01,1.781955e-01,3.441934e-03
-1.779914e-01,1.779914e-01,-3.200853e-05
-1.750643e-01,1.750643e-01,-2.159950e-03
-1.775198e-01,1.775198e-01,2.918835e-03
-1.785769e-01,1.785769e-01,1.171878e-03
-1.752777e-01,1.752777e-01,-2.585991e-03
-1.767813e-01,1.767813e-01,2.057696e-03
-1.789307e-01,1.789307e-01,2.268136e-03
-1.757381e-01,1.757381e-01,-2.587521e-03
-1.760825e-01,1.760825e-01,9.832995e-04
-1.789988e-01,1.789988e-01,3.088738e-03
-1.763868e-01,1.763868e-01,-2.151630e-03
-1.755170e-01,1.755170e-01,-1.581992e-04
-1.787746e-01,1.787746e-01,3.513923e-03
-1.771353e-01,1.771353e-01,-1.329373e-03
-1.751586e-01,1.751586e-01,-1.215821e-03
-1.782973e-01,1.782973e-01,3.490551e-03
-1.778744e-01,1.778744e-01,-2.348483e-04
-1.750547e-01,1.750547e-01,-2.048974e-03
-1.776424e-01,1.776424e-01,3.035057e-03
-1.784911e-01,1.784911e-01,9.688308e-04
-1.752225e-01,1.752225e-01,-2.542021e-03
-1.769072e-01,1.769072e-01,2.223688e-03
-1.788895e-01,1.788895e-01,2.096284e-03
-1.756439e-01,1.756439e-01,-2.618628e-03
-1.761948e-01,1.761948e-01,1.175709e-03
-1.790082e-01,1.790082e-01,2.974083e-03
-1.762662e-01,1.762662e-01,-2.255659e-03
-1.756006e-01,1.756006e-01,3.493471e-05
-1.788324e-01,1.788324e-01,3.472511e-03
-1.770050e-01,1.770050e-01,-1.492953e-03
-1.752026e-01,1.752026e-01,-1.047424e-03
-1.783939e-01,1.783939e-01,3.526418e-03
-1.777537e-01,1.777537e-01,-4.344407e-04
-1.750535e-01,1.750535e-01,-1.928028e-03
-1.777629e-01,1.777629e-01,3.140770e-03
-1.783989e-01,1.783989e-01,7.635163e-04
-1.751751e-01,1.751751e-01,-2.485819e-03
-1.770341e-01,1.770341e-01,2.382686e-03
-1.788400e-01,1.788400e-01,1.917040e-03
-1.755558e-01,1.755558e-01,-2.636786e-03
-1.763106e-01,1.763106e-01,1.365382e-03
-1.790090e-01,1.790090e-01,2.848196e-03
-1.761489e-01,1.761489e-01,-2.347876e-03
-1.756900e-01,1.756900e-01,2.297631e-04
-1.788824e-01,1.788824e-01,3.417966e-03
-1.768750e-01,1.768750e-01,-1.647780e-03
-1.752540e-01,1.752540e-01,-8.731153e-04
-1.784848e-01,1.784848e-01,3.549319e-03
-1.776301e-01,1.776301e-01,-6.299119e-04
-1.750598e-01,1.750598e-01,-1.797516e-03
-1.778804e-01,1.778804e-01,3.235542e-03
-1.783008e-01,1.783008e-01,5.568700e-04
-1.751350e-01,1.751350e-01,-2.417599e-03
-1.771609e-01,1.771609e-01,2.534091e-03
-1.787827e-01,1.787827e-01,1.731191e-03
-1.754742e-01,1.754742e-01,-2.641998e-03
-1.764293e-01,1.764293e-01,1.551620e-03
-1.790012e-01,1.790012e-01,2.711601e-03
-1.760357e-01,1.760357e-01,-2.427951e-03
-1.757851e-01,1.757851e-01,4.255394e-04
-1.789245e-01,1.789245e-01,3.350463e-03
-1.767459e-01,1.767459e-01,-1.793204e-03
-1.753128e-01,1.753128e-01,-6.935816e-04
-1.785696e-01,1.785696e-01,3.559086e-03
-1.775041e-01,1.775041e-01,-8.203860e-04
-1.750743e-01,1.750743e-01,-1.658085e-03
-1.779944e-01,1.779944e-01,3.318897e-03
-1.781970e-01,1.781970e-01,3.498851e-04
-1.751031e-01,1.751031e-01,-2.337762e-03
-1.772875e-01,1.772875e-01,2.677212e-03
-1.787175e-01,1.787175e-01,1.539624e-03
-1.753988e-01,1.753988e-01,-2.634228e-03
-1.765509e-01,1.765509e-01,1.733591e-03
-1.789845e-01,1.789845e-01,2.564934e-03
-1.759269e-01,1.759269e-01,-2.495606e-03
-1.758848e-01,1.758848e-01,6.215799e-04
-1.789584e-01,1.789584e-01,3.270239e-03
-1.766182e-01,1.766182e-01,-1.928628e-03
-1.753781e-01,1.753781e-01,-5.094637e-04
-1.786479e-01,1.786479e-01,3.555606e-03
-1.773762e-01,1.773762e-01,-1.005017e-03
-1.750967e-01,1.750967e-01,-1.510288e-03
-1.781046e-01,1.781046e-01,3.390406e-03
-1.780880e-01,1.780880e-01,1.434866e-04
-1.750787e-01,1.750787e-01,-2.246595e-03
-1.774134e-01,1.774134e-01,2.811439e-03
-1.786447e-01,1.786447e-01,1.343203e-03
-1.753305e-01,1.753305e-01,-2.613658e-03
-1.766742e-01,1.766742e-01,1.910665e-03
-1.789590e-01,1.789590e-01,2.408795e-03
-1.758230e-01,1.758230e-01,-2.550625e-03
-1.759895e-01,1.759895e-01,8.170338e-04
-1.789839e-01,1.789839e-01,3.177593e-03
-1.764924e-01,1.764924e-01,-2.053503e-03
-1.754501e-01,1.754501e-01,-3.215116e-04
-1.787194e-01,1.787194e-01,3.538826e-03
-1.772468e-01,1.772468e-01,-1.182965e-03
-1.751266e-01,1.751266e-01,-1.354662e-03
-1.782105e-01,1.782105e-01,3.449709e-03
-1.779747e-01,1.779747e-01,-6.140634e-05
-1.750626e-01,1.750626e-01,-2.144606e-03
-1.775375e-01,1.775375e-01,2.936224e-03
-1.785649e-01,1.785649e-01,1.142790e-03
-1.752692e-01,1.752692e-01,-2.580412e-03
-1.767994e-01,1.767994e-01,2.082030e-03
-1.789252e-01,1.789252e-01,2.243856e-03
-1.757240e-01,1.757240e-01,-2.592786e-03
-1.760986e-01,1.760986e-01,1.011154e-03
-1.790008e-01,1.790008e-01,3.072904e-03
-1.763692e-01,1.763692e-01,-2.167336e-03
-1.755286e-01,1.755286e-01,-1.304828e-04
-1.787835e-01,1.787835e-01,3.508751e-03
-1.771166e-01,1.771166e-01,-1.353479e-03
-1.751644e-01,1.751644e-01,-1.191910e-03
-1.783117e-01,1.783117e-01,3.496496e-03
-1.778574e-01,1.778574e-01,-2.638607e-04
-1.750541e-01,1.750541e-01,-2.032140e-03
-1.776600e-01,1.776600e-01,3.050944e-03
-1.784783e-01,1.784783e-01,9.393365e-04
-1.752152e-01,1.752152e-01,-2.534667e-03
-1.769255e-01,1.769255e-01,2.247058e-03
-1.788830e-01,1.788830e-01,2.070865e-03
-1.756308e-01,1.756308e-01,-2.622042e-03
-1.762112e-01,1.762112e-01,1.203249e-03
-1.790089e-01,1.790089e-01,2.956609e-03
-1.762490e-01,1.762490e-01,-2.269689e-03
-1.756133e-01,1.756133e-01,6.291482e-05
-1.788402e-01,1.788402e-01,3.465442e-03
-1.769863e-01,1.769863e-01,-1.515835e-03
-1.752097e-01,1.752097e-01,-1.022674e-03
-1.784074e-01,1.784074e-01,3.530513e-03
-1.777362e-01,1.777362e-01,-4.629055e-04
-1.750537e-01,1.750537e-01,-1.909762e-03
-1.777800e-01,1.777800e-01,3.155123e-03
-1.783851e-01,1.783851e-01,7.337861e-04
-1.751688e-01,1.751688e-01,-2.476719e-03
-1.770524e-01,1.770524e-01,2.404996e-03
-1.788322e-01,1.788322e-01,1.890632e-03
-1.755438e-01,1.755438e-01,-2.638349e-03
-1.763275e-01,1.763275e-01,1.392469e-03
-1.790084e-01,1.790084e-01,2.829156e-03
-1.761324e-01,1.761324e-01,-2.360180e-03
-1.757034e-01,1.757034e-01,2.579562e-04
-1.788891e-01,1.788891e-01,3.409021e-03
-1.768563e-01,1.768563e-01,-1.669341e-03
-1.752620e-01,1.752620e-01,-8.475395e-04
-1.784974e-01,1.784974e-01,3.551546e-03
-1.776121e-01,1.776121e-01,-6.576998e-04
-1.750616e-01,1.750616e-01,-1.777974e-03
-1.778969e-01,1.778969e-01,3.248286e-03
-1.782861e-01,1.782861e-01,5.270387e-04
-1.751299e-01,1.751299e-01,-2.406796e-03
-1.771792e-01,1.771792e-01,2.555255e-03
-1.787737e-01,1.787737e-01,1.703915e-03
-1.754628e-01,1.754628e-01,-2.641660e-03
-1.764467e-01,1.764467e-01,1.578126e-03
-1.789992e-01,1.789992e-01,2.691077e-03
-1.760198e-01,1.760198e-01,-2.438487e-03
-1.757990e-01,1.757990e-01,4.538269e-04
-1.789299e-01,1.789299e-01,3.339673e-03
-1.767273e-01,1.767273e-01,-1.813358e-03
-1.753216e-01,1.753216e-01,-6.672803e-04
-1.785812e-01,1.785812e-01,3.559419e-03
-1.774857e-01,1.774857e-01,-8.473742e-04
-1.750769e-01,1.750769e-01,-1.637270e-03
-1.780105e-01,1.780105e-01,3.329944e-03
-1.781817e-01,1.781817e-01,3.200546e-04
-1.750990e-01,1.750990e-01,-2.325299e-03
-1.773059e-01,1.773059e-01,2.697101e-03
-1.787076e-01,1.787076e-01,1.511570e-03
-1.753885e-01,1.753885e-01,-2.632047e-03
-1.765683e-01,1.765683e-01,1.759462e-03
-1.789814e-01,1.789814e-01,2.542975e-03
-1.759118e-01,1.759118e-01,-2.504339e-03
-1.758998e-01,1.758998e-01,6.497876e-04
-1.789625e-01,1.789625e-01,3.257646e-03
-1.765999e-01,1.765999e-01,-1.947293e-03
-1.753882e-01,1.753882e-01,-4.826002e-04
-1.786585e-01,1.786585e-01,3.554026e-03
-1.773575e-01,1.773575e-01,-1.031087e-03
-1.751004e-01,1.751004e-01,-1.488304e-03
-1.781203e-01,1.781203e-01,3.399704e-03
-1.780720e-01,1.780720e-01,1.138283e-04
-1.750759e-01,1.750759e-01,-2.232556e-03
-1.774312e-01,1.774312e-01,2.830042e-03
-1.786336e-01,1.786336e-01,1.314531e-03
-1.753214e-01,1.753214e-01,-2.609667e-03
-1.766923e-01,1.766923e-01,1.935721e-03
-1.789547e-01,1.789547e-01,2.385539e-03
-1.758083e-01,1.758083e-01,-2.557478e-03
-1.760049e-01,1.760049e-01,8.451283e-04
-1.789868e-01,1.789868e-01,3.163248e-03
-1.764745e-01,1.764745e-01,-2.070606e-03
-1.754611e-01,1.754611e-01,-2.941548e-04
-1.787289e-01,1.787289e-01,3.535324e-03
-1.772281e-01,1.772281e-01,-1.208031e-03
-1.751317e-01,1.751317e-01,-1.331645e-03
-1.782256e-01,1.782256e-01,3.457214e-03
-1.779579e-01,1.779579e-01,-9.075848e-05
-1.750607e-01,1.750607e-01,-2.129003e-03
-1.775553e-01,1.775553e-01,2.953390e-03
-1.785527e-01,1.785527e-01,1.113633e-03
-1.752609e-01,1.752609e-01,-2.574569e-03
-1.768174e-01,1.768174e-01,2.106247e-03
-1.789196e-01,1.789196e-01,2.219403e-03
-1.757102e-01,1.757102e-01,-2.597796e-03
-1.761145e-01,1.761145e-01,1.039007e-03
-1.790025e-01,1.790025e-01,3.056845e-03
-1.763517e-01,1.763517e-01,-2.182813e-03
-1.755404e-01,1.755404e-01,-1.027134e-04
-1.787921e-01,1.787921e-01,3.503326e-03
-1.770980e-01,1.770980e-01,-1.377423e-03
-1.751704e-01,1.751704e-01,-1.167888e-03
-1.783257e-01,1.783257e-01,3.502203e-03
-1.778400e-01,1.778400e-01,-2.927739e-04
-1.750537e-01,1.750537e-01,-2.015121e-03
-1.776776e-01,1.776776e-01,3.066617e-03
-1.784654e-01,1.784654e-01,9.097948e-04
-1.752081e-01,1.752081e-01,-2.527078e-03
-1.769439e-01,1.769439e-01,2.270261e-03
-1.788762e-01,1.788762e-01,2.045305e-03
-1.756179e-01,1.756179e-01,-2.625202e-03
-1.762279e-01,1.762279e-01,1.230707e-03
-1.790095e-01,1.790095e-01,2.938898e-03
-1.762321e-01,1.762321e-01,-2.283483e-03
-1.756259e-01,1.756259e-01,9.095594e-05
-1.788478e-01,1.788478e-01,3.458100e-03
-1.769676e-01,1.769676e-01,-1.538539e-03
-1.752167e-01,1.752167e-01,-9.977451e-04
-1.784206e-01,1.784206e-01,3.534370e-03
-1.777186e-01,1.777186e-01,-4.912876e-04
-1.750543e-01,1.750543e-01,-1.891321e-03
-1.777970e-01,1.777970e-01,3.169261e-03
-1.783712e-01,1.783712e-01,7.040256e-04
-1.751627e-01,1.751627e-01,-2.467352e-03
-1.770706e-01,1.770706e-01,2.427166e-03
-1.788243e-01,1.788243e-01,1.864087e-03
-1.755317e-01,1.755317e-01,-2.639632e-03
-1.763445e-01,1.763445e-01,1.419488e-03
-1.790076e-01,1.790076e-01,2.809890e-03
-1.761160e-01,1.761160e-01,-2.372242e-03
-1.757170e-01,1.757170e-01,2.861426e-04
-1.788956e-01,1.788956e-01,3.399799e-03
-1.768377e-01,1.768377e-01,-1.690714e-03
-1.752704e-01,1.752704e-01,-8.218816e-04
-1.785097e-01,1.785097e-01,3.553511e-03
-1.775940e-01,1.775940e-01,-6.853872e-04
-1.750633e-01,1.750633e-01,-1.758216e-03
-1.779136e-01,1.779136e-01,3.260777e-03
-1.782713e-01,1.782713e-01,4.971981e-04
-1.751251e-01,1.751251e-01,-2.395773e-03
-1.771976e-01,1.771976e-01,2.576225e-03
-1.787646e-01,1.787646e-01,1.676519e-03
-1.754516e-01,1.754516e-01,-2.641059e-03
-1.764643e-01,1.764643e-01,1.604532e-03
-1.789972e-01,1.789972e-01,2.670338e-03
-1.760040e-01,1.760040e-01,-2.448767e-03
-1.758132e-01,1.758132e-01,4.821021e-04
-1.789352e-01,1.789352e-01,3.328614e-03
-1.767089e-01,1.767089e-01,-1.833311e-03
-1.753307e-01,1.753307e-01,-6.409114e-04
-1.785927e-01,1.785927e-01,3.559474e-03
-1.774672e-01,1.774672e-01,-8.742448e-04
-1.750800e-01,1.750800e-01,-1.616307e-03
-1.780267e-01,1.780267e-01,3.340730e-03
-1.781662e-01,1.781662e-01,2.902595e-04
