x,y,z
-1.610888e-01,1.610888e-01,6.275441e-03
-1.987194e-01,1.987194e-01,4.099960e-02
-1.681131e-01,1.681131e-01,-3.373225e-02
-1.505107e-01,1.505107e-01,-1.978871e-02
-1.795683e-01,1.795683e-01,3.094390e-02
-1.954842e-01,1.954842e-01,8.839132e-03
-1.519742e-01,1.519742e-01,-3.878407e-02
-1.599023e-01,1.599023e-01,4.309779e-03
-1.978310e-01,1.978310e-01,4.185334e-02
-1.700478e-01,1.700478e-01,-3.187941e-02
-1.499945e-01,1.499945e-01,-2.172880e-02
-1.777299e-01,1.777299e-01,2.913821e-02
-1.971914e-01,1.971914e-01,1.296236e-02
-1.525353e-01,1.525353e-01,-3.996796e-02
-1.583787e-01,1.583787e-01,1.874704e-03
-1.965963e-01,1.965963e-01,4.273313e-02
-1.726297e-01,1.726297e-01,-2.925219e-02
-1.493015e-01,1.493015e-01,-2.430248e-02
-1.752463e-01,1.752463e-01,2.668565e-02
-1.992057e-01,1.992057e-01,1.846099e-02
-1.534341e-01,1.534341e-01,-4.137368e-02
-1.563773e-01,1.563773e-01,-1.440694e-03
-1.946304e-01,1.946304e-01,4.325385e-02
-1.763585e-01,1.763585e-01,-2.495090e-02
-1.486015e-01,1.486015e-01,-2.765726e-02
-1.719579e-01,1.719579e-01,2.317330e-02
-2.011317e-01,2.011317e-01,2.541152e-02
-1.551554e-01,1.551554e-01,-4.237303e-02
-1.541801e-01,1.541801e-01,-5.653853e-03
-1.916911e-01,1.916911e-01,4.250259e-02
-1.812348e-01,1.812348e-01,-1.829681e-02
-1.484321e-01,1.484321e-01,-3.122727e-02
-1.684228e-01,1.684228e-01,1.874678e-02
-2.019860e-01,2.019860e-01,3.213158e-02
-1.580102e-01,1.580102e-01,-4.182282e-02
-1.525399e-01,1.525399e-01,-9.982365e-03
-1.882724e-01,1.882724e-01,4.007653e-02
-1.860878e-01,1.860878e-01,-1.045718e-02
-1.490726e-01,1.490726e-01,-3.401281e-02
-1.655873e-01,1.655873e-01,1.439601e-02
-2.015185e-01,2.015185e-01,3.654091e-02
-1.612654e-01,1.612654e-01,-3.981937e-02
-1.516841e-01,1.516841e-01,-1.350150e-02
-1.852786e-01,1.852786e-01,3.711329e-02
-1.896954e-01,1.896954e-01,-3.740314e-03
-1.500080e-01,1.500080e-01,-3.576714e-02
-1.636572e-01,1.636572e-01,1.096714e-02
-2.005526e-01,2.005526e-01,3.881479e-02
-1.640110e-01,1.640110e-01,-3.755436e-02
-1.512439e-01,1.512439e-01,-1.603216e-02
-1.830303e-01,1.830303e-01,3.464274e-02
-1.920822e-01,1.920822e-01,1.197022e-03
-1.508109e-01,1.508109e-01,-3.687989e-02
-1.623136e-01,1.623136e-01,8.465289e-03
-1.996289e-01,1.996289e-01,4.003799e-02
-1.661274e-01,1.661274e-01,-3.560962e-02
-1.509199e-01,1.509199e-01,-1.792036e-02
-1.813073e-01,1.813073e-01,3.274794e-02
-1.937955e-01,1.937955e-01,4.974479e-03
-1.514196e-01,1.514196e-01,-3.775514e-02
-1.612058e-01,1.612058e-01,6.477070e-03
-1.988064e-01,1.988064e-01,4.091108e-02
-1.679233e-01,1.679233e-01,-3.391222e-02
-1.505564e-01,1.505564e-01,-1.960356e-02
-1.797419e-01,1.797419e-01,3.111855e-02
-1.953172e-01,1.953172e-01,8.450332e-03
-1.519214e-01,1.519214e-01,-3.867443e-02
-1.600411e-01,1.600411e-01,4.534070e-03
-1.979367e-01,1.979367e-01,4.175910e-02
-1.698196e-01,1.698196e-01,-3.210127e-02
-1.500585e-01,1.500585e-01,-2.149729e-02
-1.779508e-01,1.779508e-01,2.935350e-02
-1.969937e-01,1.969937e-01,1.246712e-02
-1.524656e-01,1.524656e-01,-3.982727e-02
-1.585639e-01,1.585639e-01,2.171070e-03
-1.967559e-01,1.967559e-01,4.264469e-02
-1.723064e-01,1.723064e-01,-2.959499e-02
-1.493818e-01,1.493818e-01,-2.398861e-02
-1.755515e-01,1.755515e-01,2.699317e-02
-1.989813e-01,1.989813e-01,1.779403e-02
-1.533091e-01,1.533091e-01,-4.122434e-02
-1.566110e-01,1.566110e-01,-1.037598e-03
-1.948868e-01,1.948868e-01,4.324021e-02
-1.758965e-01,1.758965e-01,-2.551983e-02
-1.486625e-01,1.486625e-01,-2.727075e-02
-1.723386e-01,1.723386e-01,2.360296e-02
-2.009590e-01,2.009590e-01,2.463360e-02
-1.549162e-01,1.549162e-01,-4.232294e-02
-1.544017e-01,1.544017e-01,-5.178486e-03
-1.920444e-01,1.920444e-01,4.266965e-02
-1.806853e-01,1.806853e-01,-1.910647e-02
-1.484081e-01,1.484081e-01,-3.086881e-02
-1.687798e-01,1.687798e-01,1.923756e-02
-2.019671e-01,2.019671e-01,3.150349e-02
-1.576649e-01,1.576649e-01,-4.196963e-02
-1.526734e-01,1.526734e-01,-9.547104e-03
-1.886305e-01,1.886305e-01,4.038866e-02
-1.856176e-01,1.856176e-01,-1.127323e-02
-1.489788e-01,1.489788e-01,-3.376826e-02
-1.658441e-01,1.658441e-01,1.482454e-02
-2.016076e-01,2.016076e-01,3.619059e-02
-1.609323e-01,1.609323e-01,-4.006486e-02
-1.517486e-01,1.517486e-01,-1.317585e-02
-1.855624e-01,1.855624e-01,3.741529e-02
-1.893765e-01,1.893765e-01,-4.368863e-03
-1.499107e-01,1.499107e-01,-3.561853e-02
-1.638288e-01,1.638288e-01,1.128389e-02
-2.006581e-01,2.006581e-01,3.863874e-02
-1.637508e-01,1.637508e-01,-3.778418e-02
-1.512819e-01,1.512819e-01,-1.580016e-02
-1.832395e-01,1.832395e-01,3.487558e-02
-1.918690e-01,1.918690e-01,7.395624e-04
-1.507351e-01,1.507351e-01,-3.677828e-02
-1.624402e-01,1.624402e-01,8.699894e-03
-1.997214e-01,1.997214e-01,3.993244e-02
-1.659233e-01,1.659233e-01,-3.580120e-02
-1.509541e-01,1.509541e-01,-1.773582e-02
-1.814771e-01,1.814771e-01,3.293125e-02
-1.936288e-01,1.936288e-01,4.600226e-03
-1.513617e-01,1.513617e-01,-3.766362e-02
-1.613222e-01,1.613222e-01,6.679200e-03
-1.988930e-01,1.988930e-01,4.082247e-02
-1.677345e-01,1.677345e-01,-3.409107e-02
-1.506002e-01,1.506002e-01,-1.942077e-02
-1.799132e-01,1.799132e-01,3.129164e-02
-1.951522e-01,1.951522e-01,8.067676e-03
-1.518690e-01,1.518690e-01,-3.856758e-02
-1.601763e-01,1.601763e-01,4.753559e-03
-1.980389e-01,1.980389e-01,4.166546e-02
-1.695980e-01,1.695980e-01,-3.231550e-02
-1.501203e-01,1.501203e-01,-2.127272e-02
-1.781649e-01,1.781649e-01,2.956193e-02
-1.967999e-01,1.967999e-01,1.198722e-02
-1.523993e-01,1.523993e-01,-3.968988e-02
-1.587434e-01,1.587434e-01,2.457520e-03
-1.969075e-01,1.969075e-01,4.255352e-02
-1.719962e-01,1.719962e-01,-2.992000e-02
-1.494613e-01,1.494613e-01,-2.368444e-02
-1.758468e-01,1.758468e-01,2.728851e-02
-1.987575e-01,1.987575e-01,1.714612e-02
-1.531926e-01,1.531926e-01,-4.107253e-02
-1.568409e-01,1.568409e-01,-6.460431e-04
-1.951314e-01,1.951314e-01,4.321346e-02
-1.754498e-01,1.754498e-01,-2.606032e-02
-1.487289e-01,1.487289e-01,-2.688869e-02
-1.727145e-01,1.727145e-01,2.402042e-02
-2.007746e-01,2.007746e-01,2.385751e-02
-1.546909e-01,1.546909e-01,-4.225497e-02
-1.546291e-01,1.546291e-01,-4.706026e-03
-1.923904e-01,1.923904e-01,4.281487e-02
-1.801380e-01,1.801380e-01,-1.989777e-02
-1.483948e-01,1.483948e-01,-3.050143e-02
-1.691450e-01,1.691450e-01,1.972782e-02
-2.019310e-01,2.019310e-01,3.084739e-02
-1.573259e-01,1.573259e-01,-4.209710e-02
-1.528170e-01,1.528170e-01,-9.102550e-03
-1.889934e-01,1.889934e-01,4.069300e-02
-1.851323e-01,1.851323e-01,-1.210211e-02
-1.488883e-01,1.488883e-01,-3.351090e-02
-1.661113e-01,1.661113e-01,1.526420e-02
-2.016906e-01,2.016906e-01,3.581403e-02
-1.605932e-01,1.605932e-01,-4.030693e-02
-1.518182e-01,1.518182e-01,-1.283818e-02
-1.858552e-01,1.858552e-01,3.772335e-02
-1.890427e-01,1.890427e-01,-5.019254e-03
-1.498116e-01,1.498116e-01,-3.546203e-02
-1.640075e-01,1.640075e-01,1.161196e-02
-2.007642e-01,2.007642e-01,3.845002e-02
-1.634829e-01,1.634829e-01,-3.801809e-02
-1.513212e-01,1.513212e-01,-1.556023e-02
-1.834551e-01,1.834551e-01,3.511558e-02
-1.916476e-01,1.916476e-01,2.676910e-04
-1.506570e-01,1.506570e-01,-3.667369e-02
-1.625699e-01,1.625699e-01,8.940950e-03
-1.998154e-01,1.998154e-01,3.982281e-02
-1.657150e-01,1.657150e-01,-3.599615e-02
-1.509882e-01,1.509882e-01,-1.754848e-02
-1.816494e-01,1.816494e-01,3.311803e-02
-1.934596e-01,1.934596e-01,4.221503e-03
-1.513024e-01,1.513024e-01,-3.757238e-02
-1.614384e-01,1.614384e-01,6.882398e-03
-1.989794e-01,1.989794e-01,4.073356e-02
-1.675464e-01,1.675464e-01,-3.426938e-02
-1.506424e-01,1.506424e-01,-1.923986e-02
-1.800824e-01,1.800824e-01,3.146378e-02
-1.949887e-01,1.949887e-01,7.690238e-03
-1.518168e-01,1.518168e-01,-3.846335e-02
-1.603082e-01,1.603082e-01,4.968816e-03
-1.981379e-01,1.981379e-01,4.157253e-02
-1.693824e-01,1.693824e-01,-3.252294e-02
-1.501796e-01,1.501796e-01,-2.105456e-02
-1.783723e-01,1.783723e-01,2.976425e-02
-1.966101e-01,1.966101e-01,1.152180e-02
-1.523355e-01,1.523355e-01,-3.955586e-02
-1.589172e-01,1.589172e-01,2.734553e-03
-1.970518e-01,1.970518e-01,4.246017e-02
-1.716982e-01,1.716982e-01,-3.022848e-02
-1.495395e-01,1.495395e-01,-2.338991e-02
-1.761322e-01,1.761322e-01,2.757213e-02
-1.985353e-01,1.985353e-01,1.651752e-02
-1.530838e-01,1.530838e-01,-4.091936e-02
-1.570667e-01,1.570667e-01,-2.663014e-04
-1.953643e-01,1.953643e-01,4.317456e-02
-1.750179e-01,1.750179e-01,-2.657307e-02
-1.487999e-01,1.487999e-01,-2.651224e-02
-1.730846e-01,1.730846e-01,2.442511e-02
-2.005802e-01,2.005802e-01,2.308631e-02
-1.544800e-01,1.544800e-01,-4.217088e-02
-1.548613e-01,1.548613e-01,-4.237864e-03
-1.927282e-01,1.927282e-01,4.293864e-02
-1.795951e-01,1.795951e-01,-2.066792e-02
-1.483925e-01,1.483925e-01,-3.012642e-02
-1.695171e-01,1.695171e-01,2.021597e-02
-2.018772e-01,2.018772e-01,3.016525e-02
-1.569947e-01,1.569947e-01,-4.220402e-02
-1.529710e-01,1.529710e-01,-8.649676e-03
-1.893599e-01,1.893599e-01,4.098743e-02
-1.846329e-01,1.846329e-01,-1.294114e-02
-1.488030e-01,1.488030e-01,-3.324068e-02
-1.663902e-01,1.663902e-01,1.571403e-02
-2.017661e-01,2.017661e-01,3.540958e-02
-1.602488e-01,1.602488e-01,-4.054407e-02
-1.518934e-01,1.518934e-01,-1.248829e-02
-1.861573e-01,1.861573e-01,3.803674e-02
-1.886934e-01,1.886934e-01,-5.691681e-03
-1.497114e-01,1.497114e-01,-3.529714e-02
-1.641940e-01,1.641940e-01,1.195172e-02
-2.008708e-01,2.008708e-01,3.824756e-02
-1.632071e-01,1.632071e-01,-3.825580e-02
-1.513622e-01,1.513622e-01,-1.531180e-02
-1.836778e-01,1.836778e-01,3.536295e-02
-1.914172e-01,1.914172e-01,-2.196272e-04
-1.505767e-01,1.505767e-01,-3.656570e-02
-1.627030e-01,1.627030e-01,9.189038e-03
-1.999109e-01,1.999109e-01,3.970819e-02
-1.655021e-01,1.655021e-01,-3.619474e-02
-1.510221e-01,1.510221e-01,-1.735778e-02
-1.818244e-01,1.818244e-01,3.330881e-02
-1.932872e-01,1.932872e-01,3.837287e-03
-1.512416e-01,1.512416e-01,-3.748115e-02
-1.615542e-01,1.615542e-01,7.087313e-03
-1.990658e-01,1.990658e-01,4.064404e-02
-1.673580e-01,1.673580e-01,-3.444758e-02
-1.506834e-01,1.506834e-01,-1.906040e-02
-1.802498e-01,1.802498e-01,3.163549e-02
-1.948264e-01,1.948264e-01,7.316912e-03
-1.517646e-01,1.517646e-01,-3.836150e-02
-1.604371e-01,1.604371e-01,5.180414e-03
-1.982343e-01,1.982343e-01,4.148041e-02
-1.691723e-01,1.691723e-01,-3.272442e-02
-1.502369e-01,1.502369e-01,-2.084245e-02
-1.785737e-01,1.785737e-01,2.996096e-02
-1.964241e-01,1.964241e-01,1.106991e-02
-1.522741e-01,1.522741e-01,-3.942530e-02
-1.590854e-01,1.590854e-01,3.002670e-03
-1.971894e-01,1.971894e-01,4.236575e-02
-1.714120e-01,1.714120e-01,-3.052168e-02
-1.496162e-01,1.496162e-01,-2.310489e-02
-1.764076e-01,1.764076e-01,2.784467e-02
-1.983152e-01,1.983152e-01,1.590829e-02
-1.529826e-01,1.529826e-01,-4.076590e-02
-1.572879e-01,1.572879e-01,1.015439e-04
-1.955858e-01,1.955858e-01,4.312502e-02
-1.746019e-01,1.746019e-01,-2.705900e-02
-1.488744e-01,1.488744e-01,-2.614237e-02
-1.734477e-01,1.734477e-01,2.481662e-02
-2.003772e-01,2.003772e-01,2.232303e-02
-1.542830e-01,1.542830e-01,-4.207237e-02
-1.550975e-01,1.550975e-01,-3.775485e-03
-1.930567e-01,1.930567e-01,4.304077e-02
-1.790583e-01,1.790583e-01,-2.141453e-02
-1.484002e-01,1.484002e-01,-2.974501e-02
-1.698950e-01,1.698950e-01,2.070042e-02
-2.018054e-01,2.018054e-01,2.945951e-02
-1.566728e-01,1.566728e-01,-4.228946e-02
-1.531354e-01,1.531354e-01,-8.189511e-03
-1.897287e-01,1.897287e-01,4.126985e-02
-1.841209e-01,1.841209e-01,-1.378730e-02
-1.487237e-01,1.487237e-01,-3.295748e-02
-1.666802e-01,1.666802e-01,1.617337e-02
-2.018329e-01,2.018329e-01,3.497629e-02
-1.599001e-01,1.599001e-01,-4.077462e-02
-1.519747e-01,1.519747e-01,-1.212610e-02
-1.864681e-01,1.864681e-01,3.835458e-02
-1.883280e-01,1.883280e-01,-6.386124e-03
-1.496099e-01,1.496099e-01,-3.512312e-02
-1.643886e-01,1.643886e-01,1.230344e-02
-2.009772e-01,2.009772e-01,3.802971e-02
-1.629230e-01,1.629230e-01,-3.849687e-02
-1.514051e-01,1.514051e-01,-1.505433e-02
-1.839077e-01,1.839077e-01,3.561792e-02
-1.911772e-01,1.911772e-01,-7.234080e-04
-1.504934e-01,1.504934e-01,-3.645373e-02
-1.628400e-01,1.628400e-01,9.444738e-03
-2.000078e-01,2.000078e-01,3.958781e-02
-1.652840e-01,1.652840e-01,-3.639722e-02
-1.510560e-01,1.510560e-01,-1.716323e-02
-1.820024e-01,1.820024e-01,3.350410e-02
-1.931113e-01,1.931113e-01,3.446493e-03
-1.511791e-01,1.511791e-01,-3.738961e-02
-1.616703e-01,1.616703e-01,7.294431e-03
-1.991525e-01,1.991525e-01,4.055361e-02
-1.671691e-01,1.671691e-01,-3.462626e-02
-1.507232e-01,1.507232e-01,-1.888189e-02
-1.804163e-01,1.804163e-01,3.180716e-02
-1.946649e-01,1.946649e-01,6.946763e-03
-1.517119e-01,1.517119e-01,-3.826182e-02
-1.605633e-01,1.605633e-01,5.388921e-03
-1.983284e-01,1.983284e-01,4.138913e-02
-1.689669e-01,1.689669e-01,-3.292068e-02
-1.502922e-01,1.502922e-01,-2.063590e-02
-1.787693e-01,1.787693e-01,3.015272e-02
-1.962417e-01,1.962417e-01,1.063060e-02
-1.522149e-01,1.522149e-01,-3.929825e-02
-1.592485e-01,1.592485e-01,3.262392e-03
-1.973207e-01,1.973207e-01,4.227030e-02
-1.711365e-01,1.711365e-01,-3.080077e-02
-1.496912e-01,1.496912e-01,-2.282916e-02
-1.766735e-01,1.766735e-01,2.810657e-02
-1.980979e-01,1.980979e-01,1.531840e-02
-1.528874e-01,1.528874e-01,-4.061291e-02
-1.575039e-01,1.575039e-01,4.575178e-04
-1.957964e-01,1.957964e-01,4.306653e-02
