x,y,z,R
2.322491e-01,1.340891e-01,-7.929117e-03,2.681782e-01
2.148392e-01,1.240374e-01,-6.429405e-03,2.480749e-01
2.061676e-01,1.190309e-01,1.030273e-02,2.380618e-01
2.291936e-01,1.323250e-01,-2.668293e-03,2.646500e-01
2.205521e-01,1.273358e-01,-9.951887e-03,2.546716e-01
2.049036e-01,1.183011e-01,7.916398e-03,2.366023e-01
2.237034e-01,1.291552e-01,3.021045e-03,2.583104e-01
2.262694e-01,1.306367e-01,-1.207226e-02,2.612734e-01
2.056639e-01,1.187401e-01,4.249159e-03,2.374803e-01
2.173529e-01,1.254887e-01,7.688221e-03,2.509775e-01
2.307198e-01,1.332061e-01,-1.215227e-02,2.664123e-01
2.082880e-01,1.202551e-01,-1.030339e-04,2.405102e-01
2.116065e-01,1.221711e-01,1.038085e-02,2.443422e-01
2.325389e-01,1.342564e-01,-9.777790e-03,2.685128e-01
2.125092e-01,1.226922e-01,-4.546660e-03,2.453845e-01
2.074195e-01,1.197537e-01,1.080750e-02,2.395074e-01
2.309578e-01,1.333435e-01,-5.194446e-03,2.666871e-01
2.179038e-01,1.258068e-01,-8.492705e-03,2.516137e-01
2.052196e-01,1.184836e-01,9.190105e-03,2.369672e-01
2.263939e-01,1.307086e-01,4.932434e-04,2.614172e-01
2.237560e-01,1.291856e-01,-1.132867e-02,2.583712e-01
2.050767e-01,1.184011e-01,6.029095e-03,2.368022e-01
2.202300e-01,1.271498e-01,5.779535e-03,2.542997e-01
2.289547e-01,1.321871e-01,-1.240509e-02,2.643741e-01
2.068842e-01,1.194447e-01,1.912887e-03,2.388894e-01
2.140573e-01,1.235861e-01,9.440214e-03,2.471721e-01
2.321146e-01,1.340114e-01,-1.116108e-02,2.680229e-01
2.104235e-01,1.214881e-01,-2.562367e-03,2.429762e-01
2.090829e-01,1.207140e-01,1.089011e-02,2.414281e-01
2.320975e-01,1.340015e-01,-7.488738e-03,2.680031e-01
2.153549e-01,1.243352e-01,-6.807013e-03,2.486704e-01
2.059582e-01,1.189100e-01,1.014688e-02,2.378201e-01
2.287538e-01,1.320711e-01,-2.121216e-03,2.641422e-01
2.211131e-01,1.276597e-01,-1.022414e-02,2.553194e-01
2.048905e-01,1.182936e-01,7.613486e-03,2.365872e-01
2.231108e-01,1.288131e-01,3.528665e-03,2.576261e-01
2.267691e-01,1.309252e-01,-1.217699e-02,2.618504e-01
2.058362e-01,1.188396e-01,3.855409e-03,2.376792e-01
2.167609e-01,1.251470e-01,8.038585e-03,2.502940e-01
2.310254e-01,1.333826e-01,-1.203464e-02,2.667651e-01
2.086256e-01,1.204500e-01,-5.308922e-04,2.409000e-01
2.111307e-01,1.218964e-01,1.051857e-02,2.437927e-01
2.325378e-01,1.342558e-01,-9.425636e-03,2.685115e-01
2.129803e-01,1.229642e-01,-4.952592e-03,2.459284e-01
2.071218e-01,1.195818e-01,1.073513e-02,2.391636e-01
2.306362e-01,1.331578e-01,-4.678201e-03,2.663157e-01
2.184551e-01,1.261251e-01,-8.820140e-03,2.522502e-01
2.051180e-01,1.184249e-01,8.946944e-03,2.368499e-01
2.258503e-01,1.303947e-01,1.036342e-03,2.607895e-01
2.242989e-01,1.294990e-01,-1.151694e-02,2.589981e-01
2.051674e-01,1.184535e-01,5.669402e-03,2.369069e-01
2.196202e-01,1.267978e-01,6.211922e-03,2.535956e-01
2.293650e-01,1.324239e-01,-1.239324e-02,2.648479e-01
2.071502e-01,1.195982e-01,1.493464e-03,2.391964e-01
2.135183e-01,1.232748e-01,9.676873e-03,2.465497e-01
2.322615e-01,1.340962e-01,-1.091182e-02,2.681925e-01
2.108392e-01,1.217281e-01,-2.985111e-03,2.434562e-01
2.086997e-01,1.204928e-01,1.090962e-02,2.409856e-01
2.319140e-01,1.338956e-01,-7.032423e-03,2.677913e-01
2.158783e-01,1.246374e-01,-7.177177e-03,2.492748e-01
2.057676e-01,1.188000e-01,9.974736e-03,2.376000e-01
2.282931e-01,1.318051e-01,-1.571616e-03,2.636101e-01
2.216733e-01,1.279831e-01,-1.048318e-02,2.559663e-01
2.048959e-01,1.182967e-01,7.299486e-03,2.365934e-01
2.225119e-01,1.284673e-01,4.025534e-03,2.569347e-01
2.272566e-01,1.312066e-01,-1.226260e-02,2.624133e-01
2.060259e-01,1.189491e-01,3.455996e-03,2.378982e-01
2.161766e-01,1.248096e-01,8.370021e-03,2.496192e-01
2.313058e-01,1.335445e-01,-1.189416e-02,2.670889e-01
2.089781e-01,1.206536e-01,-9.590383e-04,2.413071e-01
2.106701e-01,1.216305e-01,1.063543e-02,2.432609e-01
2.325052e-01,1.342370e-01,-9.053451e-03,2.684739e-01
2.134618e-01,1.232422e-01,-5.353529e-03,2.464844e-01
2.068421e-01,1.194204e-01,1.064447e-02,2.388407e-01
2.302864e-01,1.329559e-01,-4.152875e-03,2.659118e-01
2.190102e-01,1.264456e-01,-9.137019e-03,2.528912e-01
2.050352e-01,1.183772e-01,8.690268e-03,2.367543e-01
2.252939e-01,1.300735e-01,1.574253e-03,2.601469e-01
2.248352e-01,1.298086e-01,-1.168870e-02,2.596173e-01
2.052756e-01,1.185159e-01,5.301586e-03,2.370318e-01
2.190120e-01,1.264466e-01,6.628317e-03,2.528932e-01
2.297554e-01,1.326493e-01,-1.235972e-02,2.652986e-01
2.074325e-01,1.197612e-01,1.071342e-03,2.395224e-01
2.129913e-01,1.229706e-01,9.892886e-03,2.459412e-01
2.323784e-01,1.341637e-01,-1.064017e-02,2.683275e-01
2.112678e-01,1.219755e-01,-3.405248e-03,2.439510e-01
2.083347e-01,1.202821e-01,1.090920e-02,2.405642e-01
2.317003e-01,1.337722e-01,-6.561296e-03,2.675444e-01
2.164089e-01,1.249438e-01,-7.539368e-03,2.498875e-01
2.055959e-01,1.187008e-01,9.786755e-03,2.374017e-01
2.278117e-01,1.315272e-01,-1.020806e-03,2.630543e-01
2.222316e-01,1.283055e-01,-1.072843e-02,2.566109e-01
2.049189e-01,1.183100e-01,6.974925e-03,2.366200e-01
2.219083e-01,1.281188e-01,4.510614e-03,2.562376e-01
2.277308e-01,1.314804e-01,-1.232860e-02,2.629608e-01
2.062316e-01,1.190679e-01,3.051407e-03,2.381358e-01
2.155992e-01,1.244763e-01,8.682220e-03,2.489525e-01
2.315594e-01,1.336909e-01,-1.173073e-02,2.673817e-01
2.093438e-01,1.208647e-01,-1.387023e-03,2.417294e-01
2.102254e-01,1.213737e-01,1.073152e-02,2.427474e-01
2.324406e-01,1.341996e-01,-8.661931e-03,2.683992e-01
2.139532e-01,1.235259e-01,-5.748967e-03,2.470518e-01
2.065812e-01,1.192697e-01,1.053587e-02,2.385394e-01
2.299120e-01,1.327398e-01,-3.619937e-03,2.654795e-01
2.195673e-01,1.267673e-01,-9.442824e-03,2.535345e-01
2.049716e-01,1.183404e-01,8.420577e-03,2.366808e-01
2.247259e-01,1.297456e-01,2.105733e-03,2.594912e-01
2.253635e-01,1.301137e-01,-1.184337e-02,2.602274e-01
2.054011e-01,1.185884e-01,4.926161e-03,2.371767e-01
2.184070e-01,1.260973e-01,7.027963e-03,2.521946e-01
2.301254e-01,1.328629e-01,-1.230419e-02,2.657259e-01
2.077291e-01,1.199324e-01,6.469645e-04,2.398649e-01
2.124772e-01,1.226738e-01,1.008813e-02,2.453476e-01
2.324641e-01,1.342132e-01,-1.034644e-02,2.684264e-01
2.117076e-01,1.222294e-01,-3.822331e-03,2.444589e-01
2.079871e-01,1.200814e-01,1.088922e-02,2.401628e-01
2.314570e-01,1.336318e-01,-6.076505e-03,2.672635e-01
2.169461e-01,1.252539e-01,-7.893051e-03,2.505078e-01
2.054430e-01,1.186126e-01,9.583416e-03,2.372252e-01
2.273124e-01,1.312389e-01,-4.702435e-04,2.624778e-01
2.227877e-01,1.286266e-01,-1.095930e-02,2.572531e-01
2.049608e-01,1.183342e-01,6.640297e-03,2.366683e-01
2.213011e-01,1.277683e-01,4.982914e-03,2.555365e-01
2.281888e-01,1.317448e-01,-1.237450e-02,2.634897e-01
2.064541e-01,1.191963e-01,2.642177e-03,2.383927e-01
2.150313e-01,1.241484e-01,8.974686e-03,2.482968e-01
2.317857e-01,1.338215e-01,-1.154433e-02,2.676430e-01
2.097239e-01,1.210842e-01,-1.814280e-03,2.421683e-01
2.097966e-01,1.211261e-01,1.080698e-02,2.422522e-01
2.323435e-01,1.341436e-01,-8.251870e-03,2.682872e-01
2.144539e-01,1.238150e-01,-6.138395e-03,2.476301e-01
2.063390e-01,1.191298e-01,1.040977e-02,2.382597e-01
2.295123e-01,1.325090e-01,-3.080639e-03,2.650180e-01
2.201275e-01,1.270907e-01,-9.736940e-03,2.541813e-01
2.049258e-01,1.183140e-01,8.138403e-03,2.366280e-01
2.241479e-01,1.294119e-01,2.629577e-03,2.588237e-01
2.258828e-01,1.304135e-01,-1.198042e-02,2.608270e-01
2.055439e-01,1.186708e-01,4.543649e-03,2.373417e-01
2.178055e-01,1.257500e-01,7.410267e-03,2.515001e-01
2.304722e-01,1.330632e-01,-1.222633e-02,2.661263e-01
2.080417e-01,1.201130e-01,2.209104e-04,2.402259e-01
2.119768e-01,1.223849e-01,1.026252e-02,2.447697e-01
2.325184e-01,1.342446e-01,-1.003106e-02,2.684892e-01
2.121592e-01,1.224902e-01,-4.235811e-03,2.449803e-01
2.076571e-01,1.198909e-01,1.084996e-02,2.397818e-01
2.311837e-01,1.334740e-01,-5.579162e-03,2.669479e-01
2.174893e-01,1.255675e-01,-8.237685e-03,2.511350e-01
2.053090e-01,1.185352e-01,9.365200e-03,2.370704e-01
2.267961e-01,1.309408e-01,7.875740e-05,2.618816e-01
2.233403e-01,1.289456e-01,-1.117522e-02,2.578912e-01
2.050198e-01,1.183682e-01,6.296133e-03,2.367364e-01
2.206920e-01,1.274166e-01,5.441494e-03,2.548331e-01
2.286311e-01,1.320002e-01,-1.239985e-02,2.640005e-01
2.066925e-01,1.193340e-01,2.228804e-03,2.386680e-01
2.144734e-01,1.238263e-01,9.247120e-03,2.476526e-01
2.319839e-01,1.339360e-01,-1.133503e-02,2.678720e-01
2.101167e-01,1.213109e-01,-2.240366e-03,2.426219e-01
2.093839e-01,1.208879e-01,1.086198e-02,2.417757e-01
2.322156e-01,1.340697e-01,-7.824220e-03,2.681394e-01
2.149633e-01,1.241091e-01,-6.521298e-03,2.482183e-01
2.061153e-01,1.190007e-01,1.026658e-02,2.380015e-01
2.290893e-01,1.322648e-01,-2.536394e-03,2.645296e-01
2.206876e-01,1.274140e-01,-1.001886e-02,2.548280e-01
2.048987e-01,1.182983e-01,7.844240e-03,2.365967e-01
2.235611e-01,1.290731e-01,3.144618e-03,2.581461e-01
2.263912e-01,1.307070e-01,-1.209929e-02,2.614140e-01
2.057037e-01,1.187631e-01,4.154551e-03,2.375261e-01
2.172092e-01,1.254058e-01,7.774601e-03,2.508115e-01
2.307958e-01,1.332500e-01,-1.212593e-02,2.665000e-01
2.083680e-01,1.203013e-01,-2.063814e-04,2.406026e-01
2.114902e-01,1.221039e-01,1.041604e-02,2.442079e-01
2.325415e-01,1.342579e-01,-9.694557e-03,2.685158e-01
2.126221e-01,1.227574e-01,-4.645183e-03,2.455149e-01
2.073455e-01,1.197110e-01,1.079172e-02,2.394220e-01
2.308829e-01,1.333003e-01,-5.070609e-03,2.666006e-01
2.180368e-01,1.258836e-01,-8.572764e-03,2.517672e-01
2.051931e-01,1.184683e-01,9.132616e-03,2.369366e-01
2.262635e-01,1.306333e-01,6.249182e-04,2.612666e-01
2.238877e-01,1.292617e-01,-1.137565e-02,2.585233e-01
2.050973e-01,1.184130e-01,5.942945e-03,2.368260e-01
2.200823e-01,1.270646e-01,5.885470e-03,2.541291e-01
2.290555e-01,1.322452e-01,-1.240419e-02,2.644905e-01
2.069469e-01,1.194808e-01,1.811801e-03,2.389617e-01
2.139260e-01,1.235102e-01,9.499285e-03,2.470204e-01
2.321533e-01,1.340338e-01,-1.110293e-02,2.680675e-01
2.105228e-01,1.215454e-01,-2.664738e-03,2.430908e-01
2.089885e-01,1.206596e-01,1.089668e-02,2.413192e-01
2.320558e-01,1.339775e-01,-7.379878e-03,2.679550e-01
2.154809e-01,1.244080e-01,-6.897157e-03,2.488160e-01
2.059105e-01,1.188825e-01,1.010675e-02,2.377650e-01
2.286447e-01,1.320081e-01,-1.988602e-03,2.640162e-01
2.212488e-01,1.277380e-01,-1.028797e-02,2.554761e-01
2.048904e-01,1.182935e-01,7.538598e-03,2.365870e-01
2.229670e-01,1.287300e-01,3.649734e-03,2.574601e-01
2.268881e-01,1.309939e-01,-1.219944e-02,2.619878e-01
2.058808e-01,1.188653e-01,3.759394e-03,2.377306e-01
2.166190e-01,1.250650e-01,8.120428e-03,2.501301e-01
2.310952e-01,1.334229e-01,-1.200278e-02,2.668458e-01
2.087098e-01,1.204987e-01,-6.343339e-04,2.409974e-01
2.110180e-01,1.218313e-01,1.054871e-02,2.436626e-01
2.325331e-01,1.342530e-01,-9.337518e-03,2.685060e-01
2.130960e-01,1.230310e-01,-5.049946e-03,2.460620e-01
2.070524e-01,1.195418e-01,1.071489e-02,2.390836e-01
2.305536e-01,1.331102e-01,-4.552001e-03,2.662204e-01
2.185888e-01,1.262023e-01,-8.897709e-03,2.524046e-01
2.050962e-01,1.184124e-01,8.886135e-03,2.368247e-01
2.257169e-01,1.303177e-01,1.166858e-03,2.606354e-01
2.244291e-01,1.295742e-01,-1.155998e-02,2.591484e-01
2.051918e-01,1.184675e-01,5.581241e-03,2.369351e-01
2.194735e-01,1.267131e-01,6.314010e-03,2.534261e-01
2.294615e-01,1.324797e-01,-1.238714e-02,2.649593e-01
2.072171e-01,1.196369e-01,1.391690e-03,2.392737e-01
2.133898e-01,1.232007e-01,9.730969e-03,2.464013e-01
2.322927e-01,1.341143e-01,-1.084822e-02,2.682285e-01
2.109421e-01,1.217875e-01,-3.086881e-03,2.435749e-01
2.086099e-01,1.204410e-01,1.091133e-02,2.408820e-01
2.318650e-01,1.338673e-01,-6.919881e-03,2.677347e-01
2.160061e-01,1.247112e-01,-7.265446e-03,2.494223e-01
2.057246e-01,1.187751e-01,9.930732e-03,2.375503e-01
2.281782e-01,1.317387e-01,-1.438542e-03,2.634775e-01
2.218083e-01,1.280611e-01,-1.054373e-02,2.561222e-01
2.048996e-01,1.182988e-01,7.222005e-03,2.365976e-01
2.223668e-01,1.283835e-01,4.143849e-03,2.567671e-01
2.273724e-01,1.312735e-01,-1.228037e-02,2.625470e-01
2.060739e-01,1.189768e-01,3.358675e-03,2.379536e-01
2.160362e-01,1.247285e-01,8.447256e-03,2.494571e-01
2.313691e-01,1.335810e-01,-1.185675e-02,2.671620e-01
2.090649e-01,1.207037e-01,-1.062512e-03,2.414073e-01
2.105611e-01,1.215675e-01,1.066055e-02,2.431351e-01
2.324926e-01,1.342297e-01,-8.960582e-03,2.684594e-01
2.135800e-01,1.233105e-01,-5.449595e-03,2.466210e-01
2.067778e-01,1.193832e-01,1.061984e-02,2.387664e-01
2.301984e-01,1.329051e-01,-4.024748e-03,2.658102e-01
2.191447e-01,1.265233e-01,-9.211955e-03,2.530466e-01
2.050184e-01,1.183674e-01,8.626262e-03,2.367348e-01
2.251578e-01,1.299949e-01,1.703310e-03,2.599898e-01
2.249636e-01,1.298828e-01,-1.172766e-02,2.597656e-01
2.053045e-01,1.185326e-01,5.211541e-03,2.370652e-01
2.188655e-01,1.263620e-01,6.726450e-03,2.527241e-01
2.298466e-01,1.327020e-01,-1.234832e-02,2.654039e-01
2.075024e-01,1.198016e-01,9.689588e-04,2.396032e-01
2.128659e-01,1.228982e-01,9.941974e-03,2.457964e-01
2.324016e-01,1.341771e-01,-1.057118e-02,2.683542e-01
2.113727e-01,1.220361e-01,-3.506357e-03,2.440721e-01
2.082489e-01,1.202326e-01,1.090617e-02,2.404651e-01
2.316447e-01,1.337401e-01,-6.445383e-03,2.674803e-01
2.165382e-01,1.250184e-01,-7.625637e-03,2.500367e-01
2.055576e-01,1.186787e-01,9.738993e-03,2.373574e-01
2.276928e-01,1.314585e-01,-8.876975e-04,2.629170e-01
2.223662e-01,1.283832e-01,-1.078556e-02,2.567664e-01
2.049277e-01,1.183151e-01,6.894958e-03,2.366302e-01
2.217621e-01,1.280344e-01,4.625933e-03,2.560688e-01
2.278430e-01,1.315452e-01,-1.234156e-02,2.630904e-01
2.062843e-01,1.190983e-01,2.952930e-03,2.381966e-01
2.154611e-01,1.243965e-01,8.754717e-03,2.487931e-01
2.316164e-01,1.337238e-01,-1.168778e-02,2.674475e-01
2.094346e-01,1.209171e-01,-1.490348e-03,2.418342e-01
2.101205e-01,1.213131e-01,1.075162e-02,2.426262e-01
2.324198e-01,1.341876e-01,-8.564485e-03,2.683752e-01
2.140735e-01,1.235954e-01,-5.843640e-03,2.471908e-01
2.065212e-01,1.192351e-01,1.050698e-02,2.384702e-01
2.298175e-01,1.326852e-01,-3.490135e-03,2.653704e-01
2.197025e-01,1.268453e-01,-9.514991e-03,2.536906e-01
2.049587e-01,1.183329e-01,8.353516e-03,2.366659e-01
2.245875e-01,1.296657e-01,2.233041e-03,2.593313e-01
2.254899e-01,1.301866e-01,-1.187813e-02,2.603733e-01
2.054339e-01,1.186073e-01,4.834356e-03,2.372147e-01
2.182611e-01,1.260131e-01,7.121976e-03,2.520262e-01
2.302110e-01,1.329124e-01,-1.228743e-02,2.658248e-01
2.078034e-01,1.199754e-01,5.441491e-04,2.399507e-01
2.123550e-01,1.226032e-01,1.013218e-02,2.452065e-01
2.324798e-01,1.342223e-01,-1.027218e-02,2.684445e-01
2.118155e-01,1.222918e-01,-3.922605e-03,2.445835e-01
2.079060e-01,1.200346e-01,1.088146e-02,2.400692e-01
2.313933e-01,1.335950e-01,-5.957397e-03,2.671899e-01
2.170766e-01,1.253292e-01,-7.977192e-03,2.506585e-01
2.054089e-01,1.185929e-01,9.532025e-03,2.371857e-01
2.271894e-01,1.311679e-01,-3.373927e-04,2.623357e-01
2.229216e-01,1.287039e-01,-1.101287e-02,2.574077e-01
2.049731e-01,1.183413e-01,6.557985e-03,2.366825e-01
2.211542e-01,1.276834e-01,5.095009e-03,2.553669e-01
2.282971e-01,1.318074e-01,-1.238253e-02,2.636148e-01
2.065101e-01,1.192287e-01,2.542637e-03,2.384573e-01
2.148955e-01,1.240700e-01,9.042369e-03,2.481400e-01
2.318360e-01,1.338506e-01,-1.149585e-02,2.677012e-01
2.098174e-01,1.211382e-01,-1.917384e-03,2.422763e-01
2.096952e-01,1.210676e-01,1.082215e-02,2.421352e-01
2.323156e-01,1.341275e-01,-8.150115e-03,2.682550e-01
2.145763e-01,1.238857e-01,-6.231545e-03,2.477713e-01
2.062835e-01,1.190978e-01,1.037670e-02,2.381956e-01
2.294121e-01,1.324511e-01,-2.949514e-03,2.649023e-01
2.202626e-01,1.271687e-01,-9.806214e-03,2.543374e-01
2.049175e-01,1.183092e-01,8.068397e-03,2.366184e-01
2.240070e-01,1.293305e-01,2.754878e-03,2.586610e-01
2.260067e-01,1.304850e-01,-1.201083e-02,2.609700e-01
2.055811e-01,1.186923e-01,4.450204e-03,2.373846e-01
2.176611e-01,1.256667e-01,7.499964e-03,2.513333e-01
2.305530e-01,1.331098e-01,-1.220416e-02,2.662197e-01
2.081188e-01,1.201575e-01,1.177310e-04,2.403149e-01
2.118580e-01,1.223162e-01,1.030153e-02,2.446325e-01
2.325269e-01,1.342494e-01,-9.951659e-03,2.684989e-01
2.122702e-01,1.225543e-01,-4.335126e-03,2.451085e-01
2.075802e-01,1.198465e-01,1.083760e-02,2.396930e-01
2.311138e-01,1.334336e-01,-5.457263e-03,2.668672e-01
2.176209e-01,1.256435e-01,-8.319568e-03,2.512870e-01
2.052789e-01,1.185179e-01,9.310304e-03,2.370357e-01
2.266685e-01,1.308671e-01,2.110793e-04,2.617342e-01
2.234732e-01,1.290223e-01,-1.122511e-02,2.580446e-01
2.050372e-01,1.183783e-01,6.211592e-03,2.367565e-01
2.205446e-01,1.273315e-01,5.550153e-03,2.546630e-01
2.287356e-01,1.320606e-01,-1.240284e-02,2.641211e-01
2.067527e-01,1.193687e-01,2.128346e-03,2.387374e-01
2.143401e-01,1.237493e-01,9.309922e-03,2.474987e-01
2.320273e-01,1.339610e-01,-1.128101e-02,2.679220e-01
2.102136e-01,1.213669e-01,-2.343095e-03,2.427338e-01
2.092869e-01,1.208318e-01,1.087221e-02,2.416637e-01
2.321799e-01,1.340491e-01,-7.718334e-03,2.680982e-01
2.150877e-01,1.241809e-01,-6.612794e-03,2.483619e-01
