x,y,z,R
2.213599e-01,1.278022e-01,-2.188000e-03,2.556044e-01
2.179274e-01,1.258204e-01,-2.054578e-03,2.516409e-01
2.160470e-01,1.247348e-01,1.640892e-03,2.494695e-01
2.209071e-01,1.275408e-01,-1.318269e-03,2.550816e-01
2.190156e-01,1.264487e-01,-2.729541e-03,2.528974e-01
2.156625e-01,1.245128e-01,1.295824e-03,2.490256e-01
2.200948e-01,1.270718e-01,-3.648686e-04,2.541436e-01
2.200454e-01,1.270433e-01,-3.135427e-03,2.540866e-01
2.156674e-01,1.245156e-01,6.688287e-04,2.490313e-01
2.190538e-01,1.264708e-01,5.251432e-04,2.529415e-01
2.208638e-01,1.275158e-01,-3.206997e-03,2.550315e-01
2.160573e-01,1.247407e-01,-1.511215e-04,2.494815e-01
2.179446e-01,1.258304e-01,1.217784e-03,2.516607e-01
2.213408e-01,1.277912e-01,-2.923610e-03,2.555823e-01
2.167805e-01,1.251583e-01,-1.053606e-03,2.503166e-01
2.169296e-01,1.252444e-01,1.614842e-03,2.504888e-01
2.213947e-01,1.278223e-01,-2.318081e-03,2.556446e-01
2.177469e-01,1.257162e-01,-1.919076e-03,2.514324e-01
2.161487e-01,1.247935e-01,1.667032e-03,2.495870e-01
2.210123e-01,1.276015e-01,-1.476701e-03,2.552030e-01
2.188300e-01,1.263416e-01,-2.630983e-03,2.526831e-01
2.157012e-01,1.245351e-01,1.376731e-03,2.490703e-01
2.202538e-01,1.271636e-01,-5.272341e-04,2.543272e-01
2.198805e-01,1.269481e-01,-3.088480e-03,2.538961e-01
2.156385e-01,1.244989e-01,7.923618e-04,2.489979e-01
2.192410e-01,1.265788e-01,3.837804e-04,2.531576e-01
2.207451e-01,1.274473e-01,-3.219982e-03,2.548945e-01
2.159647e-01,1.246873e-01,-2.015824e-06,2.493746e-01
2.181316e-01,1.259383e-01,1.118295e-03,2.518766e-01
2.212881e-01,1.277608e-01,-2.996433e-03,2.555215e-01
2.166373e-01,1.250756e-01,-8.987826e-04,2.501512e-01
2.170898e-01,1.253368e-01,1.570758e-03,2.506737e-01
2.214168e-01,1.278350e-01,-2.441187e-03,2.556701e-01
2.175698e-01,1.256140e-01,-1.779060e-03,2.512279e-01
2.162611e-01,1.248584e-01,1.683050e-03,2.497169e-01
2.211067e-01,1.276560e-01,-1.631949e-03,2.553121e-01
2.186428e-01,1.262335e-01,-2.524926e-03,2.524669e-01
2.157510e-01,1.245639e-01,1.448985e-03,2.491278e-01
2.204056e-01,1.272512e-01,-6.907520e-04,2.545025e-01
2.197102e-01,1.268498e-01,-3.031927e-03,2.536995e-01
2.156216e-01,1.244892e-01,9.097031e-04,2.489784e-01
2.194252e-01,1.266852e-01,2.371890e-04,2.533704e-01
2.206169e-01,1.273732e-01,-3.222485e-03,2.547465e-01
2.158828e-01,1.246400e-01,1.440723e-04,2.492799e-01
2.183206e-01,1.260475e-01,1.010463e-03,2.520950e-01
2.212229e-01,1.277231e-01,-3.059442e-03,2.554462e-01
2.165007e-01,1.249967e-01,-7.434626e-04,2.499934e-01
2.172563e-01,1.254330e-01,1.516622e-03,2.508660e-01
2.214262e-01,1.278405e-01,-2.556787e-03,2.556809e-01
2.173967e-01,1.255141e-01,-1.635091e-03,2.510281e-01
2.163820e-01,1.249282e-01,1.688878e-03,2.498564e-01
2.211901e-01,1.277041e-01,-1.783305e-03,2.554083e-01
2.184557e-01,1.261254e-01,-2.411845e-03,2.522509e-01
2.158125e-01,1.245994e-01,1.512235e-03,2.491988e-01
2.205490e-01,1.273340e-01,-8.546658e-04,2.546681e-01
2.195354e-01,1.267488e-01,-2.966053e-03,2.534977e-01
2.156153e-01,1.244856e-01,1.020401e-03,2.489712e-01
2.196060e-01,1.267896e-01,8.601330e-05,2.535792e-01
2.204799e-01,1.272941e-01,-3.214553e-03,2.545882e-01
2.158118e-01,1.245990e-01,2.865656e-04,2.491980e-01
2.185109e-01,1.261573e-01,8.947275e-04,2.523147e-01
2.211456e-01,1.276785e-01,-3.112411e-03,2.553569e-01
2.163729e-01,1.249229e-01,-5.882729e-04,2.498459e-01
2.174287e-01,1.255325e-01,1.452618e-03,2.510651e-01
2.214229e-01,1.278385e-01,-2.664382e-03,2.556771e-01
2.172288e-01,1.254171e-01,-1.487749e-03,2.508343e-01
2.165125e-01,1.250035e-01,1.684401e-03,2.500071e-01
2.212607e-01,1.277449e-01,-1.930047e-03,2.554899e-01
2.182695e-01,1.260180e-01,-2.292220e-03,2.520360e-01
2.158843e-01,1.246409e-01,1.566215e-03,2.492818e-01
2.206831e-01,1.274114e-01,-1.018207e-03,2.548229e-01
2.193559e-01,1.266452e-01,-2.891161e-03,2.532904e-01
2.156211e-01,1.244889e-01,1.123968e-03,2.489778e-01
2.197825e-01,1.268915e-01,-6.907732e-05,2.537830e-01
2.203345e-01,1.272102e-01,-3.196276e-03,2.544204e-01
2.157507e-01,1.245637e-01,4.249251e-04,2.491274e-01
2.187017e-01,1.262675e-01,7.715697e-04,2.525350e-01
2.210570e-01,1.276273e-01,-3.155163e-03,2.552546e-01
2.162540e-01,1.248543e-01,-4.338124e-04,2.497086e-01
2.176055e-01,1.256346e-01,1.378999e-03,2.512692e-01
2.214058e-01,1.278287e-01,-2.763485e-03,2.556574e-01
2.170658e-01,1.253230e-01,-1.337609e-03,2.506460e-01
2.166517e-01,1.250839e-01,1.669588e-03,2.501678e-01
2.213192e-01,1.277787e-01,-2.071539e-03,2.555573e-01
2.180840e-01,1.259109e-01,-2.166541e-03,2.518217e-01
2.159677e-01,1.246890e-01,1.610630e-03,2.493780e-01
2.208079e-01,1.274835e-01,-1.180659e-03,2.549670e-01
2.191735e-01,1.265399e-01,-2.807620e-03,2.530798e-01
2.156387e-01,1.244991e-01,1.219968e-03,2.489981e-01
2.199538e-01,1.269904e-01,-2.273909e-04,2.539808e-01
2.201817e-01,1.271219e-01,-3.167787e-03,2.542439e-01
2.157010e-01,1.245350e-01,5.585802e-04,2.490700e-01
2.188921e-01,1.263774e-01,6.415070e-04,2.527548e-01
2.209573e-01,1.275698e-01,-3.187560e-03,2.551395e-01
2.161435e-01,1.247905e-01,-2.806694e-04,2.495810e-01
2.177866e-01,1.257391e-01,1.296015e-03,2.514783e-01
2.213760e-01,1.278115e-01,-2.853713e-03,2.556230e-01
2.169098e-01,1.252329e-01,-1.185279e-03,2.504658e-01
2.167981e-01,1.251684e-01,1.644488e-03,2.503369e-01
2.213654e-01,1.278054e-01,-2.207155e-03,2.556108e-01
2.179016e-01,1.258056e-01,-2.035347e-03,2.516111e-01
2.160607e-01,1.247427e-01,1.645287e-03,2.494854e-01
2.209230e-01,1.275499e-01,-1.341280e-03,2.550999e-01
2.189891e-01,1.264334e-01,-2.715813e-03,2.528669e-01
2.156672e-01,1.245155e-01,1.308014e-03,2.490310e-01
2.201184e-01,1.270854e-01,-3.881853e-04,2.541708e-01
2.200220e-01,1.270298e-01,-3.129262e-03,2.540596e-01
2.156629e-01,1.245130e-01,6.869928e-04,2.490261e-01
2.190813e-01,1.264867e-01,5.050968e-04,2.529733e-01
2.208472e-01,1.275062e-01,-3.209515e-03,2.550124e-01
2.160430e-01,1.247325e-01,-1.294563e-04,2.494649e-01
2.179712e-01,1.258457e-01,1.203981e-03,2.516914e-01
2.213337e-01,1.277871e-01,-2.934698e-03,2.555742e-01
2.167594e-01,1.251461e-01,-1.031337e-03,2.502921e-01
2.169523e-01,1.252575e-01,1.609112e-03,2.505149e-01
2.213990e-01,1.278248e-01,-2.336281e-03,2.556495e-01
2.177209e-01,1.257012e-01,-1.899154e-03,2.514025e-01
2.161645e-01,1.248026e-01,1.669964e-03,2.496052e-01
2.210268e-01,1.276099e-01,-1.499302e-03,2.552197e-01
2.188030e-01,1.263260e-01,-2.616142e-03,2.526519e-01
2.157079e-01,1.245390e-01,1.387686e-03,2.490780e-01
2.202762e-01,1.271765e-01,-5.507548e-04,2.543530e-01
2.198565e-01,1.269342e-01,-3.080916e-03,2.538684e-01
2.156353e-01,1.244971e-01,8.096719e-04,2.489942e-01
2.192679e-01,1.265944e-01,3.629443e-04,2.531888e-01
2.207272e-01,1.274369e-01,-3.220988e-03,2.548738e-01
2.159527e-01,1.246803e-01,1.923964e-05,2.493606e-01
2.181585e-01,1.259539e-01,1.103262e-03,2.519077e-01
2.212792e-01,1.277556e-01,-3.006121e-03,2.555112e-01
2.166167e-01,1.250637e-01,-8.764001e-04,2.501275e-01
2.171135e-01,1.253506e-01,1.563563e-03,2.507011e-01
2.214190e-01,1.278363e-01,-2.458330e-03,2.556726e-01
2.175449e-01,1.255996e-01,-1.758538e-03,2.511993e-01
2.162778e-01,1.248680e-01,1.684528e-03,2.497361e-01
2.211194e-01,1.276633e-01,-1.654024e-03,2.553266e-01
2.186157e-01,1.262179e-01,-2.509044e-03,2.524357e-01
2.157591e-01,1.245686e-01,1.458666e-03,2.491372e-01
2.204266e-01,1.272634e-01,-7.143692e-04,2.545267e-01
2.196856e-01,1.268355e-01,-3.023003e-03,2.536711e-01
2.156196e-01,1.244881e-01,9.260916e-04,2.489761e-01
2.194517e-01,1.267005e-01,2.156559e-04,2.534010e-01
2.205976e-01,1.273621e-01,-3.221983e-03,2.547242e-01
2.158718e-01,1.246336e-01,1.648511e-04,2.492673e-01
2.183478e-01,1.260632e-01,9.942608e-04,2.521263e-01
2.212125e-01,1.277171e-01,-3.067703e-03,2.554342e-01
2.164821e-01,1.249860e-01,-7.210716e-04,2.499720e-01
2.172812e-01,1.254474e-01,1.507989e-03,2.508947e-01
2.214263e-01,1.278405e-01,-2.572799e-03,2.556810e-01
2.173721e-01,1.254998e-01,-1.614042e-03,2.509997e-01
2.164002e-01,1.249387e-01,1.688870e-03,2.498775e-01
2.212008e-01,1.277103e-01,-1.804753e-03,2.554206e-01
2.184290e-01,1.261101e-01,-2.394995e-03,2.522201e-01
2.158222e-01,1.246050e-01,1.520597e-03,2.492100e-01
2.205690e-01,1.273456e-01,-8.782849e-04,2.546911e-01
2.195095e-01,1.267339e-01,-2.955798e-03,2.534677e-01
2.156159e-01,1.244859e-01,1.035773e-03,2.489718e-01
2.196318e-01,1.268045e-01,6.387871e-05,2.536089e-01
2.204594e-01,1.272823e-01,-3.212554e-03,2.545646e-01
2.158020e-01,1.245933e-01,3.067886e-04,2.491867e-01
2.185382e-01,1.261731e-01,8.774248e-04,2.523462e-01
2.211339e-01,1.276717e-01,-3.119216e-03,2.553434e-01
2.163550e-01,1.249126e-01,-5.659432e-04,2.498253e-01
2.174537e-01,1.255469e-01,1.442604e-03,2.510939e-01
2.214209e-01,1.278374e-01,-2.679194e-03,2.556749e-01
2.172051e-01,1.254034e-01,-1.466261e-03,2.508068e-01
2.165323e-01,1.250150e-01,1.682895e-03,2.500300e-01
2.212702e-01,1.277504e-01,-1.950794e-03,2.555008e-01
2.182424e-01,1.260023e-01,-2.274458e-03,2.520046e-01
2.158957e-01,1.246475e-01,1.573215e-03,2.492949e-01
2.207018e-01,1.274222e-01,-1.041719e-03,2.548445e-01
2.193297e-01,1.266300e-01,-2.879640e-03,2.532601e-01
2.156228e-01,1.244899e-01,1.138287e-03,2.489797e-01
2.198073e-01,1.269058e-01,-9.171323e-05,2.538116e-01
2.203130e-01,1.271978e-01,-3.192796e-03,2.543955e-01
2.157433e-01,1.245595e-01,4.444897e-04,2.491189e-01
2.187289e-01,1.262832e-01,7.532396e-04,2.525664e-01
2.210435e-01,1.276195e-01,-3.160481e-03,2.552391e-01
2.162373e-01,1.248447e-01,-4.116350e-04,2.496893e-01
2.176311e-01,1.256494e-01,1.367614e-03,2.512988e-01
2.214026e-01,1.278268e-01,-2.777058e-03,2.556537e-01
2.170429e-01,1.253098e-01,-1.315770e-03,2.506196e-01
2.166720e-01,1.250957e-01,1.666616e-03,2.501913e-01
2.213266e-01,1.277830e-01,-2.091469e-03,2.555660e-01
2.180577e-01,1.258957e-01,-2.147956e-03,2.517914e-01
2.159804e-01,1.246963e-01,1.616235e-03,2.493927e-01
2.208250e-01,1.274934e-01,-1.203944e-03,2.549868e-01
2.191472e-01,1.265247e-01,-2.794887e-03,2.530494e-01
2.156420e-01,1.245010e-01,1.233166e-03,2.490019e-01
2.199776e-01,1.270042e-01,-2.504260e-04,2.540083e-01
2.201592e-01,1.271090e-01,-3.162850e-03,2.542179e-01
2.156947e-01,1.245314e-01,5.774302e-04,2.490628e-01
2.189192e-01,1.263930e-01,6.222298e-04,2.527861e-01
2.209423e-01,1.275611e-01,-3.191375e-03,2.551222e-01
2.161287e-01,1.247820e-01,-2.587402e-04,2.495639e-01
2.178128e-01,1.257543e-01,1.283300e-03,2.515086e-01
2.213708e-01,1.278085e-01,-2.865971e-03,2.556170e-01
2.168873e-01,1.252199e-01,-1.163165e-03,2.504399e-01
2.168198e-01,1.251810e-01,1.640020e-03,2.503620e-01
2.213709e-01,1.278085e-01,-2.226179e-03,2.556171e-01
2.178751e-01,1.257902e-01,-2.016003e-03,2.515804e-01
2.160750e-01,1.247510e-01,1.649464e-03,2.495020e-01
2.209384e-01,1.275588e-01,-1.364231e-03,2.551177e-01
2.189626e-01,1.264181e-01,-2.701921e-03,2.528362e-01
2.156724e-01,1.245185e-01,1.320021e-03,2.490371e-01
2.201419e-01,1.270990e-01,-4.115425e-04,2.541980e-01
2.199988e-01,1.270163e-01,-3.122896e-03,2.540327e-01
2.156579e-01,1.245101e-01,7.050532e-04,2.490203e-01
2.191080e-01,1.265021e-01,4.849540e-04,2.530042e-01
2.208307e-01,1.274967e-01,-3.211819e-03,2.549933e-01
2.160292e-01,1.247245e-01,-1.078475e-04,2.494490e-01
2.179979e-01,1.258612e-01,1.189990e-03,2.517223e-01
2.213266e-01,1.277830e-01,-2.945592e-03,2.555659e-01
2.167387e-01,1.251341e-01,-1.009051e-03,2.502683e-01
2.169753e-01,1.252708e-01,1.603163e-03,2.505415e-01
2.214027e-01,1.278269e-01,-2.354327e-03,2.556538e-01
2.176955e-01,1.256865e-01,-1.879143e-03,2.513731e-01
2.161804e-01,1.248118e-01,1.672682e-03,2.496237e-01
2.210411e-01,1.276182e-01,-1.521840e-03,2.552363e-01
2.187758e-01,1.263102e-01,-2.601146e-03,2.526205e-01
2.157143e-01,1.245427e-01,1.398472e-03,2.490854e-01
2.202984e-01,1.271894e-01,-5.743011e-04,2.543787e-01
2.198324e-01,1.269203e-01,-3.073154e-03,2.538406e-01
2.156327e-01,1.244956e-01,8.268457e-04,2.489912e-01
2.192948e-01,1.266099e-01,3.420066e-04,2.532198e-01
2.207091e-01,1.274265e-01,-3.221779e-03,2.548529e-01
2.159401e-01,1.246731e-01,4.044088e-05,2.493462e-01
2.181857e-01,1.259696e-01,1.088048e-03,2.519391e-01
2.212701e-01,1.277504e-01,-3.015607e-03,2.555007e-01
2.165967e-01,1.250521e-01,-8.540144e-04,2.501043e-01
2.171376e-01,1.253644e-01,1.556157e-03,2.507289e-01
2.214211e-01,1.278375e-01,-2.475320e-03,2.556750e-01
2.175194e-01,1.255849e-01,-1.737927e-03,2.511697e-01
2.162947e-01,1.248778e-01,1.685792e-03,2.497556e-01
2.211319e-01,1.276705e-01,-1.676019e-03,2.553411e-01
2.185889e-01,1.262024e-01,-2.493022e-03,2.524047e-01
2.157678e-01,1.245736e-01,1.468153e-03,2.491472e-01
2.204475e-01,1.272754e-01,-7.379972e-04,2.545508e-01
2.196602e-01,1.268209e-01,-3.013873e-03,2.536417e-01
2.156183e-01,1.244873e-01,9.423336e-04,2.489745e-01
2.194782e-01,1.267158e-01,1.940250e-04,2.534316e-01
2.205784e-01,1.273510e-01,-3.221268e-03,2.547020e-01
2.158614e-01,1.246276e-01,1.855489e-04,2.492553e-01
2.183752e-01,1.260790e-01,9.778888e-04,2.521580e-01
2.212016e-01,1.277108e-01,-3.075749e-03,2.554216e-01
2.164631e-01,1.249750e-01,-6.986775e-04,2.499501e-01
2.173054e-01,1.254613e-01,1.499175e-03,2.509226e-01
2.214263e-01,1.278405e-01,-2.588647e-03,2.556811e-01
2.173479e-01,1.254859e-01,-1.592929e-03,2.509718e-01
2.164189e-01,1.249495e-01,1.688640e-03,2.498990e-01
2.212113e-01,1.277164e-01,-1.826107e-03,2.554329e-01
2.184020e-01,1.260944e-01,-2.378002e-03,2.521889e-01
2.158318e-01,1.246106e-01,1.528771e-03,2.492211e-01
2.205885e-01,1.273568e-01,-9.018853e-04,2.547137e-01
2.194836e-01,1.267189e-01,-2.945360e-03,2.534378e-01
2.156159e-01,1.244859e-01,1.051013e-03,2.489718e-01
2.196575e-01,1.268193e-01,4.166103e-05,2.536386e-01
2.204389e-01,1.272705e-01,-3.210343e-03,2.545409e-01
2.157927e-01,1.245880e-01,3.269167e-04,2.491759e-01
2.185657e-01,1.261890e-01,8.599636e-04,2.523779e-01
2.211214e-01,1.276645e-01,-3.125797e-03,2.553290e-01
2.163377e-01,1.249026e-01,-5.436354e-04,2.498053e-01
2.174788e-01,1.255614e-01,1.432384e-03,2.511228e-01
2.214189e-01,1.278362e-01,-2.693834e-03,2.556725e-01
2.171810e-01,1.253895e-01,-1.444715e-03,2.507791e-01
2.165518e-01,1.250262e-01,1.681190e-03,2.500525e-01
2.212792e-01,1.277556e-01,-1.971423e-03,2.555112e-01
2.182156e-01,1.259868e-01,-2.256575e-03,2.519736e-01
2.159076e-01,1.246543e-01,1.580004e-03,2.493086e-01
2.207205e-01,1.274330e-01,-1.065210e-03,2.548661e-01
2.193036e-01,1.266150e-01,-2.867944e-03,2.532300e-01
2.156251e-01,1.244912e-01,1.152440e-03,2.489824e-01
2.198322e-01,1.269202e-01,-1.144186e-04,2.538403e-01
2.202915e-01,1.271853e-01,-3.189107e-03,2.543707e-01
2.157352e-01,1.245548e-01,4.639688e-04,2.491096e-01
2.187564e-01,1.262991e-01,7.347625e-04,2.525981e-01
2.210298e-01,1.276116e-01,-3.165582e-03,2.552232e-01
2.162209e-01,1.248352e-01,-3.894881e-04,2.496704e-01
2.176570e-01,1.256643e-01,1.356028e-03,2.513287e-01
2.213987e-01,1.278246e-01,-2.790436e-03,2.556492e-01
2.170206e-01,1.252969e-01,-1.293890e-03,2.505938e-01
2.166927e-01,1.251076e-01,1.663421e-03,2.502152e-01
2.213339e-01,1.277872e-01,-2.111278e-03,2.555744e-01
2.180315e-01,1.258805e-01,-2.129258e-03,2.517611e-01
2.159932e-01,1.247037e-01,1.621642e-03,2.494074e-01
2.208420e-01,1.275032e-01,-1.227192e-03,2.550064e-01
2.191211e-01,1.265096e-01,-2.781985e-03,2.530192e-01
2.156455e-01,1.245030e-01,1.246197e-03,2.490059e-01
2.200015e-01,1.270179e-01,-2.735162e-04,2.540359e-01
2.201368e-01,1.270960e-01,-3.157707e-03,2.541921e-01
2.156891e-01,1.245282e-01,5.961633e-04,2.490563e-01
2.189463e-01,1.264087e-01,6.028166e-04,2.528175e-01
2.209272e-01,1.275524e-01,-3.194976e-03,2.551048e-01
2.161137e-01,1.247733e-01,-2.368469e-04,2.495467e-01
2.178394e-01,1.257696e-01,1.270392e-03,2.515392e-01
2.213655e-01,1.278054e-01,-2.878038e-03,2.556108e-01
2.168653e-01,1.252073e-01,-1.141025e-03,2.504145e-01
2.168420e-01,1.251938e-01,1.635332e-03,2.503875e-01
2.213761e-01,1.278116e-01,-2.245071e-03,2.556231e-01
2.178488e-01,1.257751e-01,-1.996559e-03,2.515501e-01
2.160899e-01,1.247595e-01,1.653425e-03,2.495191e-01
2.209537e-01,1.275677e-01,-1.387131e-03,2.551353e-01
2.189354e-01,1.264024e-01,-2.687859e-03,2.528048e-01
2.156781e-01,1.245218e-01,1.331852e-03,2.490436e-01
2.201647e-01,1.271122e-01,-4.349162e-04,2.542243e-01
2.199752e-01,1.270027e-01,-3.116324e-03,2.540055e-01
2.156535e-01,1.245076e-01,7.229857e-04,2.490152e-01
2.191349e-01,1.265176e-01,4.646892e-04,2.530352e-01
2.208141e-01,1.274871e-01,-3.213909e-03,2.549741e-01
2.160160e-01,1.247169e-01,-8.629731e-05,2.494338e-01
2.180250e-01,1.258768e-01,1.175812e-03,2.517536e-01
2.213193e-01,1.277788e-01,-2.956289e-03,2.555575e-01
2.167176e-01,1.251220e-01,-9.867392e-04,2.502440e-01
2.169985e-01,1.252842e-01,1.597002e-03,2.505683e-01
2.214059e-01,1.278288e-01,-2.372216e-03,2.556576e-01
2.176702e-01,1.256719e-01,-1.859042e-03,2.513439e-01
2.161960e-01,1.248208e-01,1.675210e-03,2.496417e-01
2.210549e-01,1.276261e-01,-1.544294e-03,2.552522e-01
