x,y,z,R
1.735015e-01,1.001712e-01,1.638639e-02,2.003423e-01
1.967929e-01,1.136184e-01,3.650089e-02,2.272369e-01
2.723174e-01,1.572226e-01,-3.895343e-02,3.144451e-01
1.994762e-01,1.151676e-01,-1.890875e-02,2.303353e-01
1.707092e-01,9.855903e-02,2.696262e-02,1.971181e-01
2.161142e-01,1.247736e-01,2.654722e-02,2.495472e-01
2.608788e-01,1.506184e-01,-4.370608e-02,3.012369e-01
1.884211e-01,1.087850e-01,-8.313542e-03,2.175699e-01
1.737084e-01,1.002906e-01,3.461971e-02,2.005811e-01
2.393266e-01,1.381753e-01,8.485349e-03,2.763506e-01
2.402088e-01,1.386846e-01,-3.909921e-02,2.773692e-01
1.786864e-01,1.031646e-01,3.224523e-03,2.063293e-01
1.793359e-01,1.035396e-01,4.007915e-02,2.070792e-01
2.593572e-01,1.497400e-01,-1.210470e-02,2.994799e-01
2.212521e-01,1.277400e-01,-3.087065e-02,2.554800e-01
1.741910e-01,1.005692e-01,1.376813e-02,2.011385e-01
1.923621e-01,1.110603e-01,3.824260e-02,2.221207e-01
2.724425e-01,1.572948e-01,-3.530011e-02,3.145895e-01
2.027867e-01,1.170790e-01,-2.124113e-02,2.341579e-01
1.707926e-01,9.860718e-02,2.476664e-02,1.972144e-01
2.110045e-01,1.218235e-01,2.976038e-02,2.436470e-01
2.656515e-01,1.533740e-01,-4.404977e-02,3.067479e-01
1.911992e-01,1.103889e-01,-1.157788e-02,2.207778e-01
1.721531e-01,9.939267e-02,3.270862e-02,1.987853e-01
2.323190e-01,1.341295e-01,1.462276e-02,2.682589e-01
2.463562e-01,1.422338e-01,-4.112144e-02,2.844677e-01
1.809570e-01,1.044756e-01,-3.977495e-05,2.089512e-01
1.770580e-01,1.022245e-01,3.909457e-02,2.044490e-01
2.537693e-01,1.465137e-01,-5.388260e-03,2.930275e-01
2.275933e-01,1.314010e-01,-3.405640e-02,2.628021e-01
1.751786e-01,1.011394e-01,1.006471e-02,2.022789e-01
1.864894e-01,1.076697e-01,4.006337e-02,2.153394e-01
2.697735e-01,1.557538e-01,-2.774270e-02,3.115076e-01
2.086077e-01,1.204397e-01,-2.456423e-02,2.408794e-01
1.717404e-01,9.915438e-02,2.117804e-02,1.983088e-01
2.043738e-01,1.179953e-01,3.327485e-02,2.359905e-01
2.701109e-01,1.559486e-01,-4.291374e-02,3.118972e-01
1.948822e-01,1.125153e-01,-1.531159e-02,2.250306e-01
1.709182e-01,9.867967e-02,3.008439e-02,1.973593e-01
2.239323e-01,1.292874e-01,2.121225e-02,2.585747e-01
2.537691e-01,1.465136e-01,-4.276486e-02,2.930273e-01
1.845143e-01,1.065294e-01,-4.040401e-03,2.130587e-01
1.753915e-01,1.012623e-01,3.706655e-02,2.025246e-01
2.471718e-01,1.427047e-01,1.253405e-03,2.854095e-01
2.335741e-01,1.348541e-01,-3.660135e-02,2.697081e-01
1.766473e-01,1.019873e-01,6.770639e-03,2.039747e-01
1.825847e-01,1.054153e-01,4.048261e-02,2.108306e-01
2.651827e-01,1.531033e-01,-2.015559e-02,3.062067e-01
2.143627e-01,1.237624e-01,-2.739706e-02,2.475247e-01
1.730136e-01,9.988946e-02,1.781283e-02,1.997789e-01
1.990749e-01,1.149360e-01,3.557314e-02,2.298719e-01
2.718891e-01,1.569752e-01,-4.041639e-02,3.139505e-01
1.979888e-01,1.143089e-01,-1.779690e-02,2.286178e-01
1.707254e-01,9.856836e-02,2.796405e-02,1.971367e-01
2.185433e-01,1.261760e-01,2.494382e-02,2.523520e-01
2.586043e-01,1.493053e-01,-4.343447e-02,2.986105e-01
1.871607e-01,1.080573e-01,-6.877586e-03,2.161146e-01
1.743453e-01,1.006583e-01,3.543342e-02,2.013166e-01
2.421410e-01,1.398002e-01,5.916131e-03,2.796003e-01
2.377661e-01,1.372744e-01,-3.818426e-02,2.745487e-01
1.779217e-01,1.027232e-01,4.533922e-03,2.054463e-01
1.804967e-01,1.042098e-01,4.028019e-02,2.084197e-01
2.615993e-01,1.510344e-01,-1.510682e-02,3.020688e-01
2.185416e-01,1.261751e-01,-2.946928e-02,2.523501e-01
1.737948e-01,1.003405e-01,1.537104e-02,2.006809e-01
1.950979e-01,1.126398e-01,3.718306e-02,2.252797e-01
2.725089e-01,1.573331e-01,-3.770681e-02,3.146662e-01
2.006690e-01,1.158563e-01,-1.978313e-02,2.317126e-01
1.707047e-01,9.855639e-02,2.616163e-02,1.971128e-01
2.141797e-01,1.236567e-01,2.779851e-02,2.473134e-01
2.627319e-01,1.516883e-01,-4.390323e-02,3.033767e-01
1.894561e-01,1.093825e-01,-9.534957e-03,2.187650e-01
1.731205e-01,9.995116e-02,3.392638e-02,1.999023e-01
2.367859e-01,1.367084e-01,1.076466e-02,2.734168e-01
2.424435e-01,1.399748e-01,-3.989801e-02,2.799496e-01
1.794386e-01,1.035989e-01,2.030770e-03,2.071978e-01
1.783782e-01,1.029867e-01,3.980948e-02,2.059734e-01
2.572837e-01,1.485428e-01,-9.471464e-03,2.970856e-01
2.237278e-01,1.291693e-01,-3.214885e-02,2.583387e-01
1.745395e-01,1.007704e-01,1.230659e-02,2.015408e-01
1.899189e-01,1.096497e-01,3.910047e-02,2.192994e-01
2.718221e-01,1.569366e-01,-3.261140e-02,3.138732e-01
2.049408e-01,1.183226e-01,-2.256939e-02,2.366453e-01
1.710475e-01,9.875430e-02,2.340092e-02,1.975086e-01
2.082513e-01,1.202339e-01,3.132413e-02,2.404678e-01
2.678349e-01,1.546346e-01,-4.385401e-02,3.092691e-01
1.927271e-01,1.112711e-01,-1.325163e-02,2.225421e-01
1.714719e-01,9.899936e-02,3.161292e-02,1.979987e-01
2.285453e-01,1.319507e-01,1.770450e-02,2.639014e-01
2.496714e-01,1.441478e-01,-4.196078e-02,2.882956e-01
1.824508e-01,1.053380e-01,-1.798835e-03,2.106760e-01
1.762338e-01,1.017486e-01,3.827676e-02,2.034972e-01
2.508788e-01,1.448449e-01,-2.354161e-03,2.896898e-01
2.303741e-01,1.330065e-01,-3.530525e-02,2.660131e-01
1.757836e-01,1.014887e-01,8.506026e-03,2.029774e-01
1.844639e-01,1.065003e-01,4.040822e-02,2.130005e-01
2.677468e-01,1.545837e-01,-2.412247e-02,3.091674e-01
2.113134e-01,1.220018e-01,-2.591808e-02,2.440037e-01
1.723389e-01,9.949992e-02,1.958596e-02,1.989998e-01
2.018376e-01,1.165310e-01,3.441422e-02,2.330620e-01
2.711227e-01,1.565328e-01,-4.188240e-02,3.130655e-01
1.963266e-01,1.133492e-01,-1.651491e-02,2.266985e-01
1.707738e-01,9.859629e-02,2.908876e-02,1.971926e-01
2.213089e-01,1.277727e-01,2.307104e-02,2.555455e-01
2.561080e-01,1.478640e-01,-4.311714e-02,2.957280e-01
1.857773e-01,1.072585e-01,-5.380080e-03,2.145171e-01
1.749183e-01,1.009891e-01,3.629768e-02,2.019782e-01
2.448675e-01,1.413743e-01,3.406179e-03,2.827487e-01
2.354806e-01,1.359548e-01,-3.732588e-02,2.719095e-01
1.772190e-01,1.023174e-01,5.753415e-03,2.046349e-01
1.816136e-01,1.048546e-01,4.041588e-02,2.097093e-01
2.635935e-01,1.521858e-01,-1.787299e-02,3.043715e-01
2.161965e-01,1.248211e-01,-2.829130e-02,2.496422e-01
1.733864e-01,1.001047e-01,1.674642e-02,2.002094e-01
1.973792e-01,1.139569e-01,3.626345e-02,2.279138e-01
2.722245e-01,1.571689e-01,-3.935131e-02,3.143377e-01
1.990818e-01,1.149399e-01,-1.861559e-02,2.298798e-01
1.707133e-01,9.856138e-02,2.722808e-02,1.971228e-01
2.167593e-01,1.251460e-01,2.612416e-02,2.502920e-01
2.602664e-01,1.502648e-01,-4.363425e-02,3.005297e-01
1.880824e-01,1.085894e-01,-7.919598e-03,2.171788e-01
1.738914e-01,1.003962e-01,3.484176e-02,2.007925e-01
2.401182e-01,1.386323e-01,7.765710e-03,2.772646e-01
2.395145e-01,1.382838e-01,-3.884155e-02,2.765675e-01
1.784655e-01,1.030371e-01,3.596564e-03,2.060742e-01
1.796576e-01,1.037254e-01,4.014438e-02,2.074507e-01
2.600022e-01,1.501123e-01,-1.295308e-02,3.002246e-01
2.204710e-01,1.272890e-01,-3.046497e-02,2.545780e-01
1.740813e-01,1.005059e-01,1.423051e-02,2.010117e-01
1.931514e-01,1.115160e-01,3.794514e-02,2.230321e-01
2.725210e-01,1.573401e-01,-3.605299e-02,3.146802e-01
2.021485e-01,1.167105e-01,-2.081740e-02,2.334209e-01
1.707491e-01,9.858206e-02,2.518208e-02,1.971641e-01
2.119137e-01,1.223484e-01,2.921360e-02,2.446969e-01
2.648464e-01,1.529091e-01,-4.404077e-02,3.058182e-01
1.906960e-01,1.100984e-01,-1.099759e-02,2.201968e-01
1.724186e-01,9.954591e-02,3.306535e-02,1.990918e-01
2.336095e-01,1.348745e-01,1.353008e-02,2.697490e-01
2.452279e-01,1.415824e-01,-4.079448e-02,2.831648e-01
1.804907e-01,1.042063e-01,5.559566e-04,2.084127e-01
1.773931e-01,1.024180e-01,3.933158e-02,2.048359e-01
2.547650e-01,1.470887e-01,-6.496790e-03,2.941773e-01
2.265523e-01,1.308000e-01,-3.355911e-02,2.616000e-01
1.749874e-01,1.010290e-01,1.066115e-02,2.020581e-01
1.873500e-01,1.081666e-01,3.985731e-02,2.163332e-01
2.704356e-01,1.561360e-01,-2.910098e-02,3.122721e-01
2.075965e-01,1.198559e-01,-2.403795e-02,2.397118e-01
1.715292e-01,9.903242e-02,2.178157e-02,1.980648e-01
2.053742e-01,1.185729e-01,3.279831e-02,2.371458e-01
2.696149e-01,1.556622e-01,-4.323242e-02,3.113244e-01
1.943238e-01,1.121929e-01,-1.481197e-02,2.243858e-01
1.710168e-01,9.873657e-02,3.047582e-02,1.974731e-01
2.250383e-01,1.299259e-01,2.039932e-02,2.598518e-01
2.527849e-01,1.459454e-01,-4.259436e-02,2.918909e-01
1.839990e-01,1.062319e-01,-3.491215e-03,2.124637e-01
1.755867e-01,1.013751e-01,3.737468e-02,2.027501e-01
2.480923e-01,1.432361e-01,3.785038e-04,2.864723e-01
2.328030e-01,1.344089e-01,-3.630056e-02,2.688178e-01
1.764252e-01,1.018591e-01,7.184294e-03,2.037182e-01
1.830022e-01,1.056563e-01,4.049001e-02,2.113127e-01
2.658126e-01,1.534670e-01,-2.108996e-02,3.069340e-01
2.136316e-01,1.233403e-01,-2.704368e-02,2.466805e-01
1.728559e-01,9.979839e-02,1.823713e-02,1.995968e-01
1.997380e-01,1.153188e-01,3.530034e-02,2.306375e-01
2.717322e-01,1.568846e-01,-4.079924e-02,3.137693e-01
1.975780e-01,1.140717e-01,-1.748632e-02,2.281434e-01
1.707316e-01,9.857196e-02,2.824076e-02,1.971439e-01
2.192147e-01,1.265636e-01,2.449520e-02,2.531273e-01
2.579907e-01,1.489510e-01,-4.335942e-02,2.979020e-01
1.868202e-01,1.078607e-01,-6.502730e-03,2.157214e-01
1.744969e-01,1.007458e-01,3.564849e-02,2.014916e-01
2.428421e-01,1.402050e-01,5.272570e-03,2.804099e-01
2.371705e-01,1.369305e-01,-3.796024e-02,2.738609e-01
1.777386e-01,1.026174e-01,4.852346e-03,2.052348e-01
1.807860e-01,1.043769e-01,4.031973e-02,2.087537e-01
2.621295e-01,1.513405e-01,-1.583487e-02,3.026810e-01
2.179099e-01,1.258103e-01,-2.914737e-02,2.516207e-01
1.736923e-01,1.002813e-01,1.574322e-02,2.005626e-01
1.957257e-01,1.130023e-01,3.693151e-02,2.260046e-01
2.724536e-01,1.573011e-01,-3.818672e-02,3.146023e-01
2.002181e-01,1.155960e-01,-1.945513e-02,2.311919e-01
1.707038e-01,9.855589e-02,2.646406e-02,1.971118e-01
2.149056e-01,1.240758e-01,2.733261e-02,2.481516e-01
2.620363e-01,1.512867e-01,-4.383434e-02,3.025735e-01
1.890649e-01,1.091567e-01,-9.070887e-03,2.183134e-01
1.733461e-01,1.000814e-01,3.419137e-02,2.001629e-01
2.377649e-01,1.372736e-01,9.892452e-03,2.745473e-01
2.415819e-01,1.394774e-01,-3.959702e-02,2.789547e-01
1.791399e-01,1.034265e-01,2.489759e-03,2.068530e-01
1.787311e-01,1.031904e-01,3.992499e-02,2.063809e-01
2.580794e-01,1.490022e-01,-1.046385e-02,2.980044e-01
2.227879e-01,1.286266e-01,-3.166621e-02,2.572533e-01
1.744051e-01,1.006928e-01,1.286019e-02,2.013856e-01
1.908317e-01,1.101767e-01,3.879267e-02,2.203534e-01
2.721258e-01,1.571119e-01,-3.368348e-02,3.142238e-01
2.041011e-01,1.178378e-01,-2.206896e-02,2.356757e-01
1.709299e-01,9.868642e-02,2.392698e-02,1.973728e-01
2.092702e-01,1.208222e-01,3.076251e-02,2.416444e-01
2.670774e-01,1.541972e-01,-4.396923e-02,3.083944e-01
1.921616e-01,1.109446e-01,-1.265050e-02,2.218892e-01
1.716986e-01,9.913023e-02,3.201934e-02,1.982605e-01
2.299055e-01,1.327360e-01,1.661421e-02,2.654721e-01
2.484729e-01,1.434559e-01,-4.167757e-02,2.869118e-01
1.818905e-01,1.050145e-01,-1.159599e-03,2.100290e-01
1.765094e-01,1.019078e-01,3.859152e-02,2.038155e-01
2.519241e-01,1.454485e-01,-3.423478e-03,2.908969e-01
2.294062e-01,1.324477e-01,-3.488432e-02,2.648955e-01
1.755567e-01,1.013577e-01,9.042712e-03,2.027154e-01
1.851234e-01,1.068811e-01,4.032132e-02,2.137621e-01
2.684836e-01,1.550091e-01,-2.537056e-02,3.100182e-01
2.103759e-01,1.214606e-01,-2.545587e-02,2.429212e-01
1.721288e-01,9.937861e-02,2.013474e-02,1.987572e-01
2.026995e-01,1.170286e-01,3.403690e-02,2.340572e-01
2.708164e-01,1.563559e-01,-4.226814e-02,3.127118e-01
1.958295e-01,1.130622e-01,-1.611308e-02,2.261245e-01
1.708086e-01,9.861640e-02,2.942899e-02,1.972328e-01
2.221792e-01,1.282752e-01,2.246470e-02,2.565504e-01
2.553317e-01,1.474158e-01,-4.300786e-02,2.948316e-01
1.853520e-01,1.070131e-01,-4.929171e-03,2.140261e-01
1.750789e-01,1.010818e-01,3.655836e-02,2.021637e-01
2.456550e-01,1.418290e-01,2.675570e-03,2.836579e-01
2.348312e-01,1.355799e-01,-3.708089e-02,2.711597e-01
1.770212e-01,1.022032e-01,6.099797e-03,2.044065e-01
1.819378e-01,1.050418e-01,4.044485e-02,2.100837e-01
2.641409e-01,1.525018e-01,-1.864990e-02,3.050036e-01
2.155637e-01,1.244557e-01,-2.798060e-02,2.489115e-01
1.732622e-01,1.000330e-01,1.711513e-02,2.000660e-01
1.979718e-01,1.142991e-01,3.602295e-02,2.285982e-01
2.721177e-01,1.571072e-01,-3.973759e-02,3.142145e-01
1.986923e-01,1.147151e-01,-1.832471e-02,2.294301e-01
1.707175e-01,9.856379e-02,2.749042e-02,1.971276e-01
2.173961e-01,1.255137e-01,2.570456e-02,2.510274e-01
2.596666e-01,1.499186e-01,-4.356260e-02,2.998372e-01
1.877503e-01,1.083977e-01,-7.539736e-03,2.167954e-01
1.740623e-01,1.004949e-01,3.505654e-02,2.009899e-01
2.408687e-01,1.390656e-01,7.081283e-03,2.781312e-01
2.388614e-01,1.379067e-01,-3.859672e-02,2.758134e-01
1.782611e-01,1.029191e-01,3.947034e-03,2.058382e-01
1.799679e-01,1.039045e-01,4.019920e-02,2.078090e-01
2.606037e-01,1.504596e-01,-1.375753e-02,3.009193e-01
2.197409e-01,1.268675e-01,-3.008625e-02,2.537350e-01
1.739764e-01,1.004453e-01,1.466287e-02,2.008906e-01
1.938910e-01,1.119430e-01,3.765970e-02,2.238860e-01
2.725480e-01,1.573557e-01,-3.671346e-02,3.147113e-01
2.015709e-01,1.163770e-01,-2.042221e-02,2.327540e-01
1.707229e-01,9.856691e-02,2.556173e-02,1.971338e-01
2.127735e-01,1.228449e-01,2.868474e-02,2.456897e-01
2.640583e-01,1.524542e-01,-4.400543e-02,3.049083e-01
1.902227e-01,1.098252e-01,-1.044314e-02,2.196503e-01
1.726811e-01,9.969747e-02,3.339739e-02,1.993949e-01
2.348280e-01,1.355780e-01,1.248152e-02,2.711561e-01
2.441616e-01,1.409667e-01,-4.046592e-02,2.819335e-01
1.800709e-01,1.039640e-01,1.119318e-03,2.079280e-01
1.777426e-01,1.026197e-01,3.953316e-02,2.052395e-01
2.557185e-01,1.476392e-01,-7.593498e-03,2.952783e-01
2.255136e-01,1.302003e-01,-3.304934e-02,2.604006e-01
1.748127e-01,1.009282e-01,1.126239e-02,2.018564e-01
1.882590e-01,1.086914e-01,3.961093e-02,2.173827e-01
2.710220e-01,1.564746e-01,-3.043168e-02,3.129492e-01
2.066005e-01,1.192809e-01,-2.350427e-02,2.385617e-01
1.713332e-01,9.891929e-02,2.238211e-02,1.978386e-01
2.064030e-01,1.191668e-01,3.228968e-02,2.383336e-01
2.690408e-01,1.553308e-01,-4.350566e-02,3.106615e-01
1.937527e-01,1.118632e-01,-1.427677e-02,2.237263e-01
1.711486e-01,9.881269e-02,3.088009e-02,1.976254e-01
2.262339e-01,1.306162e-01,1.950054e-02,2.612324e-01
2.517208e-01,1.453311e-01,-4.239413e-02,2.906622e-01
1.834557e-01,1.059182e-01,-2.906477e-03,2.118364e-01
1.758007e-01,1.014986e-01,3.769555e-02,2.029971e-01
2.490610e-01,1.437954e-01,-5.557300e-04,2.875908e-01
2.319785e-01,1.339328e-01,-3.597128e-02,2.678657e-01
1.761970e-01,1.017274e-01,7.629977e-03,2.034548e-01
1.834711e-01,1.059271e-01,4.048178e-02,2.118542e-01
2.664796e-01,1.538521e-01,-2.210382e-02,3.077041e-01
2.128490e-01,1.228884e-01,-2.666499e-02,2.457768e-01
1.726831e-01,9.969863e-02,1.869191e-02,1.993973e-01
2.004457e-01,1.157274e-01,3.500604e-02,2.314548e-01
2.715472e-01,1.567778e-01,-4.118657e-02,3.135557e-01
1.971487e-01,1.138239e-01,-1.715817e-02,2.276477e-01
1.707408e-01,9.857726e-02,2.853059e-02,1.971545e-01
2.199216e-01,1.269718e-01,2.401903e-02,2.539436e-01
2.573513e-01,1.485819e-01,-4.327988e-02,2.971637e-01
1.864646e-01,1.076554e-01,-6.116562e-03,2.153107e-01
1.746463e-01,1.008321e-01,3.587133e-02,2.016642e-01
2.435506e-01,1.406140e-01,4.621094e-03,2.812280e-01
2.365754e-01,1.365868e-01,-3.773655e-02,2.731737e-01
1.775550e-01,1.025114e-01,5.170238e-03,2.050229e-01
1.810765e-01,1.045445e-01,4.035641e-02,2.090891e-01
2.626522e-01,1.516423e-01,-1.655770e-02,3.032846e-01
2.172925e-01,1.254539e-01,-2.883636e-02,2.509078e-01
1.735872e-01,1.002206e-01,1.610543e-02,2.004412e-01
1.963296e-01,1.133509e-01,3.668818e-02,2.267018e-01
2.723825e-01,1.572601e-01,-3.862785e-02,3.145202e-01
1.997940e-01,1.153511e-01,-1.914401e-02,2.307023e-01
1.707062e-01,9.855727e-02,2.674869e-02,1.971145e-01
2.155942e-01,1.244733e-01,2.688629e-02,2.489467e-01
2.613768e-01,1.509060e-01,-4.376298e-02,3.018119e-01
1.886965e-01,1.089440e-01,-8.636366e-03,2.178880e-01
1.735553e-01,1.002022e-01,3.443756e-02,2.004044e-01
2.386667e-01,1.377943e-01,9.081953e-03,2.755886e-01
2.407882e-01,1.390191e-01,-3.931165e-02,2.780382e-01
1.788752e-01,1.032736e-01,2.914113e-03,2.065473e-01
1.790747e-01,1.033888e-01,4.001842e-02,2.067777e-01
2.588173e-01,1.494282e-01,-1.140455e-02,2.988565e-01
2.219041e-01,1.281164e-01,-3.120893e-02,2.562327e-01
1.742817e-01,1.006216e-01,1.338247e-02,2.012432e-01
1.917082e-01,1.106828e-01,3.848233e-02,2.213655e-01
2.723354e-01,1.572329e-01,-3.463563e-02,3.144658e-01
2.033352e-01,1.173956e-01,-2.159378e-02,2.347913e-01
1.708427e-01,9.863606e-02,2.441368e-02,1.972721e-01
2.102586e-01,1.213929e-01,3.019824e-02,2.427857e-01
2.662845e-01,1.537394e-01,-4.403200e-02,3.074789e-01
1.916129e-01,1.106278e-01,-1.204584e-02,2.212555e-01
1.719479e-01,9.927417e-02,3.241309e-02,1.985483e-01
2.312695e-01,1.335235e-01,1.549731e-02,2.670470e-01
2.472757e-01,1.427647e-01,-4.137193e-02,2.855294e-01
1.813532e-01,1.047043e-01,-5.251358e-04,2.094086e-01
1.768087e-01,1.020805e-01,3.888492e-02,2.041610e-01
2.529660e-01,1.460500e-01,-4.519699e-03,2.921000e-01
2.284000e-01,1.318668e-01,-3.443121e-02,2.637336e-01
1.753395e-01,1.012323e-01,9.607113e-03,2.024646e-01
1.858600e-01,1.073063e-01,4.019404e-02,2.146126e-01
2.692167e-01,1.554323e-01,-2.668412e-02,3.108646e-01
2.093950e-01,1.208943e-01,-2.496532e-02,2.417886e-01
1.719113e-01,9.925304e-02,2.071168e-02,1.985061e-01
