x,y,z,R
2.405699e-01,1.388931e-01,-1.259880e-02,2.777862e-01
2.120707e-01,1.224391e-01,-9.520929e-03,2.448782e-01
1.982172e-01,1.144407e-01,1.595706e-02,2.288815e-01
2.333367e-01,1.347170e-01,-1.549037e-03,2.694341e-01
2.228592e-01,1.286678e-01,-1.585672e-02,2.573356e-01
1.971880e-01,1.138466e-01,1.057684e-02,2.276931e-01
2.210806e-01,1.276409e-01,9.471393e-03,2.552819e-01
2.338013e-01,1.349853e-01,-1.912455e-02,2.699705e-01
2.001254e-01,1.155425e-01,3.176296e-03,2.310849e-01
2.092193e-01,1.207928e-01,1.626833e-02,2.415856e-01
2.405713e-01,1.388939e-01,-1.710960e-02,2.777878e-01
2.065791e-01,1.192685e-01,-4.849659e-03,2.385370e-01
2.009981e-01,1.160463e-01,1.756089e-02,2.320927e-01
2.387160e-01,1.378228e-01,-8.667183e-03,2.756455e-01
2.160467e-01,1.247346e-01,-1.222111e-02,2.494693e-01
1.973218e-01,1.139238e-01,1.420999e-02,2.278476e-01
2.288643e-01,1.321349e-01,3.008996e-03,2.642697e-01
2.272685e-01,1.312135e-01,-1.759730e-02,2.624271e-01
1.978773e-01,1.142445e-01,7.871380e-03,2.284890e-01
2.161991e-01,1.248226e-01,1.274120e-02,2.496452e-01
2.372137e-01,1.369554e-01,-1.909812e-02,2.739108e-01
2.022334e-01,1.167595e-01,6.784456e-05,2.335190e-01
2.055111e-01,1.186519e-01,1.740599e-02,2.373038e-01
2.409955e-01,1.391388e-01,-1.453412e-02,2.782776e-01
2.099267e-01,1.212012e-01,-7.848553e-03,2.424024e-01
1.990410e-01,1.149164e-01,1.672817e-02,2.298327e-01
2.356082e-01,1.360284e-01,-4.230422e-03,2.720569e-01
2.203045e-01,1.271929e-01,-1.462855e-02,2.543857e-01
1.970595e-01,1.137723e-01,1.201845e-02,2.275447e-01
2.239793e-01,1.293145e-01,7.249562e-03,2.586291e-01
2.315129e-01,1.336640e-01,-1.876390e-02,2.673281e-01
1.991391e-01,1.149730e-01,4.947081e-03,2.299460e-01
2.116465e-01,1.221941e-01,1.521655e-02,2.443883e-01
2.396856e-01,1.383825e-01,-1.813708e-02,2.767651e-01
2.048412e-01,1.182651e-01,-3.055168e-03,2.365302e-01
2.024574e-01,1.168889e-01,1.772640e-02,2.337777e-01
2.399624e-01,1.385424e-01,-1.103667e-02,2.770847e-01
2.136918e-01,1.233750e-01,-1.068015e-02,2.467501e-01
1.977639e-01,1.141791e-01,1.528704e-02,2.283581e-01
2.315388e-01,1.336790e-01,3.776211e-04,2.673580e-01
2.247082e-01,1.297354e-01,-1.664628e-02,2.594707e-01
1.974050e-01,1.139719e-01,9.477144e-03,2.279437e-01
2.190127e-01,1.264471e-01,1.092927e-02,2.528941e-01
2.353220e-01,1.358632e-01,-1.921886e-02,2.717264e-01
2.009447e-01,1.160155e-01,1.883113e-03,2.320310e-01
2.075932e-01,1.198540e-01,1.684636e-02,2.397080e-01
2.409237e-01,1.390974e-01,-1.615465e-02,2.781947e-01
2.079251e-01,1.200456e-01,-6.119632e-03,2.400913e-01
2.000953e-01,1.155251e-01,1.729320e-02,2.310501e-01
2.375538e-01,1.371517e-01,-6.854195e-03,2.743035e-01
2.177993e-01,1.257465e-01,-1.326878e-02,2.514930e-01
1.971371e-01,1.138171e-01,1.334187e-02,2.276343e-01
2.268518e-01,1.309730e-01,4.836455e-03,2.619459e-01
2.290780e-01,1.322582e-01,-1.816255e-02,2.645165e-01
1.983369e-01,1.145099e-01,6.670552e-03,2.290197e-01
2.142441e-01,1.236939e-01,1.387745e-02,2.473878e-01
2.383809e-01,1.376293e-01,-1.881676e-02,2.752586e-01
2.032643e-01,1.173547e-01,-1.240773e-03,2.347094e-01
2.041513e-01,1.178668e-01,1.763642e-02,2.357336e-01
2.407395e-01,1.389910e-01,-1.317266e-02,2.779820e-01
2.114541e-01,1.220831e-01,-9.057140e-03,2.441662e-01
1.984256e-01,1.145610e-01,1.619358e-02,2.291221e-01
2.340047e-01,1.351027e-01,-2.305110e-03,2.702053e-01
2.221372e-01,1.282510e-01,-1.552586e-02,2.565019e-01
1.971314e-01,1.138139e-01,1.099320e-02,2.276277e-01
2.218948e-01,1.281110e-01,8.868230e-03,2.562220e-01
2.331765e-01,1.346245e-01,-1.904914e-02,2.692490e-01
1.998300e-01,1.153719e-01,3.678159e-03,2.307438e-01
2.098831e-01,1.211760e-01,1.600174e-02,2.423521e-01
2.403677e-01,1.387764e-01,-1.743409e-02,2.775528e-01
2.060741e-01,1.189769e-01,-4.347842e-03,2.379538e-01
2.013844e-01,1.162693e-01,1.763238e-02,2.325386e-01
2.391116e-01,1.380512e-01,-9.353660e-03,2.761023e-01
2.153737e-01,1.243461e-01,-1.179700e-02,2.486921e-01
1.974246e-01,1.139832e-01,1.452892e-02,2.279663e-01
2.296338e-01,1.325791e-01,2.277582e-03,2.651583e-01
2.265520e-01,1.307999e-01,-1.734836e-02,2.615997e-01
1.977248e-01,1.141565e-01,8.331112e-03,2.283129e-01
2.169807e-01,1.252738e-01,1.225822e-02,2.505477e-01
2.367112e-01,1.366652e-01,-1.916305e-02,2.733305e-01
2.018538e-01,1.165404e-01,5.794880e-04,2.330807e-01
2.060750e-01,1.189775e-01,1.727701e-02,2.379549e-01
2.410250e-01,1.391559e-01,-1.502308e-02,2.783117e-01
2.093494e-01,1.208679e-01,-7.367430e-03,2.417358e-01
1.993140e-01,1.150740e-01,1.690877e-02,2.301480e-01
2.361911e-01,1.363650e-01,-4.976968e-03,2.727300e-01
2.195932e-01,1.267822e-01,-1.425861e-02,2.535644e-01
1.970601e-01,1.137727e-01,1.240333e-02,2.275454e-01
2.247929e-01,1.297842e-01,6.588423e-03,2.595685e-01
2.308402e-01,1.332756e-01,-1.861788e-02,2.665513e-01
1.988948e-01,1.148320e-01,5.437223e-03,2.296640e-01
2.123612e-01,1.226068e-01,1.486881e-02,2.452135e-01
2.393595e-01,1.381943e-01,-1.836298e-02,2.763886e-01
2.043812e-01,1.179995e-01,-2.546350e-03,2.359991e-01
2.029098e-01,1.171501e-01,1.772761e-02,2.343001e-01
2.402298e-01,1.386967e-01,-1.166342e-02,2.773934e-01
2.130500e-01,1.230045e-01,-1.023133e-02,2.460090e-01
1.979273e-01,1.142734e-01,1.556012e-02,2.285468e-01
2.322564e-01,1.340933e-01,-3.742213e-04,2.681866e-01
2.239844e-01,1.293175e-01,-1.634732e-02,2.586350e-01
1.973081e-01,1.139159e-01,9.913242e-03,2.278317e-01
2.198185e-01,1.269123e-01,1.037370e-02,2.538245e-01
2.347412e-01,1.355279e-01,-1.919924e-02,2.710558e-01
2.006134e-01,1.158242e-01,2.390632e-03,2.316484e-01
2.082169e-01,1.202141e-01,1.663787e-02,2.404282e-01
2.408150e-01,1.390346e-01,-1.654962e-02,2.780692e-01
2.073887e-01,1.197359e-01,-5.625168e-03,2.394718e-01
2.004339e-01,1.157206e-01,1.741221e-02,2.314412e-01
2.380335e-01,1.374287e-01,-7.572533e-03,2.748574e-01
2.171080e-01,1.253474e-01,-1.286540e-02,2.506948e-01
1.971961e-01,1.138512e-01,1.369029e-02,2.277025e-01
2.276465e-01,1.314318e-01,4.129403e-03,2.628635e-01
2.283743e-01,1.318519e-01,-1.795394e-02,2.637039e-01
1.981455e-01,1.143993e-01,7.144571e-03,2.287987e-01
2.150011e-01,1.241310e-01,1.344992e-02,2.482619e-01
2.379454e-01,1.373778e-01,-1.894694e-02,2.747556e-01
2.028508e-01,1.171160e-01,-7.288348e-04,2.342319e-01
2.046695e-01,1.181660e-01,1.756308e-02,2.363320e-01
2.408701e-01,1.390664e-01,-1.372385e-02,2.781329e-01
2.108479e-01,1.217331e-01,-8.588107e-03,2.434661e-01
1.986522e-01,1.146919e-01,1.641494e-02,2.293838e-01
2.346506e-01,1.354756e-01,-3.060358e-03,2.709512e-01
2.214181e-01,1.278358e-01,-1.518336e-02,2.556716e-01
1.970905e-01,1.137903e-01,1.140118e-02,2.275805e-01
2.227106e-01,1.285820e-01,8.247682e-03,2.571640e-01
2.325357e-01,1.342545e-01,-1.895302e-02,2.685091e-01
1.995484e-01,1.152093e-01,4.177148e-03,2.304186e-01
2.105618e-01,1.215679e-01,1.571231e-02,2.431358e-01
2.401278e-01,1.386378e-01,-1.773074e-02,2.772757e-01
2.055818e-01,1.186927e-01,-3.843647e-03,2.373855e-01
2.017894e-01,1.165032e-01,1.768456e-02,2.330064e-01
2.394724e-01,1.382594e-01,-1.002510e-02,2.765189e-01
2.147089e-01,1.239623e-01,-1.136546e-02,2.479245e-01
1.975436e-01,1.140519e-01,1.483554e-02,2.281038e-01
2.303908e-01,1.330162e-01,1.538773e-03,2.660323e-01
2.258323e-01,1.303844e-01,-1.708466e-02,2.607687e-01
1.975878e-01,1.140774e-01,8.784643e-03,2.281548e-01
2.177704e-01,1.257298e-01,1.175421e-02,2.514596e-01
2.361848e-01,1.363613e-01,-1.920343e-02,2.727227e-01
2.014877e-01,1.163290e-01,1.090398e-03,2.326579e-01
2.066560e-01,1.193129e-01,1.712590e-02,2.386258e-01
2.410155e-01,1.391504e-01,-1.548635e-02,2.783008e-01
2.087825e-01,1.205407e-01,-6.882236e-03,2.410813e-01
1.996052e-01,1.152421e-01,1.707262e-02,2.304842e-01
2.367467e-01,1.366858e-01,-5.717487e-03,2.733716e-01
2.188873e-01,1.263746e-01,-1.387867e-02,2.527493e-01
1.970775e-01,1.137827e-01,1.277847e-02,2.275654e-01
2.256022e-01,1.302515e-01,5.913137e-03,2.605030e-01
2.301581e-01,1.328818e-01,-1.845347e-02,2.657636e-01
1.986649e-01,1.146992e-01,5.923258e-03,2.293985e-01
2.130882e-01,1.230265e-01,1.449848e-02,2.460531e-01
2.389998e-01,1.379866e-01,-1.856145e-02,2.759732e-01
2.039340e-01,1.177414e-01,-2.036262e-03,2.354827e-01
2.033813e-01,1.174223e-01,1.770820e-02,2.348445e-01
2.404591e-01,1.388291e-01,-1.227038e-02,2.776582e-01
2.124180e-01,1.226396e-01,-9.776364e-03,2.452792e-01
1.981089e-01,1.143782e-01,1.581921e-02,2.287565e-01
2.329558e-01,1.344971e-01,-1.128811e-03,2.689942e-01
2.232610e-01,1.288998e-01,-1.603547e-02,2.577996e-01
1.972264e-01,1.138687e-01,1.034189e-02,2.277374e-01
2.206286e-01,1.273800e-01,9.798972e-03,2.547599e-01
2.341421e-01,1.351820e-01,-1.915730e-02,2.703640e-01
2.002957e-01,1.156408e-01,2.896189e-03,2.312816e-01
2.088566e-01,1.205834e-01,1.640671e-02,2.411668e-01
2.406694e-01,1.389505e-01,-1.691725e-02,2.779010e-01
2.068652e-01,1.194337e-01,-5.127523e-03,2.388674e-01
2.007914e-01,1.159269e-01,1.751294e-02,2.318539e-01
2.384812e-01,1.376872e-01,-8.279545e-03,2.753744e-01
2.164237e-01,1.249523e-01,-1.245358e-02,2.499046e-01
1.972723e-01,1.138952e-01,1.402752e-02,2.277904e-01
2.284321e-01,1.318853e-01,3.411941e-03,2.637707e-01
2.276648e-01,1.314424e-01,-1.772910e-02,2.628847e-01
1.979690e-01,1.142975e-01,7.613255e-03,2.285949e-01
2.157682e-01,1.245739e-01,1.300046e-02,2.491477e-01
2.374824e-01,1.371105e-01,-1.905119e-02,2.742210e-01
2.024507e-01,1.168849e-01,-2.167419e-04,2.337699e-01
2.052057e-01,1.184756e-01,1.746815e-02,2.369511e-01
2.409617e-01,1.391193e-01,-1.425139e-02,2.782385e-01
2.102527e-01,1.213895e-01,-8.114101e-03,2.427789e-01
1.988971e-01,1.148333e-01,1.662069e-02,2.296666e-01
2.352730e-01,1.358350e-01,-3.813339e-03,2.716699e-01
2.207009e-01,1.274217e-01,-1.482980e-02,2.548434e-01
1.970659e-01,1.137761e-01,1.180042e-02,2.275521e-01
2.235268e-01,1.290533e-01,7.610535e-03,2.581066e-01
2.318819e-01,1.338771e-01,-1.883689e-02,2.677541e-01
1.992812e-01,1.150551e-01,4.672942e-03,2.301101e-01
2.112552e-01,1.219682e-01,1.540000e-02,2.439365e-01
2.398534e-01,1.384794e-01,-1.799962e-02,2.769589e-01
2.051024e-01,1.184159e-01,-3.337383e-03,2.368319e-01
2.022134e-01,1.167479e-01,1.771704e-02,2.334959e-01
2.397974e-01,1.384471e-01,-1.068010e-02,2.768942e-01
2.140529e-01,1.235835e-01,-1.092687e-02,2.471670e-01
1.976806e-01,1.141310e-01,1.512937e-02,2.282619e-01
2.311329e-01,1.334446e-01,7.939038e-04,2.668893e-01
2.251105e-01,1.299676e-01,-1.680674e-02,2.599353e-01
1.974659e-01,1.140070e-01,9.231610e-03,2.280140e-01
2.185672e-01,1.261898e-01,1.122962e-02,2.523797e-01
2.356360e-01,1.360445e-01,-1.921986e-02,2.720890e-01
2.011347e-01,1.161252e-01,1.600232e-03,2.322503e-01
2.072537e-01,1.196580e-01,1.695248e-02,2.393159e-01
2.409676e-01,1.391227e-01,-1.592332e-02,2.782454e-01
2.082282e-01,1.202206e-01,-6.393118e-03,2.404412e-01
1.999149e-01,1.154209e-01,1.721928e-02,2.308418e-01
2.372737e-01,1.369900e-01,-6.450487e-03,2.739800e-01
2.181868e-01,1.259702e-01,-1.348921e-02,2.519404e-01
1.971111e-01,1.138021e-01,1.314348e-02,2.276042e-01
2.264076e-01,1.307165e-01,5.224542e-03,2.614329e-01
2.294657e-01,1.324821e-01,-1.827129e-02,2.649642e-01
1.984499e-01,1.145751e-01,6.404851e-03,2.291502e-01
2.138280e-01,1.234537e-01,1.410555e-02,2.469073e-01
2.386099e-01,1.377615e-01,-1.873293e-02,2.755229e-01
2.035001e-01,1.174909e-01,-1.525184e-03,2.349817e-01
2.038711e-01,1.177051e-01,1.766793e-02,2.354101e-01
2.406502e-01,1.389394e-01,-1.285637e-02,2.778789e-01
2.117956e-01,1.222802e-01,-9.315660e-03,2.445605e-01
1.983073e-01,1.144928e-01,1.606394e-02,2.289856e-01
2.336357e-01,1.348896e-01,-1.884764e-03,2.697792e-01
2.225388e-01,1.284828e-01,-1.571124e-02,2.569656e-01
1.971606e-01,1.138307e-01,1.076273e-02,2.276615e-01
2.214422e-01,1.278497e-01,9.205718e-03,2.556994e-01
2.335263e-01,1.348265e-01,-1.909367e-02,2.696530e-01
1.999921e-01,1.154655e-01,3.399455e-03,2.309310e-01
2.095120e-01,1.209618e-01,1.615278e-02,2.419237e-01
2.404853e-01,1.388442e-01,-1.725711e-02,2.776885e-01
2.063531e-01,1.191380e-01,-4.627155e-03,2.382760e-01
2.011676e-01,1.161441e-01,1.759497e-02,2.322883e-01
2.388957e-01,1.379265e-01,-8.973761e-03,2.758530e-01
2.157468e-01,1.245615e-01,-1.203374e-02,2.491229e-01
1.973655e-01,1.139490e-01,1.435310e-02,2.278980e-01
2.292074e-01,1.323329e-01,2.685212e-03,2.646659e-01
2.269506e-01,1.310300e-01,-1.748861e-02,2.620600e-01
1.978076e-01,1.142043e-01,8.076268e-03,2.284085e-01
2.165452e-01,1.250224e-01,1.252935e-02,2.500448e-01
2.369936e-01,1.368283e-01,-1.913002e-02,2.736567e-01
2.020632e-01,1.166612e-01,2.951066e-04,2.333224e-01
2.057592e-01,1.187951e-01,1.735146e-02,2.375903e-01
2.410140e-01,1.391495e-01,-1.475441e-02,2.782990e-01
2.096692e-01,1.210526e-01,-7.635418e-03,2.421051e-01
1.991598e-01,1.149850e-01,1.681041e-02,2.299700e-01
2.358705e-01,1.361799e-01,-4.562594e-03,2.723598e-01
2.199884e-01,1.270104e-01,-1.446551e-02,2.540207e-01
1.970579e-01,1.137714e-01,1.219053e-02,2.275428e-01
2.243408e-01,1.295232e-01,6.957816e-03,2.590465e-01
2.312155e-01,1.334923e-01,-1.870137e-02,2.669846e-01
1.990285e-01,1.149092e-01,5.165192e-03,2.298183e-01
2.119623e-01,1.223765e-01,1.506494e-02,2.447529e-01
2.395444e-01,1.383010e-01,-1.824076e-02,2.766021e-01
2.046351e-01,1.181461e-01,-2.829425e-03,2.362923e-01
2.026562e-01,1.170036e-01,1.772944e-02,2.340073e-01
2.400856e-01,1.386135e-01,-1.131733e-02,2.772270e-01
2.134059e-01,1.232099e-01,-1.048160e-02,2.464199e-01
1.978342e-01,1.142196e-01,1.541001e-02,2.284392e-01
2.318596e-01,1.338642e-01,4.418948e-05,2.677284e-01
2.243873e-01,1.295501e-01,-1.651514e-02,2.591002e-01
1.973598e-01,1.139457e-01,9.671684e-03,2.278914e-01
2.193699e-01,1.266533e-01,1.068497e-02,2.533066e-01
2.350664e-01,1.357157e-01,-1.921295e-02,2.714313e-01
2.007956e-01,1.159294e-01,2.108670e-03,2.318587e-01
2.078682e-01,1.200127e-01,1.675656e-02,2.400255e-01
2.408804e-01,1.390723e-01,-1.633342e-02,2.781447e-01
2.076852e-01,1.199071e-01,-5.900483e-03,2.398143e-01
2.002432e-01,1.156104e-01,1.734829e-02,2.312209e-01
2.377706e-01,1.372769e-01,-7.174477e-03,2.745539e-01
2.174916e-01,1.255688e-01,-1.309073e-02,2.511376e-01
1.971610e-01,1.138310e-01,1.349795e-02,2.276619e-01
2.272055e-01,1.311772e-01,4.523863e-03,2.623543e-01
2.287660e-01,1.320781e-01,-1.807196e-02,2.641563e-01
1.982498e-01,1.144596e-01,6.881663e-03,2.289191e-01
2.145788e-01,1.238871e-01,1.369035e-02,2.477743e-01
2.381907e-01,1.375195e-01,-1.887778e-02,2.750389e-01
2.030795e-01,1.172480e-01,-1.013452e-03,2.344960e-01
2.043792e-01,1.179984e-01,1.760649e-02,2.359967e-01
2.408023e-01,1.390273e-01,-1.342027e-02,2.780546e-01
2.111834e-01,1.219268e-01,-8.849511e-03,2.438536e-01
1.985240e-01,1.146179e-01,1.629377e-02,2.292358e-01
2.342944e-01,1.352699e-01,-2.640676e-03,2.705399e-01
2.218173e-01,1.280663e-01,-1.537519e-02,2.561325e-01
1.971111e-01,1.138021e-01,1.117542e-02,2.276043e-01
2.222571e-01,1.283202e-01,8.594753e-03,2.566404e-01
2.328934e-01,1.344611e-01,-1.900896e-02,2.689222e-01
1.997027e-01,1.152984e-01,3.900080e-03,2.305969e-01
2.101827e-01,1.213490e-01,1.587603e-02,2.426981e-01
2.402657e-01,1.387175e-01,-1.756927e-02,2.774349e-01
2.058542e-01,1.188500e-01,-4.124200e-03,2.376999e-01
2.015621e-01,1.163719e-01,1.765794e-02,2.327438e-01
2.392759e-01,1.381460e-01,-9.653734e-03,2.762920e-01
2.150777e-01,1.241752e-01,-1.160625e-02,2.483503e-01
1.974751e-01,1.140123e-01,1.466663e-02,2.280246e-01
2.299713e-01,1.327740e-01,1.950372e-03,2.655480e-01
2.262326e-01,1.306154e-01,-1.723306e-02,2.612309e-01
1.976617e-01,1.141201e-01,8.533278e-03,2.282401e-01
2.173307e-01,1.254759e-01,1.203696e-02,2.509519e-01
2.364803e-01,1.365319e-01,-1.918398e-02,2.730639e-01
2.016893e-01,1.164454e-01,8.064407e-04,2.328907e-01
2.063306e-01,1.191250e-01,1.721268e-02,2.382501e-01
2.410258e-01,1.391563e-01,-1.523201e-02,2.783127e-01
2.090960e-01,1.207216e-01,-7.152496e-03,2.414433e-01
1.994409e-01,1.151472e-01,1.698363e-02,2.302945e-01
2.364415e-01,1.365095e-01,-5.306645e-03,2.730191e-01
2.192790e-01,1.266008e-01,-1.409110e-02,2.532016e-01
1.970660e-01,1.137761e-01,1.257113e-02,2.275522e-01
2.251528e-01,1.299921e-01,6.290253e-03,2.599841e-01
2.305387e-01,1.331016e-01,-1.854711e-02,2.662031e-01
1.987905e-01,1.147718e-01,5.653550e-03,2.295435e-01
2.126823e-01,1.227922e-01,1.470717e-02,2.455844e-01
2.392036e-01,1.381043e-01,-1.845447e-02,2.762086e-01
2.041811e-01,1.178840e-01,-2.319980e-03,2.357680e-01
2.031169e-01,1.172696e-01,1.772155e-02,2.345392e-01
2.403365e-01,1.387583e-01,-1.193547e-02,2.775167e-01
2.127683e-01,1.228418e-01,-1.003003e-02,2.456837e-01
1.980059e-01,1.143188e-01,1.567691e-02,2.286376e-01
2.325692e-01,1.342739e-01,-7.090305e-04,2.685477e-01
2.236632e-01,1.291320e-01,-1.621040e-02,2.582640e-01
1.972695e-01,1.138936e-01,1.010452e-02,2.277871e-01
2.201777e-01,1.271196e-01,1.012083e-02,2.542393e-01
2.344777e-01,1.353757e-01,-1.918335e-02,2.707515e-01
2.004703e-01,1.157416e-01,2.615367e-03,2.314832e-01
2.084991e-01,1.203770e-01,1.653801e-02,2.407540e-01
2.407547e-01,1.389998e-01,-1.671625e-02,2.779996e-01
