x,y,z,R
2.733960e-01,1.578453e-01,-3.097098e-02,3.156905e-01
2.079696e-01,1.200713e-01,-2.569809e-02,2.401426e-01
1.697279e-01,9.799247e-02,2.091058e-02,1.959849e-01
1.996857e-01,1.152886e-01,3.684712e-02,2.305772e-01
2.765269e-01,1.596529e-01,-4.323888e-02,3.193058e-01
1.989122e-01,1.148420e-01,-2.095969e-02,2.296840e-01
1.674708e-01,9.668932e-02,2.633389e-02,1.933786e-01
2.076962e-01,1.199134e-01,3.340604e-02,2.398269e-01
2.748978e-01,1.587123e-01,-4.720214e-02,3.174246e-01
1.949176e-01,1.125357e-01,-1.833445e-02,2.250715e-01
1.669093e-01,9.636513e-02,2.896905e-02,1.927303e-01
2.127250e-01,1.228168e-01,3.063273e-02,2.456336e-01
2.712072e-01,1.565815e-01,-4.793674e-02,3.131631e-01
1.919653e-01,1.108312e-01,-1.534744e-02,2.216624e-01
1.677614e-01,9.685708e-02,3.133255e-02,1.937142e-01
2.201123e-01,1.270819e-01,2.549673e-02,2.541638e-01
2.622664e-01,1.514196e-01,-4.652566e-02,3.028391e-01
1.871035e-01,1.080243e-01,-9.330205e-03,2.160485e-01
1.706234e-01,9.850944e-02,3.523231e-02,1.970189e-01
2.345302e-01,1.354061e-01,1.408006e-02,2.708121e-01
2.479718e-01,1.431666e-01,-4.337496e-02,2.863331e-01
1.799705e-01,1.039060e-01,-1.457570e-03,2.078120e-01
1.733800e-01,1.001010e-01,3.997258e-02,2.002020e-01
2.484430e-01,1.434386e-01,2.130374e-03,2.868773e-01
2.379939e-01,1.374058e-01,-4.060906e-02,2.748116e-01
1.755825e-01,1.013726e-01,3.371513e-03,2.027452e-01
1.749351e-01,1.009988e-01,4.256650e-02,2.019976e-01
2.552710e-01,1.473808e-01,-4.192341e-03,2.947616e-01
2.329706e-01,1.345056e-01,-3.879436e-02,2.690112e-01
1.738512e-01,1.003731e-01,5.911773e-03,2.007461e-01
1.766119e-01,1.019669e-01,4.336921e-02,2.039338e-01
2.595060e-01,1.498258e-01,-9.012332e-03,2.996517e-01
2.279904e-01,1.316303e-01,-3.626486e-02,2.632607e-01
1.729534e-01,9.985467e-02,8.848298e-03,1.997093e-01
1.804323e-01,1.041726e-01,4.309114e-02,2.083452e-01
2.659258e-01,1.535323e-01,-1.807077e-02,3.070647e-01
2.184700e-01,1.261337e-01,-3.104417e-02,2.522674e-01
1.717913e-01,9.918374e-02,1.468518e-02,1.983675e-01
1.899299e-01,1.096561e-01,4.049900e-02,2.193121e-01
2.748946e-01,1.587105e-01,-3.437082e-02,3.174210e-01
2.055685e-01,1.186851e-01,-2.454214e-02,2.373701e-01
1.690730e-01,9.761431e-02,2.230099e-02,1.952286e-01
2.015687e-01,1.163757e-01,3.614353e-02,2.327515e-01
2.765747e-01,1.596805e-01,-4.447941e-02,3.193609e-01
1.980091e-01,1.143206e-01,-2.053364e-02,2.286412e-01
1.671449e-01,9.650117e-02,2.685001e-02,1.930023e-01
2.082133e-01,1.202120e-01,3.325870e-02,2.404240e-01
2.751093e-01,1.588344e-01,-4.755453e-02,3.176688e-01
1.948315e-01,1.124860e-01,-1.845083e-02,2.249720e-01
1.666732e-01,9.622881e-02,2.894524e-02,1.924576e-01
2.121452e-01,1.224821e-01,3.111071e-02,2.449642e-01
2.723118e-01,1.572193e-01,-4.818952e-02,3.144386e-01
1.925309e-01,1.111578e-01,-1.616051e-02,2.223156e-01
1.672839e-01,9.658141e-02,3.079201e-02,1.931628e-01
2.178215e-01,1.257593e-01,2.722995e-02,2.515186e-01
2.653347e-01,1.531911e-01,-4.722785e-02,3.063821e-01
1.886134e-01,1.088960e-01,-1.128922e-02,2.177920e-01
1.696011e-01,9.791924e-02,3.406537e-02,1.958385e-01
2.300463e-01,1.328173e-01,1.782056e-02,2.656346e-01
2.518974e-01,1.454331e-01,-4.433832e-02,2.908661e-01
1.818473e-01,1.049896e-01,-3.462768e-03,2.099792e-01
1.727779e-01,9.975339e-02,3.879332e-02,1.995068e-01
2.453437e-01,1.416492e-01,4.858558e-03,2.832985e-01
2.401182e-01,1.386323e-01,-4.127219e-02,2.772646e-01
1.764336e-01,1.018640e-01,2.341609e-03,2.037280e-01
1.744871e-01,1.007402e-01,4.209466e-02,2.014804e-01
2.537598e-01,1.465083e-01,-2.672131e-03,2.930166e-01
2.343514e-01,1.353028e-01,-3.940593e-02,2.706057e-01
1.742087e-01,1.005794e-01,5.151313e-03,2.011589e-01
1.758562e-01,1.015306e-01,4.327324e-02,2.030613e-01
2.579613e-01,1.489340e-01,-7.056854e-03,2.978681e-01
2.302371e-01,1.329274e-01,-3.750569e-02,2.658549e-01
1.732415e-01,1.000211e-01,7.464996e-03,2.000421e-01
1.783839e-01,1.029900e-01,4.339580e-02,2.059800e-01
2.627811e-01,1.517167e-01,-1.340794e-02,3.034334e-01
2.231879e-01,1.288576e-01,-3.362991e-02,2.577151e-01
1.723649e-01,9.951492e-02,1.179480e-02,1.990298e-01
1.850674e-01,1.068487e-01,4.204109e-02,2.136975e-01
2.714943e-01,1.567473e-01,-2.720003e-02,3.134946e-01
2.107927e-01,1.217012e-01,-2.710648e-02,2.434024e-01
1.703814e-01,9.836975e-02,1.925070e-02,1.967395e-01
1.972046e-01,1.138561e-01,3.782186e-02,2.277122e-01
2.765558e-01,1.596696e-01,-4.149603e-02,3.193391e-01
2.003208e-01,1.156553e-01,-2.176997e-02,2.313106e-01
1.677784e-01,9.686688e-02,2.545628e-02,1.937338e-01
2.062752e-01,1.190930e-01,3.409372e-02,2.381860e-01
2.755183e-01,1.590706e-01,-4.673219e-02,3.181411e-01
1.956635e-01,1.129664e-01,-1.895209e-02,2.259328e-01
1.668628e-01,9.633829e-02,2.841895e-02,1.926766e-01
2.113200e-01,1.220056e-01,3.152105e-02,2.440113e-01
2.727223e-01,1.574563e-01,-4.799518e-02,3.149126e-01
1.929294e-01,1.113879e-01,-1.648790e-02,2.227757e-01
1.672706e-01,9.657375e-02,3.050563e-02,1.931475e-01
2.171285e-01,1.253592e-01,2.767896e-02,2.507184e-01
2.660306e-01,1.535928e-01,-4.729423e-02,3.071857e-01
1.890218e-01,1.091318e-01,-1.174318e-02,2.182635e-01
1.694330e-01,9.782217e-02,3.375740e-02,1.956443e-01
2.290463e-01,1.322400e-01,1.860236e-02,2.644799e-01
2.527378e-01,1.459182e-01,-4.448500e-02,2.918364e-01
1.823007e-01,1.052513e-01,-3.889778e-03,2.105027e-01
1.727173e-01,9.971835e-02,3.850395e-02,1.994367e-01
2.447316e-01,1.412958e-01,5.341149e-03,2.825917e-01
2.403931e-01,1.387910e-01,-4.128326e-02,2.775821e-01
1.766154e-01,1.019689e-01,2.244399e-03,2.039379e-01
1.745947e-01,1.008023e-01,4.197392e-02,2.016046e-01
2.537959e-01,1.465291e-01,-2.822070e-03,2.930582e-01
2.339920e-01,1.350953e-01,-3.914132e-02,2.701907e-01
1.742216e-01,1.005869e-01,5.409357e-03,2.011737e-01
1.763204e-01,1.017987e-01,4.319729e-02,2.035973e-01
2.587378e-01,1.493823e-01,-8.153492e-03,2.987647e-01
2.287981e-01,1.320966e-01,-3.664704e-02,2.641933e-01
1.731242e-01,9.995330e-02,8.387363e-03,1.999066e-01
1.798646e-01,1.038449e-01,4.313408e-02,2.076898e-01
2.650218e-01,1.530104e-01,-1.676950e-02,3.060208e-01
2.196646e-01,1.268234e-01,-3.165974e-02,2.536468e-01
1.719862e-01,9.929628e-02,1.397394e-02,1.985926e-01
1.888020e-01,1.090049e-01,4.085913e-02,2.180098e-01
2.742581e-01,1.583430e-01,-3.288789e-02,3.166860e-01
2.065927e-01,1.192764e-01,-2.502284e-02,2.385528e-01
1.693732e-01,9.778768e-02,2.171411e-02,1.955754e-01
2.008221e-01,1.159447e-01,3.640671e-02,2.318894e-01
2.765025e-01,1.596388e-01,-4.397529e-02,3.192776e-01
1.983321e-01,1.145071e-01,-2.064837e-02,2.290141e-01
1.673106e-01,9.659684e-02,2.668389e-02,1.931937e-01
2.081803e-01,1.201930e-01,3.319664e-02,2.403859e-01
2.747889e-01,1.586495e-01,-4.739961e-02,3.172989e-01
1.947128e-01,1.124175e-01,-1.821118e-02,2.248349e-01
1.668613e-01,9.633740e-02,2.909843e-02,1.926748e-01
2.129245e-01,1.229320e-01,3.053383e-02,2.458640e-01
2.711092e-01,1.565250e-01,-4.798156e-02,3.130500e-01
1.918720e-01,1.107773e-01,-1.527351e-02,2.215547e-01
1.677604e-01,9.685651e-02,3.139782e-02,1.937130e-01
2.202591e-01,1.271667e-01,2.540227e-02,2.543333e-01
2.621383e-01,1.513456e-01,-4.651752e-02,3.026912e-01
1.870249e-01,1.079789e-01,-9.252983e-03,2.159577e-01
1.706409e-01,9.851956e-02,3.528688e-02,1.970391e-01
2.346747e-01,1.354895e-01,1.396842e-02,2.709790e-01
2.478813e-01,1.431144e-01,-4.336671e-02,2.862287e-01
1.799152e-01,1.038741e-01,-1.418032e-03,2.077482e-01
1.733664e-01,1.000931e-01,4.000771e-02,2.001862e-01
2.484738e-01,1.434564e-01,2.122652e-03,2.869128e-01
2.380286e-01,1.374259e-01,-4.064620e-02,2.748518e-01
1.755713e-01,1.013661e-01,3.340720e-03,2.027322e-01
1.748663e-01,1.009591e-01,4.258078e-02,2.019182e-01
2.551588e-01,1.473160e-01,-4.035284e-03,2.946320e-01
2.331958e-01,1.346356e-01,-3.893289e-02,2.692713e-01
1.738693e-01,1.003835e-01,5.765156e-03,2.007669e-01
1.763864e-01,1.018367e-01,4.339434e-02,2.036734e-01
2.591159e-01,1.496006e-01,-8.469856e-03,2.992013e-01
2.286670e-01,1.320210e-01,-3.665958e-02,2.640419e-01
1.730151e-01,9.989031e-02,8.419865e-03,1.997806e-01
1.797450e-01,1.037758e-01,4.322362e-02,2.075516e-01
2.649393e-01,1.529628e-01,-1.655636e-02,3.059255e-01
2.199542e-01,1.269906e-01,-3.185651e-02,2.539812e-01
1.719764e-01,9.929064e-02,1.377688e-02,1.985813e-01
1.883774e-01,1.087597e-01,4.103220e-02,2.175195e-01
2.740731e-01,1.582362e-01,-3.234017e-02,3.164723e-01
2.070304e-01,1.195291e-01,-2.527395e-02,2.390581e-01
1.694421e-01,9.782742e-02,2.144071e-02,1.956548e-01
2.003279e-01,1.156594e-01,3.664120e-02,2.313187e-01
2.766625e-01,1.597312e-01,-4.372381e-02,3.194624e-01
1.986407e-01,1.146852e-01,-2.089579e-02,2.293705e-01
1.672922e-01,9.658621e-02,2.645751e-02,1.931724e-01
2.076020e-01,1.198591e-01,3.354980e-02,2.397181e-01
2.753546e-01,1.589760e-01,-4.735111e-02,3.179521e-01
1.951353e-01,1.126614e-01,-1.869072e-02,2.253229e-01
1.666710e-01,9.622754e-02,2.872627e-02,1.924551e-01
2.116218e-01,1.221799e-01,3.143326e-02,2.443598e-01
2.728425e-01,1.575257e-01,-4.819109e-02,3.150513e-01
1.928839e-01,1.113616e-01,-1.656570e-02,2.227232e-01
1.671214e-01,9.648757e-02,3.049036e-02,1.929751e-01
2.167635e-01,1.251485e-01,2.799037e-02,2.502969e-01
2.666958e-01,1.539769e-01,-4.748703e-02,3.079538e-01
1.893226e-01,1.093055e-01,-1.218931e-02,2.186109e-01
1.691530e-01,9.766053e-02,3.349853e-02,1.953211e-01
2.279075e-01,1.315825e-01,1.954257e-02,2.631649e-01
2.538945e-01,1.465860e-01,-4.477566e-02,2.931721e-01
1.828497e-01,1.055683e-01,-4.513925e-03,2.111367e-01
1.724785e-01,9.958049e-02,3.814828e-02,1.991610e-01
2.436533e-01,1.406733e-01,6.305268e-03,2.813466e-01
2.412209e-01,1.392689e-01,-4.156824e-02,2.785379e-01
1.769231e-01,1.021466e-01,1.825773e-03,2.042932e-01
1.743558e-01,1.006644e-01,4.180668e-02,2.013288e-01
2.530992e-01,1.461269e-01,-2.083824e-03,2.922538e-01
2.347521e-01,1.355342e-01,-3.951846e-02,2.710683e-01
1.743786e-01,1.006775e-01,4.967648e-03,2.013550e-01
1.758047e-01,1.015009e-01,4.317956e-02,2.030018e-01
2.577427e-01,1.488078e-01,-6.855958e-03,2.976156e-01
2.303659e-01,1.330018e-01,-3.753910e-02,2.660036e-01
1.732983e-01,1.000538e-01,7.407533e-03,2.001077e-01
1.783729e-01,1.029836e-01,4.336551e-02,2.059672e-01
2.627210e-01,1.516821e-01,-1.335789e-02,3.033641e-01
2.232044e-01,1.288671e-01,-3.362344e-02,2.577343e-01
1.723848e-01,9.952643e-02,1.179296e-02,1.990529e-01
1.850986e-01,1.068667e-01,4.201997e-02,2.137335e-01
2.715032e-01,1.567525e-01,-2.724297e-02,3.135049e-01
2.107453e-01,1.216739e-01,-2.707222e-02,2.433477e-01
1.703842e-01,9.837138e-02,1.928394e-02,1.967428e-01
1.972848e-01,1.139024e-01,3.777988e-02,2.278048e-01
2.765254e-01,1.596520e-01,-4.154190e-02,3.193041e-01
2.002596e-01,1.156199e-01,-2.171715e-02,2.312398e-01
1.677880e-01,9.687245e-02,2.550301e-02,1.937449e-01
2.064074e-01,1.191694e-01,3.401141e-02,2.383387e-01
2.753855e-01,1.589939e-01,-4.674503e-02,3.179877e-01
1.955622e-01,1.129079e-01,-1.883565e-02,2.258157e-01
1.669113e-01,9.636629e-02,2.850922e-02,1.927326e-01
2.116402e-01,1.221905e-01,3.130029e-02,2.443811e-01
2.722961e-01,1.572102e-01,-4.794809e-02,3.144204e-01
1.926767e-01,1.112420e-01,-1.616526e-02,2.224839e-01
1.674306e-01,9.666610e-02,3.073405e-02,1.933322e-01
2.180105e-01,1.258684e-01,2.703044e-02,2.517369e-01
2.648567e-01,1.529151e-01,-4.704913e-02,3.058302e-01
1.884271e-01,1.087884e-01,-1.097297e-02,2.175768e-01
1.698322e-01,9.805264e-02,3.423048e-02,1.961053e-01
2.308703e-01,1.332930e-01,1.711333e-02,2.665861e-01
2.510613e-01,1.449503e-01,-4.410038e-02,2.899006e-01
1.814747e-01,1.047745e-01,-3.015477e-03,2.095489e-01
1.729751e-01,9.986722e-02,3.903043e-02,1.997344e-01
2.461230e-01,1.420992e-01,4.133797e-03,2.841983e-01
2.394572e-01,1.382507e-01,-4.100972e-02,2.765014e-01
1.762221e-01,1.017419e-01,2.691699e-03,2.034837e-01
1.747550e-01,1.008949e-01,4.219796e-02,2.017897e-01
2.544177e-01,1.468881e-01,-3.421387e-03,2.937763e-01
2.334958e-01,1.348089e-01,-3.894512e-02,2.696177e-01
1.740695e-01,1.004991e-01,5.669375e-03,2.009982e-01
1.765333e-01,1.019216e-01,4.325359e-02,2.038431e-01
2.592088e-01,1.496543e-01,-8.727261e-03,2.993086e-01
2.281833e-01,1.317417e-01,-3.632228e-02,2.634834e-01
1.730312e-01,9.989960e-02,8.757318e-03,1.997992e-01
1.803927e-01,1.041498e-01,4.305764e-02,2.082996e-01
2.658117e-01,1.534664e-01,-1.795101e-02,3.069329e-01
2.185380e-01,1.261730e-01,-3.105727e-02,2.523459e-01
1.718293e-01,9.920567e-02,1.465593e-02,1.984113e-01
1.899375e-01,1.096605e-01,4.047666e-02,2.193209e-01
2.748545e-01,1.586873e-01,-3.435958e-02,3.173746e-01
2.055463e-01,1.186722e-01,-2.450701e-02,2.373445e-01
1.690970e-01,9.762820e-02,2.232592e-02,1.952564e-01
2.016774e-01,1.164385e-01,3.607187e-02,2.328770e-01
2.764641e-01,1.596166e-01,-4.449986e-02,3.192332e-01
1.979135e-01,1.142654e-01,-2.042418e-02,2.285308e-01
1.671917e-01,9.652820e-02,2.693617e-02,1.930564e-01
2.085209e-01,1.203896e-01,3.305176e-02,2.407792e-01
2.747240e-01,1.586120e-01,-4.754157e-02,3.172240e-01
1.945750e-01,1.123379e-01,-1.813530e-02,2.246758e-01
1.668201e-01,9.631365e-02,2.918220e-02,1.926273e-01
2.130300e-01,1.229930e-01,3.048944e-02,2.459859e-01
2.710920e-01,1.565150e-01,-4.802191e-02,3.130300e-01
1.918341e-01,1.107555e-01,-1.525914e-02,2.215110e-01
1.677392e-01,9.684426e-02,3.141832e-02,1.936885e-01
2.202600e-01,1.271672e-01,2.541328e-02,2.543343e-01
2.621770e-01,1.513680e-01,-4.654114e-02,3.027360e-01
1.870333e-01,1.079838e-01,-9.279417e-03,2.159675e-01
1.706130e-01,9.850345e-02,3.527775e-02,1.970069e-01
2.346000e-01,1.354464e-01,1.403913e-02,2.708927e-01
2.479635e-01,1.431618e-01,-4.339897e-02,2.863235e-01
1.799440e-01,1.038907e-01,-1.463653e-03,2.077814e-01
1.733340e-01,1.000744e-01,3.999050e-02,2.001489e-01
2.483836e-01,1.434043e-01,2.216861e-03,2.868087e-01
2.381322e-01,1.374857e-01,-4.069917e-02,2.749714e-01
1.755928e-01,1.013785e-01,3.279745e-03,2.027571e-01
1.747966e-01,1.009188e-01,4.257517e-02,2.018377e-01
2.550176e-01,1.472345e-01,-3.858724e-03,2.944689e-01
2.334210e-01,1.347657e-01,-3.906297e-02,2.695314e-01
1.738966e-01,1.003993e-01,5.623557e-03,2.007986e-01
1.761839e-01,1.017198e-01,4.340954e-02,2.034397e-01
2.587551e-01,1.493924e-01,-7.977175e-03,2.987847e-01
2.292808e-01,1.323753e-01,-3.701647e-02,2.647506e-01
1.730745e-01,9.992458e-02,8.031363e-03,1.998492e-01
1.791346e-01,1.034234e-01,4.332989e-02,2.068469e-01
2.640241e-01,1.524344e-01,-1.517852e-02,3.048688e-01
2.213598e-01,1.278021e-01,-3.263354e-02,2.556042e-01
1.721389e-01,9.938442e-02,1.291217e-02,1.987688e-01
1.869035e-01,1.079088e-01,4.150966e-02,2.158176e-01
2.730769e-01,1.576610e-01,-3.019702e-02,3.153220e-01
2.085825e-01,1.204251e-01,-2.603607e-02,2.408503e-01
1.698339e-01,9.805367e-02,2.053439e-02,1.961073e-01
1.990348e-01,1.149128e-01,3.714081e-02,2.298256e-01
2.766709e-01,1.597360e-01,-4.285820e-02,3.194720e-01
1.993153e-01,1.150747e-01,-2.125744e-02,2.301495e-01
1.674769e-01,9.669286e-02,2.605045e-02,1.933857e-01
2.070358e-01,1.195322e-01,3.379399e-02,2.390644e-01
2.754733e-01,1.590446e-01,-4.711150e-02,3.180892e-01
1.953771e-01,1.128010e-01,-1.883616e-02,2.256020e-01
1.667263e-01,9.625945e-02,2.857331e-02,1.925189e-01
2.113833e-01,1.220422e-01,3.155123e-02,2.440844e-01
2.729584e-01,1.575926e-01,-4.813274e-02,3.151852e-01
1.929986e-01,1.114278e-01,-1.665940e-02,2.228556e-01
1.671184e-01,9.648585e-02,3.040781e-02,1.929717e-01
2.165646e-01,1.250337e-01,2.811803e-02,2.500673e-01
2.668982e-01,1.540938e-01,-4.750489e-02,3.081876e-01
1.894419e-01,1.093743e-01,-1.232373e-02,2.187487e-01
1.691017e-01,9.763092e-02,3.340646e-02,1.952618e-01
2.276016e-01,1.314058e-01,1.977931e-02,2.628117e-01
2.541709e-01,1.467456e-01,-4.482595e-02,2.934912e-01
1.829969e-01,1.056533e-01,-4.659510e-03,2.113066e-01
1.724474e-01,9.956255e-02,3.805306e-02,1.991251e-01
2.434257e-01,1.405419e-01,6.491463e-03,2.810838e-01
2.413473e-01,1.393419e-01,-4.158984e-02,2.786839e-01
1.769916e-01,1.021861e-01,1.771974e-03,2.043723e-01
1.743674e-01,1.006711e-01,4.176383e-02,2.013422e-01
2.530602e-01,1.461044e-01,-2.070948e-03,2.922087e-01
2.347129e-01,1.355115e-01,-3.947631e-02,2.710231e-01
1.743931e-01,1.006859e-01,5.003491e-03,2.013718e-01
1.758881e-01,1.015490e-01,4.315937e-02,2.030981e-01
2.578739e-01,1.488836e-01,-7.047293e-03,2.977671e-01
2.301014e-01,1.328491e-01,-3.737804e-02,2.656982e-01
1.732796e-01,1.000430e-01,7.578821e-03,2.000860e-01
1.786502e-01,1.031438e-01,4.331849e-02,2.062875e-01
2.631531e-01,1.519315e-01,-1.399740e-02,3.038630e-01
2.225043e-01,1.284629e-01,-3.322694e-02,2.569259e-01
1.723159e-01,9.948664e-02,1.222884e-02,1.989733e-01
1.858434e-01,1.072968e-01,4.179926e-02,2.145935e-01
2.721629e-01,1.571333e-01,-2.848786e-02,3.142666e-01
2.098001e-01,1.211282e-01,-2.660151e-02,2.422563e-01
1.701705e-01,9.824797e-02,1.983912e-02,1.964959e-01
1.981205e-01,1.143849e-01,3.745494e-02,2.287698e-01
2.765384e-01,1.596595e-01,-4.215724e-02,3.193190e-01
1.997708e-01,1.153377e-01,-2.143888e-02,2.306754e-01
1.676794e-01,9.680975e-02,2.580621e-02,1.936195e-01
2.068937e-01,1.194502e-01,3.377852e-02,2.389003e-01
2.751838e-01,1.588774e-01,-4.691306e-02,3.177548e-01
1.953085e-01,1.127614e-01,-1.862923e-02,2.255229e-01
1.669227e-01,9.637285e-02,2.869463e-02,1.927457e-01
2.121051e-01,1.224590e-01,3.100862e-02,2.449179e-01
2.718042e-01,1.569262e-01,-4.793398e-02,3.138525e-01
