x,y,z,R
1.680932e-01,9.704863e-02,1.773582e-02,1.940973e-01
1.893792e-01,1.093381e-01,4.260306e-02,2.186762e-01
2.785098e-01,1.607977e-01,-3.489198e-02,3.215954e-01
2.086263e-01,1.204504e-01,-2.824577e-02,2.409008e-01
1.671873e-01,9.652563e-02,1.926041e-02,1.930513e-01
1.908644e-01,1.101956e-01,4.241609e-02,2.203912e-01
2.802320e-01,1.617920e-01,-3.685218e-02,3.235841e-01
2.083275e-01,1.202780e-01,-2.868329e-02,2.405559e-01
1.664327e-01,9.608996e-02,1.904475e-02,1.921799e-01
1.888960e-01,1.090592e-01,4.364436e-02,2.181183e-01
2.795236e-01,1.613830e-01,-3.406625e-02,3.227660e-01
2.109993e-01,1.218205e-01,-3.019599e-02,2.436410e-01
1.668670e-01,9.634072e-02,1.734086e-02,1.926814e-01
1.861750e-01,1.074882e-01,4.451350e-02,2.149764e-01
2.767351e-01,1.597731e-01,-2.988570e-02,3.195462e-01
2.132342e-01,1.231108e-01,-3.079507e-02,2.462217e-01
1.679580e-01,9.697060e-02,1.637419e-02,1.939412e-01
1.862733e-01,1.075449e-01,4.391345e-02,2.150899e-01
2.761672e-01,1.594452e-01,-3.023147e-02,3.188904e-01
2.119450e-01,1.223665e-01,-2.971473e-02,2.447330e-01
1.681784e-01,9.709786e-02,1.742280e-02,1.941957e-01
1.888818e-01,1.090510e-01,4.276745e-02,2.181019e-01
2.781127e-01,1.605685e-01,-3.420393e-02,3.211369e-01
2.090072e-01,1.206703e-01,-2.835923e-02,2.413407e-01
1.673698e-01,9.663098e-02,1.908542e-02,1.932620e-01
1.908491e-01,1.101868e-01,4.233181e-02,2.203736e-01
2.800444e-01,1.616837e-01,-3.683257e-02,3.233674e-01
2.081211e-01,1.201588e-01,-2.847878e-02,2.403175e-01
1.664990e-01,9.612825e-02,1.923598e-02,1.922565e-01
1.894364e-01,1.093711e-01,4.338215e-02,2.187423e-01
2.799001e-01,1.616004e-01,-3.486142e-02,3.232007e-01
2.104282e-01,1.214908e-01,-2.994632e-02,2.429815e-01
1.666941e-01,9.624090e-02,1.765382e-02,1.924818e-01
1.864874e-01,1.076686e-01,4.448270e-02,2.153371e-01
2.771487e-01,1.600119e-01,-3.036203e-02,3.200237e-01
2.130866e-01,1.230256e-01,-3.082671e-02,2.460512e-01
1.678059e-01,9.688276e-02,1.639018e-02,1.937655e-01
1.860174e-01,1.073972e-01,4.408829e-02,2.147944e-01
2.760193e-01,1.593598e-01,-2.979252e-02,3.187196e-01
2.123947e-01,1.226261e-01,-2.997965e-02,2.452522e-01
1.682306e-01,9.712796e-02,1.713130e-02,1.942559e-01
1.883681e-01,1.087544e-01,4.295180e-02,2.175087e-01
2.777108e-01,1.603364e-01,-3.347305e-02,3.206728e-01
2.094535e-01,1.209280e-01,-2.851973e-02,2.418560e-01
1.675489e-01,9.673439e-02,1.886208e-02,1.934688e-01
1.907230e-01,1.101140e-01,4.229779e-02,2.202280e-01
2.798004e-01,1.615428e-01,-3.667010e-02,3.230857e-01
2.080192e-01,1.200999e-01,-2.832030e-02,2.401998e-01
1.665984e-01,9.618562e-02,1.936894e-02,1.923712e-01
1.899205e-01,1.096507e-01,4.312413e-02,2.193013e-01
2.801732e-01,1.617581e-01,-3.555517e-02,3.235162e-01
2.098767e-01,1.211724e-01,-2.967800e-02,2.423447e-01
1.665555e-01,9.616087e-02,1.797505e-02,1.923217e-01
1.868854e-01,1.078983e-01,4.439884e-02,2.157967e-01
2.776258e-01,1.602873e-01,-3.097916e-02,3.205746e-01
2.128219e-01,1.228728e-01,-3.079837e-02,2.457455e-01
1.676289e-01,9.678061e-02,1.647594e-02,1.935612e-01
1.858571e-01,1.073046e-01,4.423971e-02,2.146093e-01
2.759698e-01,1.593312e-01,-2.950021e-02,3.186624e-01
2.127653e-01,1.228401e-01,-3.022242e-02,2.456802e-01
1.682452e-01,9.713638e-02,1.687501e-02,1.942728e-01
1.878592e-01,1.084605e-01,4.314953e-02,2.169211e-01
2.773212e-01,1.601115e-01,-3.272717e-02,3.202229e-01
2.099492e-01,1.212142e-01,-2.872251e-02,2.424285e-01
1.677185e-01,9.683229e-02,1.859816e-02,1.936646e-01
1.904900e-01,1.099794e-01,4.231503e-02,2.199589e-01
2.795088e-01,1.613745e-01,-3.636790e-02,3.227490e-01
2.080297e-01,1.201060e-01,-2.821734e-02,2.402121e-01
1.667262e-01,9.625944e-02,1.943519e-02,1.925189e-01
1.903194e-01,1.098809e-01,4.288652e-02,2.197619e-01
2.803340e-01,1.618509e-01,-3.611334e-02,3.237019e-01
2.093696e-01,1.208796e-01,-2.940169e-02,2.417592e-01
1.664598e-01,9.610563e-02,1.829123e-02,1.922113e-01
1.873585e-01,1.081715e-01,4.426048e-02,2.163430e-01
2.781404e-01,1.605844e-01,-3.171574e-02,3.211689e-01
2.124458e-01,1.226557e-01,-3.070967e-02,2.453113e-01
1.674328e-01,9.666735e-02,1.663017e-02,1.933347e-01
1.857997e-01,1.072715e-01,4.436259e-02,2.145431e-01
2.760280e-01,1.593649e-01,-2.937184e-02,3.187297e-01
2.130398e-01,1.229986e-01,-3.043319e-02,2.459972e-01
1.682201e-01,9.712192e-02,1.666476e-02,1.942438e-01
1.873731e-01,1.081799e-01,4.335490e-02,2.163598e-01
2.769532e-01,1.598990e-01,-3.199216e-02,3.197980e-01
2.104778e-01,1.215194e-01,-2.896007e-02,2.430389e-01
1.678723e-01,9.692114e-02,1.830313e-02,1.938423e-01
1.901585e-01,1.097881e-01,4.238187e-02,2.195761e-01
2.791783e-01,1.611837e-01,-3.593529e-02,3.223673e-01
2.081524e-01,1.201768e-01,-2.817505e-02,2.403537e-01
1.668778e-01,9.634697e-02,1.943154e-02,1.926939e-01
1.906144e-01,1.100513e-01,4.268135e-02,2.201025e-01
2.803821e-01,1.618787e-01,-3.651700e-02,3.237574e-01
2.089249e-01,1.206228e-01,-2.912892e-02,2.412456e-01
1.664107e-01,9.607724e-02,1.858969e-02,1.921545e-01
1.878883e-01,1.084773e-01,4.407214e-02,2.169547e-01
2.786655e-01,1.608876e-01,-3.253689e-02,3.217752e-01
2.119778e-01,1.223855e-01,-3.056526e-02,2.447709e-01
1.672266e-01,9.654834e-02,1.684531e-02,1.930967e-01
1.858462e-01,1.072983e-01,4.445211e-02,2.145967e-01
2.761959e-01,1.594618e-01,-2.941202e-02,3.189236e-01
2.132090e-01,1.230963e-01,-3.060449e-02,2.461926e-01
1.681569e-01,9.708542e-02,1.650783e-02,1.941708e-01
1.869263e-01,1.079220e-01,4.356158e-02,2.158439e-01
2.766233e-01,1.597085e-01,-3.129574e-02,3.194171e-01
2.110187e-01,1.218317e-01,-2.922231e-02,2.436634e-01
1.680051e-01,9.699777e-02,1.798879e-02,1.939955e-01
1.897469e-01,1.095504e-01,4.249156e-02,2.191009e-01
2.788150e-01,1.609739e-01,-3.538917e-02,3.219479e-01
2.083801e-01,1.203083e-01,-2.819245e-02,2.406166e-01
1.670462e-01,9.644419e-02,1.936032e-02,1.928884e-01
1.907982e-01,1.101574e-01,4.251592e-02,2.203148e-01
2.803313e-01,1.618494e-01,-3.676405e-02,3.236987e-01
2.085576e-01,1.204108e-01,-2.887032e-02,2.408216e-01
1.664066e-01,9.607488e-02,1.885906e-02,1.921498e-01
1.884493e-01,1.088013e-01,4.384395e-02,2.176026e-01
2.791663e-01,1.611767e-01,-3.339509e-02,3.223534e-01
2.114454e-01,1.220781e-01,-3.037395e-02,2.441561e-01
1.670208e-01,9.642950e-02,1.710824e-02,1.928590e-01
1.859924e-01,1.073828e-01,4.450329e-02,2.147656e-01
2.764622e-01,1.596155e-01,-2.961485e-02,3.192311e-01
2.132679e-01,1.231303e-01,-3.073075e-02,2.462606e-01
1.680582e-01,9.702843e-02,1.640862e-02,1.940569e-01
1.865344e-01,1.076957e-01,4.376273e-02,2.153913e-01
2.763425e-01,1.595464e-01,-3.066476e-02,3.190929e-01
2.115492e-01,1.221380e-01,-2.949697e-02,2.442760e-01
1.681133e-01,9.706024e-02,1.766938e-02,1.941205e-01
1.892779e-01,1.092797e-01,4.263528e-02,2.185593e-01
2.784276e-01,1.607503e-01,-3.475316e-02,3.215005e-01
2.086995e-01,1.204927e-01,-2.826538e-02,2.409854e-01
1.672254e-01,9.654763e-02,1.922828e-02,1.930953e-01
1.908706e-01,1.101992e-01,4.239438e-02,2.203984e-01
2.801982e-01,1.617725e-01,-3.686003e-02,3.235450e-01
2.082762e-01,1.202483e-01,-2.863739e-02,2.404967e-01
1.664436e-01,9.609624e-02,1.908895e-02,1.921925e-01
1.890117e-01,1.091260e-01,4.359019e-02,2.182520e-01
2.796093e-01,1.614325e-01,-3.423831e-02,3.228650e-01
2.108794e-01,1.217513e-01,-3.014603e-02,2.435025e-01
1.668286e-01,9.631851e-02,1.740479e-02,1.926370e-01
1.862329e-01,1.075216e-01,4.451122e-02,2.150432e-01
2.768146e-01,1.598190e-01,-2.997274e-02,3.196380e-01
2.132128e-01,1.230985e-01,-3.080650e-02,2.461969e-01
1.679285e-01,9.695357e-02,1.637191e-02,1.939071e-01
1.862128e-01,1.075100e-01,4.395147e-02,2.150200e-01
2.761290e-01,1.594231e-01,-3.012902e-02,3.188463e-01
2.120444e-01,1.224239e-01,-2.977126e-02,2.448478e-01
1.681925e-01,9.710600e-02,1.735982e-02,1.942120e-01
1.887750e-01,1.089893e-01,4.280460e-02,2.179786e-01
2.780292e-01,1.605202e-01,-3.405414e-02,3.210404e-01
2.090955e-01,1.207213e-01,-2.838896e-02,2.414427e-01
1.674074e-01,9.665268e-02,1.904245e-02,1.933054e-01
1.908317e-01,1.101767e-01,4.232063e-02,2.203534e-01
2.799983e-01,1.616571e-01,-3.681053e-02,3.233142e-01
2.080908e-01,1.201413e-01,-2.844155e-02,2.402826e-01
1.665173e-01,9.613880e-02,1.926892e-02,1.922776e-01
1.895433e-01,1.094329e-01,4.332728e-02,2.188658e-01
2.799658e-01,1.616383e-01,-3.501585e-02,3.232766e-01
2.103105e-01,1.214228e-01,-2.989153e-02,2.428457e-01
1.666621e-01,9.622239e-02,1.772064e-02,1.924448e-01
1.865636e-01,1.077125e-01,4.446974e-02,2.154251e-01
2.772432e-01,1.600664e-01,-3.047956e-02,3.201329e-01
2.130416e-01,1.229996e-01,-3.082570e-02,2.459992e-01
1.677709e-01,9.686258e-02,1.640231e-02,1.937252e-01
1.859757e-01,1.073731e-01,4.412203e-02,2.147462e-01
2.760006e-01,1.593490e-01,-2.971871e-02,3.186981e-01
2.124790e-01,1.226748e-01,-3.003255e-02,2.453496e-01
1.682369e-01,9.713162e-02,1.707453e-02,1.942632e-01
1.882610e-01,1.086926e-01,4.299202e-02,2.173851e-01
2.776279e-01,1.602885e-01,-3.331772e-02,3.205771e-01
2.095534e-01,1.209857e-01,-2.855877e-02,2.419714e-01
1.675852e-01,9.675538e-02,1.881005e-02,1.935108e-01
1.906832e-01,1.100910e-01,4.229704e-02,2.201820e-01
2.797442e-01,1.615104e-01,-3.661865e-02,3.230207e-01
2.080121e-01,1.200958e-01,-2.829396e-02,2.401916e-01
1.666229e-01,9.619976e-02,1.938848e-02,1.923995e-01
1.900114e-01,1.097031e-01,4.307247e-02,2.194063e-01
2.802164e-01,1.617830e-01,-3.568378e-02,3.235660e-01
2.097663e-01,1.211086e-01,-2.962067e-02,2.422173e-01
1.665318e-01,9.614718e-02,1.804189e-02,1.922944e-01
1.869784e-01,1.079521e-01,4.437442e-02,2.159041e-01
2.777304e-01,1.603477e-01,-3.112383e-02,3.206954e-01
2.127517e-01,1.228323e-01,-3.078486e-02,2.456645e-01
1.675895e-01,9.675787e-02,1.650273e-02,1.935157e-01
1.858366e-01,1.072928e-01,4.426780e-02,2.145856e-01
2.759725e-01,1.593328e-01,-2.945947e-02,3.186656e-01
2.128309e-01,1.228780e-01,-3.026937e-02,2.457559e-01
1.682433e-01,9.713530e-02,1.682706e-02,1.942706e-01
1.877553e-01,1.084006e-01,4.319195e-02,2.168012e-01
2.772417e-01,1.600656e-01,-3.257190e-02,3.201312e-01
2.100579e-01,1.212770e-01,-2.876940e-02,2.425540e-01
1.677519e-01,9.685161e-02,1.853875e-02,1.937032e-01
1.904282e-01,1.099438e-01,4.232520e-02,2.198875e-01
2.794428e-01,1.613364e-01,-3.628793e-02,3.226727e-01
2.080460e-01,1.201154e-01,-2.820352e-02,2.402308e-01
1.667562e-01,9.627672e-02,1.944023e-02,1.925534e-01
1.903897e-01,1.099216e-01,4.284078e-02,2.198431e-01
2.803522e-01,1.618614e-01,-3.621039e-02,3.237229e-01
2.092708e-01,1.208226e-01,-2.934417e-02,2.416451e-01
1.664457e-01,9.609746e-02,1.835537e-02,1.921949e-01
1.874654e-01,1.082332e-01,4.422493e-02,2.164664e-01
2.782501e-01,1.606478e-01,-3.188155e-02,3.212955e-01
2.123545e-01,1.226030e-01,-3.068399e-02,2.452059e-01
1.673902e-01,9.664279e-02,1.667042e-02,1.932856e-01
1.858009e-01,1.072722e-01,4.438422e-02,2.145444e-01
2.760543e-01,1.593800e-01,-2.936641e-02,3.187601e-01
2.130845e-01,1.230244e-01,-3.047231e-02,2.460488e-01
1.682102e-01,9.711619e-02,1.662751e-02,1.942324e-01
1.872761e-01,1.081239e-01,4.339816e-02,2.162478e-01
2.768809e-01,1.598573e-01,-3.184279e-02,3.197145e-01
2.105907e-01,1.215846e-01,-2.901307e-02,2.431692e-01
1.679017e-01,9.693807e-02,1.823858e-02,1.938761e-01
1.900783e-01,1.097418e-01,4.240161e-02,2.194836e-01
2.791052e-01,1.611415e-01,-3.583006e-02,3.222829e-01
2.081920e-01,1.201997e-01,-2.817378e-02,2.403994e-01
1.669115e-01,9.636643e-02,1.942197e-02,1.927329e-01
1.906621e-01,1.100788e-01,4.264330e-02,2.201576e-01
2.803787e-01,1.618767e-01,-3.658126e-02,3.237535e-01
2.088416e-01,1.205747e-01,-2.907339e-02,2.411495e-01
1.664061e-01,9.607463e-02,1.864864e-02,1.921493e-01
1.880039e-01,1.085441e-01,4.402728e-02,2.170882e-01
2.787731e-01,1.609497e-01,-3.271461e-02,3.218994e-01
2.118706e-01,1.223235e-01,-3.052897e-02,2.446470e-01
1.671831e-01,9.652320e-02,1.689665e-02,1.930464e-01
1.858687e-01,1.073113e-01,4.446609e-02,2.146227e-01
2.762423e-01,1.594886e-01,-2.944085e-02,3.189772e-01
2.132305e-01,1.231087e-01,-3.063475e-02,2.462173e-01
1.681388e-01,9.707498e-02,1.648211e-02,1.941500e-01
1.868397e-01,1.078719e-01,4.360411e-02,2.157439e-01
2.765601e-01,1.596720e-01,-3.115769e-02,3.193441e-01
2.111317e-01,1.218969e-01,-2.927887e-02,2.437939e-01
1.680301e-01,9.701224e-02,1.792217e-02,1.940245e-01
1.896528e-01,1.094961e-01,4.251918e-02,2.189922e-01
2.787360e-01,1.609283e-01,-3.526304e-02,3.218566e-01
2.084399e-01,1.203429e-01,-2.820321e-02,2.406857e-01
1.670829e-01,9.646534e-02,1.933750e-02,1.929307e-01
1.908227e-01,1.101715e-01,4.248670e-02,2.203431e-01
2.803096e-01,1.618368e-01,-3.679628e-02,3.236737e-01
2.084917e-01,1.203727e-01,-2.881917e-02,2.407455e-01
1.664110e-01,9.607746e-02,1.891063e-02,1.921549e-01
1.885679e-01,1.088697e-01,4.379245e-02,2.177395e-01
2.792643e-01,1.612333e-01,-3.357399e-02,3.224667e-01
2.113289e-01,1.220108e-01,-3.032909e-02,2.440216e-01
1.669791e-01,9.640542e-02,1.716781e-02,1.928108e-01
1.860349e-01,1.074073e-01,4.450880e-02,2.148145e-01
2.765278e-01,1.596534e-01,-2.967666e-02,3.193068e-01
2.132656e-01,1.231289e-01,-3.075100e-02,2.462579e-01
1.680336e-01,9.701424e-02,1.639566e-02,1.940285e-01
1.864609e-01,1.076533e-01,4.380337e-02,2.153065e-01
2.762919e-01,1.595172e-01,-3.054409e-02,3.190344e-01
2.116562e-01,1.221998e-01,-2.955470e-02,2.443995e-01
1.681323e-01,9.707124e-02,1.760344e-02,1.941425e-01
1.891749e-01,1.092202e-01,4.266886e-02,2.184404e-01
2.783449e-01,1.607025e-01,-3.461157e-02,3.214049e-01
2.087765e-01,1.205372e-01,-2.828708e-02,2.410743e-01
1.672632e-01,9.656946e-02,1.919362e-02,1.931389e-01
1.908714e-01,1.101996e-01,4.237512e-02,2.203993e-01
2.801612e-01,1.617511e-01,-3.686147e-02,3.235023e-01
2.082292e-01,1.202212e-01,-2.859310e-02,2.404423e-01
1.664560e-01,9.610343e-02,1.913097e-02,1.922069e-01
1.891264e-01,1.091922e-01,4.353547e-02,2.183843e-01
2.796914e-01,1.614799e-01,-3.440754e-02,3.229598e-01
2.107600e-01,1.216823e-01,-3.009477e-02,2.433647e-01
1.667913e-01,9.629700e-02,1.746956e-02,1.925940e-01
1.862947e-01,1.075573e-01,4.450672e-02,2.151146e-01
2.768992e-01,1.598678e-01,-3.006669e-02,3.197356e-01
2.131872e-01,1.230837e-01,-3.081526e-02,2.461674e-01
1.678978e-01,9.693581e-02,1.637253e-02,1.938716e-01
1.861557e-01,1.074771e-01,4.398886e-02,2.149541e-01
2.760945e-01,1.594032e-01,-3.003204e-02,3.188065e-01
2.121409e-01,1.224796e-01,-2.982728e-02,2.449592e-01
1.682045e-01,9.711293e-02,1.729770e-02,1.942259e-01
1.886682e-01,1.089276e-01,4.284233e-02,2.178553e-01
2.779456e-01,1.604719e-01,-3.390275e-02,3.209439e-01
2.091868e-01,1.207740e-01,-2.842066e-02,2.415481e-01
1.674452e-01,9.667452e-02,1.899761e-02,1.933490e-01
1.908098e-01,1.101641e-01,4.231141e-02,2.203282e-01
2.799499e-01,1.616291e-01,-3.678228e-02,3.232583e-01
2.080652e-01,1.201265e-01,-2.840642e-02,2.402530e-01
1.665370e-01,9.615020e-02,1.929925e-02,1.923004e-01
1.896471e-01,1.094928e-01,4.327298e-02,2.189856e-01
2.800271e-01,1.616737e-01,-3.516553e-02,3.233475e-01
2.101943e-01,1.213558e-01,-2.983592e-02,2.427115e-01
1.666316e-01,9.620478e-02,1.778769e-02,1.924096e-01
1.866436e-01,1.077588e-01,4.445432e-02,2.155175e-01
2.773413e-01,1.601231e-01,-3.060336e-02,3.202462e-01
2.129901e-01,1.229699e-01,-3.082234e-02,2.459398e-01
1.677350e-01,9.684182e-02,1.641751e-02,1.936836e-01
1.859383e-01,1.073515e-01,4.415467e-02,2.147030e-01
2.759868e-01,1.593411e-01,-2.965160e-02,3.186822e-01
2.125599e-01,1.227215e-01,-3.008435e-02,2.454430e-01
1.682417e-01,9.713438e-02,1.701944e-02,1.942688e-01
1.881541e-01,1.086308e-01,4.303300e-02,2.172616e-01
2.775457e-01,1.602411e-01,-3.316197e-02,3.204822e-01
2.096551e-01,1.210444e-01,-2.859964e-02,2.420889e-01
1.676214e-01,9.677623e-02,1.875644e-02,1.935525e-01
1.906384e-01,1.100651e-01,4.229878e-02,2.201302e-01
2.796848e-01,1.614761e-01,-3.656082e-02,3.229521e-01
2.080099e-01,1.200946e-01,-2.827010e-02,2.401892e-01
1.666487e-01,9.621468e-02,1.940511e-02,1.924294e-01
1.900985e-01,1.097534e-01,4.302177e-02,2.195069e-01
2.802554e-01,1.618055e-01,-3.580639e-02,3.236110e-01
2.096583e-01,1.210463e-01,-2.956302e-02,2.420926e-01
1.665101e-01,9.613462e-02,1.810840e-02,1.922692e-01
1.870749e-01,1.080077e-01,4.434745e-02,2.160155e-01
2.778365e-01,1.604090e-01,-3.127353e-02,3.208180e-01
2.126777e-01,1.227895e-01,-3.076853e-02,2.455790e-01
1.675491e-01,9.673451e-02,1.653234e-02,1.934690e-01
1.858205e-01,1.072835e-01,4.429469e-02,2.145671e-01
2.759809e-01,1.593376e-01,-2.942620e-02,3.186753e-01
2.128929e-01,1.229138e-01,-3.031464e-02,2.458275e-01
1.682398e-01,9.713327e-02,1.678126e-02,1.942665e-01
1.876524e-01,1.083412e-01,4.323477e-02,2.166823e-01
2.771636e-01,1.600205e-01,-3.241739e-02,3.200410e-01
2.101670e-01,1.213400e-01,-2.881793e-02,2.426800e-01
1.677848e-01,9.687063e-02,1.847816e-02,1.937413e-01
1.903628e-01,1.099060e-01,4.233717e-02,2.198120e-01
2.793754e-01,1.612974e-01,-3.620244e-02,3.225949e-01
2.080672e-01,1.201277e-01,-2.819234e-02,2.402554e-01
1.667871e-01,9.629456e-02,1.944218e-02,1.925891e-01
1.904560e-01,1.099598e-01,4.279631e-02,2.199196e-01
2.803669e-01,1.618699e-01,-3.630096e-02,3.237398e-01
2.091751e-01,1.207673e-01,-2.928687e-02,2.415346e-01
1.664336e-01,9.609050e-02,1.841863e-02,1.921810e-01
1.875741e-01,1.082959e-01,4.418751e-02,2.165919e-01
2.783602e-01,1.607113e-01,-3.205072e-02,3.214227e-01
2.122604e-01,1.225486e-01,-3.065571e-02,2.450972e-01
1.673474e-01,9.661807e-02,1.671324e-02,1.932361e-01
