x,y,z
2.350060e-01,1.356808e-01,-9.452863e-03
2.139331e-01,1.235144e-01,-7.459186e-03
2.035614e-01,1.175262e-01,1.229325e-02
2.308700e-01,1.332929e-01,-2.592404e-03
2.211140e-01,1.276603e-01,-1.183470e-02
2.022616e-01,1.167758e-01,9.092990e-03
2.235199e-01,1.290493e-01,4.702908e-03
2.283595e-01,1.318434e-01,-1.438604e-02
2.035325e-01,1.175095e-01,4.356713e-03
2.154088e-01,1.243664e-01,1.029170e-02
2.337735e-01,1.349692e-01,-1.414879e-02
2.071367e-01,1.195904e-01,-1.109773e-03
2.085662e-01,1.204157e-01,1.298529e-02
2.352630e-01,1.358292e-01,-1.047881e-02
2.127311e-01,1.228204e-01,-6.530618e-03
2.040906e-01,1.178318e-01,1.264752e-02
2.319360e-01,1.339083e-01,-3.953233e-03
2.197483e-01,1.268718e-01,-1.114190e-02
2.023016e-01,1.167989e-01,9.818659e-03
2.249964e-01,1.299018e-01,3.440396e-03
2.271051e-01,1.311192e-01,-1.409896e-02
2.031168e-01,1.172696e-01,5.302415e-03
2.168479e-01,1.251972e-01,9.464947e-03
2.330198e-01,1.345340e-01,-1.444071e-02
2.063158e-01,1.191165e-01,-8.916327e-05
2.096628e-01,1.210489e-01,1.272623e-02
2.353519e-01,1.358805e-01,-1.140439e-02
2.115777e-01,1.221544e-01,-5.575153e-03
2.047115e-01,1.181902e-01,1.291749e-02
2.328762e-01,1.344512e-01,-5.284332e-03
2.183968e-01,1.260914e-01,-1.039398e-02
2.024297e-01,1.168728e-01,1.048776e-02
2.264330e-01,1.307312e-01,2.129345e-03
2.258037e-01,1.303678e-01,-1.372382e-02
2.027816e-01,1.170760e-01,6.218800e-03
2.183222e-01,1.260484e-01,8.542258e-03
2.321431e-01,1.340279e-01,-1.461631e-02
2.055648e-01,1.186829e-01,9.283747e-04
2.108366e-01,1.217266e-01,1.236212e-02
2.352730e-01,1.358349e-01,-1.222164e-02
2.104781e-01,1.215196e-01,-4.597441e-03
2.054228e-01,1.186009e-01,1.309863e-02
2.336803e-01,1.349154e-01,-6.570746e-03
2.170661e-01,1.253232e-01,-9.596551e-03
2.026467e-01,1.169981e-01,1.109515e-02
2.278139e-01,1.315284e-01,7.824636e-04
2.244677e-01,1.295965e-01,-1.326687e-02
2.025276e-01,1.169294e-01,7.100972e-03
2.198196e-01,1.269129e-01,7.529318e-03
2.311576e-01,1.334589e-01,-1.467928e-02
2.048849e-01,1.182903e-01,1.938074e-03
2.120825e-01,1.224459e-01,1.189222e-02
2.350295e-01,1.356944e-01,-1.292470e-02
2.094358e-01,1.209178e-01,-3.602126e-03
2.062241e-01,1.190636e-01,1.318673e-02
2.343346e-01,1.352932e-01,-7.797763e-03
2.157650e-01,1.245720e-01,-8.754929e-03
2.029530e-01,1.171750e-01,1.163565e-02
2.291234e-01,1.322844e-01,-5.865629e-04
2.231104e-01,1.288128e-01,-1.273428e-02
2.023572e-01,1.168310e-01,7.944028e-03
2.213284e-01,1.277840e-01,6.433061e-03
2.300767e-01,1.328348e-01,-1.463423e-02
2.042791e-01,1.179406e-01,2.935199e-03
2.133944e-01,1.232033e-01,1.131682e-02
2.346273e-01,1.354621e-01,-1.350987e-02
2.084536e-01,1.203508e-01,-2.593845e-03
2.071140e-01,1.195773e-01,1.317803e-02
2.348324e-01,1.355806e-01,-8.951865e-03
2.144995e-01,1.238413e-01,-7.874322e-03
2.033493e-01,1.174038e-01,1.210408e-02
2.303442e-01,1.329893e-01,-1.963174e-03
2.217417e-01,1.280226e-01,-1.213216e-02
2.022719e-01,1.167818e-01,8.743004e-03
2.228346e-01,1.286536e-01,5.261921e-03
2.289152e-01,1.321643e-01,-1.448648e-02
2.037493e-01,1.176347e-01,3.914930e-03
2.147642e-01,1.239942e-01,1.063724e-02
2.340742e-01,1.351428e-01,-1.397542e-02
2.075357e-01,1.198208e-01,-1.577142e-03
2.080904e-01,1.201410e-01,1.306929e-02
2.351665e-01,1.357734e-01,-1.002066e-02
2.132759e-01,1.231349e-01,-6.959730e-03
2.038366e-01,1.176851e-01,1.249538e-02
2.314619e-01,1.336346e-01,-3.332435e-03
2.203732e-01,1.272325e-01,-1.146652e-02
2.022724e-01,1.167820e-01,9.492866e-03
2.243243e-01,1.295137e-01,4.025609e-03
2.276865e-01,1.314549e-01,-1.424180e-02
2.032974e-01,1.173738e-01,4.872436e-03
2.161838e-01,1.248138e-01,9.855929e-03
2.333807e-01,1.347424e-01,-1.432156e-02
2.066833e-01,1.193287e-01,-5.567162e-04
2.091501e-01,1.207529e-01,1.285794e-02
2.353323e-01,1.358692e-01,-1.099332e-02
2.120995e-01,1.224557e-01,-6.016012e-03
2.044157e-01,1.180195e-01,1.280455e-02
2.324621e-01,1.342120e-01,-4.679100e-03
2.190138e-01,1.264477e-01,-1.074317e-02
2.023603e-01,1.168328e-01,1.018852e-02
2.257804e-01,1.303544e-01,2.735335e-03
2.264053e-01,1.307152e-01,-1.390624e-02
2.029250e-01,1.171588e-01,5.802857e-03
2.176430e-01,1.256562e-01,8.976618e-03
2.325592e-01,1.342681e-01,-1.455009e-02
2.059001e-01,1.188765e-01,4.628209e-04
2.102898e-01,1.214109e-01,1.254205e-02
2.353301e-01,1.358679e-01,-1.186105e-02
2.109748e-01,1.218063e-01,-5.047909e-03
2.050856e-01,1.184062e-01,1.302694e-02
2.333293e-01,1.347128e-01,-5.987788e-03
2.176726e-01,1.256733e-01,-9.967739e-03
2.025359e-01,1.169341e-01,1.082485e-02
2.271888e-01,1.311675e-01,1.403225e-03
2.250836e-01,1.299521e-01,-1.348601e-02
2.026338e-01,1.169907e-01,6.701317e-03
2.191314e-01,1.265156e-01,8.004235e-03
2.316216e-01,1.337268e-01,-1.466413e-02
2.051875e-01,1.184650e-01,1.476704e-03
2.115032e-01,1.221114e-01,1.212066e-02
2.351615e-01,1.357706e-01,-1.261704e-02
2.099056e-01,1.211891e-01,-4.060093e-03
2.058460e-01,1.188452e-01,1.315816e-02
2.340541e-01,1.351312e-01,-7.243815e-03
2.163570e-01,1.249138e-01,-9.145716e-03
2.028010e-01,1.170872e-01,1.139665e-02
2.285329e-01,1.319435e-01,4.259782e-05
2.237341e-01,1.291729e-01,-1.298731e-02
2.024248e-01,1.168700e-01,7.562908e-03
2.206365e-01,1.273846e-01,6.945204e-03
2.305834e-01,1.331274e-01,-1.466796e-02
2.045474e-01,1.180955e-01,2.480183e-03
2.127856e-01,1.228518e-01,1.159350e-02
2.348308e-01,1.355796e-01,-1.325653e-02
2.088959e-01,1.206061e-01,-3.057166e-03
2.066953e-01,1.193356e-01,1.319426e-02
2.346243e-01,1.354604e-01,-8.432929e-03
2.150748e-01,1.241735e-01,-8.282320e-03
2.031561e-01,1.172922e-01,1.189873e-02
2.297967e-01,1.326732e-01,-1.332404e-03
2.223695e-01,1.283851e-01,-1.241629e-02
2.023003e-01,1.167981e-01,8.382703e-03
2.221456e-01,1.282558e-01,5.807241e-03
2.294569e-01,1.324770e-01,-1.456657e-02
2.039825e-01,1.177694e-01,3.468482e-03
2.141300e-01,1.236280e-01,1.096141e-02
2.343455e-01,1.352995e-01,-1.377697e-02
2.079484e-01,1.200591e-01,-2.043735e-03
2.076328e-01,1.198769e-01,1.313168e-02
2.350337e-01,1.356968e-01,-9.542230e-03
2.138308e-01,1.234553e-01,-7.382711e-03
2.036021e-01,1.175497e-01,1.232598e-02
2.309637e-01,1.333470e-01,-2.706940e-03
2.209998e-01,1.275943e-01,-1.177902e-02
2.022617e-01,1.167759e-01,9.155691e-03
2.236449e-01,1.291215e-01,4.599478e-03
2.282568e-01,1.317841e-01,-1.436556e-02
2.034946e-01,1.174877e-01,4.436772e-03
2.155277e-01,1.244350e-01,1.022635e-02
2.337150e-01,1.349354e-01,-1.417769e-02
2.070655e-01,1.195493e-01,-1.024449e-03
2.086549e-01,1.204670e-01,1.296761e-02
2.352774e-01,1.358375e-01,-1.056019e-02
2.126328e-01,1.227636e-01,-6.451711e-03
2.041390e-01,1.178597e-01,1.267339e-02
2.320190e-01,1.339562e-01,-4.065820e-03
2.196347e-01,1.268062e-01,-1.108141e-02
2.023089e-01,1.168031e-01,9.876830e-03
2.251179e-01,1.299719e-01,3.332521e-03
2.269984e-01,1.310576e-01,-1.407088e-02
2.030855e-01,1.172515e-01,5.380209e-03
2.169701e-01,1.252678e-01,9.391395e-03
2.329505e-01,1.344940e-01,-1.445979e-02
2.062502e-01,1.190786e-01,-3.923322e-06
2.097579e-01,1.211038e-01,1.269986e-02
2.353525e-01,1.358808e-01,-1.147700e-02
2.114837e-01,1.221002e-01,-5.494205e-03
2.047675e-01,1.182226e-01,1.293609e-02
2.329495e-01,1.344935e-01,-5.393837e-03
2.182846e-01,1.260267e-01,-1.032914e-02
2.024445e-01,1.168814e-01,1.054098e-02
2.265505e-01,1.307990e-01,2.017961e-03
2.256933e-01,1.303041e-01,-1.368867e-02
2.027570e-01,1.170618e-01,6.293921e-03
2.184467e-01,1.261202e-01,8.460948e-03
2.320649e-01,1.339827e-01,-1.462584e-02
2.055052e-01,1.186485e-01,1.013148e-03
2.109383e-01,1.217853e-01,1.232687e-02
2.352595e-01,1.358271e-01,-1.228488e-02
2.103887e-01,1.214680e-01,-4.514843e-03
2.054866e-01,1.186377e-01,1.310960e-02
2.337402e-01,1.349500e-01,-6.675752e-03
2.169560e-01,1.252596e-01,-9.527819e-03
2.026689e-01,1.170109e-01,1.114297e-02
2.279261e-01,1.315932e-01,6.686894e-04
2.243551e-01,1.295315e-01,-1.322515e-02
2.025103e-01,1.169194e-01,7.173018e-03
2.199457e-01,1.269857e-01,7.440737e-03
2.310705e-01,1.334086e-01,-1.467958e-02
2.048315e-01,1.182595e-01,2.021985e-03
2.121899e-01,1.225079e-01,1.184814e-02
2.350018e-01,1.356784e-01,-1.297817e-02
2.093513e-01,1.208690e-01,-3.518273e-03
2.062951e-01,1.191045e-01,1.318976e-02
2.343828e-01,1.353210e-01,-7.897243e-03
2.156576e-01,1.245100e-01,-8.682740e-03
2.029826e-01,1.171921e-01,1.167763e-02
2.292284e-01,1.323451e-01,-7.015108e-04
2.229960e-01,1.287468e-01,-1.268652e-02
2.023468e-01,1.168250e-01,8.012579e-03
2.214548e-01,1.278570e-01,6.337889e-03
2.299825e-01,1.327805e-01,-1.462573e-02
2.042320e-01,1.179134e-01,3.017835e-03
2.135072e-01,1.232684e-01,1.126393e-02
2.345865e-01,1.354386e-01,-1.355337e-02
2.083744e-01,1.203050e-01,-2.509113e-03
2.071925e-01,1.196226e-01,1.317280e-02
2.348666e-01,1.356003e-01,-9.044636e-03
2.143956e-01,1.237813e-01,-7.799097e-03
2.033867e-01,1.174253e-01,1.213982e-02
2.304418e-01,1.330456e-01,-2.078132e-03
2.216271e-01,1.279564e-01,-1.207887e-02
2.022686e-01,1.167798e-01,8.807638e-03
2.229604e-01,1.287263e-01,5.160877e-03
2.288146e-01,1.321062e-01,-1.446965e-02
2.037085e-01,1.176112e-01,3.995893e-03
2.148809e-01,1.240616e-01,1.057579e-02
2.340212e-01,1.351122e-01,-1.400891e-02
2.074620e-01,1.197783e-01,-1.491908e-03
2.081759e-01,1.201904e-01,1.305558e-02
2.351863e-01,1.357849e-01,-1.010575e-02
2.131757e-01,1.230770e-01,-6.881888e-03
2.038815e-01,1.177111e-01,1.252443e-02
2.315506e-01,1.336858e-01,-3.446116e-03
2.202589e-01,1.271665e-01,-1.140818e-02
2.022764e-01,1.167843e-01,9.553168e-03
2.244468e-01,1.295844e-01,3.919700e-03
2.275818e-01,1.313944e-01,-1.421714e-02
2.032631e-01,1.173540e-01,4.951317e-03
2.163041e-01,1.248832e-01,9.786146e-03
2.333167e-01,1.347055e-01,-1.434513e-02
2.066152e-01,1.192893e-01,-4.713874e-04
2.092425e-01,1.208062e-01,1.283554e-02
2.353385e-01,1.358728e-01,-1.106998e-02
2.120034e-01,1.224002e-01,-5.935952e-03
2.044681e-01,1.180497e-01,1.282653e-02
2.325392e-01,1.342566e-01,-4.790121e-03
2.189010e-01,1.263826e-01,-1.068025e-02
2.023714e-01,1.168392e-01,1.024406e-02
2.259005e-01,1.304237e-01,2.625380e-03
2.262958e-01,1.306520e-01,-1.387428e-02
2.028974e-01,1.171428e-01,5.879254e-03
2.177664e-01,1.257275e-01,8.898821e-03
2.324847e-01,1.342251e-01,-1.456394e-02
2.058377e-01,1.188404e-01,5.478521e-04
2.103883e-01,1.214678e-01,1.251088e-02
2.353223e-01,1.358634e-01,-1.192861e-02
2.108832e-01,1.217535e-01,-4.966023e-03
2.051459e-01,1.184410e-01,1.304145e-02
2.333962e-01,1.347514e-01,-6.095056e-03
2.175614e-01,1.256091e-01,-9.900738e-03
2.025546e-01,1.169450e-01,1.087519e-02
2.273043e-01,1.312342e-01,1.290343e-03
2.249717e-01,1.298875e-01,-1.344724e-02
2.026132e-01,1.169788e-01,6.774822e-03
2.192569e-01,1.265880e-01,7.918915e-03
2.315391e-01,1.336792e-01,-1.466862e-02
2.051313e-01,1.184326e-01,1.561063e-03
2.116081e-01,1.221720e-01,1.208061e-02
2.351396e-01,1.357579e-01,-1.267498e-02
2.098189e-01,1.211390e-01,-3.976768e-03
2.059135e-01,1.188842e-01,1.316488e-02
2.341072e-01,1.351619e-01,-7.345937e-03
2.162483e-01,1.248510e-01,-9.075057e-03
2.028272e-01,1.171023e-01,1.144136e-02
2.286421e-01,1.320066e-01,-7.202189e-05
2.236205e-01,1.291074e-01,-1.294226e-02
2.024113e-01,1.168622e-01,7.633110e-03
2.207632e-01,1.274577e-01,6.852938e-03
2.304918e-01,1.330745e-01,-1.466343e-02
2.044974e-01,1.180666e-01,2.563453e-03
2.128960e-01,1.229156e-01,1.154463e-02
2.347960e-01,1.355595e-01,-1.330462e-02
2.088143e-01,1.205590e-01,-2.972781e-03
2.067703e-01,1.193789e-01,1.319286e-02
2.346650e-01,1.354839e-01,-8.528907e-03
2.149691e-01,1.241125e-01,-8.208437e-03
2.031899e-01,1.173118e-01,1.193738e-02
2.298979e-01,1.327316e-01,-1.447517e-03
2.222554e-01,1.283192e-01,-1.236547e-02
2.022938e-01,1.167944e-01,8.449185e-03
2.222720e-01,1.283288e-01,5.708774e-03
2.293589e-01,1.324204e-01,-1.455350e-02
2.039388e-01,1.177441e-01,3.550263e-03
2.142446e-01,1.236942e-01,1.090390e-02
2.342982e-01,1.352721e-01,-1.381505e-02
2.078720e-01,1.200149e-01,-1.958693e-03
2.077149e-01,1.199243e-01,1.312191e-02
2.350607e-01,1.357124e-01,-9.630989e-03
2.137289e-01,1.233964e-01,-7.306018e-03
2.036436e-01,1.175737e-01,1.235814e-02
2.310563e-01,1.334004e-01,-2.821333e-03
2.208856e-01,1.275284e-01,-1.172292e-02
2.022623e-01,1.167762e-01,9.218036e-03
2.237688e-01,1.291930e-01,4.495719e-03
2.281540e-01,1.317248e-01,-1.434443e-02
2.034574e-01,1.174662e-01,4.516659e-03
2.156469e-01,1.245038e-01,1.016031e-02
2.336564e-01,1.349016e-01,-1.420580e-02
2.069948e-01,1.195085e-01,-9.391160e-04
2.087438e-01,1.205183e-01,1.294925e-02
2.352896e-01,1.358445e-01,-1.064079e-02
2.125347e-01,1.227070e-01,-6.372617e-03
2.041879e-01,1.178880e-01,1.269866e-02
2.321023e-01,1.340043e-01,-4.178265e-03
2.195212e-01,1.267406e-01,-1.102054e-02
2.023168e-01,1.168077e-01,9.934604e-03
2.252401e-01,1.300424e-01,3.224230e-03
