x,y,z
1.841677e-01,1.063293e-01,1.327201e-02
2.085692e-01,1.204175e-01,2.473573e-02
2.529086e-01,1.460168e-01,-3.160352e-02
1.955556e-01,1.129041e-01,-5.443956e-03
1.871396e-01,1.080451e-01,2.878557e-02
2.481342e-01,1.432603e-01,-8.369803e-03
2.188629e-01,1.263605e-01,-2.255174e-02
1.835436e-01,1.059689e-01,1.622327e-02
2.143584e-01,1.237599e-01,2.132277e-02
2.485715e-01,1.435128e-01,-3.178177e-02
1.927805e-01,1.113019e-01,-1.944673e-03
1.898842e-01,1.096297e-01,2.948880e-02
2.525389e-01,1.458034e-01,-1.480845e-02
2.133820e-01,1.231961e-01,-1.936073e-02
1.834320e-01,1.059045e-01,1.936162e-02
2.215668e-01,1.279217e-01,1.632396e-02
2.425365e-01,1.400285e-01,-3.086755e-02
1.900007e-01,1.096969e-01,2.159746e-03
1.938851e-01,1.119396e-01,2.947384e-02
2.557815e-01,1.476755e-01,-2.152189e-02
2.076315e-01,1.198761e-01,-1.559005e-02
1.837293e-01,1.060761e-01,2.262565e-02
2.297289e-01,1.326341e-01,9.928780e-03
2.356326e-01,1.360425e-01,-2.917563e-02
1.873868e-01,1.081878e-01,6.445915e-03
1.987277e-01,1.147355e-01,2.861847e-02
2.567878e-01,1.482565e-01,-2.694804e-02
2.025043e-01,1.169159e-01,-1.184293e-02
1.843777e-01,1.064505e-01,2.546597e-02
2.372405e-01,1.369709e-01,3.348781e-03
2.292667e-01,1.323672e-01,-2.716531e-02
1.853828e-01,1.070308e-01,1.021467e-02
2.036897e-01,1.176003e-01,2.700413e-02
2.555947e-01,1.475677e-01,-3.018415e-02
1.985488e-01,1.146322e-01,-8.507380e-03
1.854601e-01,1.070754e-01,2.750849e-02
2.432831e-01,1.404596e-01,-2.670464e-03
2.238297e-01,1.292282e-01,-2.500188e-02
1.841390e-01,1.063127e-01,1.336639e-02
2.087369e-01,1.205143e-01,2.464679e-02
2.527970e-01,1.459524e-01,-3.162774e-02
1.954656e-01,1.128521e-01,-5.340551e-03
1.872089e-01,1.080851e-01,2.881746e-02
2.482828e-01,1.433461e-01,-8.563307e-03
2.186968e-01,1.262646e-01,-2.246170e-02
1.835330e-01,1.059628e-01,1.631883e-02
2.145635e-01,1.238783e-01,2.119041e-02
2.484050e-01,1.434167e-01,-3.176859e-02
1.926925e-01,1.112511e-01,-1.823476e-03
1.899924e-01,1.096922e-01,2.950028e-02
2.526667e-01,1.458772e-01,-1.502356e-02
2.132004e-01,1.230913e-01,-1.924759e-02
1.834356e-01,1.059066e-01,1.946543e-02
2.218183e-01,1.280669e-01,1.613780e-02
2.423228e-01,1.399051e-01,-3.082332e-02
1.899131e-01,1.096464e-01,2.297259e-03
1.940300e-01,1.120232e-01,2.945973e-02
2.558525e-01,1.477165e-01,-2.172320e-02
2.074537e-01,1.197734e-01,-1.546709e-02
1.837446e-01,1.060850e-01,2.272565e-02
2.299860e-01,1.327825e-01,9.715459e-03
2.354161e-01,1.359176e-01,-2.911461e-02
1.873118e-01,1.081445e-01,6.576181e-03
1.988863e-01,1.148270e-01,2.857806e-02
2.567792e-01,1.482515e-01,-2.708448e-02
2.023607e-01,1.168330e-01,-1.173036e-02
1.844046e-01,1.064661e-01,2.554363e-02
2.374553e-01,1.370949e-01,3.148654e-03
2.290815e-01,1.322603e-01,-2.709930e-02
1.853322e-01,1.070016e-01,1.032287e-02
2.038465e-01,1.176908e-01,2.694148e-02
2.555295e-01,1.475300e-01,-3.025429e-02
1.984401e-01,1.145694e-01,-8.406824e-03
1.855040e-01,1.071008e-01,2.756040e-02
2.434549e-01,1.405587e-01,-2.855327e-03
2.236669e-01,1.291341e-01,-2.492879e-02
1.841105e-01,1.062962e-01,1.346051e-02
2.089053e-01,1.206115e-01,2.455677e-02
2.526840e-01,1.458872e-01,-3.165073e-02
1.953750e-01,1.127998e-01,-5.236949e-03
1.872796e-01,1.081259e-01,2.884866e-02
2.484321e-01,1.434323e-01,-8.757622e-03
2.185294e-01,1.261680e-01,-2.237104e-02
1.835223e-01,1.059567e-01,1.641458e-02
2.147703e-01,1.239977e-01,2.105634e-02
2.482370e-01,1.433197e-01,-3.175433e-02
1.926052e-01,1.112007e-01,-1.701443e-03
1.901013e-01,1.097550e-01,2.951115e-02
2.527917e-01,1.459494e-01,-1.523883e-02
2.130177e-01,1.229858e-01,-1.913392e-02
1.834397e-01,1.059090e-01,1.956941e-02
2.220715e-01,1.282130e-01,1.595005e-02
2.421078e-01,1.397810e-01,-3.077827e-02
1.898252e-01,1.095956e-01,2.434883e-03
1.941757e-01,1.121074e-01,2.944474e-02
2.559194e-01,1.477551e-01,-2.192283e-02
2.072765e-01,1.196712e-01,-1.534419e-02
1.837599e-01,1.060939e-01,2.282517e-02
2.302423e-01,1.329304e-01,9.502066e-03
2.352004e-01,1.357930e-01,-2.905333e-02
1.872376e-01,1.081017e-01,6.705861e-03
1.990446e-01,1.149185e-01,2.853699e-02
2.567698e-01,1.482461e-01,-2.721879e-02
2.022178e-01,1.167505e-01,-1.161840e-02
1.844319e-01,1.064818e-01,2.562044e-02
2.376681e-01,1.372178e-01,2.949252e-03
2.288974e-01,1.321540e-01,-2.703319e-02
1.852818e-01,1.069725e-01,1.043035e-02
2.040033e-01,1.177814e-01,2.687810e-02
2.554611e-01,1.474905e-01,-3.032239e-02
1.983328e-01,1.145075e-01,-8.306348e-03
1.855480e-01,1.071262e-01,2.761163e-02
2.436247e-01,1.406568e-01,-3.039974e-03
2.235035e-01,1.290398e-01,-2.485538e-02
1.840833e-01,1.062806e-01,1.355454e-02
2.090746e-01,1.207093e-01,2.446565e-02
2.525683e-01,1.458204e-01,-3.167229e-02
1.952857e-01,1.127482e-01,-5.132764e-03
1.873508e-01,1.081670e-01,2.887937e-02
2.485794e-01,1.435174e-01,-8.952436e-03
2.183620e-01,1.260714e-01,-2.227960e-02
1.835129e-01,1.059512e-01,1.651063e-02
2.149789e-01,1.241181e-01,2.092055e-02
2.480672e-01,1.432217e-01,-3.173898e-02
1.925170e-01,1.111498e-01,-1.578904e-03
1.902117e-01,1.098188e-01,2.952126e-02
2.529168e-01,1.460216e-01,-1.545463e-02
2.128352e-01,1.228805e-01,-1.901958e-02
1.834443e-01,1.059116e-01,1.967354e-02
2.223246e-01,1.283592e-01,1.576097e-02
2.418922e-01,1.396565e-01,-3.073244e-02
1.897376e-01,1.095451e-01,2.572705e-03
1.943224e-01,1.121921e-01,2.942887e-02
2.559848e-01,1.477929e-01,-2.212111e-02
2.071008e-01,1.195697e-01,-1.522129e-02
1.837758e-01,1.061030e-01,2.292421e-02
2.304978e-01,1.330780e-01,9.288618e-03
2.349855e-01,1.356689e-01,-2.899177e-02
1.871637e-01,1.080590e-01,6.834857e-03
1.992030e-01,1.150099e-01,2.849514e-02
2.567572e-01,1.482388e-01,-2.735061e-02
2.020765e-01,1.166689e-01,-1.150684e-02
1.844596e-01,1.064978e-01,2.569641e-02
2.378792e-01,1.373396e-01,2.750544e-03
2.287142e-01,1.320482e-01,-2.696693e-02
1.852326e-01,1.069441e-01,1.053721e-02
2.041602e-01,1.178719e-01,2.681400e-02
2.553918e-01,1.474505e-01,-3.038881e-02
1.982260e-01,1.144458e-01,-8.206098e-03
1.855931e-01,1.071522e-01,2.766210e-02
2.437937e-01,1.407543e-01,-3.224542e-03
2.233405e-01,1.289457e-01,-2.478156e-02
1.840559e-01,1.062647e-01,1.364831e-02
2.092447e-01,1.208075e-01,2.437340e-02
2.524511e-01,1.457527e-01,-3.169260e-02
1.951955e-01,1.126962e-01,-5.028373e-03
1.874233e-01,1.082089e-01,2.890942e-02
2.487272e-01,1.436027e-01,-9.148066e-03
2.181946e-01,1.259747e-01,-2.218738e-02
1.835031e-01,1.059456e-01,1.660687e-02
2.151892e-01,1.242395e-01,2.078303e-02
2.478947e-01,1.431221e-01,-3.172241e-02
1.924294e-01,1.110991e-01,-1.455559e-03
1.903236e-01,1.098834e-01,2.953059e-02
2.530400e-01,1.460927e-01,-1.567065e-02
2.126529e-01,1.227752e-01,-1.890455e-02
1.834491e-01,1.059144e-01,1.977781e-02
2.225794e-01,1.285063e-01,1.557033e-02
2.416761e-01,1.395318e-01,-3.068590e-02
1.896505e-01,1.094947e-01,2.710696e-03
1.944700e-01,1.122773e-01,2.941210e-02
2.560479e-01,1.478293e-01,-2.231781e-02
2.069249e-01,1.194681e-01,-1.509865e-02
1.837919e-01,1.061123e-01,2.302274e-02
2.307520e-01,1.332248e-01,9.075213e-03
2.347714e-01,1.355453e-01,-2.892996e-02
1.870912e-01,1.080172e-01,6.963320e-03
1.993614e-01,1.151014e-01,2.845255e-02
2.567429e-01,1.482306e-01,-2.748018e-02
2.019366e-01,1.165882e-01,-1.139575e-02
1.844879e-01,1.065141e-01,2.577150e-02
2.380895e-01,1.374610e-01,2.552435e-03
2.285316e-01,1.319428e-01,-2.690057e-02
1.851842e-01,1.069161e-01,1.064344e-02
2.043171e-01,1.179625e-01,2.674918e-02
2.553214e-01,1.474099e-01,-3.045360e-02
1.981203e-01,1.143848e-01,-8.105951e-03
1.856389e-01,1.071786e-01,2.771183e-02
2.439625e-01,1.408518e-01,-3.409139e-03
2.231779e-01,1.288518e-01,-2.470732e-02
1.840298e-01,1.062496e-01,1.374201e-02
2.094157e-01,1.209062e-01,2.428001e-02
2.523326e-01,1.456843e-01,-3.171168e-02
1.951066e-01,1.126449e-01,-4.923363e-03
1.874972e-01,1.082516e-01,2.893879e-02
2.488741e-01,1.436875e-01,-9.344359e-03
2.180263e-01,1.258775e-01,-2.209449e-02
1.834945e-01,1.059406e-01,1.670342e-02
2.154012e-01,1.243620e-01,2.064378e-02
2.477205e-01,1.430215e-01,-3.170477e-02
1.923413e-01,1.110483e-01,-1.331624e-03
1.904370e-01,1.099488e-01,2.953913e-02
2.531622e-01,1.461632e-01,-1.588697e-02
2.124693e-01,1.226692e-01,-1.878911e-02
1.834546e-01,1.059175e-01,1.988222e-02
2.228348e-01,1.286537e-01,1.537835e-02
2.414595e-01,1.394067e-01,-3.063862e-02
1.895630e-01,1.094443e-01,2.848703e-03
1.946185e-01,1.123630e-01,2.939442e-02
2.561077e-01,1.478638e-01,-2.251281e-02
2.067502e-01,1.193673e-01,-1.497609e-02
1.838085e-01,1.061219e-01,2.312072e-02
2.310058e-01,1.333713e-01,8.861816e-03
2.345581e-01,1.354222e-01,-2.886791e-02
1.870185e-01,1.079752e-01,7.091001e-03
1.995198e-01,1.151928e-01,2.840920e-02
2.567266e-01,1.482212e-01,-2.760745e-02
2.017975e-01,1.165078e-01,-1.128522e-02
1.845164e-01,1.065306e-01,2.584575e-02
2.382970e-01,1.375808e-01,2.355134e-03
2.283501e-01,1.318380e-01,-2.683409e-02
1.851362e-01,1.068884e-01,1.074902e-02
2.044739e-01,1.180530e-01,2.668367e-02
2.552501e-01,1.473687e-01,-3.051674e-02
1.980153e-01,1.143242e-01,-8.005942e-03
1.856851e-01,1.072053e-01,2.776091e-02
2.441291e-01,1.409480e-01,-3.593560e-03
2.230158e-01,1.287582e-01,-2.463263e-02
1.840039e-01,1.062347e-01,1.383552e-02
2.095875e-01,1.210054e-01,2.418545e-02
2.522127e-01,1.456151e-01,-3.172956e-02
1.950170e-01,1.125931e-01,-4.818098e-03
1.875717e-01,1.082945e-01,2.896769e-02
2.490204e-01,1.437720e-01,-9.541360e-03
2.178572e-01,1.257799e-01,-2.200087e-02
1.834860e-01,1.059357e-01,1.680020e-02
2.156143e-01,1.244850e-01,2.050291e-02
2.475449e-01,1.429201e-01,-3.168607e-02
1.922534e-01,1.109975e-01,-1.206974e-03
1.905513e-01,1.100148e-01,2.954702e-02
2.532834e-01,1.462332e-01,-1.610356e-02
2.122859e-01,1.225633e-01,-1.867302e-02
1.834601e-01,1.059207e-01,1.998671e-02
2.230912e-01,1.288017e-01,1.518499e-02
2.412422e-01,1.392812e-01,-3.059061e-02
1.894764e-01,1.093942e-01,2.986912e-03
1.947677e-01,1.124492e-01,2.937586e-02
2.561664e-01,1.478978e-01,-2.270636e-02
2.065768e-01,1.192672e-01,-1.485361e-02
1.838254e-01,1.061316e-01,2.321815e-02
2.312581e-01,1.335169e-01,8.648577e-03
2.343457e-01,1.352995e-01,-2.880564e-02
1.869472e-01,1.079340e-01,7.218110e-03
1.996783e-01,1.152843e-01,2.836511e-02
2.567076e-01,1.482102e-01,-2.773230e-02
2.016604e-01,1.164287e-01,-1.117502e-02
1.845456e-01,1.065475e-01,2.591913e-02
2.385038e-01,1.377003e-01,2.158401e-03
2.281695e-01,1.317337e-01,-2.676746e-02
1.850895e-01,1.068615e-01,1.085404e-02
2.046308e-01,1.181436e-01,2.661741e-02
2.551756e-01,1.473257e-01,-3.057795e-02
1.979111e-01,1.142640e-01,-7.906054e-03
1.857325e-01,1.072327e-01,2.780918e-02
2.442953e-01,1.410440e-01,-3.778034e-03
2.228540e-01,1.286648e-01,-2.455751e-02
1.839789e-01,1.062202e-01,1.392894e-02
2.097603e-01,1.211052e-01,2.408972e-02
2.520915e-01,1.455451e-01,-3.174624e-02
1.949285e-01,1.125420e-01,-4.712207e-03
1.876475e-01,1.083384e-01,2.899589e-02
2.491668e-01,1.438565e-01,-9.739175e-03
2.176880e-01,1.256822e-01,-2.190646e-02
1.834783e-01,1.059312e-01,1.689729e-02
2.158290e-01,1.246089e-01,2.036029e-02
2.473678e-01,1.428179e-01,-3.166633e-02
1.921654e-01,1.109467e-01,-1.081657e-03
1.906670e-01,1.100816e-01,2.955413e-02
2.534024e-01,1.463019e-01,-1.632019e-02
2.121028e-01,1.224576e-01,-1.855630e-02
1.834665e-01,1.059245e-01,2.009131e-02
2.233487e-01,1.289504e-01,1.499023e-02
2.410234e-01,1.391549e-01,-3.054185e-02
1.893893e-01,1.093440e-01,3.125035e-03
1.949176e-01,1.125357e-01,2.935645e-02
2.562208e-01,1.479291e-01,-2.289789e-02
2.064034e-01,1.191670e-01,-1.473148e-02
1.838426e-01,1.061416e-01,2.331502e-02
2.315099e-01,1.336623e-01,8.435402e-03
2.341342e-01,1.351774e-01,-2.874315e-02
1.868763e-01,1.078931e-01,7.344510e-03
1.998368e-01,1.153758e-01,2.832028e-02
2.566878e-01,1.481988e-01,-2.785507e-02
2.015236e-01,1.163497e-01,-1.106546e-02
1.845750e-01,1.065645e-01,2.599166e-02
2.387087e-01,1.378185e-01,1.962380e-03
2.279900e-01,1.316301e-01,-2.670069e-02
1.850430e-01,1.068346e-01,1.095837e-02
2.047879e-01,1.182343e-01,2.655040e-02
2.551002e-01,1.472822e-01,-3.063759e-02
1.978078e-01,1.142044e-01,-7.806220e-03
1.857799e-01,1.072601e-01,2.785686e-02
2.444615e-01,1.411399e-01,-3.962608e-03
2.226915e-01,1.285710e-01,-2.448201e-02
1.839544e-01,1.062061e-01,1.402228e-02
2.099340e-01,1.212055e-01,2.399279e-02
2.519686e-01,1.454741e-01,-3.176168e-02
1.948394e-01,1.124906e-01,-4.605998e-03
1.877248e-01,1.083830e-01,2.902345e-02
2.493116e-01,1.439401e-01,-9.937596e-03
2.175188e-01,1.255845e-01,-2.181125e-02
1.834708e-01,1.059269e-01,1.699463e-02
2.160455e-01,1.247339e-01,2.021590e-02
2.471893e-01,1.427148e-01,-3.164553e-02
1.920771e-01,1.108958e-01,-9.557325e-04
1.907842e-01,1.101493e-01,2.956044e-02
2.535215e-01,1.463707e-01,-1.653716e-02
2.119187e-01,1.223513e-01,-1.843921e-02
1.834726e-01,1.059280e-01,2.019597e-02
2.236061e-01,1.290991e-01,1.479428e-02
2.408043e-01,1.390284e-01,-3.049242e-02
1.893029e-01,1.092941e-01,3.263260e-03
