x,y,z
2.295077e-01,1.325063e-01,-6.440011e-03
2.157075e-01,1.245388e-01,-5.385348e-03
2.087220e-01,1.205057e-01,8.228253e-03
2.273106e-01,1.312378e-01,-2.527544e-03
2.201164e-01,1.270842e-01,-8.124287e-03
2.075805e-01,1.198467e-01,6.508801e-03
2.233443e-01,1.289479e-01,1.744964e-03
2.244807e-01,1.296040e-01,-9.802835e-03
2.079887e-01,1.200823e-01,3.761573e-03
2.185842e-01,1.261997e-01,5.431092e-03
2.279554e-01,1.316101e-01,-1.000471e-02
2.098494e-01,1.211566e-01,4.140461e-04
2.140275e-01,1.235688e-01,7.827883e-03
2.296705e-01,1.326003e-01,-8.480055e-03
2.129615e-01,1.229534e-01,-3.088900e-03
2.104267e-01,1.214899e-01,8.618665e-03
2.290746e-01,1.322563e-01,-5.351251e-03
2.170031e-01,1.252868e-01,-6.299112e-03
2.082118e-01,1.202112e-01,7.840196e-03
2.262568e-01,1.306294e-01,-1.227322e-03
2.214775e-01,1.278701e-01,-8.764680e-03
2.075429e-01,1.198250e-01,5.766885e-03
2.219392e-01,1.281367e-01,2.961445e-03
2.256677e-01,1.302893e-01,-1.003612e-02
2.084062e-01,1.203234e-01,2.791614e-03
2.171428e-01,1.253675e-01,6.314786e-03
2.286952e-01,1.320372e-01,-9.729005e-03
2.106715e-01,1.216312e-01,-6.501605e-04
2.128110e-01,1.228665e-01,8.240971e-03
2.297442e-01,1.326429e-01,-7.683809e-03
2.141055e-01,1.236138e-01,-4.111880e-03
2.095989e-01,1.210120e-01,8.539518e-03
2.284335e-01,1.318862e-01,-4.168945e-03
2.183400e-01,1.260586e-01,-7.144713e-03
2.078442e-01,1.199989e-01,7.332784e-03
2.250635e-01,1.299405e-01,7.854014e-05
2.228137e-01,1.286416e-01,-9.295359e-03
2.076461e-01,1.198846e-01,4.942115e-03
2.204905e-01,1.273002e-01,4.099109e-03
2.267484e-01,1.309132e-01,-1.012336e-02
2.089520e-01,1.206385e-01,1.778858e-03
2.157464e-01,1.245613e-01,7.064896e-03
2.292508e-01,1.323580e-01,-9.290997e-03
2.116010e-01,1.221679e-01,-1.716205e-03
2.116999e-01,1.222250e-01,8.502683e-03
2.295965e-01,1.325576e-01,-6.749376e-03
2.153239e-01,1.243173e-01,-5.095631e-03
2.089057e-01,1.206118e-01,8.321176e-03
2.275996e-01,1.314047e-01,-2.917892e-03
2.197003e-01,1.268440e-01,-7.909498e-03
2.076202e-01,1.198696e-01,6.716372e-03
2.237590e-01,1.291873e-01,1.362546e-03
2.241020e-01,1.293853e-01,-9.704291e-03
2.078883e-01,1.200244e-01,4.046414e-03
2.190277e-01,1.264557e-01,5.137491e-03
2.276969e-01,1.314609e-01,-1.005655e-02
2.096220e-01,1.210253e-01,7.356881e-04
2.144163e-01,1.237933e-01,7.672305e-03
2.296050e-01,1.325625e-01,-8.692966e-03
2.126300e-01,1.227620e-01,-2.771664e-03
2.107053e-01,1.216507e-01,8.614095e-03
2.292289e-01,1.323454e-01,-5.693589e-03
2.166041e-01,1.250564e-01,-6.027628e-03
2.083519e-01,1.202920e-01,7.971401e-03
2.265935e-01,1.308238e-01,-1.624927e-03
2.210644e-01,1.276316e-01,-8.580828e-03
2.075394e-01,1.198229e-01,6.002002e-03
2.223726e-01,1.283869e-01,2.598549e-03
2.253165e-01,1.300866e-01,-9.980166e-03
2.082651e-01,1.202419e-01,3.091919e-03
2.175782e-01,1.256188e-01,6.059433e-03
2.284889e-01,1.319181e-01,-9.830102e-03
2.104094e-01,1.214799e-01,-3.255032e-04
2.131709e-01,1.230743e-01,8.131240e-03
2.297453e-01,1.326435e-01,-7.941445e-03
2.137487e-01,1.234079e-01,-3.804116e-03
2.098364e-01,1.211491e-01,8.578684e-03
2.286500e-01,1.320111e-01,-4.537257e-03
2.179299e-01,1.258219e-01,-6.895320e-03
2.079411e-01,1.200548e-01,7.499245e-03
2.254397e-01,1.301577e-01,-3.178351e-04
2.224112e-01,1.284091e-01,-9.146190e-03
2.075999e-01,1.198579e-01,5.201198e-03
2.209344e-01,1.275566e-01,3.762473e-03
2.264324e-01,1.307308e-01,-1.011279e-02
2.087723e-01,1.205347e-01,2.090881e-03
2.161656e-01,1.248033e-01,6.851329e-03
2.291021e-01,1.322722e-01,-9.441423e-03
2.113072e-01,1.219982e-01,-1.392300e-03
2.120259e-01,1.224132e-01,8.439056e-03
2.296648e-01,1.325971e-01,-7.047473e-03
2.149462e-01,1.240992e-01,-4.801117e-03
2.091017e-01,1.207249e-01,8.401949e-03
2.278726e-01,1.315623e-01,-3.304350e-03
2.192849e-01,1.266042e-01,-7.686047e-03
2.076732e-01,1.199002e-01,6.914867e-03
2.241662e-01,1.294224e-01,9.756596e-04
2.237165e-01,1.291628e-01,-9.593415e-03
2.078005e-01,1.199736e-01,4.325810e-03
2.194732e-01,1.267129e-01,4.833025e-03
2.274236e-01,1.313031e-01,-1.009358e-02
2.094055e-01,1.209003e-01,1.055664e-03
2.148129e-01,1.240223e-01,7.502959e-03
2.295194e-01,1.325131e-01,-8.891614e-03
2.123068e-01,1.225754e-01,-2.452297e-03
2.109945e-01,1.218177e-01,8.595962e-03
2.293636e-01,1.324232e-01,-6.026590e-03
2.162086e-01,1.248281e-01,-5.750207e-03
2.085053e-01,1.203806e-01,8.091256e-03
2.269165e-01,1.310103e-01,-2.021224e-03
2.206501e-01,1.273924e-01,-8.387154e-03
2.075490e-01,1.198285e-01,6.229106e-03
2.228014e-01,1.286345e-01,2.228936e-03
2.249563e-01,1.298786e-01,-9.910927e-03
2.081363e-01,1.201675e-01,3.387913e-03
2.180161e-01,1.258717e-01,5.792071e-03
2.282655e-01,1.317891e-01,-9.916133e-03
2.101576e-01,1.213346e-01,-1.364022e-06
2.135400e-01,1.232874e-01,8.007489e-03
2.297258e-01,1.326323e-01,-8.185851e-03
2.133994e-01,1.232062e-01,-3.493066e-03
2.100872e-01,1.212939e-01,8.604702e-03
2.288481e-01,1.321255e-01,-4.898460e-03
2.175223e-01,1.255866e-01,-6.638804e-03
2.080510e-01,1.201183e-01,7.655306e-03
2.258049e-01,1.303685e-01,-7.154762e-04
2.220049e-01,1.281746e-01,-8.986072e-03
2.075665e-01,1.198386e-01,5.453371e-03
2.213759e-01,1.278114e-01,3.417193e-03
2.261053e-01,1.305420e-01,-1.008815e-02
2.086045e-01,1.204378e-01,2.399737e-03
2.165900e-01,1.250483e-01,6.624774e-03
2.289356e-01,1.321760e-01,-9.576906e-03
2.110228e-01,1.218341e-01,-1.067764e-03
2.123628e-01,1.226077e-01,8.361414e-03
2.297127e-01,1.326247e-01,-7.333783e-03
2.145742e-01,1.238845e-01,-4.502175e-03
2.093108e-01,1.208457e-01,8.470291e-03
2.281290e-01,1.317104e-01,-3.686147e-03
2.188707e-01,1.263650e-01,-7.454289e-03
2.077395e-01,1.199385e-01,7.103968e-03
2.245650e-01,1.296527e-01,5.850301e-04
2.233249e-01,1.289367e-01,-9.470514e-03
2.077249e-01,1.199300e-01,4.599411e-03
2.199183e-01,1.269699e-01,4.518264e-03
2.271366e-01,1.311374e-01,-1.011593e-02
2.092002e-01,1.207818e-01,1.373618e-03
2.152169e-01,1.242555e-01,7.319966e-03
2.294140e-01,1.324522e-01,-9.075775e-03
2.119922e-01,1.223937e-01,-2.131150e-03
2.112959e-01,1.219917e-01,8.564053e-03
2.294784e-01,1.324894e-01,-6.349629e-03
2.158180e-01,1.246026e-01,-5.467179e-03
2.086720e-01,1.204769e-01,8.199496e-03
2.272252e-01,1.311885e-01,-2.415426e-03
2.202353e-01,1.271529e-01,-8.184004e-03
2.075718e-01,1.198416e-01,6.447876e-03
2.232249e-01,1.288789e-01,1.853271e-03
2.245877e-01,1.296658e-01,-9.828679e-03
2.080197e-01,1.201002e-01,3.679249e-03
2.184576e-01,1.261265e-01,5.512938e-03
2.280270e-01,1.316515e-01,-9.987180e-03
2.099163e-01,1.211952e-01,3.219068e-04
2.139181e-01,1.235057e-01,7.869765e-03
2.296856e-01,1.326091e-01,-8.416661e-03
2.130576e-01,1.230088e-01,-3.179084e-03
2.103495e-01,1.214453e-01,8.617479e-03
2.290273e-01,1.322289e-01,-5.251849e-03
2.171179e-01,1.253531e-01,-6.375518e-03
2.081740e-01,1.201893e-01,7.800681e-03
2.261582e-01,1.305725e-01,-1.113606e-03
2.215948e-01,1.279378e-01,-8.815352e-03
2.075462e-01,1.198268e-01,5.698297e-03
2.218143e-01,1.280645e-01,3.063821e-03
2.257665e-01,1.303464e-01,-1.004964e-02
2.084484e-01,1.203477e-01,2.705080e-03
2.170192e-01,1.252961e-01,6.385464e-03
2.287514e-01,1.320697e-01,-9.697367e-03
2.107482e-01,1.216756e-01,-7.429460e-04
2.127101e-01,1.228082e-01,8.269733e-03
2.297399e-01,1.326404e-01,-7.607827e-03
2.142085e-01,1.236733e-01,-4.199149e-03
2.095332e-01,1.209740e-01,8.525963e-03
2.283683e-01,1.318485e-01,-4.062521e-03
2.184575e-01,1.261265e-01,-7.214595e-03
2.078192e-01,1.199845e-01,7.283360e-03
2.249545e-01,1.298776e-01,1.913978e-04
2.229282e-01,1.287076e-01,-9.335912e-03
2.076619e-01,1.198937e-01,4.866881e-03
2.203637e-01,1.272270e-01,4.193582e-03
2.268368e-01,1.309643e-01,-1.012377e-02
2.090056e-01,1.206694e-01,1.689195e-03
2.156278e-01,1.244928e-01,7.123482e-03
2.292895e-01,1.323804e-01,-9.245279e-03
2.116866e-01,1.222173e-01,-1.808571e-03
2.116085e-01,1.221722e-01,8.518309e-03
2.295729e-01,1.325440e-01,-6.662116e-03
2.154330e-01,1.243803e-01,-5.178895e-03
2.088521e-01,1.205808e-01,8.295859e-03
2.275187e-01,1.313580e-01,-2.806746e-03
2.198190e-01,1.269126e-01,-7.971756e-03
2.076077e-01,1.198624e-01,6.657985e-03
2.236418e-01,1.291197e-01,1.472237e-03
2.242112e-01,1.294484e-01,-9.733714e-03
2.079156e-01,1.200401e-01,3.965584e-03
2.189009e-01,1.263825e-01,5.222482e-03
2.277721e-01,1.315043e-01,-1.004325e-02
2.096858e-01,1.210621e-01,6.439605e-04
2.143046e-01,1.237288e-01,7.718144e-03
2.296254e-01,1.325743e-01,-8.633575e-03
2.127238e-01,1.228161e-01,-2.862522e-03
2.106246e-01,1.216041e-01,8.616781e-03
2.291873e-01,1.323213e-01,-5.596741e-03
2.167179e-01,1.251221e-01,-6.105800e-03
2.083104e-01,1.202681e-01,7.935068e-03
2.264986e-01,1.307691e-01,-1.511441e-03
2.211825e-01,1.276998e-01,-8.634367e-03
2.075389e-01,1.198226e-01,5.935643e-03
2.222493e-01,1.283157e-01,2.702921e-03
2.254178e-01,1.301450e-01,-9.997521e-03
2.083044e-01,1.202646e-01,3.006558e-03
2.174532e-01,1.255466e-01,6.133642e-03
2.285492e-01,1.319530e-01,-9.802750e-03
2.104835e-01,1.215227e-01,-4.182025e-04
2.130673e-01,1.230145e-01,8.164004e-03
2.297467e-01,1.326443e-01,-7.869160e-03
2.138498e-01,1.234662e-01,-3.892387e-03
2.097671e-01,1.211091e-01,8.568830e-03
2.285898e-01,1.319764e-01,-4.432724e-03
2.180469e-01,1.258894e-01,-6.967304e-03
2.079120e-01,1.200381e-01,7.452741e-03
2.253339e-01,1.300966e-01,-2.044762e-04
2.225268e-01,1.284759e-01,-9.189931e-03
2.076118e-01,1.198647e-01,5.127877e-03
2.208078e-01,1.274834e-01,3.859548e-03
2.265238e-01,1.307836e-01,-1.011726e-02
2.088225e-01,1.205637e-01,2.002057e-03
2.160451e-01,1.247337e-01,6.913692e-03
2.291466e-01,1.322979e-01,-9.399979e-03
2.113900e-01,1.220461e-01,-1.484912e-03
2.119315e-01,1.223587e-01,8.458668e-03
2.296472e-01,1.325869e-01,-6.963489e-03
2.150537e-01,1.241613e-01,-4.885711e-03
2.090443e-01,1.206918e-01,8.380140e-03
2.277964e-01,1.315183e-01,-3.194399e-03
2.194036e-01,1.266727e-01,-7.750741e-03
2.076569e-01,1.198908e-01,6.859104e-03
2.240509e-01,1.293558e-01,1.086581e-03
2.238276e-01,1.292269e-01,-9.626328e-03
2.078241e-01,1.199873e-01,4.246572e-03
2.193457e-01,1.266393e-01,4.921090e-03
2.275036e-01,1.313493e-01,-1.008452e-02
2.094661e-01,1.209353e-01,9.644442e-04
2.146990e-01,1.239565e-01,7.552720e-03
2.295454e-01,1.325281e-01,-8.836317e-03
2.123982e-01,1.226282e-01,-2.543727e-03
2.109105e-01,1.217693e-01,8.602547e-03
2.293277e-01,1.324024e-01,-5.932478e-03
2.163210e-01,1.248930e-01,-5.830048e-03
2.084601e-01,1.203545e-01,8.058191e-03
2.268256e-01,1.309578e-01,-1.908193e-03
2.207686e-01,1.274608e-01,-8.443460e-03
2.075447e-01,1.198260e-01,6.165070e-03
2.226801e-01,1.285644e-01,2.335129e-03
2.250600e-01,1.299384e-01,-9.932044e-03
2.081719e-01,1.201881e-01,3.303819e-03
2.178908e-01,1.257993e-01,5.869648e-03
2.283312e-01,1.318271e-01,-9.893098e-03
2.102286e-01,1.213756e-01,-9.388324e-05
2.134339e-01,1.232261e-01,8.044250e-03
2.297329e-01,1.326364e-01,-8.117378e-03
2.134983e-01,1.232633e-01,-3.582238e-03
2.100144e-01,1.212519e-01,8.598609e-03
2.287930e-01,1.320937e-01,-4.796027e-03
2.176384e-01,1.256536e-01,-6.712789e-03
2.080181e-01,1.200993e-01,7.611807e-03
2.257022e-01,1.303092e-01,-6.018252e-04
2.221211e-01,1.282417e-01,-9.032911e-03
2.075747e-01,1.198433e-01,5.382060e-03
2.212498e-01,1.277387e-01,3.516695e-03
2.261996e-01,1.305964e-01,-1.009661e-02
2.086512e-01,1.204648e-01,2.311852e-03
2.164684e-01,1.249781e-01,6.690798e-03
2.289853e-01,1.322047e-01,-9.539743e-03
2.111029e-01,1.218803e-01,-1.160522e-03
2.122655e-01,1.225516e-01,8.385021e-03
2.297010e-01,1.326179e-01,-7.253219e-03
2.146796e-01,1.239453e-01,-4.588009e-03
2.092498e-01,1.208104e-01,8.452049e-03
2.280577e-01,1.316692e-01,-3.577611e-03
2.189889e-01,1.264333e-01,-7.521319e-03
2.077194e-01,1.199268e-01,7.050920e-03
2.244518e-01,1.295873e-01,6.969681e-04
2.234377e-01,1.290018e-01,-9.506830e-03
2.077451e-01,1.199417e-01,4.521863e-03
2.197911e-01,1.268965e-01,4.609213e-03
2.272199e-01,1.311855e-01,-1.011103e-02
2.092575e-01,1.208149e-01,1.283011e-03
2.151009e-01,1.241886e-01,7.373612e-03
2.294459e-01,1.324707e-01,-9.024651e-03
2.120812e-01,1.224451e-01,-2.223052e-03
2.112087e-01,1.219414e-01,8.574569e-03
2.294482e-01,1.324720e-01,-6.258426e-03
2.159291e-01,1.246667e-01,-5.548582e-03
2.086231e-01,1.204486e-01,8.169773e-03
2.271384e-01,1.311384e-01,-2.303072e-03
2.203539e-01,1.272214e-01,-8.242980e-03
2.075637e-01,1.198370e-01,6.386255e-03
2.231045e-01,1.288094e-01,1.961163e-03
2.246936e-01,1.297269e-01,-9.853484e-03
2.080518e-01,1.201187e-01,3.596520e-03
2.183311e-01,1.260535e-01,5.593862e-03
2.280964e-01,1.316915e-01,-9.968402e-03
2.099843e-01,1.212345e-01,2.296697e-04
2.138093e-01,1.234429e-01,7.910524e-03
2.296988e-01,1.326167e-01,-8.352116e-03
2.131544e-01,1.230648e-01,-3.269057e-03
2.102733e-01,1.214013e-01,8.615198e-03
