x,y,z
1.921011e-01,1.109096e-01,1.056294e-02
2.144986e-01,1.238408e-01,1.692442e-02
2.424115e-01,1.399563e-01,-2.427962e-02
1.983599e-01,1.145232e-01,-7.830966e-04
1.992200e-01,1.150197e-01,2.274220e-02
2.468735e-01,1.425325e-01,-1.614179e-02
2.101584e-01,1.213350e-01,-1.203046e-02
1.920477e-01,1.108788e-01,1.935501e-02
2.338462e-01,1.350111e-01,1.732028e-03
2.265631e-01,1.308063e-01,-2.102156e-02
1.921588e-01,1.109429e-01,1.037813e-02
2.141724e-01,1.236525e-01,1.711742e-02
2.426318e-01,1.400835e-01,-2.425462e-02
1.985196e-01,1.146153e-01,-9.878946e-04
1.990219e-01,1.149053e-01,2.275385e-02
2.467813e-01,1.424792e-01,-1.587985e-02
2.104139e-01,1.214825e-01,-1.221461e-02
1.919918e-01,1.108465e-01,1.923388e-02
2.335172e-01,1.348212e-01,2.056000e-03
2.268705e-01,1.309837e-01,-2.114109e-02
1.922187e-01,1.109775e-01,1.019260e-02
2.138483e-01,1.234654e-01,1.730711e-02
2.428472e-01,1.402079e-01,-2.422582e-02
1.986805e-01,1.147082e-01,-1.192629e-03
1.988265e-01,1.147925e-01,2.276265e-02
2.466831e-01,1.424226e-01,-1.561458e-02
2.106702e-01,1.216305e-01,-1.239822e-02
1.919385e-01,1.108157e-01,1.911107e-02
2.331862e-01,1.346301e-01,2.379020e-03
2.271778e-01,1.311612e-01,-2.125892e-02
1.922808e-01,1.110134e-01,1.000637e-02
2.135254e-01,1.232789e-01,1.749361e-02
2.430591e-01,1.403302e-01,-2.419325e-02
1.988437e-01,1.148025e-01,-1.397174e-03
1.986337e-01,1.146812e-01,2.276858e-02
2.465791e-01,1.423625e-01,-1.534609e-02
2.109285e-01,1.217796e-01,-1.258112e-02
1.918872e-01,1.107861e-01,1.898662e-02
2.328534e-01,1.344379e-01,2.701024e-03
2.274849e-01,1.313385e-01,-2.137504e-02
1.923443e-01,1.110501e-01,9.819385e-03
2.132048e-01,1.230938e-01,1.767674e-02
2.432678e-01,1.404507e-01,-2.415693e-02
1.990077e-01,1.148971e-01,-1.601704e-03
1.984436e-01,1.145714e-01,2.277167e-02
2.464691e-01,1.422990e-01,-1.507444e-02
2.111886e-01,1.219298e-01,-1.276329e-02
1.918380e-01,1.107577e-01,1.886055e-02
2.325187e-01,1.342448e-01,3.021954e-03
2.277921e-01,1.315158e-01,-2.148941e-02
1.924104e-01,1.110882e-01,9.631735e-03
2.128853e-01,1.229094e-01,1.785669e-02
2.434714e-01,1.405683e-01,-2.411668e-02
1.991741e-01,1.149932e-01,-1.805993e-03
1.982561e-01,1.144632e-01,2.277193e-02
2.463532e-01,1.422321e-01,-1.479970e-02
2.114495e-01,1.220804e-01,-1.294487e-02
1.917911e-01,1.107306e-01,1.873288e-02
2.321824e-01,1.340506e-01,3.341748e-03
2.280994e-01,1.316933e-01,-2.160199e-02
1.924779e-01,1.111272e-01,9.443362e-03
2.125684e-01,1.227264e-01,1.803322e-02
2.436712e-01,1.406836e-01,-2.407253e-02
1.993415e-01,1.150899e-01,-2.010219e-03
1.980713e-01,1.143565e-01,2.276938e-02
2.462315e-01,1.421618e-01,-1.452195e-02
2.117120e-01,1.222320e-01,-1.312573e-02
1.917462e-01,1.107047e-01,1.860363e-02
2.318445e-01,1.338555e-01,3.660345e-03
2.284068e-01,1.318708e-01,-2.171277e-02
1.925475e-01,1.111673e-01,9.254321e-03
2.122523e-01,1.225439e-01,1.820662e-02
2.438674e-01,1.407969e-01,-2.402452e-02
1.995110e-01,1.151877e-01,-2.214217e-03
1.978892e-01,1.142514e-01,2.276403e-02
2.461039e-01,1.420882e-01,-1.424128e-02
2.119762e-01,1.223845e-01,-1.330584e-02
1.917036e-01,1.106801e-01,1.847283e-02
2.315050e-01,1.336595e-01,3.977687e-03
2.287144e-01,1.320483e-01,-2.182173e-02
1.926194e-01,1.112089e-01,9.064644e-03
2.119388e-01,1.223629e-01,1.837660e-02
2.440587e-01,1.409074e-01,-2.397245e-02
1.996819e-01,1.152864e-01,-2.418077e-03
1.977098e-01,1.141478e-01,2.275589e-02
2.459708e-01,1.420113e-01,-1.395779e-02
2.122421e-01,1.225380e-01,-1.348519e-02
1.916628e-01,1.106566e-01,1.834052e-02
2.311641e-01,1.334626e-01,4.293714e-03
2.290212e-01,1.322254e-01,-2.192885e-02
1.926925e-01,1.112511e-01,8.874251e-03
2.116268e-01,1.221828e-01,1.854334e-02
2.442455e-01,1.410152e-01,-2.391635e-02
1.998546e-01,1.153861e-01,-2.621740e-03
1.975331e-01,1.140458e-01,2.274500e-02
2.458319e-01,1.419311e-01,-1.367154e-02
2.125086e-01,1.226919e-01,-1.366389e-02
1.916245e-01,1.106344e-01,1.820670e-02
2.308218e-01,1.332650e-01,4.608364e-03
2.293277e-01,1.324024e-01,-2.203412e-02
1.927681e-01,1.112947e-01,8.683252e-03
2.113167e-01,1.220038e-01,1.870676e-02
2.444285e-01,1.411209e-01,-2.385625e-02
2.000290e-01,1.154868e-01,-2.825194e-03
1.973590e-01,1.139453e-01,2.273137e-02
2.456874e-01,1.418477e-01,-1.338262e-02
2.127768e-01,1.228468e-01,-1.384179e-02
1.915878e-01,1.106133e-01,1.807140e-02
2.304782e-01,1.330667e-01,4.921581e-03
2.296342e-01,1.325794e-01,-2.213746e-02
1.928454e-01,1.113394e-01,8.491612e-03
2.110091e-01,1.218261e-01,1.886681e-02
2.446072e-01,1.412240e-01,-2.379207e-02
2.002048e-01,1.155883e-01,-3.028476e-03
1.971872e-01,1.138461e-01,2.271507e-02
2.455374e-01,1.417611e-01,-1.309112e-02
2.130467e-01,1.230025e-01,-1.401888e-02
1.915536e-01,1.105935e-01,1.793463e-02
2.301335e-01,1.328676e-01,5.233305e-03
2.299408e-01,1.327564e-01,-2.223889e-02
1.929245e-01,1.113850e-01,8.299326e-03
2.107026e-01,1.216492e-01,1.902367e-02
2.447802e-01,1.413239e-01,-2.372367e-02
2.003827e-01,1.156910e-01,-3.231487e-03
1.970182e-01,1.137485e-01,2.269605e-02
2.453820e-01,1.416713e-01,-1.279711e-02
2.133181e-01,1.231593e-01,-1.419514e-02
1.915212e-01,1.105748e-01,1.779645e-02
2.297876e-01,1.326679e-01,5.543477e-03
2.302469e-01,1.329331e-01,-2.233836e-02
1.930060e-01,1.114321e-01,8.106476e-03
2.103986e-01,1.214737e-01,1.917713e-02
2.449490e-01,1.414214e-01,-2.365115e-02
2.005617e-01,1.157944e-01,-3.434348e-03
1.968520e-01,1.136525e-01,2.267433e-02
2.452211e-01,1.415785e-01,-1.250070e-02
2.135900e-01,1.233162e-01,-1.437069e-02
1.914912e-01,1.105575e-01,1.765684e-02
2.294408e-01,1.324677e-01,5.852039e-03
2.305520e-01,1.331093e-01,-2.243587e-02
1.930887e-01,1.114798e-01,7.912972e-03
2.100965e-01,1.212993e-01,1.932729e-02
2.451136e-01,1.415164e-01,-2.357448e-02
2.007432e-01,1.158991e-01,-3.636880e-03
1.966884e-01,1.135581e-01,2.264992e-02
2.450549e-01,1.414825e-01,-1.220195e-02
2.138635e-01,1.234741e-01,-1.454537e-02
1.914628e-01,1.105411e-01,1.751585e-02
2.290925e-01,1.322666e-01,6.158980e-03
2.308570e-01,1.332853e-01,-2.253137e-02
1.931737e-01,1.115289e-01,7.718914e-03
2.097961e-01,1.211258e-01,1.947421e-02
2.452732e-01,1.416086e-01,-2.349355e-02
2.009254e-01,1.160043e-01,-3.839278e-03
1.965277e-01,1.134653e-01,2.262285e-02
2.448834e-01,1.413835e-01,-1.190096e-02
2.141384e-01,1.236329e-01,-1.471919e-02
1.914369e-01,1.105262e-01,1.737348e-02
2.287433e-01,1.320650e-01,6.464217e-03
2.311619e-01,1.334614e-01,-2.262484e-02
1.932607e-01,1.115791e-01,7.524297e-03
2.094982e-01,1.209539e-01,1.961774e-02
2.454271e-01,1.416974e-01,-2.340831e-02
2.011102e-01,1.161110e-01,-4.041305e-03
1.963695e-01,1.133740e-01,2.259315e-02
2.447067e-01,1.412815e-01,-1.159783e-02
2.144150e-01,1.237925e-01,-1.489212e-02
1.914127e-01,1.105122e-01,1.722978e-02
2.283932e-01,1.318629e-01,6.767676e-03
2.314659e-01,1.336369e-01,-2.271623e-02
1.933491e-01,1.116301e-01,7.329068e-03
2.092022e-01,1.207829e-01,1.975800e-02
2.455766e-01,1.417837e-01,-2.331880e-02
2.012957e-01,1.162181e-01,-4.243203e-03
1.962136e-01,1.132840e-01,2.256089e-02
2.445249e-01,1.411765e-01,-1.129261e-02
2.146924e-01,1.239527e-01,-1.506420e-02
1.913908e-01,1.104995e-01,1.708474e-02
2.280425e-01,1.316604e-01,7.069300e-03
2.317689e-01,1.338119e-01,-2.280556e-02
1.934399e-01,1.116826e-01,7.133338e-03
2.089079e-01,1.206131e-01,1.989500e-02
2.457214e-01,1.418673e-01,-2.322503e-02
2.014839e-01,1.163268e-01,-4.444701e-03
1.960605e-01,1.131956e-01,2.252602e-02
2.443379e-01,1.410686e-01,-1.098540e-02
2.149708e-01,1.241134e-01,-1.523541e-02
1.913707e-01,1.104879e-01,1.693840e-02
2.276912e-01,1.314576e-01,7.369033e-03
2.320718e-01,1.339867e-01,-2.289275e-02
1.935322e-01,1.117359e-01,6.937045e-03
2.086162e-01,1.204446e-01,2.002865e-02
2.458613e-01,1.419481e-01,-2.312694e-02
2.016728e-01,1.164359e-01,-4.646054e-03
1.959101e-01,1.131087e-01,2.248856e-02
2.441460e-01,1.409578e-01,-1.067630e-02
2.152504e-01,1.242749e-01,-1.540569e-02
1.913528e-01,1.104776e-01,1.679077e-02
2.273394e-01,1.312545e-01,7.666818e-03
2.323743e-01,1.341614e-01,-2.297780e-02
1.936264e-01,1.117902e-01,6.740224e-03
2.083266e-01,1.202774e-01,2.015899e-02
2.459949e-01,1.420252e-01,-2.302437e-02
2.018644e-01,1.165465e-01,-4.846995e-03
1.957625e-01,1.130235e-01,2.244852e-02
2.439492e-01,1.408441e-01,-1.036538e-02
2.155315e-01,1.244372e-01,-1.557501e-02
1.913369e-01,1.104684e-01,1.664187e-02
2.269872e-01,1.310511e-01,7.962599e-03
2.326749e-01,1.343349e-01,-2.306066e-02
1.937229e-01,1.118460e-01,6.542948e-03
2.080387e-01,1.201112e-01,2.028613e-02
2.461236e-01,1.420995e-01,-2.291745e-02
2.020568e-01,1.166575e-01,-5.047770e-03
1.956175e-01,1.129398e-01,2.240594e-02
2.437474e-01,1.407277e-01,-1.005272e-02
2.158139e-01,1.246002e-01,-1.574338e-02
1.913229e-01,1.104603e-01,1.649173e-02
2.266344e-01,1.308474e-01,8.256351e-03
2.329753e-01,1.345084e-01,-2.314132e-02
1.938204e-01,1.119023e-01,6.345099e-03
2.077532e-01,1.199464e-01,2.040993e-02
2.462473e-01,1.421709e-01,-2.280615e-02
2.022517e-01,1.167701e-01,-5.248118e-03
1.954747e-01,1.128574e-01,2.236091e-02
2.435409e-01,1.406084e-01,-9.738420e-03
2.160975e-01,1.247640e-01,-1.591075e-02
1.913112e-01,1.104536e-01,1.634036e-02
2.262808e-01,1.306433e-01,8.548057e-03
2.332754e-01,1.346816e-01,-2.321972e-02
1.939203e-01,1.119599e-01,6.146816e-03
2.074701e-01,1.197829e-01,2.053040e-02
2.463659e-01,1.422394e-01,-2.269045e-02
2.024475e-01,1.168831e-01,-5.448286e-03
1.953347e-01,1.127765e-01,2.231335e-02
2.433297e-01,1.404865e-01,-9.422551e-03
2.163816e-01,1.249280e-01,-1.607721e-02
1.913011e-01,1.104478e-01,1.618779e-02
2.259270e-01,1.304390e-01,8.837598e-03
2.335732e-01,1.348536e-01,-2.329585e-02
1.940221e-01,1.120187e-01,5.948079e-03
2.071889e-01,1.196205e-01,2.064767e-02
2.464793e-01,1.423049e-01,-2.257034e-02
2.026460e-01,1.169977e-01,-5.648005e-03
1.951975e-01,1.126973e-01,2.226330e-02
2.431138e-01,1.403618e-01,-9.105201e-03
2.166669e-01,1.250927e-01,-1.624265e-02
1.912936e-01,1.104434e-01,1.603403e-02
2.255731e-01,1.302347e-01,9.124921e-03
2.338707e-01,1.350253e-01,-2.336966e-02
1.941252e-01,1.120782e-01,5.748845e-03
2.069097e-01,1.194594e-01,2.076169e-02
2.465861e-01,1.423666e-01,-2.244568e-02
2.028451e-01,1.171126e-01,-5.847546e-03
1.950631e-01,1.126197e-01,2.221077e-02
2.428934e-01,1.402346e-01,-8.786452e-03
2.169533e-01,1.252581e-01,-1.640704e-02
1.912875e-01,1.104399e-01,1.587909e-02
2.252193e-01,1.300304e-01,9.409974e-03
2.341675e-01,1.351966e-01,-2.344114e-02
1.942308e-01,1.121392e-01,5.549231e-03
2.066330e-01,1.192996e-01,2.087241e-02
2.466876e-01,1.424251e-01,-2.231655e-02
2.030468e-01,1.172291e-01,-6.046622e-03
1.949306e-01,1.125432e-01,2.215586e-02
2.426685e-01,1.401047e-01,-8.466385e-03
2.172409e-01,1.254241e-01,-1.657038e-02
1.912840e-01,1.104379e-01,1.572301e-02
2.248657e-01,1.298263e-01,9.692702e-03
2.344620e-01,1.353667e-01,-2.351022e-02
1.943376e-01,1.122008e-01,5.349159e-03
2.063588e-01,1.191413e-01,2.097985e-02
2.467837e-01,1.424806e-01,-2.218299e-02
2.032495e-01,1.173461e-01,-6.245483e-03
1.948009e-01,1.124684e-01,2.209853e-02
2.424392e-01,1.399723e-01,-8.145081e-03
2.175297e-01,1.255908e-01,-1.673265e-02
1.912818e-01,1.104366e-01,1.556579e-02
2.245113e-01,1.296216e-01,9.973163e-03
2.347563e-01,1.355366e-01,-2.357690e-02
1.944463e-01,1.122636e-01,5.148686e-03
2.060866e-01,1.189842e-01,2.108407e-02
2.468743e-01,1.425329e-01,-2.204498e-02
2.034546e-01,1.174646e-01,-6.443893e-03
1.946740e-01,1.123951e-01,2.203877e-02
2.422055e-01,1.398374e-01,-7.822621e-03
2.178195e-01,1.257581e-01,-1.689383e-02
1.912822e-01,1.104368e-01,1.540745e-02
2.241571e-01,1.294171e-01,1.025122e-02
2.350488e-01,1.357055e-01,-2.364111e-02
1.945573e-01,1.123277e-01,4.947881e-03
2.058164e-01,1.188282e-01,2.118511e-02
2.469594e-01,1.425821e-01,-2.190249e-02
2.036608e-01,1.175836e-01,-6.642038e-03
1.945497e-01,1.123233e-01,2.197664e-02
2.419675e-01,1.397000e-01,-7.499084e-03
2.181102e-01,1.259260e-01,-1.705389e-02
1.912842e-01,1.104380e-01,1.524801e-02
2.238032e-01,1.292129e-01,1.052679e-02
2.353398e-01,1.358735e-01,-2.370285e-02
1.946692e-01,1.123923e-01,4.746618e-03
2.055486e-01,1.186736e-01,2.128288e-02
2.470388e-01,1.426279e-01,-2.175554e-02
2.038693e-01,1.177040e-01,-6.839756e-03
1.944275e-01,1.122528e-01,2.191221e-02
2.417254e-01,1.395602e-01,-7.174550e-03
2.184017e-01,1.260943e-01,-1.721287e-02
1.912884e-01,1.104404e-01,1.508748e-02
2.234499e-01,1.290089e-01,1.079985e-02
2.356301e-01,1.360411e-01,-2.376206e-02
1.947835e-01,1.124583e-01,4.545064e-03
2.052833e-01,1.185204e-01,2.137742e-02
2.471118e-01,1.426701e-01,-2.160406e-02
2.040792e-01,1.178252e-01,-7.037150e-03
1.943082e-01,1.121839e-01,2.184542e-02
2.414791e-01,1.394180e-01,-6.849095e-03
2.186939e-01,1.262630e-01,-1.737070e-02
1.912947e-01,1.104440e-01,1.492589e-02
2.230965e-01,1.288048e-01,1.107040e-02
2.359177e-01,1.362071e-01,-2.381869e-02
