x,y,z
2.490752e-01,1.438037e-01,-1.753146e-02
2.093924e-01,1.208927e-01,-1.279749e-02
1.900015e-01,1.096974e-01,2.038132e-02
2.335656e-01,1.348492e-01,3.185159e-03
2.281430e-01,1.317184e-01,-2.285090e-02
1.906726e-01,1.100849e-01,9.922946e-03
2.110672e-01,1.218597e-01,1.992738e-02
2.460812e-01,1.420751e-01,-2.572764e-02
1.986168e-01,1.146714e-01,-3.008461e-03
1.953072e-01,1.127607e-01,2.435683e-02
2.472350e-01,1.427412e-01,-1.347354e-02
2.131258e-01,1.230482e-01,-1.532992e-02
1.894951e-01,1.094051e-01,1.846103e-02
2.286024e-01,1.319836e-01,7.659962e-03
2.325284e-01,1.342503e-01,-2.431568e-02
1.918301e-01,1.107532e-01,7.211888e-03
2.068397e-01,1.194190e-01,2.196486e-02
2.483491e-01,1.433844e-01,-2.456344e-02
2.011985e-01,1.161620e-01,-5.823409e-03
1.932186e-01,1.115548e-01,2.379693e-02
2.443682e-01,1.410861e-01,-8.979182e-03
2.171066e-01,1.253466e-01,-1.771369e-02
1.893547e-01,1.093240e-01,1.630254e-02
2.235132e-01,1.290454e-01,1.177801e-02
2.368163e-01,1.367260e-01,-2.539905e-02
1.933285e-01,1.116183e-01,4.402497e-03
2.030237e-01,1.172158e-01,2.338005e-02
2.495714e-01,1.440901e-01,-2.252612e-02
2.041044e-01,1.178397e-01,-8.578617e-03
1.916201e-01,1.106319e-01,2.278307e-02
2.406673e-01,1.389493e-01,-4.273324e-03
2.212771e-01,1.277544e-01,-1.990024e-02
1.895757e-01,1.094516e-01,1.395553e-02
2.184979e-01,1.261498e-01,1.540315e-02
2.408280e-01,1.390421e-01,-2.601116e-02
1.951407e-01,1.126645e-01,1.536064e-03
1.996539e-01,1.152702e-01,2.419917e-02
2.496134e-01,1.441143e-01,-1.960881e-02
2.073454e-01,1.197109e-01,-1.126483e-02
1.904764e-01,1.099716e-01,2.136944e-02
2.363259e-01,1.364428e-01,4.621349e-04
2.255843e-01,1.302412e-01,-2.184393e-02
1.901614e-01,1.097897e-01,1.145195e-02
2.137150e-01,1.233884e-01,1.844117e-02
2.443453e-01,1.410728e-01,-2.603650e-02
1.972482e-01,1.138813e-01,-1.339067e-03
1.967642e-01,1.136019e-01,2.445444e-02
2.484475e-01,1.434412e-01,-1.591575e-02
2.109081e-01,1.217678e-01,-1.386358e-02
1.897457e-01,1.095497e-01,1.961709e-02
2.315344e-01,1.336764e-01,5.076075e-03
2.299657e-01,1.327707e-01,-2.350049e-02
1.911101e-01,1.103375e-01,8.811734e-03
2.092652e-01,1.208193e-01,2.084979e-02
2.471386e-01,1.426855e-01,-2.534625e-02
1.996502e-01,1.152681e-01,-4.183419e-03
1.943789e-01,1.122247e-01,2.418282e-02
2.461592e-01,1.421201e-01,-1.164752e-02
2.147513e-01,1.239867e-01,-1.634010e-02
1.893929e-01,1.093460e-01,1.759085e-02
2.264935e-01,1.307661e-01,9.420842e-03
2.343285e-01,1.352896e-01,-2.481614e-02
1.924121e-01,1.110892e-01,6.055768e-03
2.052043e-01,1.184748e-01,2.262639e-02
2.489924e-01,1.437558e-01,-2.382647e-02
2.023642e-01,1.168350e-01,-6.974643e-03
1.924972e-01,1.111383e-01,2.342831e-02
2.429220e-01,1.402511e-01,-7.040287e-03
2.188174e-01,1.263343e-01,-1.864786e-02
1.894029e-01,1.093518e-01,1.534913e-02
2.214122e-01,1.278324e-01,1.334901e-02
2.385263e-01,1.377132e-01,-2.571639e-02
1.940442e-01,1.120315e-01,3.216998e-03
2.015690e-01,1.163759e-01,2.379060e-02
2.497361e-01,1.441852e-01,-2.141876e-02
2.054088e-01,1.185928e-01,-9.702614e-03
1.910925e-01,1.103273e-01,2.224156e-02
2.389327e-01,1.379479e-01,-2.302551e-03
2.230514e-01,1.287788e-01,-2.073888e-02
1.897743e-01,1.095663e-01,1.293416e-02
2.164778e-01,1.249835e-01,1.673880e-02
2.423607e-01,1.399270e-01,-2.610020e-02
1.959800e-01,1.131491e-01,3.412042e-04
1.983944e-01,1.145430e-01,2.437160e-02
2.492738e-01,1.439183e-01,-1.816043e-02
2.087867e-01,1.205430e-01,-1.235566e-02
1.901252e-01,1.097688e-01,2.067956e-02
2.343808e-01,1.353198e-01,2.400153e-03
2.273977e-01,1.312881e-01,-2.256906e-02
1.905111e-01,1.099917e-01,1.037171e-02
2.118239e-01,1.222966e-01,1.951806e-02
2.456050e-01,1.418001e-01,-2.584410e-02
1.982085e-01,1.144357e-01,-2.525006e-03
1.957125e-01,1.129946e-01,2.440330e-02
2.476251e-01,1.429664e-01,-1.420052e-02
2.124725e-01,1.226711e-01,-1.490874e-02
1.895547e-01,1.094394e-01,1.880575e-02
2.294606e-01,1.324791e-01,6.920612e-03
2.317858e-01,1.338216e-01,-2.409161e-02
1.916087e-01,1.106253e-01,7.680429e-03
2.075301e-01,1.198175e-01,2.166310e-02
2.480327e-01,1.432018e-01,-2.482123e-02
2.007375e-01,1.158959e-01,-5.349044e-03
1.935380e-01,1.117392e-01,2.392550e-02
2.449196e-01,1.414044e-01,-9.763512e-03
2.164154e-01,1.249475e-01,-1.732119e-02
1.893531e-01,1.093231e-01,1.668377e-02
2.243782e-01,1.295448e-01,1.110961e-02
2.361012e-01,1.363131e-01,-2.524537e-02
1.930510e-01,1.114581e-01,4.885223e-03
2.036419e-01,1.175727e-01,2.318239e-02
2.494435e-01,1.440163e-01,-2.293538e-02
2.035871e-01,1.175411e-01,-8.114974e-03
1.918585e-01,1.107695e-01,2.298512e-02
2.413464e-01,1.393414e-01,-5.079498e-03
2.205578e-01,1.273391e-01,-1.954459e-02
1.895126e-01,1.094152e-01,1.436607e-02
2.193373e-01,1.266345e-01,1.482663e-02
2.401745e-01,1.386648e-01,-2.594506e-02
1.948116e-01,1.124745e-01,2.025065e-03
2.001934e-01,1.155817e-01,2.410072e-02
2.496923e-01,1.441599e-01,-2.016357e-02
2.067711e-01,1.193793e-01,-1.081386e-02
1.906408e-01,1.100665e-01,2.163528e-02
2.371008e-01,1.368902e-01,-3.379833e-04
2.248449e-01,1.298142e-01,-2.153264e-02
1.900361e-01,1.097174e-01,1.188749e-02
2.145068e-01,1.238455e-01,1.796868e-02
2.437924e-01,1.407536e-01,-2.607912e-02
1.968697e-01,1.136628e-01,-8.517809e-04
1.972201e-01,1.138651e-01,2.444932e-02
2.487285e-01,1.436035e-01,-1.659024e-02
2.102815e-01,1.214061e-01,-1.342943e-02
1.898423e-01,1.096055e-01,1.993595e-02
2.323721e-01,1.341601e-01,4.306856e-03
2.292192e-01,1.323398e-01,-2.324135e-02
1.909234e-01,1.102297e-01,9.269217e-03
2.099950e-01,1.212407e-01,2.048538e-02
2.467240e-01,1.424462e-01,-2.551931e-02
1.992206e-01,1.150201e-01,-3.703432e-03
1.947484e-01,1.124380e-01,2.426432e-02
2.466204e-01,1.423864e-01,-1.240313e-02
2.140809e-01,1.235997e-01,-1.592982e-02
1.894270e-01,1.093657e-01,1.795181e-02
2.273587e-01,1.312656e-01,8.708006e-03
2.335941e-01,1.348656e-01,-2.461950e-02
1.921669e-01,1.109476e-01,6.531038e-03
2.058653e-01,1.188564e-01,2.236840e-02
2.487525e-01,1.436173e-01,-2.414684e-02
2.018801e-01,1.165555e-01,-6.504581e-03
1.927822e-01,1.113028e-01,2.358849e-02
2.435304e-01,1.406023e-01,-7.837514e-03
2.181134e-01,1.259278e-01,-1.826971e-02
1.893757e-01,1.093361e-01,1.574320e-02
2.222700e-01,1.283276e-01,1.271666e-02
2.378333e-01,1.373131e-01,-2.559673e-02
1.937448e-01,1.118586e-01,3.703351e-03
2.021551e-01,1.167143e-01,2.363481e-02
2.496933e-01,1.441605e-01,-2.189034e-02
2.048677e-01,1.182804e-01,-9.243880e-03
1.912995e-01,1.104468e-01,2.247131e-02
2.396553e-01,1.383650e-01,-3.109279e-03
2.223222e-01,1.283578e-01,-2.040079e-02
1.896854e-01,1.095149e-01,1.335548e-02
2.172998e-01,1.254581e-01,1.620449e-02
2.417443e-01,1.395712e-01,-2.607652e-02
1.956303e-01,1.129472e-01,8.303651e-04
1.988998e-01,1.148348e-01,2.431263e-02
2.494379e-01,1.440130e-01,-1.876896e-02
2.081904e-01,1.201988e-01,-1.191092e-02
1.902607e-01,1.098471e-01,2.096878e-02
2.351856e-01,1.357845e-01,1.609875e-03
2.266539e-01,1.308587e-01,-2.227836e-02
1.903602e-01,1.099045e-01,1.081674e-02
2.125908e-01,1.227394e-01,1.909040e-02
2.451052e-01,1.415115e-01,-2.593837e-02
1.978090e-01,1.142051e-01,-2.040276e-03
1.961325e-01,1.132371e-01,2.443504e-02
2.479847e-01,1.431740e-01,-1.491372e-02
2.118268e-01,1.222983e-01,-1.448350e-02
1.896249e-01,1.094800e-01,1.914334e-02
2.303141e-01,1.329719e-01,6.171677e-03
2.310414e-01,1.333918e-01,-2.385695e-02
1.913973e-01,1.105033e-01,8.145933e-03
2.082322e-01,1.202229e-01,2.134324e-02
2.476878e-01,1.430026e-01,-2.505403e-02
2.002860e-01,1.156352e-01,-4.872950e-03
1.938718e-01,1.119320e-01,2.404071e-02
2.454460e-01,1.417083e-01,-1.054082e-02
2.157300e-01,1.245518e-01,-1.692323e-02
1.893620e-01,1.093282e-01,1.705938e-02
2.252438e-01,1.300446e-01,1.042758e-02
2.353797e-01,1.358966e-01,-2.507865e-02
1.927829e-01,1.113032e-01,5.366050e-03
2.042727e-01,1.179369e-01,2.296736e-02
2.492832e-01,1.439237e-01,-2.331897e-02
2.030793e-01,1.172479e-01,-7.649465e-03
1.921100e-01,1.109148e-01,2.317536e-02
2.420061e-01,1.397223e-01,-5.884108e-03
2.198417e-01,1.269257e-01,-1.918219e-02
1.894600e-01,1.093848e-01,1.477200e-02
2.201830e-01,1.271227e-01,1.423338e-02
2.395084e-01,1.382802e-01,-2.586269e-02
1.944910e-01,1.122894e-01,2.513597e-03
2.007469e-01,1.159013e-01,2.398574e-02
2.497363e-01,1.441853e-01,-2.069498e-02
2.062064e-01,1.190533e-01,-1.036050e-02
1.908167e-01,1.101681e-01,2.189107e-02
2.378618e-01,1.373296e-01,-1.140909e-03
2.241083e-01,1.293890e-01,-2.121329e-02
1.899214e-01,1.096512e-01,1.231901e-02
2.153072e-01,1.243077e-01,1.747815e-02
2.432198e-01,1.404230e-01,-2.610169e-02
1.964996e-01,1.134491e-01,-3.637169e-04
1.976908e-01,1.141368e-01,2.442872e-02
2.489761e-01,1.437464e-01,-1.724689e-02
2.096638e-01,1.210494e-01,-1.299195e-02
1.899500e-01,1.096677e-01,2.024660e-02
2.332016e-01,1.346390e-01,3.530629e-03
2.284729e-01,1.319089e-01,-2.297272e-02
1.907471e-01,1.101279e-01,9.723213e-03
2.107364e-01,1.216687e-01,2.010253e-02
2.462838e-01,1.421920e-01,-2.566884e-02
1.988001e-01,1.147773e-01,-3.221939e-03
1.951325e-01,1.126598e-01,2.433164e-02
2.470532e-01,1.426362e-01,-1.314785e-02
2.134172e-01,1.232165e-01,-1.551491e-02
1.894716e-01,1.093915e-01,1.830631e-02
2.282216e-01,1.317638e-01,7.983809e-03
2.328563e-01,1.344396e-01,-2.441135e-02
1.919314e-01,1.108117e-01,7.003681e-03
2.065383e-01,1.192450e-01,2.209257e-02
2.484793e-01,1.434596e-01,-2.444126e-02
2.014059e-01,1.162817e-01,-6.032679e-03
1.930813e-01,1.114756e-01,2.373589e-02
2.441162e-01,1.409405e-01,-8.630165e-03
2.174146e-01,1.255244e-01,-1.788550e-02
1.893590e-01,1.093265e-01,1.613215e-02
2.231316e-01,1.288251e-01,1.206912e-02
2.371296e-01,1.369068e-01,-2.546274e-02
1.934542e-01,1.116908e-01,4.188383e-03
2.027545e-01,1.170603e-01,2.346197e-02
2.496165e-01,1.441162e-01,-2.233676e-02
2.043363e-01,1.179736e-01,-8.783117e-03
1.915187e-01,1.105734e-01,2.268998e-02
2.403606e-01,1.387723e-01,-3.916326e-03
2.215970e-01,1.279391e-01,-2.005534e-02
1.896071e-01,1.094697e-01,1.377246e-02
2.181290e-01,1.259369e-01,1.565273e-02
2.411123e-01,1.392063e-01,-2.603503e-02
1.952889e-01,1.127501e-01,1.319621e-03
1.994196e-01,1.151349e-01,2.423754e-02
2.495673e-01,1.440877e-01,-1.935609e-02
2.076022e-01,1.198592e-01,-1.146362e-02
1.904078e-01,1.099320e-01,2.124865e-02
2.359789e-01,1.362425e-01,8.150477e-04
2.259122e-01,1.304305e-01,-2.197902e-02
1.902197e-01,1.098234e-01,1.125796e-02
2.133683e-01,1.231882e-01,1.864431e-02
2.445829e-01,1.412100e-01,-2.601105e-02
1.974181e-01,1.139794e-01,-1.554402e-03
1.965672e-01,1.134881e-01,2.445183e-02
2.483125e-01,1.433633e-01,-1.561191e-02
2.111882e-01,1.219296e-01,-1.405451e-02
1.897061e-01,1.095269e-01,1.947349e-02
2.311614e-01,1.334611e-01,5.413959e-03
2.302957e-01,1.329613e-01,-2.361203e-02
1.911960e-01,1.103871e-01,8.608250e-03
2.089461e-01,1.206351e-01,2.100512e-02
2.473125e-01,1.427860e-01,-2.526195e-02
1.998435e-01,1.153797e-01,-4.395227e-03
1.942202e-01,1.121331e-01,2.414228e-02
2.459463e-01,1.419972e-01,-1.131005e-02
2.150504e-01,1.241594e-01,-1.652004e-02
1.893812e-01,1.093393e-01,1.742916e-02
2.261105e-01,1.305450e-01,9.732379e-03
2.346526e-01,1.354768e-01,-2.489937e-02
1.925240e-01,1.111538e-01,5.844760e-03
2.049159e-01,1.183082e-01,2.273486e-02
2.490888e-01,1.438115e-01,-2.367653e-02
2.025817e-01,1.169606e-01,-7.181999e-03
1.923755e-01,1.110680e-01,2.335344e-02
2.426455e-01,1.400915e-01,-6.686321e-03
2.191307e-01,1.265152e-01,-1.881317e-02
1.894179e-01,1.093605e-01,1.517318e-02
2.210342e-01,1.276142e-01,1.362378e-02
2.388304e-01,1.378888e-01,-2.576465e-02
1.941790e-01,1.121093e-01,3.001417e-03
2.013139e-01,1.162286e-01,2.385418e-02
2.497438e-01,1.441896e-01,-2.120217e-02
2.056513e-01,1.187329e-01,-9.904873e-03
1.910056e-01,1.102771e-01,2.213637e-02
2.386077e-01,1.377602e-01,-1.945906e-03
2.233751e-01,1.289657e-01,-2.088608e-02
1.898172e-01,1.095910e-01,1.274641e-02
2.161167e-01,1.247750e-01,1.696957e-02
2.426288e-01,1.400818e-01,-2.610487e-02
1.961378e-01,1.132402e-01,1.249295e-04
1.981752e-01,1.144165e-01,2.439264e-02
2.491899e-01,1.438699e-01,-1.788459e-02
2.090536e-01,1.206972e-01,-1.255149e-02
1.900693e-01,1.097366e-01,2.054870e-02
2.340212e-01,1.351122e-01,2.748174e-03
2.277273e-01,1.314784e-01,-2.269487e-02
1.905811e-01,1.100321e-01,1.017361e-02
2.114877e-01,1.221025e-01,1.970144e-02
2.458186e-01,1.419234e-01,-2.579534e-02
1.983883e-01,1.145395e-01,-2.739029e-03
1.955313e-01,1.128900e-01,2.438456e-02
2.474564e-01,1.428690e-01,-1.388051e-02
2.127605e-01,1.228373e-01,-1.509562e-02
1.895268e-01,1.094234e-01,1.865410e-02
2.290813e-01,1.322602e-01,7.248956e-03
2.321150e-01,1.340117e-01,-2.419207e-02
1.917058e-01,1.106814e-01,7.473523e-03
2.072233e-01,1.196404e-01,2.179882e-02
2.481768e-01,1.432849e-01,-2.471032e-02
2.009405e-01,1.160131e-01,-5.559107e-03
1.933948e-01,1.116566e-01,2.387026e-02
2.446784e-01,1.412651e-01,-9.417269e-03
2.167208e-01,1.251238e-01,-1.749550e-02
