x,y,z
2.133057e-01,1.231521e-01,1.733087e-03
2.192163e-01,1.265646e-01,1.817199e-03
2.229255e-01,1.287061e-01,-5.264800e-03
2.140780e-01,1.235980e-01,1.980143e-04
2.171270e-01,1.253583e-01,3.062344e-03
2.237924e-01,1.292066e-01,-4.692227e-03
2.154491e-01,1.243896e-01,-1.463079e-03
2.152876e-01,1.242964e-01,3.703727e-03
2.238101e-01,1.292168e-01,-3.488147e-03
2.172594e-01,1.254347e-01,-3.037163e-03
2.139452e-01,1.235213e-01,3.676174e-03
2.229579e-01,1.287248e-01,-1.832534e-03
2.192826e-01,1.266029e-01,-4.315407e-03
2.132518e-01,1.231210e-01,3.017528e-03
2.213893e-01,1.278192e-01,-1.321133e-06
2.212393e-01,1.277326e-01,-5.110482e-03
2.132728e-01,1.231331e-01,1.845089e-03
2.193863e-01,1.266628e-01,1.695123e-03
2.228229e-01,1.286468e-01,-5.280874e-03
2.139914e-01,1.235480e-01,3.292341e-04
2.172899e-01,1.254524e-01,2.982700e-03
2.237524e-01,1.291835e-01,-4.763341e-03
2.153200e-01,1.243150e-01,-1.329551e-03
2.154203e-01,1.243730e-01,3.676648e-03
2.238413e-01,1.292348e-01,-3.605063e-03
2.171021e-01,1.253440e-01,-2.918540e-03
2.140304e-01,1.235705e-01,3.702880e-03
2.230561e-01,1.287815e-01,-1.976590e-03
2.191181e-01,1.265079e-01,-4.227991e-03
2.132817e-01,1.231382e-01,3.091631e-03
2.215362e-01,1.279040e-01,-1.480270e-04
2.210914e-01,1.276472e-01,-5.068059e-03
2.132447e-01,1.231169e-01,1.954839e-03
2.195559e-01,1.267607e-01,1.570336e-03
2.227161e-01,1.285852e-01,-5.292418e-03
2.139099e-01,1.235009e-01,4.595130e-04
2.174545e-01,1.255474e-01,2.899135e-03
2.237071e-01,1.291574e-01,-4.830229e-03
2.151933e-01,1.242419e-01,-1.195566e-03
2.155563e-01,1.244515e-01,3.645168e-03
2.238672e-01,1.292498e-01,-3.718884e-03
2.169463e-01,1.252540e-01,-2.798091e-03
2.141202e-01,1.236224e-01,3.725387e-03
2.231499e-01,1.288356e-01,-2.119344e-03
2.189529e-01,1.264125e-01,-4.137502e-03
2.133159e-01,1.231580e-01,3.162295e-03
2.216798e-01,1.279869e-01,-2.954514e-04
2.209413e-01,1.275605e-01,-5.021596e-03
2.132209e-01,1.231031e-01,2.062251e-03
2.197248e-01,1.268582e-01,1.442963e-03
2.226051e-01,1.285211e-01,-5.299442e-03
2.138312e-01,1.234555e-01,5.887524e-04
2.176203e-01,1.256432e-01,2.811722e-03
2.236565e-01,1.291281e-01,-4.892836e-03
2.150703e-01,1.241709e-01,-1.061240e-03
2.156951e-01,1.245316e-01,3.609310e-03
2.238877e-01,1.292616e-01,-3.829489e-03
2.167928e-01,1.251654e-01,-2.675923e-03
2.142146e-01,1.236769e-01,3.743653e-03
2.232380e-01,1.288865e-01,-2.260582e-03
2.187879e-01,1.263172e-01,-4.044033e-03
2.133553e-01,1.231807e-01,3.229427e-03
2.218205e-01,1.280681e-01,-4.434617e-04
2.207889e-01,1.274726e-01,-4.971154e-03
2.132022e-01,1.230923e-01,2.167208e-03
2.198929e-01,1.269552e-01,1.313135e-03
2.224901e-01,1.284547e-01,-5.301962e-03
2.137576e-01,1.234130e-01,7.168331e-04
2.177875e-01,1.257397e-01,2.720537e-03
2.236002e-01,1.290957e-01,-4.951099e-03
2.149499e-01,1.241014e-01,-9.266829e-04
2.158366e-01,1.246133e-01,3.569100e-03
2.239017e-01,1.292697e-01,-3.936723e-03
2.166401e-01,1.250772e-01,-2.552143e-03
2.143123e-01,1.237333e-01,3.757684e-03
2.233213e-01,1.289346e-01,-2.400188e-03
2.186232e-01,1.262222e-01,-3.947680e-03
2.133986e-01,1.232057e-01,3.292987e-03
2.219583e-01,1.281477e-01,-5.918946e-04
2.206344e-01,1.273833e-01,-4.916798e-03
2.131875e-01,1.230838e-01,2.269636e-03
2.200593e-01,1.270513e-01,1.181023e-03
2.223713e-01,1.283861e-01,-5.299995e-03
2.136875e-01,1.233725e-01,8.436545e-04
2.179557e-01,1.258368e-01,2.625657e-03
2.235383e-01,1.290599e-01,-5.004974e-03
2.148333e-01,1.240340e-01,-7.920112e-04
2.159810e-01,1.246967e-01,3.524536e-03
2.239100e-01,1.292745e-01,-4.040508e-03
2.164901e-01,1.249906e-01,-2.426863e-03
2.144143e-01,1.237922e-01,3.767416e-03
2.233999e-01,1.289800e-01,-2.538016e-03
2.184584e-01,1.261270e-01,-3.848536e-03
2.134472e-01,1.232338e-01,3.352863e-03
2.220917e-01,1.282247e-01,-7.405328e-04
2.204781e-01,1.272931e-01,-4.858600e-03
2.131782e-01,1.230785e-01,2.369417e-03
2.202243e-01,1.271466e-01,1.046730e-03
2.222487e-01,1.283153e-01,-5.293567e-03
2.136222e-01,1.233348e-01,9.691009e-04
2.181248e-01,1.259344e-01,2.527168e-03
2.234713e-01,1.290212e-01,-5.054435e-03
2.147195e-01,1.239684e-01,-6.573328e-04
2.161282e-01,1.247816e-01,3.475647e-03
2.239129e-01,1.292762e-01,-4.140747e-03
2.163418e-01,1.249050e-01,-2.300189e-03
2.145206e-01,1.238535e-01,3.772812e-03
2.234726e-01,1.290220e-01,-2.673869e-03
2.182938e-01,1.260320e-01,-3.746699e-03
2.134997e-01,1.232641e-01,3.409030e-03
2.222216e-01,1.282997e-01,-8.892491e-04
2.203203e-01,1.272020e-01,-4.796631e-03
2.131727e-01,1.230753e-01,2.466480e-03
2.203880e-01,1.272411e-01,9.103948e-04
2.221225e-01,1.282425e-01,-5.282705e-03
2.135607e-01,1.232994e-01,1.093070e-03
2.182945e-01,1.260324e-01,2.425172e-03
2.233993e-01,1.289797e-01,-5.099449e-03
2.146097e-01,1.239050e-01,-5.227646e-04
2.162780e-01,1.248682e-01,3.422462e-03
2.239099e-01,1.292744e-01,-4.237326e-03
2.161957e-01,1.248207e-01,-2.172234e-03
2.146306e-01,1.239171e-01,3.773871e-03
2.235400e-01,1.290609e-01,-2.807620e-03
2.181301e-01,1.259375e-01,-3.642270e-03
2.135572e-01,1.232973e-01,3.461387e-03
2.223482e-01,1.283728e-01,-1.037889e-03
2.201611e-01,1.271101e-01,-4.730968e-03
2.131727e-01,1.230753e-01,2.560711e-03
2.205503e-01,1.273348e-01,7.721620e-04
2.219929e-01,1.281677e-01,-5.267442e-03
2.135038e-01,1.232665e-01,1.215452e-03
2.184646e-01,1.261306e-01,2.319758e-03
2.233224e-01,1.289353e-01,-5.139988e-03
2.145029e-01,1.238433e-01,-3.884148e-04
2.164303e-01,1.249561e-01,3.365018e-03
2.239005e-01,1.292690e-01,-4.330133e-03
2.160522e-01,1.247378e-01,-2.043107e-03
2.147440e-01,1.239825e-01,3.770579e-03
2.236025e-01,1.290970e-01,-2.939141e-03
2.179671e-01,1.258434e-01,-3.535345e-03
2.136193e-01,1.233332e-01,3.509886e-03
2.224706e-01,1.284434e-01,-1.186257e-03
2.200008e-01,1.270175e-01,-4.661686e-03
2.131767e-01,1.230776e-01,2.652044e-03
2.207109e-01,1.274275e-01,6.321755e-04
2.218600e-01,1.280909e-01,-5.247814e-03
2.134513e-01,1.232362e-01,1.336143e-03
2.186351e-01,1.262290e-01,2.211022e-03
2.232407e-01,1.288881e-01,-5.176029e-03
2.144004e-01,1.237841e-01,-2.544023e-04
2.165849e-01,1.250453e-01,3.303357e-03
2.238857e-01,1.292605e-01,-4.419109e-03
2.159107e-01,1.246561e-01,-1.912920e-03
2.148613e-01,1.240503e-01,3.762894e-03
2.236590e-01,1.291296e-01,-3.068251e-03
2.178043e-01,1.257494e-01,-3.426028e-03
2.136854e-01,1.233713e-01,3.554479e-03
2.225884e-01,1.285115e-01,-1.334178e-03
2.198394e-01,1.269244e-01,-4.588864e-03
2.131861e-01,1.230830e-01,2.740361e-03
2.208686e-01,1.275185e-01,4.906360e-04
2.217239e-01,1.280123e-01,-5.223863e-03
2.134031e-01,1.232083e-01,1.455038e-03
2.188057e-01,1.263275e-01,2.099067e-03
2.231537e-01,1.288379e-01,-5.207546e-03
2.143007e-01,1.237266e-01,-1.208291e-04
2.167417e-01,1.251359e-01,3.237520e-03
2.238654e-01,1.292488e-01,-4.504168e-03
2.157723e-01,1.245762e-01,-1.781782e-03
2.149826e-01,1.241203e-01,3.750808e-03
2.237098e-01,1.291589e-01,-3.194819e-03
2.176430e-01,1.256562e-01,-3.314422e-03
2.137567e-01,1.234125e-01,3.595076e-03
2.227024e-01,1.285773e-01,-1.481521e-03
2.196767e-01,1.268304e-01,-4.512581e-03
2.131995e-01,1.230908e-01,2.825610e-03
2.210243e-01,1.276084e-01,3.476507e-04
2.215848e-01,1.279321e-01,-5.195632e-03
2.133597e-01,1.231833e-01,1.572029e-03
2.189765e-01,1.264261e-01,1.984003e-03
2.230619e-01,1.287849e-01,-5.234529e-03
2.142058e-01,1.236718e-01,1.218118e-05
2.169005e-01,1.252276e-01,3.167561e-03
2.238392e-01,1.292336e-01,-4.585214e-03
2.156357e-01,1.244974e-01,-1.649810e-03
2.151073e-01,1.241922e-01,3.734324e-03
2.237555e-01,1.291853e-01,-3.318731e-03
2.174828e-01,1.255637e-01,-3.200630e-03
2.138317e-01,1.234558e-01,3.631669e-03
2.228121e-01,1.286406e-01,-1.628108e-03
2.195131e-01,1.267360e-01,-4.432925e-03
2.132182e-01,1.231016e-01,2.907673e-03
2.211778e-01,1.276971e-01,2.033717e-04
2.214429e-01,1.278501e-01,-5.163169e-03
2.133202e-01,1.231605e-01,1.687023e-03
2.191471e-01,1.265246e-01,1.865939e-03
2.229656e-01,1.287292e-01,-5.256980e-03
2.141136e-01,1.236185e-01,1.445285e-04
2.170612e-01,1.253204e-01,3.093531e-03
2.238069e-01,1.292150e-01,-4.662171e-03
2.155029e-01,1.244207e-01,-1.517111e-03
2.152349e-01,1.242659e-01,3.713452e-03
2.237954e-01,1.292083e-01,-3.439832e-03
2.173233e-01,1.254717e-01,-3.084754e-03
2.139112e-01,1.235017e-01,3.664174e-03
2.229166e-01,1.287009e-01,-1.773733e-03
2.193491e-01,1.266413e-01,-4.349981e-03
2.132411e-01,1.231148e-01,2.986493e-03
2.213290e-01,1.277844e-01,5.795630e-05
2.212985e-01,1.277667e-01,-5.126528e-03
2.132859e-01,1.231407e-01,1.799901e-03
2.193174e-01,1.266230e-01,1.744993e-03
2.228649e-01,1.286711e-01,-5.274894e-03
2.140264e-01,1.235682e-01,2.760911e-04
2.172237e-01,1.254141e-01,3.015493e-03
2.237693e-01,1.291932e-01,-4.734988e-03
2.153718e-01,1.243450e-01,-1.383798e-03
2.153660e-01,1.243416e-01,3.688170e-03
2.238290e-01,1.292278e-01,-3.557979e-03
2.171658e-01,1.253808e-01,-2.966903e-03
2.139955e-01,1.235504e-01,3.692536e-03
2.230168e-01,1.287588e-01,-1.918283e-03
2.191848e-01,1.265464e-01,-4.263840e-03
2.132690e-01,1.231309e-01,3.061970e-03
2.214768e-01,1.278697e-01,-8.839077e-05
2.211514e-01,1.276818e-01,-5.085762e-03
2.132554e-01,1.231231e-01,1.910583e-03
2.194874e-01,1.267211e-01,1.621285e-03
2.227598e-01,1.286104e-01,-5.288277e-03
2.139421e-01,1.235195e-01,4.067677e-04
2.173876e-01,1.255088e-01,2.933509e-03
2.237263e-01,1.291684e-01,-4.803604e-03
2.152447e-01,1.242716e-01,-1.249984e-03
2.155005e-01,1.244193e-01,3.658481e-03
2.238575e-01,1.292442e-01,-3.673081e-03
2.170093e-01,1.252904e-01,-2.847182e-03
2.140832e-01,1.236010e-01,3.716761e-03
2.231127e-01,1.288142e-01,-2.061596e-03
2.190203e-01,1.264514e-01,-4.174587e-03
2.133014e-01,1.231496e-01,3.134039e-03
2.216217e-01,1.279534e-01,-2.355420e-04
2.210022e-01,1.275957e-01,-5.040931e-03
2.132304e-01,1.231086e-01,2.018946e-03
2.196567e-01,1.268189e-01,1.494939e-03
2.226506e-01,1.285474e-01,-5.297135e-03
2.138627e-01,1.234737e-01,5.364397e-04
2.175530e-01,1.256043e-01,2.847649e-03
2.236781e-01,1.291406e-01,-4.867959e-03
2.151196e-01,1.241994e-01,-1.115784e-03
2.156382e-01,1.244988e-01,3.624399e-03
2.238803e-01,1.292574e-01,-3.785011e-03
2.168546e-01,1.252011e-01,-2.725698e-03
2.141755e-01,1.236543e-01,3.736762e-03
2.232027e-01,1.288661e-01,-2.203449e-03
2.188549e-01,1.263560e-01,-4.082316e-03
2.133386e-01,1.231711e-01,3.202619e-03
2.217639e-01,1.280354e-01,-3.833457e-04
2.208507e-01,1.275082e-01,-4.992097e-03
2.132090e-01,1.230963e-01,2.124921e-03
2.198248e-01,1.269159e-01,1.366110e-03
2.225373e-01,1.284820e-01,-5.301481e-03
2.137868e-01,1.234299e-01,6.650050e-04
2.177196e-01,1.257004e-01,2.757987e-03
2.236235e-01,1.291091e-01,-4.927976e-03
2.149987e-01,1.241296e-01,-9.813063e-04
2.157790e-01,1.245801e-01,3.585936e-03
2.238965e-01,1.292667e-01,-3.893611e-03
2.167021e-01,1.251130e-01,-2.602560e-03
2.142724e-01,1.237102e-01,3.752500e-03
2.232881e-01,1.289154e-01,-2.343744e-03
2.186898e-01,1.262606e-01,-3.987121e-03
2.133805e-01,1.231953e-01,3.267629e-03
2.219030e-01,1.281158e-01,-5.316326e-04
2.206974e-01,1.274197e-01,-4.939324e-03
2.131933e-01,1.230872e-01,2.228378e-03
2.199916e-01,1.270122e-01,1.234917e-03
2.224201e-01,1.284143e-01,-5.301334e-03
2.137155e-01,1.233887e-01,7.923500e-04
2.178872e-01,1.257972e-01,2.664600e-03
2.235639e-01,1.290747e-01,-4.983637e-03
2.148800e-01,1.240610e-01,-8.466665e-04
2.159223e-01,1.246628e-01,3.543131e-03
2.239073e-01,1.292729e-01,-3.998814e-03
2.165505e-01,1.250255e-01,-2.477875e-03
2.143725e-01,1.237680e-01,3.763983e-03
2.233689e-01,1.289621e-01,-2.482325e-03
2.185253e-01,1.261656e-01,-3.889099e-03
2.134267e-01,1.232219e-01,3.329019e-03
2.220378e-01,1.281936e-01,-6.801881e-04
2.205420e-01,1.273300e-01,-4.882678e-03
2.131811e-01,1.230802e-01,2.329253e-03
2.201573e-01,1.271079e-01,1.101485e-03
2.222990e-01,1.283444e-01,-5.296714e-03
2.136482e-01,1.233498e-01,9.183676e-04
2.180558e-01,1.258946e-01,2.567573e-03
2.234991e-01,1.290373e-01,-5.034898e-03
2.147656e-01,1.239950e-01,-7.119778e-04
2.160683e-01,1.247471e-01,3.495997e-03
2.239127e-01,1.292760e-01,-4.100514e-03
2.164019e-01,1.249397e-01,-2.351754e-03
2.144769e-01,1.238283e-01,3.771150e-03
2.234436e-01,1.290052e-01,-2.618978e-03
2.183608e-01,1.260707e-01,-3.788342e-03
2.134782e-01,1.232517e-01,3.386682e-03
2.221693e-01,1.282695e-01,-8.289003e-04
2.203847e-01,1.272392e-01,-4.822229e-03
2.131747e-01,1.230764e-01,2.427423e-03
2.203218e-01,1.272029e-01,9.659536e-04
2.221743e-01,1.282724e-01,-5.287648e-03
2.135851e-01,1.233134e-01,1.042949e-03
2.182252e-01,1.259924e-01,2.466994e-03
2.234293e-01,1.289970e-01,-5.081724e-03
2.146536e-01,1.239303e-01,-5.773508e-04
2.162170e-01,1.248329e-01,3.444557e-03
2.239117e-01,1.292755e-01,-4.198580e-03
2.162547e-01,1.248547e-01,-2.224306e-03
