x,y,z
2.638918e-01,1.523580e-01,-2.603908e-02
2.066689e-01,1.193204e-01,-1.972873e-02
1.765783e-01,1.019475e-01,2.333680e-02
2.190201e-01,1.264513e-01,2.162449e-02
2.507737e-01,1.447843e-01,-3.752971e-02
1.877055e-01,1.083718e-01,-2.143081e-03
1.827838e-01,1.055303e-01,3.422082e-02
2.536483e-01,1.464439e-01,-1.025419e-02
2.192104e-01,1.265612e-01,-2.633773e-02
1.784682e-01,1.030386e-01,1.592610e-02
2.048834e-01,1.182895e-01,2.972070e-02
2.611284e-01,1.507626e-01,-3.673232e-02
1.949147e-01,1.125340e-01,-9.938252e-03
1.789093e-01,1.032933e-01,3.053094e-02
2.399604e-01,1.385412e-01,4.477698e-03
2.324532e-01,1.342069e-01,-3.233408e-02
1.809346e-01,1.044627e-01,8.383155e-03
1.926459e-01,1.112242e-01,3.469006e-02
2.649452e-01,1.529662e-01,-2.969460e-02
2.036211e-01,1.175607e-01,-1.769474e-02
1.765367e-01,1.019235e-01,2.521441e-02
2.234641e-01,1.290170e-01,1.852011e-02
2.470714e-01,1.426467e-01,-3.696871e-02
1.858251e-01,1.072862e-01,1.083550e-04
1.841677e-01,1.063293e-01,3.496670e-02
2.570019e-01,1.483801e-01,-1.452177e-02
2.157253e-01,1.245490e-01,-2.465048e-02
1.778457e-01,1.026793e-01,1.794748e-02
2.084654e-01,1.203575e-01,2.789157e-02
2.588005e-01,1.494185e-01,-3.739204e-02
1.929138e-01,1.113789e-01,-7.843672e-03
1.798813e-01,1.038545e-01,3.164492e-02
2.439652e-01,1.408534e-01,4.911378e-04
2.286769e-01,1.320267e-01,-3.070608e-02
1.801698e-01,1.040211e-01,1.051467e-02
1.958330e-01,1.130642e-01,3.365293e-02
2.649382e-01,1.529621e-01,-3.256852e-02
2.008989e-01,1.159890e-01,-1.559100e-02
1.768511e-01,1.021050e-01,2.691196e-02
2.280866e-01,1.316859e-01,1.497565e-02
2.431077e-01,1.403583e-01,-3.605873e-02
1.841128e-01,1.062976e-01,2.399900e-03
1.858850e-01,1.073208e-01,3.544855e-02
2.600787e-01,1.501565e-01,-1.892323e-02
2.122462e-01,1.225404e-01,-2.288637e-02
1.772560e-01,1.023388e-01,1.998938e-02
2.122264e-01,1.225290e-01,2.581938e-02
2.561019e-01,1.478605e-01,-3.771062e-02
1.909473e-01,1.102435e-01,-5.739978e-03
1.808999e-01,1.044426e-01,3.267867e-02
2.477401e-01,1.430328e-01,-3.488774e-03
2.250468e-01,1.299308e-01,-2.906607e-02
1.795068e-01,1.036383e-01,1.257800e-02
1.991677e-01,1.149895e-01,3.233952e-02
2.640270e-01,1.524361e-01,-3.465090e-02
1.984771e-01,1.145908e-01,-1.345671e-02
1.774746e-01,1.024650e-01,2.841305e-02
2.327142e-01,1.343576e-01,1.111769e-02
2.390464e-01,1.380135e-01,-3.483483e-02
1.826728e-01,1.054662e-01,4.687793e-03
1.880485e-01,1.085698e-01,3.554132e-02
2.626386e-01,1.516345e-01,-2.330264e-02
2.088322e-01,1.205693e-01,-2.101999e-02
1.767775e-01,1.020626e-01,2.202558e-02
2.162284e-01,1.248395e-01,2.342487e-02
2.530214e-01,1.460820e-01,-3.771011e-02
1.889885e-01,1.091126e-01,-3.594403e-03
1.819914e-01,1.050728e-01,3.363959e-02
2.513447e-01,1.451139e-01,-7.524073e-03
2.215161e-01,1.278924e-01,-2.742747e-02
1.788801e-01,1.032765e-01,1.459867e-02
2.025839e-01,1.169619e-01,3.082158e-02
2.624454e-01,1.515229e-01,-3.607483e-02
1.962816e-01,1.133232e-01,-1.132983e-02
1.783009e-01,1.029420e-01,2.973635e-02
2.371667e-01,1.369282e-01,7.124158e-03
2.350329e-01,1.356963e-01,-3.337583e-02
1.815388e-01,1.048115e-01,6.934634e-03
1.906863e-01,1.100928e-01,3.517463e-02
2.643707e-01,1.526345e-01,-2.735879e-02
2.055985e-01,1.187024e-01,-1.904751e-02
1.765256e-01,1.019171e-01,2.399206e-02
2.205028e-01,1.273073e-01,2.062195e-02
2.495536e-01,1.440798e-01,-3.737862e-02
1.870547e-01,1.079961e-01,-1.384860e-03
1.832247e-01,1.057848e-01,3.449609e-02
2.548094e-01,1.471143e-01,-1.168561e-02
2.180265e-01,1.258777e-01,-2.577093e-02
1.782562e-01,1.029163e-01,1.661063e-02
2.060843e-01,1.189828e-01,2.912270e-02
2.603810e-01,1.503311e-01,-3.699840e-02
1.942281e-01,1.121376e-01,-9.225697e-03
1.792341e-01,1.034809e-01,3.092004e-02
2.413505e-01,1.393438e-01,3.120256e-03
2.311528e-01,1.334561e-01,-3.178499e-02
1.806580e-01,1.043029e-01,9.115733e-03
1.937049e-01,1.118355e-01,3.437474e-02
2.650577e-01,1.530311e-01,-3.076355e-02
2.026590e-01,1.170052e-01,-1.698627e-02
1.766040e-01,1.019623e-01,2.581299e-02
2.250220e-01,1.299165e-01,1.736131e-02
2.457472e-01,1.418822e-01,-3.669797e-02
1.852185e-01,1.069359e-01,8.843327e-04
1.847072e-01,1.066408e-01,3.516654e-02
2.580879e-01,1.490071e-01,-1.600659e-02
2.145415e-01,1.238656e-01,-2.406138e-02
1.776390e-01,1.025599e-01,1.863934e-02
2.097196e-01,1.210817e-01,2.721836e-02
2.579251e-01,1.489131e-01,-3.753641e-02
1.922441e-01,1.109922e-01,-7.131650e-03
1.802220e-01,1.040512e-01,3.200404e-02
2.452709e-01,1.416072e-01,-8.592960e-04
2.274294e-01,1.313064e-01,-3.014868e-02
1.799373e-01,1.038868e-01,1.122241e-02
1.969545e-01,1.137117e-01,3.323310e-02
2.647183e-01,1.528352e-01,-3.335975e-02
2.000454e-01,1.154963e-01,-1.486718e-02
1.770330e-01,1.022101e-01,2.744364e-02
2.296683e-01,1.325991e-01,1.369105e-02
2.417307e-01,1.395633e-01,-3.567503e-02
1.835890e-01,1.059952e-01,3.179724e-03
1.865660e-01,1.077139e-01,3.552908e-02
2.610222e-01,1.507012e-01,-2.042614e-02
2.110741e-01,1.218637e-01,-2.226446e-02
1.770756e-01,1.022346e-01,2.068430e-02
2.135565e-01,1.232969e-01,2.504650e-02
2.550996e-01,1.472818e-01,-3.774646e-02
1.902811e-01,1.098589e-01,-5.017289e-03
1.812602e-01,1.046506e-01,3.301390e-02
2.489811e-01,1.437493e-01,-4.849677e-03
2.238391e-01,1.292336e-01,-2.850970e-02
1.792924e-01,1.035145e-01,1.326760e-02
2.003202e-01,1.156549e-01,3.184457e-02
2.635533e-01,1.521626e-01,-3.520008e-02
1.977102e-01,1.141480e-01,-1.273194e-02
1.777378e-01,1.026170e-01,2.888086e-02
2.342534e-01,1.352462e-01,9.768154e-03
2.376721e-01,1.372201e-01,-3.436053e-02
1.822545e-01,1.052247e-01,5.457186e-03
1.888935e-01,1.090577e-01,3.546907e-02
2.633340e-01,1.520360e-01,-2.473468e-02
2.077067e-01,1.199195e-01,-2.036129e-02
1.766604e-01,1.019949e-01,2.270547e-02
2.176498e-01,1.256602e-01,2.252223e-02
2.518864e-01,1.454267e-01,-3.763579e-02
1.883263e-01,1.087302e-01,-2.851372e-03
1.823899e-01,1.053029e-01,3.394527e-02
2.525371e-01,1.458024e-01,-8.920708e-03
2.203282e-01,1.272065e-01,-2.686832e-02
1.786682e-01,1.031541e-01,1.528152e-02
2.037616e-01,1.176418e-01,3.026508e-02
2.617907e-01,1.511450e-01,-3.643756e-02
1.955720e-01,1.129135e-01,-1.061254e-02
1.786095e-01,1.031203e-01,3.015202e-02
2.386195e-01,1.377670e-01,5.761480e-03
2.336972e-01,1.349251e-01,-3.284507e-02
1.812157e-01,1.046249e-01,7.683892e-03
1.916768e-01,1.106646e-01,3.494754e-02
2.647251e-01,1.528391e-01,-2.860130e-02
2.045636e-01,1.181048e-01,-1.835583e-02
1.765119e-01,1.019092e-01,2.463020e-02
2.220145e-01,1.281801e-01,1.956572e-02
2.482937e-01,1.433525e-01,-3.718701e-02
1.864148e-01,1.076266e-01,-6.195072e-04
1.836941e-01,1.060558e-01,3.475027e-02
2.559489e-01,1.477721e-01,-1.313606e-02
2.168425e-01,1.251941e-01,-2.519803e-02
1.780441e-01,1.027938e-01,1.729722e-02
2.073011e-01,1.196853e-01,2.850120e-02
2.595883e-01,1.498734e-01,-3.722035e-02
1.935495e-01,1.117459e-01,-8.514425e-03
1.795646e-01,1.036717e-01,3.129777e-02
2.427099e-01,1.401286e-01,1.766202e-03
2.298700e-01,1.327155e-01,-3.123109e-02
1.804000e-01,1.041540e-01,9.839608e-03
1.947902e-01,1.124622e-01,3.401993e-02
2.650496e-01,1.530264e-01,-3.173713e-02
2.017356e-01,1.164721e-01,-1.627088e-02
1.767125e-01,1.020250e-01,2.638925e-02
2.265947e-01,1.308245e-01,1.615421e-02
2.443977e-01,1.411031e-01,-3.638726e-02
1.846359e-01,1.065996e-01,1.663474e-03
1.852904e-01,1.069775e-01,3.533086e-02
2.591359e-01,1.496122e-01,-1.750424e-02
2.133591e-01,1.231829e-01,-2.346204e-02
1.774376e-01,1.024436e-01,1.933337e-02
2.109975e-01,1.218194e-01,2.651444e-02
2.570071e-01,1.483831e-01,-3.764332e-02
1.915765e-01,1.106067e-01,-6.417277e-03
1.805676e-01,1.042507e-01,3.235494e-02
2.465511e-01,1.423464e-01,-2.210548e-03
2.261976e-01,1.305952e-01,-2.959134e-02
1.797129e-01,1.037573e-01,1.192282e-02
1.980883e-01,1.143663e-01,3.278532e-02
2.644033e-01,1.526533e-01,-3.406300e-02
1.992246e-01,1.150223e-01,-1.414154e-02
1.772473e-01,1.023338e-01,2.795272e-02
2.312425e-01,1.335079e-01,1.237726e-02
2.403492e-01,1.387657e-01,-3.525731e-02
1.831003e-01,1.057130e-01,3.957334e-03
1.873023e-01,1.081390e-01,3.556006e-02
2.618929e-01,1.512039e-01,-2.191724e-02
2.099131e-01,1.211934e-01,-2.163010e-02
1.769122e-01,1.021403e-01,2.137681e-02
2.149166e-01,1.240821e-01,2.423296e-02
2.540519e-01,1.466770e-01,-3.774542e-02
1.896154e-01,1.094745e-01,-4.288500e-03
1.816302e-01,1.048643e-01,3.334050e-02
2.502043e-01,1.444555e-01,-6.219893e-03
2.226404e-01,1.285415e-01,-2.795330e-02
1.790798e-01,1.033917e-01,1.395353e-02
2.014807e-01,1.163249e-01,3.132809e-02
2.630114e-01,1.518497e-01,-3.567979e-02
1.969664e-01,1.137186e-01,-1.200914e-02
1.780204e-01,1.027802e-01,2.932940e-02
2.357663e-01,1.361197e-01,8.409639e-03
2.363078e-01,1.364323e-01,-3.386290e-02
1.818711e-01,1.050033e-01,6.220682e-03
1.897924e-01,1.095767e-01,3.534259e-02
2.639221e-01,1.523755e-01,-2.611550e-02
2.066074e-01,1.192849e-01,-1.969058e-02
1.765744e-01,1.019453e-01,2.337423e-02
2.191030e-01,1.264992e-01,2.156929e-02
2.507063e-01,1.447454e-01,-3.752230e-02
1.876686e-01,1.083505e-01,-2.100429e-03
1.828084e-01,1.055445e-01,3.423680e-02
2.537148e-01,1.464823e-01,-1.033460e-02
2.191431e-01,1.265223e-01,-2.630592e-02
1.784565e-01,1.030319e-01,1.596477e-02
2.049505e-01,1.183282e-01,2.968761e-02
2.610868e-01,1.507385e-01,-3.674845e-02
1.948756e-01,1.125115e-01,-9.897962e-03
1.789276e-01,1.033039e-01,3.055325e-02
2.400398e-01,1.385870e-01,4.400926e-03
2.323791e-01,1.341641e-01,-3.230324e-02
1.809184e-01,1.044533e-01,8.424779e-03
1.927052e-01,1.112584e-01,3.467332e-02
2.649547e-01,1.529717e-01,-2.975746e-02
2.035652e-01,1.175284e-01,-1.765503e-02
1.765394e-01,1.019251e-01,2.524880e-02
2.235516e-01,1.290676e-01,1.845599e-02
2.469972e-01,1.426039e-01,-3.695448e-02
1.857899e-01,1.072659e-01,1.519856e-04
1.841972e-01,1.063463e-01,3.497881e-02
2.570639e-01,1.484159e-01,-1.460519e-02
2.156582e-01,1.245103e-01,-2.461748e-02
1.778341e-01,1.026726e-01,1.798652e-02
2.085357e-01,1.203981e-01,2.785431e-02
2.587529e-01,1.493910e-01,-3.740135e-02
1.928763e-01,1.113572e-01,-7.803388e-03
1.799007e-01,1.038657e-01,3.166540e-02
2.440397e-01,1.408964e-01,4.148293e-04
2.286065e-01,1.319860e-01,-3.067457e-02
1.801565e-01,1.040134e-01,1.055487e-02
1.958959e-01,1.131005e-01,3.363002e-02
2.649289e-01,1.529568e-01,-3.261575e-02
2.008493e-01,1.159604e-01,-1.555028e-02
1.768604e-01,1.021104e-01,2.694261e-02
2.281761e-01,1.317375e-01,1.490398e-02
2.430306e-01,1.403138e-01,-3.603804e-02
1.840819e-01,1.062797e-01,2.443893e-03
1.859221e-01,1.073422e-01,3.545434e-02
2.601338e-01,1.501883e-01,-1.900827e-02
2.121804e-01,1.225024e-01,-2.285145e-02
1.772456e-01,1.023328e-01,2.002868e-02
2.123010e-01,1.225720e-01,2.577669e-02
2.560459e-01,1.478282e-01,-3.771353e-02
1.909101e-01,1.102220e-01,-5.699193e-03
1.809202e-01,1.044543e-01,3.269780e-02
2.478104e-01,1.430734e-01,-3.565420e-03
2.249788e-01,1.298916e-01,-2.903458e-02
1.794948e-01,1.036314e-01,1.261711e-02
1.992324e-01,1.150269e-01,3.231223e-02
2.640020e-01,1.524216e-01,-3.468383e-02
1.984333e-01,1.145655e-01,-1.341567e-02
1.774886e-01,1.024731e-01,2.844002e-02
2.328017e-01,1.344081e-01,1.104180e-02
2.389689e-01,1.379688e-01,-3.480874e-02
1.826478e-01,1.054518e-01,4.731293e-03
1.880944e-01,1.085964e-01,3.553878e-02
2.626811e-01,1.516590e-01,-2.338475e-02
2.087681e-01,1.205323e-01,-2.098310e-02
1.767703e-01,1.020584e-01,2.206424e-02
2.163080e-01,1.248855e-01,2.337514e-02
2.529586e-01,1.460457e-01,-3.770695e-02
1.889510e-01,1.090909e-01,-3.552664e-03
1.820138e-01,1.050857e-01,3.365712e-02
2.514126e-01,1.451531e-01,-7.602568e-03
2.214486e-01,1.278534e-01,-2.739598e-02
1.788680e-01,1.032695e-01,1.463723e-02
2.026497e-01,1.169999e-01,3.079081e-02
2.624097e-01,1.515023e-01,-3.609676e-02
1.962413e-01,1.133000e-01,-1.128916e-02
1.783179e-01,1.029519e-01,2.976025e-02
2.372494e-01,1.369760e-01,7.047184e-03
2.349577e-01,1.356529e-01,-3.334620e-02
1.815203e-01,1.048008e-01,6.977277e-03
1.907409e-01,1.101243e-01,3.516320e-02
2.643936e-01,1.526477e-01,-2.743106e-02
2.055396e-01,1.186683e-01,-1.900860e-02
1.765241e-01,1.019162e-01,2.402862e-02
2.205878e-01,1.273564e-01,2.056366e-02
2.494831e-01,1.440391e-01,-3.736884e-02
1.870183e-01,1.079751e-01,-1.341771e-03
1.832507e-01,1.057998e-01,3.451096e-02
2.548739e-01,1.471515e-01,-1.176698e-02
2.179591e-01,1.258388e-01,-2.573881e-02
1.782439e-01,1.029092e-01,1.664931e-02
2.061530e-01,1.190225e-01,2.908813e-02
2.603364e-01,1.503053e-01,-3.701188e-02
1.941894e-01,1.121153e-01,-9.185538e-03
1.792525e-01,1.034915e-01,3.094167e-02
2.414285e-01,1.393888e-01,3.043636e-03
2.310792e-01,1.334136e-01,-3.175383e-02
1.806433e-01,1.042944e-01,9.156938e-03
1.937654e-01,1.118705e-01,3.435575e-02
2.650601e-01,1.530325e-01,-3.082105e-02
2.026061e-01,1.169747e-01,-1.694597e-02
1.766089e-01,1.019652e-01,2.584615e-02
2.251102e-01,1.299674e-01,1.729440e-02
2.456709e-01,1.418382e-01,-3.668141e-02
1.851848e-01,1.069165e-01,9.282486e-04
1.847390e-01,1.066591e-01,3.517683e-02
