x,y,z
2.240636e-01,1.293632e-01,-3.568895e-03
2.172679e-01,1.254397e-01,-3.209369e-03
2.136619e-01,1.233578e-01,3.884840e-03
2.231271e-01,1.288225e-01,-1.806589e-03
2.194010e-01,1.266712e-01,-4.538325e-03
2.129680e-01,1.229571e-01,3.161924e-03
2.214407e-01,1.278488e-01,1.283266e-04
2.214548e-01,1.278570e-01,-5.352453e-03
2.130262e-01,1.229908e-01,1.906383e-03
2.193127e-01,1.266203e-01,1.904323e-03
2.231025e-01,1.288083e-01,-5.503209e-03
2.138144e-01,1.234458e-01,3.002024e-04
2.171067e-01,1.253466e-01,3.233153e-03
2.240475e-01,1.293539e-01,-4.925613e-03
2.152370e-01,1.242671e-01,-1.444968e-03
2.151603e-01,1.242229e-01,3.925385e-03
2.240948e-01,1.293812e-01,-3.673727e-03
2.171292e-01,1.253596e-01,-3.105875e-03
2.137343e-01,1.233995e-01,3.910855e-03
2.232167e-01,1.288742e-01,-1.934605e-03
2.192562e-01,1.265876e-01,-4.462850e-03
2.129916e-01,1.229707e-01,3.229234e-03
2.215723e-01,1.279248e-01,-8.544200e-07
2.213251e-01,1.277821e-01,-5.317093e-03
2.129986e-01,1.229748e-01,2.004364e-03
2.194630e-01,1.267070e-01,1.795784e-03
2.230105e-01,1.287552e-01,-5.515798e-03
2.137398e-01,1.234027e-01,4.154046e-04
2.172508e-01,1.254298e-01,3.162049e-03
2.240107e-01,1.293326e-01,-4.987125e-03
2.151244e-01,1.242021e-01,-1.327365e-03
2.152781e-01,1.242908e-01,3.900757e-03
2.241218e-01,1.293968e-01,-3.776303e-03
2.169908e-01,1.252797e-01,-3.000990e-03
2.138103e-01,1.234435e-01,3.933783e-03
2.233029e-01,1.289240e-01,-2.061733e-03
2.191106e-01,1.265036e-01,-4.385070e-03
2.130181e-01,1.229861e-01,3.294064e-03
2.217020e-01,1.279997e-01,-1.306832e-04
2.211938e-01,1.277063e-01,-5.278721e-03
2.129745e-01,1.229609e-01,2.100676e-03
2.196129e-01,1.267935e-01,1.685246e-03
2.229153e-01,1.287002e-01,-5.525032e-03
2.136682e-01,1.233614e-01,5.299030e-04
2.173959e-01,1.255136e-01,3.088041e-03
2.239697e-01,1.293090e-01,-5.045482e-03
2.150133e-01,1.241380e-01,-1.209447e-03
2.153974e-01,1.243597e-01,3.872902e-03
2.241437e-01,1.294094e-01,-3.876517e-03
2.168541e-01,1.252008e-01,-2.894780e-03
2.138899e-01,1.234894e-01,3.953605e-03
2.233856e-01,1.289718e-01,-2.187861e-03
2.189652e-01,1.264196e-01,-4.305042e-03
2.130488e-01,1.230038e-01,3.356332e-03
2.218295e-01,1.280733e-01,-2.610550e-04
2.210608e-01,1.276295e-01,-5.237374e-03
2.129536e-01,1.229488e-01,2.195258e-03
2.197620e-01,1.268796e-01,1.572793e-03
2.228171e-01,1.286435e-01,-5.530917e-03
2.135996e-01,1.233218e-01,6.436270e-04
2.175421e-01,1.255980e-01,3.011172e-03
2.239249e-01,1.292831e-01,-5.100652e-03
2.149053e-01,1.240756e-01,-1.091283e-03
2.155191e-01,1.244300e-01,3.841792e-03
2.241616e-01,1.294198e-01,-3.974329e-03
2.167186e-01,1.251225e-01,-2.787311e-03
2.139716e-01,1.235366e-01,3.970338e-03
2.234639e-01,1.290170e-01,-2.312856e-03
2.188200e-01,1.263358e-01,-4.222824e-03
2.130820e-01,1.230229e-01,3.416037e-03
2.219541e-01,1.281452e-01,-3.918303e-04
2.209263e-01,1.275518e-01,-5.193091e-03
2.129364e-01,1.229389e-01,2.288049e-03
2.199102e-01,1.269652e-01,1.458520e-03
2.227159e-01,1.285851e-01,-5.533465e-03
2.135338e-01,1.232838e-01,7.565141e-04
2.176893e-01,1.256830e-01,2.931491e-03
2.238761e-01,1.292549e-01,-5.152603e-03
2.147987e-01,1.240141e-01,-9.729420e-04
2.156433e-01,1.245017e-01,3.807438e-03
2.241754e-01,1.294277e-01,-4.069668e-03
2.165841e-01,1.250449e-01,-2.678652e-03
2.140568e-01,1.235858e-01,3.983911e-03
2.235388e-01,1.290602e-01,-2.436661e-03
2.186747e-01,1.262519e-01,-4.138473e-03
2.131194e-01,1.230445e-01,3.473088e-03
2.220763e-01,1.282158e-01,-5.229458e-04
2.207904e-01,1.274734e-01,-5.145915e-03
2.129223e-01,1.229307e-01,2.378992e-03
2.200576e-01,1.270503e-01,1.342491e-03
2.226117e-01,1.285250e-01,-5.532686e-03
2.134715e-01,1.232478e-01,8.684908e-04
2.178372e-01,1.257684e-01,2.849045e-03
2.238227e-01,1.292241e-01,-5.201292e-03
2.146955e-01,1.239545e-01,-8.544930e-04
2.157696e-01,1.245746e-01,3.769849e-03
2.241851e-01,1.294333e-01,-4.162465e-03
2.164518e-01,1.249685e-01,-2.568866e-03
2.141455e-01,1.236369e-01,3.994307e-03
2.236102e-01,1.291014e-01,-2.559176e-03
2.185291e-01,1.261678e-01,-4.052049e-03
2.131597e-01,1.230678e-01,3.527473e-03
2.221962e-01,1.282850e-01,-6.542980e-04
2.206534e-01,1.273943e-01,-5.095888e-03
2.129118e-01,1.229247e-01,2.468023e-03
2.202042e-01,1.271350e-01,1.224793e-03
2.225048e-01,1.284632e-01,-5.528596e-03
2.134118e-01,1.232134e-01,9.794992e-04
2.179860e-01,1.258543e-01,2.763887e-03
2.237655e-01,1.291911e-01,-5.246711e-03
2.145937e-01,1.238957e-01,-7.360034e-04
2.158981e-01,1.246488e-01,3.729041e-03
2.241901e-01,1.294362e-01,-4.252633e-03
2.163200e-01,1.248924e-01,-2.458024e-03
2.142363e-01,1.236894e-01,4.001548e-03
2.236778e-01,1.291404e-01,-2.680301e-03
2.183842e-01,1.260842e-01,-3.963613e-03
2.132035e-01,1.230931e-01,3.579132e-03
2.223137e-01,1.283528e-01,-7.857840e-04
2.205153e-01,1.273146e-01,-5.043054e-03
2.129046e-01,1.229205e-01,2.555091e-03
2.203498e-01,1.272190e-01,1.105511e-03
2.223951e-01,1.283999e-01,-5.521215e-03
2.133558e-01,1.231810e-01,1.089462e-03
2.181353e-01,1.259405e-01,2.676071e-03
2.237045e-01,1.291559e-01,-5.288838e-03
2.144954e-01,1.238390e-01,-6.175467e-04
2.160287e-01,1.247242e-01,3.685033e-03
2.241905e-01,1.294364e-01,-4.340111e-03
2.161904e-01,1.248176e-01,-2.346192e-03
2.143302e-01,1.237436e-01,4.005582e-03
2.237407e-01,1.291767e-01,-2.799900e-03
2.182399e-01,1.260009e-01,-3.873224e-03
2.132511e-01,1.231206e-01,3.628019e-03
2.224281e-01,1.284189e-01,-9.172812e-04
2.203757e-01,1.272340e-01,-4.987458e-03
2.129011e-01,1.229185e-01,2.640130e-03
2.204944e-01,1.273025e-01,9.847347e-04
2.222828e-01,1.283350e-01,-5.510558e-03
2.133024e-01,1.231502e-01,1.198324e-03
2.182852e-01,1.260270e-01,2.585653e-03
2.236398e-01,1.291185e-01,-5.327656e-03
2.143987e-01,1.237831e-01,-4.991890e-04
2.161607e-01,1.248004e-01,3.637866e-03
2.241868e-01,1.294343e-01,-4.424855e-03
2.160622e-01,1.247436e-01,-2.233438e-03
2.144273e-01,1.237997e-01,4.006389e-03
2.237999e-01,1.292110e-01,-2.917922e-03
2.180951e-01,1.259173e-01,-3.780944e-03
2.133013e-01,1.231496e-01,3.674119e-03
2.225394e-01,1.284832e-01,-1.048672e-03
2.202348e-01,1.271526e-01,-4.929144e-03
2.129006e-01,1.229182e-01,2.723093e-03
2.206378e-01,1.273853e-01,8.625533e-04
2.221679e-01,1.282687e-01,-5.496650e-03
2.132527e-01,1.231215e-01,1.306011e-03
2.184355e-01,1.261138e-01,2.492693e-03
2.235714e-01,1.290790e-01,-5.363148e-03
2.143055e-01,1.237294e-01,-3.810008e-04
2.162945e-01,1.248777e-01,3.587539e-03
2.241789e-01,1.294298e-01,-4.506806e-03
2.159356e-01,1.246705e-01,-2.119830e-03
2.145272e-01,1.238573e-01,4.003967e-03
2.238554e-01,1.292430e-01,-3.034275e-03
2.179513e-01,1.258342e-01,-3.686836e-03
2.133556e-01,1.231809e-01,3.717356e-03
2.226479e-01,1.285458e-01,-1.179881e-03
2.200932e-01,1.270708e-01,-4.868167e-03
2.129041e-01,1.229203e-01,2.803910e-03
2.207800e-01,1.274674e-01,7.390593e-04
2.220506e-01,1.282010e-01,-5.479514e-03
2.132056e-01,1.230943e-01,1.412464e-03
2.185861e-01,1.262007e-01,2.397251e-03
2.234995e-01,1.290375e-01,-5.395300e-03
2.142141e-01,1.236766e-01,-2.630485e-04
2.164302e-01,1.249560e-01,3.534076e-03
2.241670e-01,1.294229e-01,-4.585907e-03
2.158113e-01,1.245987e-01,-2.005436e-03
2.146293e-01,1.239163e-01,3.998329e-03
2.239070e-01,1.292728e-01,-3.148869e-03
2.178087e-01,1.257519e-01,-3.590961e-03
2.134126e-01,1.232138e-01,3.757732e-03
2.227536e-01,1.286069e-01,-1.310806e-03
2.199508e-01,1.269887e-01,-4.804576e-03
2.129105e-01,1.229239e-01,2.882544e-03
2.209202e-01,1.275483e-01,6.143726e-04
2.219310e-01,1.281319e-01,-5.459175e-03
2.131625e-01,1.230694e-01,1.517612e-03
2.187369e-01,1.262878e-01,2.299391e-03
2.234239e-01,1.289938e-01,-5.424103e-03
2.141264e-01,1.236259e-01,-1.454068e-04
2.165675e-01,1.250353e-01,3.477503e-03
2.241503e-01,1.294133e-01,-4.662089e-03
2.156881e-01,1.245276e-01,-1.890326e-03
2.147344e-01,1.239770e-01,3.989431e-03
2.239536e-01,1.292997e-01,-3.261568e-03
2.176656e-01,1.256693e-01,-3.493383e-03
2.134731e-01,1.232487e-01,3.795185e-03
2.228564e-01,1.286662e-01,-1.441340e-03
2.198079e-01,1.269062e-01,-4.738418e-03
2.129211e-01,1.229300e-01,2.958919e-03
2.210588e-01,1.276283e-01,4.885728e-04
2.218091e-01,1.280616e-01,-5.435662e-03
2.131218e-01,1.230459e-01,1.621400e-03
2.188879e-01,1.263750e-01,2.199182e-03
2.233447e-01,1.289481e-01,-5.449548e-03
2.140403e-01,1.235762e-01,-2.813579e-05
2.167065e-01,1.251156e-01,3.417849e-03
2.241293e-01,1.294011e-01,-4.735306e-03
2.155678e-01,1.244581e-01,-1.774566e-03
2.148424e-01,1.240393e-01,3.977266e-03
2.239964e-01,1.293244e-01,-3.372331e-03
2.175239e-01,1.255875e-01,-3.394168e-03
2.135374e-01,1.232859e-01,3.829669e-03
2.229551e-01,1.287232e-01,-1.571330e-03
2.196645e-01,1.268233e-01,-4.669748e-03
2.129343e-01,1.229377e-01,3.033013e-03
2.211957e-01,1.277074e-01,3.617464e-04
2.216852e-01,1.279900e-01,-5.409005e-03
2.130853e-01,1.230249e-01,1.723752e-03
2.190388e-01,1.264621e-01,2.096691e-03
2.232622e-01,1.289005e-01,-5.471632e-03
2.139582e-01,1.235288e-01,8.868644e-05
2.168469e-01,1.251966e-01,3.355147e-03
2.241040e-01,1.293865e-01,-4.805523e-03
2.154484e-01,1.243892e-01,-1.658227e-03
2.149530e-01,1.241032e-01,3.961846e-03
2.240351e-01,1.293467e-01,-3.481072e-03
2.173836e-01,1.255065e-01,-3.293376e-03
2.136040e-01,1.233243e-01,3.861201e-03
2.230508e-01,1.287784e-01,-1.700721e-03
2.195198e-01,1.267398e-01,-4.598615e-03
2.129518e-01,1.229478e-01,3.104733e-03
2.213310e-01,1.277855e-01,2.339902e-04
2.215592e-01,1.279173e-01,-5.379234e-03
2.130513e-01,1.230052e-01,1.824616e-03
2.191894e-01,1.265491e-01,1.991993e-03
2.231762e-01,1.288508e-01,-5.490350e-03
2.138778e-01,1.234824e-01,2.050005e-04
2.169888e-01,1.252786e-01,3.289429e-03
2.240748e-01,1.293696e-01,-4.872696e-03
2.153319e-01,1.243219e-01,-1.541379e-03
2.150656e-01,1.241682e-01,3.943188e-03
2.240699e-01,1.293668e-01,-3.587710e-03
2.172430e-01,1.254253e-01,-3.191074e-03
2.136742e-01,1.233649e-01,3.889699e-03
2.231434e-01,1.288319e-01,-1.829409e-03
2.193750e-01,1.266562e-01,-4.525078e-03
2.129718e-01,1.229593e-01,3.174073e-03
2.214644e-01,1.278626e-01,1.054026e-04
2.214313e-01,1.278434e-01,-5.346384e-03
2.130213e-01,1.229879e-01,1.923917e-03
2.193397e-01,1.266358e-01,1.885169e-03
2.230869e-01,1.287993e-01,-5.505703e-03
2.138013e-01,1.234383e-01,3.207277e-04
2.171320e-01,1.253612e-01,3.220737e-03
2.240415e-01,1.293504e-01,-4.936783e-03
2.152168e-01,1.242555e-01,-1.424087e-03
2.151808e-01,1.242347e-01,3.921256e-03
2.240999e-01,1.293841e-01,-3.692129e-03
2.171043e-01,1.253452e-01,-3.087329e-03
2.137480e-01,1.234074e-01,3.915143e-03
2.232327e-01,1.288835e-01,-1.957293e-03
2.192301e-01,1.265726e-01,-4.449190e-03
2.129961e-01,1.229734e-01,3.240941e-03
2.215961e-01,1.279385e-01,-2.391375e-05
2.213017e-01,1.277686e-01,-5.310491e-03
2.129940e-01,1.229721e-01,2.021611e-03
2.194896e-01,1.267224e-01,1.776281e-03
2.229942e-01,1.287458e-01,-5.517693e-03
2.137267e-01,1.233952e-01,4.358129e-04
2.172764e-01,1.254446e-01,3.149107e-03
2.240041e-01,1.293288e-01,-4.997745e-03
2.151044e-01,1.241906e-01,-1.306425e-03
2.152986e-01,1.243027e-01,3.896061e-03
2.241255e-01,1.293989e-01,-3.794274e-03
2.169667e-01,1.252658e-01,-2.982203e-03
2.138241e-01,1.234514e-01,3.937540e-03
2.233178e-01,1.289326e-01,-2.084229e-03
2.190853e-01,1.264890e-01,-4.371008e-03
2.130233e-01,1.229891e-01,3.305321e-03
2.217248e-01,1.280129e-01,-1.538197e-04
2.211705e-01,1.276928e-01,-5.271590e-03
2.129709e-01,1.229588e-01,2.117615e-03
2.196390e-01,1.268087e-01,1.665409e-03
2.228984e-01,1.286904e-01,-5.526328e-03
2.136561e-01,1.233544e-01,5.501753e-04
2.174219e-01,1.255286e-01,3.074580e-03
2.239623e-01,1.293047e-01,-5.055530e-03
2.149939e-01,1.241268e-01,-1.188457e-03
2.154189e-01,1.243722e-01,3.867604e-03
2.241471e-01,1.294114e-01,-3.894080e-03
2.168297e-01,1.251867e-01,-2.875765e-03
2.139039e-01,1.234975e-01,3.956818e-03
2.233994e-01,1.289797e-01,-2.210147e-03
2.189395e-01,1.264048e-01,-4.290584e-03
2.130542e-01,1.230069e-01,3.367143e-03
2.218514e-01,1.280860e-01,-2.842529e-04
2.210375e-01,1.276160e-01,-5.229720e-03
2.129502e-01,1.229469e-01,2.211888e-03
2.197879e-01,1.268946e-01,1.552633e-03
2.227995e-01,1.286334e-01,-5.531618e-03
2.135875e-01,1.233148e-01,6.637595e-04
2.175684e-01,1.256132e-01,2.997203e-03
2.239163e-01,1.292781e-01,-5.110118e-03
2.148859e-01,1.240645e-01,-1.070257e-03
2.155415e-01,1.244429e-01,3.835902e-03
2.241647e-01,1.294215e-01,-3.991472e-03
2.166948e-01,1.251088e-01,-2.768081e-03
2.139870e-01,1.235454e-01,3.972966e-03
2.234775e-01,1.290248e-01,-2.334956e-03
2.187939e-01,1.263207e-01,-4.207982e-03
2.130885e-01,1.230267e-01,3.426368e-03
2.219759e-01,1.281578e-01,-4.151113e-04
2.209026e-01,1.275382e-01,-5.184917e-03
2.129339e-01,1.229374e-01,2.304348e-03
2.199362e-01,1.269802e-01,1.438032e-03
