x,y,z
-1.923298e-01,1.110417e-01,7.151649e-03
-2.579182e-01,1.489092e-01,3.744546e-02
-2.096033e-01,1.210145e-01,-2.724002e-02
-1.777429e-01,1.026199e-01,-1.850932e-02
-2.147752e-01,1.240005e-01,2.413292e-02
-2.577943e-01,1.488376e-01,1.567298e-02
-1.846410e-01,1.066025e-01,-3.506008e-02
-1.854411e-01,1.070645e-01,-6.724420e-04
-2.461097e-01,1.420915e-01,3.672222e-02
-2.245098e-01,1.296208e-01,-1.770925e-02
-1.766467e-01,1.019870e-01,-2.556532e-02
-2.030648e-01,1.172395e-01,1.723676e-02
-2.649362e-01,1.529610e-01,3.027137e-02
-1.932863e-01,1.115939e-01,-3.445786e-02
-1.808532e-01,1.044156e-01,-8.759364e-03
-2.317957e-01,1.338273e-01,3.201107e-02
-2.405766e-01,1.388970e-01,-3.832198e-03
-1.791234e-01,1.034169e-01,-3.064892e-02
-1.946940e-01,1.124067e-01,9.640081e-03
-2.607750e-01,1.505585e-01,3.675082e-02
-2.053096e-01,1.185356e-01,-2.946750e-02
-1.784807e-01,1.030459e-01,-1.610146e-02
-2.189188e-01,1.263928e-01,2.615179e-02
-2.538496e-01,1.465601e-01,1.056446e-02
-1.829374e-01,1.056190e-01,-3.421409e-02
-1.876609e-01,1.083461e-01,2.019968e-03
-2.505687e-01,1.446659e-01,3.744463e-02
-2.191754e-01,1.265410e-01,-2.148336e-02
-1.766457e-01,1.019864e-01,-2.334870e-02
-2.066594e-01,1.193148e-01,1.967561e-02
-2.638161e-01,1.523143e-01,2.600923e-02
-1.897849e-01,1.095723e-01,-3.529237e-02
-1.819717e-01,1.050614e-01,-6.136734e-03
-2.364674e-01,1.365245e-01,3.387494e-02
-2.355063e-01,1.359696e-01,-8.603832e-03
-1.780387e-01,1.027907e-01,-2.919994e-02
-1.971786e-01,1.138411e-01,1.215092e-02
-2.630625e-01,1.518792e-01,3.548330e-02
-2.011870e-01,1.161554e-01,-3.141731e-02
-1.792212e-01,1.034734e-01,-1.371199e-02
-2.230748e-01,1.287923e-01,2.810727e-02
-2.496733e-01,1.441489e-01,5.680484e-03
-1.815450e-01,1.048150e-01,-3.314279e-02
-1.899809e-01,1.096855e-01,4.618441e-03
-2.545102e-01,1.469415e-01,3.767516e-02
-2.142145e-01,1.236768e-01,-2.461628e-02
-1.770742e-01,1.022338e-01,-2.095935e-02
-2.106234e-01,1.216034e-01,2.197525e-02
-2.612893e-01,1.508554e-01,2.096613e-02
-1.868832e-01,1.078971e-01,-3.548480e-02
-1.834880e-01,1.059369e-01,-3.428572e-03
-2.412949e-01,1.393117e-01,3.549794e-02
-2.300838e-01,1.328389e-01,-1.331001e-02
-1.771537e-01,1.022798e-01,-2.752729e-02
-1.999145e-01,1.154207e-01,1.469368e-02
-2.645742e-01,1.527520e-01,3.341930e-02
-1.971699e-01,1.138361e-01,-3.310630e-02
-1.799807e-01,1.039119e-01,-1.128832e-02
-2.273250e-01,1.312461e-01,3.005390e-02
-2.452901e-01,1.416183e-01,9.324512e-04
-1.803021e-01,1.040974e-01,-3.195288e-02
-1.923149e-01,1.110330e-01,7.135425e-03
-2.578972e-01,1.488970e-01,3.744826e-02
-2.096324e-01,1.210313e-01,-2.722436e-02
-1.777382e-01,1.026172e-01,-1.852507e-02
-2.147483e-01,1.239850e-01,2.411946e-02
-2.578190e-01,1.488519e-01,1.570690e-02
-1.846532e-01,1.066096e-01,-3.506454e-02
-1.854276e-01,1.070567e-01,-6.901774e-04
-2.460803e-01,1.420745e-01,3.671595e-02
-2.245458e-01,1.296416e-01,-1.768256e-02
-1.766486e-01,1.019881e-01,-2.557889e-02
-2.030425e-01,1.172266e-01,1.722068e-02
-2.649381e-01,1.529621e-01,3.029539e-02
-1.933102e-01,1.116077e-01,-3.445070e-02
-1.808466e-01,1.044118e-01,-8.775965e-03
-2.317663e-01,1.338103e-01,3.199856e-02
-2.406086e-01,1.389155e-01,-3.801289e-03
-1.791311e-01,1.034214e-01,-3.065773e-02
-1.946788e-01,1.123979e-01,9.623817e-03
-2.607572e-01,1.505483e-01,3.675680e-02
-2.053365e-01,1.185511e-01,-2.945411e-02
-1.784756e-01,1.030429e-01,-1.611694e-02
-2.188920e-01,1.263774e-01,2.613896e-02
-2.538767e-01,1.465758e-01,1.059692e-02
-1.829476e-01,1.056248e-01,-3.422041e-02
-1.876461e-01,1.083375e-01,2.002763e-03
-2.505422e-01,1.446506e-01,3.744167e-02
-2.192086e-01,1.265602e-01,-2.146106e-02
-1.766438e-01,1.019853e-01,-2.336377e-02
-2.066346e-01,1.193006e-01,1.966019e-02
-2.638277e-01,1.523210e-01,2.603988e-02
-1.898058e-01,1.095844e-01,-3.528894e-02
-1.819633e-01,1.050565e-01,-6.154065e-03
-2.364357e-01,1.365062e-01,3.386342e-02
-2.355401e-01,1.359892e-01,-8.572905e-03
-1.780455e-01,1.027946e-01,-2.920997e-02
-1.971614e-01,1.138312e-01,1.213461e-02
-2.630494e-01,1.518716e-01,3.549370e-02
-2.012131e-01,1.161705e-01,-3.140556e-02
-1.792165e-01,1.034707e-01,-1.372756e-02
-2.230475e-01,1.287766e-01,2.809468e-02
-2.497019e-01,1.441654e-01,5.711702e-03
-1.815534e-01,1.048199e-01,-3.315019e-02
-1.899662e-01,1.096771e-01,4.601772e-03
-2.544868e-01,1.469280e-01,3.767521e-02
-2.142459e-01,1.236949e-01,-2.459770e-02
-1.770704e-01,1.022316e-01,-2.097512e-02
-2.105970e-01,1.215882e-01,2.196081e-02
-2.613091e-01,1.508669e-01,2.100007e-02
-1.868999e-01,1.079067e-01,-3.548567e-02
-1.834772e-01,1.059306e-01,-3.446415e-03
-2.412632e-01,1.392934e-01,3.548856e-02
-2.301192e-01,1.328594e-01,-1.328026e-02
-1.771583e-01,1.022824e-01,-2.753900e-02
-1.998954e-01,1.154097e-01,1.467720e-02
-2.645678e-01,1.527483e-01,3.343590e-02
-1.971957e-01,1.138510e-01,-3.309628e-02
-1.799757e-01,1.039090e-01,-1.130431e-02
-2.272969e-01,1.312299e-01,3.004124e-02
-2.453186e-01,1.416347e-01,9.630105e-04
-1.803098e-01,1.041019e-01,-3.196093e-02
-1.922997e-01,1.110243e-01,7.119235e-03
-2.578780e-01,1.488860e-01,3.745137e-02
-2.096606e-01,1.210476e-01,-2.720891e-02
-1.777338e-01,1.026147e-01,-1.854084e-02
-2.147212e-01,1.239693e-01,2.410605e-02
-2.578432e-01,1.488658e-01,1.574072e-02
-1.846658e-01,1.066168e-01,-3.506883e-02
-1.854139e-01,1.070488e-01,-7.079128e-04
-2.460491e-01,1.420565e-01,3.670952e-02
-2.245810e-01,1.296619e-01,-1.765598e-02
-1.766501e-01,1.019890e-01,-2.559244e-02
-2.030209e-01,1.172142e-01,1.720445e-02
-2.649405e-01,1.529635e-01,3.031950e-02
-1.933347e-01,1.116218e-01,-3.444330e-02
-1.808404e-01,1.044083e-01,-8.792650e-03
-2.317364e-01,1.337931e-01,3.198608e-02
-2.406397e-01,1.389334e-01,-3.770492e-03
-1.791381e-01,1.034254e-01,-3.066658e-02
-1.946630e-01,1.123887e-01,9.607689e-03
-2.607416e-01,1.505392e-01,3.676320e-02
-2.053638e-01,1.185668e-01,-2.944057e-02
-1.784708e-01,1.030402e-01,-1.613246e-02
-2.188649e-01,1.263617e-01,2.612617e-02
-2.539025e-01,1.465907e-01,1.062924e-02
-1.829571e-01,1.056303e-01,-3.422686e-02
-1.876309e-01,1.083288e-01,1.985629e-03
-2.505139e-01,1.446343e-01,3.743848e-02
-2.192426e-01,1.265798e-01,-2.143860e-02
-1.766424e-01,1.019845e-01,-2.337885e-02
-2.066103e-01,1.192865e-01,1.964469e-02
-2.638402e-01,1.523282e-01,2.607071e-02
-1.898268e-01,1.095966e-01,-3.528552e-02
-1.819552e-01,1.050519e-01,-6.171486e-03
-2.364051e-01,1.364886e-01,3.385189e-02
-2.355746e-01,1.360091e-01,-8.541893e-03
-1.780519e-01,1.027983e-01,-2.922002e-02
-1.971447e-01,1.138216e-01,1.211816e-02
-2.630373e-01,1.518646e-01,3.550429e-02
-2.012399e-01,1.161859e-01,-3.139358e-02
-1.792115e-01,1.034678e-01,-1.374306e-02
-2.230202e-01,1.287608e-01,2.808207e-02
-2.497287e-01,1.441809e-01,5.742728e-03
-1.815617e-01,1.048247e-01,-3.315761e-02
-1.899507e-01,1.096681e-01,4.585320e-03
-2.544626e-01,1.469140e-01,3.767513e-02
-2.142763e-01,1.237125e-01,-2.457931e-02
-1.770665e-01,1.022294e-01,-2.099086e-02
-2.105707e-01,1.215731e-01,2.194636e-02
-2.613292e-01,1.508785e-01,2.103408e-02
-1.869166e-01,1.079164e-01,-3.548644e-02
-1.834654e-01,1.059238e-01,-3.464056e-03
-2.412318e-01,1.392752e-01,3.547916e-02
-2.301556e-01,1.328804e-01,-1.325038e-02
-1.771633e-01,1.022853e-01,-2.755070e-02
-1.998770e-01,1.153990e-01,1.466058e-02
-2.645610e-01,1.527444e-01,3.345239e-02
-1.972214e-01,1.138658e-01,-3.308626e-02
-1.799707e-01,1.039061e-01,-1.132031e-02
-2.272692e-01,1.312139e-01,3.002856e-02
-2.453487e-01,1.416521e-01,9.937526e-04
-1.803175e-01,1.041064e-01,-3.196898e-02
-1.922843e-01,1.110154e-01,7.103118e-03
-2.578567e-01,1.488736e-01,3.745406e-02
-2.096896e-01,1.210643e-01,-2.719327e-02
-1.777289e-01,1.026118e-01,-1.855654e-02
-2.146948e-01,1.239541e-01,2.409250e-02
-2.578679e-01,1.488801e-01,1.577463e-02
-1.846784e-01,1.066241e-01,-3.507315e-02
-1.854000e-01,1.070407e-01,-7.255555e-04
-2.460194e-01,1.420394e-01,3.670320e-02
-2.246170e-01,1.296827e-01,-1.762925e-02
-1.766518e-01,1.019900e-01,-2.560599e-02
-2.029992e-01,1.172016e-01,1.718826e-02
-2.649424e-01,1.529646e-01,3.034346e-02
-1.933586e-01,1.116356e-01,-3.443610e-02
-1.808343e-01,1.044048e-01,-8.809331e-03
-2.317076e-01,1.337764e-01,3.197354e-02
-2.406718e-01,1.389519e-01,-3.739589e-03
-1.791456e-01,1.034298e-01,-3.067539e-02
-1.946473e-01,1.123797e-01,9.591536e-03
-2.607235e-01,1.505288e-01,3.676907e-02
-2.053910e-01,1.185826e-01,-2.942706e-02
-1.784663e-01,1.030375e-01,-1.614805e-02
-2.188386e-01,1.263465e-01,2.611325e-02
-2.539296e-01,1.466063e-01,1.066172e-02
-1.829670e-01,1.056361e-01,-3.423323e-02
-1.876163e-01,1.083203e-01,1.968368e-03
-2.504872e-01,1.446188e-01,3.743544e-02
-2.192757e-01,1.265989e-01,-2.141626e-02
-1.766409e-01,1.019837e-01,-2.339393e-02
-2.065852e-01,1.192720e-01,1.962935e-02
-2.638519e-01,1.523350e-01,2.610136e-02
-1.898481e-01,1.096089e-01,-3.528195e-02
-1.819465e-01,1.050469e-01,-6.188746e-03
-2.363740e-01,1.364706e-01,3.384035e-02
-2.356084e-01,1.360286e-01,-8.510956e-03
-1.780585e-01,1.028021e-01,-2.923005e-02
-1.971282e-01,1.138120e-01,1.210170e-02
-2.630238e-01,1.518569e-01,3.551458e-02
-2.012659e-01,1.162009e-01,-3.138182e-02
-1.792068e-01,1.034651e-01,-1.375864e-02
-2.229937e-01,1.287454e-01,2.806939e-02
-2.497572e-01,1.441974e-01,5.773953e-03
-1.815704e-01,1.048297e-01,-3.316495e-02
-1.899355e-01,1.096593e-01,4.568753e-03
-2.544394e-01,1.469006e-01,3.767521e-02
-2.143075e-01,1.237305e-01,-2.456072e-02
-1.770630e-01,1.022274e-01,-2.100666e-02
-2.105439e-01,1.215576e-01,2.193200e-02
-2.613491e-01,1.508900e-01,2.106804e-02
-1.869331e-01,1.079259e-01,-3.548735e-02
-1.834543e-01,1.059174e-01,-3.481815e-03
-2.412004e-01,1.392571e-01,3.546977e-02
-2.301911e-01,1.329009e-01,-1.322060e-02
-1.771679e-01,1.022879e-01,-2.756238e-02
-1.998578e-01,1.153879e-01,1.464413e-02
-2.645545e-01,1.527406e-01,3.346889e-02
-1.972470e-01,1.138806e-01,-3.307628e-02
-1.799653e-01,1.039030e-01,-1.133621e-02
-2.272405e-01,1.311974e-01,3.001594e-02
-2.453771e-01,1.416685e-01,1.024316e-03
-1.803256e-01,1.041110e-01,-3.197696e-02
-1.922694e-01,1.110068e-01,7.086882e-03
-2.578374e-01,1.488625e-01,3.745713e-02
-2.097181e-01,1.210808e-01,-2.717772e-02
-1.777242e-01,1.026091e-01,-1.857230e-02
-2.146674e-01,1.239383e-01,2.407911e-02
-2.578921e-01,1.488941e-01,1.580848e-02
-1.846909e-01,1.066313e-01,-3.507749e-02
-1.853865e-01,1.070330e-01,-7.433135e-04
-2.459885e-01,1.420215e-01,3.669675e-02
-2.246522e-01,1.297030e-01,-1.760261e-02
-1.766539e-01,1.019912e-01,-2.561954e-02
-2.029772e-01,1.171889e-01,1.717211e-02
-2.649446e-01,1.529658e-01,3.036743e-02
-1.933829e-01,1.116497e-01,-3.442873e-02
-1.808278e-01,1.044010e-01,-8.825928e-03
-2.316773e-01,1.337589e-01,3.196107e-02
-2.407028e-01,1.389698e-01,-3.708797e-03
-1.791532e-01,1.034341e-01,-3.068418e-02
-1.946321e-01,1.123709e-01,9.575258e-03
-2.607076e-01,1.505196e-01,3.677538e-02
-2.054181e-01,1.185982e-01,-2.941357e-02
-1.784611e-01,1.030346e-01,-1.616352e-02
-2.188112e-01,1.263307e-01,2.610050e-02
-2.539555e-01,1.466213e-01,1.069407e-02
-1.829771e-01,1.056419e-01,-3.423953e-02
-1.876014e-01,1.083117e-01,1.951184e-03
-2.504591e-01,1.446026e-01,3.743225e-02
-2.193097e-01,1.266185e-01,-2.139373e-02
-1.766393e-01,1.019827e-01,-2.340897e-02
-2.065608e-01,1.192579e-01,1.961386e-02
-2.638641e-01,1.523420e-01,2.613208e-02
-1.898689e-01,1.096209e-01,-3.527854e-02
-1.819381e-01,1.050420e-01,-6.206072e-03
-2.363430e-01,1.364527e-01,3.382880e-02
-2.356429e-01,1.360485e-01,-8.479948e-03
-1.780654e-01,1.028061e-01,-2.924005e-02
-1.971111e-01,1.138021e-01,1.208536e-02
-2.630120e-01,1.518500e-01,3.552516e-02
-2.012925e-01,1.162163e-01,-3.136990e-02
-1.792020e-01,1.034623e-01,-1.377419e-02
-2.229659e-01,1.287294e-01,2.805683e-02
-2.497841e-01,1.442129e-01,5.804993e-03
-1.815787e-01,1.048345e-01,-3.317236e-02
-1.899208e-01,1.096508e-01,4.552095e-03
-2.544148e-01,1.468865e-01,3.767504e-02
-2.143382e-01,1.237482e-01,-2.454224e-02
-1.770591e-01,1.022251e-01,-2.102241e-02
-2.105180e-01,1.215426e-01,2.191747e-02
-2.613690e-01,1.509014e-01,2.110199e-02
-1.869500e-01,1.079356e-01,-3.548806e-02
-1.834433e-01,1.059110e-01,-3.499620e-03
-2.411687e-01,1.392388e-01,3.546033e-02
-2.302273e-01,1.329218e-01,-1.319070e-02
-1.771726e-01,1.022906e-01,-2.757406e-02
-1.998389e-01,1.153771e-01,1.462761e-02
-2.645477e-01,1.527367e-01,3.348529e-02
-1.972730e-01,1.138956e-01,-3.306613e-02
-1.799603e-01,1.039001e-01,-1.135219e-02
-2.272130e-01,1.311815e-01,3.000324e-02
-2.454071e-01,1.416858e-01,1.055053e-03
-1.803332e-01,1.041154e-01,-3.198502e-02
-1.922542e-01,1.109980e-01,7.070712e-03
-2.578161e-01,1.488502e-01,3.745981e-02
-2.097469e-01,1.210974e-01,-2.716210e-02
-1.777198e-01,1.026066e-01,-1.858807e-02
-2.146406e-01,1.239228e-01,2.406562e-02
-2.579166e-01,1.489082e-01,1.584239e-02
-1.847038e-01,1.066388e-01,-3.508170e-02
-1.853728e-01,1.070251e-01,-7.610225e-04
-2.459586e-01,1.420043e-01,3.669036e-02
-2.246882e-01,1.297238e-01,-1.757583e-02
-1.766553e-01,1.019920e-01,-2.563305e-02
-2.029559e-01,1.171767e-01,1.715581e-02
-2.649465e-01,1.529670e-01,3.039131e-02
-1.934072e-01,1.116637e-01,-3.442138e-02
-1.808218e-01,1.043975e-01,-8.842612e-03
-2.316481e-01,1.337421e-01,3.194855e-02
-2.407349e-01,1.389883e-01,-3.677897e-03
-1.791603e-01,1.034383e-01,-3.069302e-02
-1.946162e-01,1.123617e-01,9.559168e-03
