x,y,z
-2.272954e-01,1.312291e-01,-1.560466e-02
-1.767737e-01,1.020604e-01,-2.663752e-02
-2.013386e-01,1.162429e-01,1.595172e-02
-2.650093e-01,1.530032e-01,3.213838e-02
-1.952781e-01,1.127439e-01,-3.385120e-02
-1.802906e-01,1.040908e-01,-1.015790e-02
-2.293075e-01,1.323907e-01,3.098447e-02
-2.433031e-01,1.404711e-01,-1.166610e-03
-1.797130e-01,1.037574e-01,-3.146198e-02
-1.932504e-01,1.115732e-01,8.199121e-03
-2.592223e-01,1.496621e-01,3.730539e-02
-2.078461e-01,1.200000e-01,-2.821760e-02
-1.779507e-01,1.027399e-01,-1.760259e-02
-2.163172e-01,1.248908e-01,2.494160e-02
-2.564471e-01,1.480598e-01,1.378546e-02
-1.839129e-01,1.061822e-01,-3.485505e-02
-1.861355e-01,1.074654e-01,2.780281e-04
-2.477225e-01,1.430226e-01,3.708888e-02
-2.226935e-01,1.285721e-01,-1.908007e-02
-1.765191e-01,1.019134e-01,-2.490709e-02
-2.041161e-01,1.178465e-01,1.804609e-02
-2.648424e-01,1.529068e-01,2.912517e-02
-1.921282e-01,1.109253e-01,-3.483162e-02
-1.810808e-01,1.045471e-01,-8.013537e-03
-2.331105e-01,1.345864e-01,3.260590e-02
-2.392536e-01,1.381331e-01,-5.157682e-03
-1.787498e-01,1.032012e-01,-3.033163e-02
-1.952617e-01,1.127344e-01,1.029529e-02
-2.614848e-01,1.509683e-01,3.658164e-02
-2.042875e-01,1.179454e-01,-3.001156e-02
-1.785742e-01,1.030999e-01,-1.558441e-02
-2.198023e-01,1.269029e-01,2.661938e-02
-2.530612e-01,1.461049e-01,9.545526e-03
-1.825726e-01,1.054084e-01,-3.407652e-02
-1.880339e-01,1.085614e-01,2.519282e-03
-2.513682e-01,1.451275e-01,3.759030e-02
-2.182903e-01,1.260300e-01,-2.210599e-02
-1.766181e-01,1.019705e-01,-2.300364e-02
-2.072156e-01,1.196360e-01,2.006526e-02
-2.636092e-01,1.521948e-01,2.535435e-02
-1.892860e-01,1.092843e-01,-3.541952e-02
-1.820802e-01,1.051241e-01,-5.796568e-03
-2.370655e-01,1.368699e-01,3.414246e-02
-2.349282e-01,1.356358e-01,-9.166384e-03
-1.778612e-01,1.026882e-01,-2.908207e-02
-1.973778e-01,1.139561e-01,1.241106e-02
-2.633207e-01,1.520283e-01,3.542096e-02
-2.008337e-01,1.159514e-01,-3.161815e-02
-1.791978e-01,1.034599e-01,-1.357216e-02
-2.233065e-01,1.289261e-01,2.826298e-02
-2.495262e-01,1.440640e-01,5.456110e-03
-1.814230e-01,1.047446e-01,-3.315986e-02
-1.899858e-01,1.096884e-01,4.694885e-03
-2.546400e-01,1.470164e-01,3.775048e-02
-2.141559e-01,1.236430e-01,-2.469093e-02
-1.770008e-01,1.021914e-01,-2.099188e-02
-2.105576e-01,1.215655e-01,2.198466e-02
-2.614178e-01,1.509296e-01,2.108956e-02
-1.868856e-01,1.078985e-01,-3.554915e-02
-1.833678e-01,1.058675e-01,-3.524955e-03
-2.411179e-01,1.392095e-01,3.549377e-02
-2.303679e-01,1.330030e-01,-1.311151e-02
-1.771242e-01,1.022627e-01,-2.767217e-02
-1.996778e-01,1.152840e-01,1.454539e-02
-2.645892e-01,1.527606e-01,3.368208e-02
-1.974557e-01,1.140011e-01,-3.303788e-02
-1.798368e-01,1.038288e-01,-1.153387e-02
-2.268812e-01,1.309899e-01,2.990145e-02
-2.458414e-01,1.419366e-01,1.458319e-03
-1.803745e-01,1.041393e-01,-3.216067e-02
-1.919477e-01,1.108211e-01,6.815203e-03
-2.575234e-01,1.486812e-01,3.758842e-02
-2.102836e-01,1.214073e-01,-2.691007e-02
-1.775488e-01,1.025078e-01,-1.894692e-02
-2.140169e-01,1.235627e-01,2.379687e-02
-2.585583e-01,1.492787e-01,1.666958e-02
-1.849602e-01,1.067868e-01,-3.524414e-02
-1.849569e-01,1.067849e-01,-1.229596e-03
-2.451508e-01,1.415379e-01,3.656499e-02
-2.257181e-01,1.303184e-01,-1.683163e-02
-1.766470e-01,1.019872e-01,-2.607137e-02
-2.022452e-01,1.167663e-01,1.666967e-02
-2.650690e-01,1.530377e-01,3.120725e-02
-1.941832e-01,1.121117e-01,-3.422205e-02
-1.805414e-01,1.042357e-01,-9.437843e-03
-2.305814e-01,1.331262e-01,3.153979e-02
-2.419570e-01,1.396940e-01,-2.519339e-03
-1.793799e-01,1.035651e-01,-3.108890e-02
-1.939262e-01,1.119634e-01,8.910165e-03
-2.600340e-01,1.501307e-01,3.710189e-02
-2.066221e-01,1.192933e-01,-2.884999e-02
-1.781619e-01,1.028618e-01,-1.691481e-02
-2.175013e-01,1.255744e-01,2.551770e-02
-2.553179e-01,1.474079e-01,1.232660e-02
-1.834294e-01,1.059030e-01,-3.461158e-02
-1.867693e-01,1.078313e-01,1.046256e-03
-2.489995e-01,1.437599e-01,3.729866e-02
-2.211700e-01,1.276925e-01,-2.016013e-02
-1.765145e-01,1.019107e-01,-2.427735e-02
-2.051350e-01,1.184348e-01,1.874197e-02
-2.645430e-01,1.527339e-01,2.791993e-02
-1.911203e-01,1.103433e-01,-3.508004e-02
-1.813921e-01,1.047268e-01,-7.267943e-03
-2.344389e-01,1.353534e-01,3.314203e-02
-2.378154e-01,1.373028e-01,-6.519618e-03
-1.784364e-01,1.030203e-01,-2.992260e-02
-1.959651e-01,1.131405e-01,1.101134e-02
-2.621611e-01,1.513588e-01,3.624235e-02
-2.031047e-01,1.172625e-01,-3.057739e-02
-1.787865e-01,1.032224e-01,-1.490161e-02
-2.209887e-01,1.275879e-01,2.717980e-02
-2.518760e-01,1.454207e-01,8.141583e-03
-1.821661e-01,1.051737e-01,-3.377668e-02
-1.886945e-01,1.089428e-01,3.265817e-03
-2.525244e-01,1.457950e-01,3.768202e-02
-2.168546e-01,1.252011e-01,-2.303063e-02
-1.767221e-01,1.020305e-01,-2.232828e-02
-2.083301e-01,1.202794e-01,2.072937e-02
-2.629591e-01,1.518195e-01,2.394308e-02
-1.884164e-01,1.087822e-01,-3.551599e-02
-1.824828e-01,1.053565e-01,-5.029668e-03
-2.384359e-01,1.376610e-01,3.462762e-02
-2.334001e-01,1.347536e-01,-1.052061e-02
-1.775886e-01,1.025308e-01,-2.862301e-02
-1.981339e-01,1.143926e-01,1.313508e-02
-2.638253e-01,1.523196e-01,3.490333e-02
-1.996776e-01,1.152839e-01,-3.212282e-02
-1.794115e-01,1.035833e-01,-1.288440e-02
-2.245099e-01,1.296209e-01,2.881928e-02
-2.482925e-01,1.433518e-01,4.091357e-03
-1.810585e-01,1.045342e-01,-3.282838e-02
-1.906518e-01,1.100729e-01,5.420137e-03
-2.556628e-01,1.476070e-01,3.773102e-02
-2.128127e-01,1.228675e-01,-2.548139e-02
-1.771742e-01,1.022916e-01,-2.029773e-02
-2.117254e-01,1.222397e-01,2.261206e-02
-2.605053e-01,1.504028e-01,1.959051e-02
-1.861804e-01,1.074913e-01,-3.549015e-02
-1.838762e-01,1.061610e-01,-2.745913e-03
-2.424978e-01,1.400062e-01,3.589292e-02
-2.287886e-01,1.320911e-01,-1.441000e-02
-1.769277e-01,1.021493e-01,-2.715060e-02
-2.005159e-01,1.157679e-01,1.527035e-02
-2.648532e-01,1.529130e-01,3.293066e-02
-1.963286e-01,1.133503e-01,-3.347042e-02
-1.800655e-01,1.039609e-01,-1.082951e-02
-2.281215e-01,1.317060e-01,3.045892e-02
-2.445471e-01,1.411893e-01,1.077896e-04
-1.800317e-01,1.039414e-01,-3.180526e-02
-1.926164e-01,1.112071e-01,7.528090e-03
-2.584176e-01,1.491975e-01,3.746079e-02
-2.090189e-01,1.206771e-01,-2.759659e-02
-1.777535e-01,1.026260e-01,-1.825400e-02
-2.152003e-01,1.242460e-01,2.439038e-02
-2.574882e-01,1.486609e-01,1.517849e-02
-1.844022e-01,1.064647e-01,-3.505930e-02
-1.855533e-01,1.071293e-01,-4.519848e-04
-2.464878e-01,1.423098e-01,3.685365e-02
-2.241525e-01,1.294145e-01,-1.801243e-02
-1.765616e-01,1.019379e-01,-2.548258e-02
-2.031894e-01,1.173114e-01,1.738151e-02
-2.650108e-01,1.530041e-01,3.018044e-02
-1.931124e-01,1.114935e-01,-3.455523e-02
-1.808094e-01,1.043904e-01,-8.709149e-03
-2.318736e-01,1.338723e-01,3.209134e-02
-2.405809e-01,1.388994e-01,-3.875225e-03
-1.790528e-01,1.033762e-01,-3.070499e-02
-1.946090e-01,1.123576e-01,9.622020e-03
-2.608021e-01,1.505741e-01,3.685588e-02
-2.054140e-01,1.185958e-01,-2.945833e-02
-1.783740e-01,1.029843e-01,-1.622945e-02
-2.186854e-01,1.262580e-01,2.608701e-02
-2.541653e-01,1.467424e-01,1.088666e-02
-1.829765e-01,1.056415e-01,-3.434516e-02
-1.874157e-01,1.082045e-01,1.807741e-03
-2.502381e-01,1.444750e-01,3.746771e-02
-2.196741e-01,1.268289e-01,-2.118641e-02
-1.765503e-01,1.019314e-01,-2.362934e-02
-2.061901e-01,1.190439e-01,1.942796e-02
-2.641191e-01,1.524892e-01,2.663315e-02
-1.901540e-01,1.097855e-01,-3.527928e-02
-1.817313e-01,1.049226e-01,-6.514282e-03
-2.357832e-01,1.361295e-01,3.366495e-02
-2.363443e-01,1.364535e-01,-7.882532e-03
-1.781342e-01,1.028459e-01,-2.949814e-02
-1.966833e-01,1.135551e-01,1.173026e-02
-2.627858e-01,1.517194e-01,3.584838e-02
-2.019322e-01,1.165856e-01,-3.112256e-02
-1.789977e-01,1.033444e-01,-1.421830e-02
-2.221788e-01,1.282750e-01,2.773773e-02
-2.506736e-01,1.447265e-01,6.753363e-03
-1.817770e-01,1.049490e-01,-3.346431e-02
-1.893584e-01,1.093261e-01,4.004522e-03
-2.536339e-01,1.464356e-01,3.773497e-02
-2.154510e-01,1.243907e-01,-2.390646e-02
-1.768544e-01,1.021069e-01,-2.164361e-02
-2.094678e-01,1.209363e-01,2.138120e-02
-2.622091e-01,1.513865e-01,2.248884e-02
-1.876020e-01,1.083120e-01,-3.555822e-02
-1.829212e-01,1.056096e-01,-4.257467e-03
-2.398146e-01,1.384570e-01,3.508717e-02
-2.318484e-01,1.338577e-01,-1.186256e-02
-1.773376e-01,1.023859e-01,-2.814384e-02
-1.989151e-01,1.148437e-01,1.386053e-02
-2.642574e-01,1.525691e-01,3.431263e-02
-1.985301e-01,1.146214e-01,-3.260502e-02
-1.796280e-01,1.037083e-01,-1.219219e-02
-2.257238e-01,1.303217e-01,2.937585e-02
-2.470408e-01,1.426291e-01,2.734322e-03
-1.807033e-01,1.043291e-01,-3.248856e-02
-1.913183e-01,1.104577e-01,6.139920e-03
-2.566413e-01,1.481719e-01,3.767501e-02
-2.114986e-01,1.221088e-01,-2.623315e-02
-1.773623e-01,1.024001e-01,-1.960244e-02
-2.129017e-01,1.229189e-01,2.322722e-02
-2.595277e-01,1.498384e-01,1.808584e-02
-1.855289e-01,1.071152e-01,-3.538377e-02
-1.844183e-01,1.064740e-01,-1.965574e-03
-2.438698e-01,1.407983e-01,3.625655e-02
-2.272063e-01,1.311776e-01,-1.567509e-02
-1.767652e-01,1.020554e-01,-2.660614e-02
-2.013883e-01,1.162716e-01,1.599252e-02
-2.650160e-01,1.530070e-01,3.208837e-02
-1.952159e-01,1.127080e-01,-3.387300e-02
-1.803041e-01,1.040986e-01,-1.011739e-02
-2.293790e-01,1.324320e-01,3.101591e-02
-2.432283e-01,1.404280e-01,-1.242905e-03
-1.796940e-01,1.037464e-01,-3.144120e-02
-1.932881e-01,1.115949e-01,8.239375e-03
-2.592693e-01,1.496892e-01,3.729498e-02
-2.077766e-01,1.199599e-01,-2.825399e-02
-1.779626e-01,1.027467e-01,-1.756367e-02
-2.163843e-01,1.249295e-01,2.497432e-02
-2.563844e-01,1.480236e-01,1.370262e-02
-1.838845e-01,1.061658e-01,-3.484204e-02
-1.861713e-01,1.074861e-01,3.214930e-04
-2.477959e-01,1.430650e-01,3.710184e-02
-2.226067e-01,1.285220e-01,-1.914251e-02
-1.765175e-01,1.019124e-01,-2.487203e-02
-2.041725e-01,1.178791e-01,1.808568e-02
-2.648290e-01,1.528991e-01,2.905945e-02
-1.920704e-01,1.108919e-01,-3.484687e-02
-1.810980e-01,1.045570e-01,-7.971716e-03
-2.331847e-01,1.346292e-01,3.263649e-02
-2.391735e-01,1.380869e-01,-5.234518e-03
-1.787316e-01,1.031907e-01,-3.030894e-02
-1.953010e-01,1.127571e-01,1.033569e-02
-2.615251e-01,1.509916e-01,3.656401e-02
-2.042205e-01,1.179067e-01,-3.004406e-02
-1.785865e-01,1.031070e-01,-1.554588e-02
-2.198697e-01,1.269418e-01,2.665107e-02
-2.529948e-01,1.460666e-01,9.465764e-03
-1.825493e-01,1.053949e-01,-3.405994e-02
-1.880709e-01,1.085828e-01,2.561712e-03
-2.514344e-01,1.451657e-01,3.759649e-02
-2.182085e-01,1.259828e-01,-2.215953e-02
-1.766231e-01,1.019734e-01,-2.296579e-02
-2.072781e-01,1.196721e-01,2.010303e-02
-2.635750e-01,1.521751e-01,2.527597e-02
-1.892352e-01,1.092550e-01,-3.542649e-02
-1.821017e-01,1.051365e-01,-5.753345e-03
-2.371429e-01,1.369145e-01,3.417047e-02
-2.348426e-01,1.355864e-01,-9.243111e-03
-1.778451e-01,1.026789e-01,-2.905667e-02
-1.974196e-01,1.139803e-01,1.245198e-02
-2.633509e-01,1.520457e-01,3.539354e-02
-2.007686e-01,1.159138e-01,-3.164711e-02
-1.792099e-01,1.034669e-01,-1.353342e-02
-2.233747e-01,1.289654e-01,2.829436e-02
-2.494565e-01,1.440238e-01,5.378697e-03
-1.814020e-01,1.047325e-01,-3.314139e-02
-1.900239e-01,1.097103e-01,4.735913e-03
-2.546987e-01,1.470504e-01,3.775031e-02
-2.140795e-01,1.235989e-01,-2.473660e-02
-1.770103e-01,1.021970e-01,-2.095277e-02
-2.106234e-01,1.216034e-01,2.202043e-02
-2.613679e-01,1.509008e-01,2.100518e-02
-1.868443e-01,1.078746e-01,-3.554715e-02
-1.833957e-01,1.058836e-01,-3.481049e-03
-2.411959e-01,1.392545e-01,3.551722e-02
-2.302791e-01,1.329517e-01,-1.318561e-02
-1.771123e-01,1.022559e-01,-2.764331e-02
-1.997240e-01,1.153107e-01,1.458647e-02
-2.646069e-01,1.527709e-01,3.364203e-02
-1.973919e-01,1.139643e-01,-3.306300e-02
-1.798495e-01,1.038362e-01,-1.149427e-02
-2.269506e-01,1.310300e-01,2.993297e-02
-2.457694e-01,1.418950e-01,1.382039e-03
-1.803550e-01,1.041280e-01,-3.214082e-02
-1.919858e-01,1.108430e-01,6.855479e-03
-2.575760e-01,1.487116e-01,3.758237e-02
-2.102112e-01,1.213655e-01,-2.694976e-02
-1.775601e-01,1.025143e-01,-1.890769e-02
-2.140831e-01,1.236009e-01,2.383079e-02
-2.584983e-01,1.492441e-01,1.658494e-02
-1.849277e-01,1.067681e-01,-3.523458e-02
-1.849900e-01,1.068040e-01,-1.185618e-03
-2.452268e-01,1.415817e-01,3.658234e-02
-2.256294e-01,1.302672e-01,-1.689959e-02
-1.766413e-01,1.019839e-01,-2.603871e-02
-2.022972e-01,1.167963e-01,1.671013e-02
-2.650697e-01,1.530380e-01,3.115193e-02
-1.941219e-01,1.120764e-01,-3.424194e-02
-1.805565e-01,1.042443e-01,-9.396988e-03
-2.306537e-01,1.331680e-01,3.157108e-02
-2.418799e-01,1.396494e-01,-2.595864e-03
-1.793615e-01,1.035544e-01,-3.106747e-02
-1.939645e-01,1.119855e-01,8.950366e-03
-2.600783e-01,1.501563e-01,3.708911e-02
-2.065532e-01,1.192536e-01,-2.888504e-02
-1.781739e-01,1.028687e-01,-1.687603e-02
-2.175680e-01,1.256130e-01,2.555006e-02
-2.552530e-01,1.473704e-01,1.224468e-02
-1.834027e-01,1.058876e-01,-3.459720e-02
-1.868060e-01,1.078525e-01,1.089355e-03
-2.490701e-01,1.438007e-01,3.730925e-02
-2.210847e-01,1.276433e-01,-2.021954e-02
-1.765156e-01,1.019113e-01,-2.424121e-02
-2.051937e-01,1.184686e-01,1.878098e-02
-2.645220e-01,1.527219e-01,2.784927e-02
-1.910645e-01,1.103111e-01,-3.509265e-02
-1.814107e-01,1.047375e-01,-7.225634e-03
-2.345140e-01,1.353967e-01,3.317198e-02
