x,y,z
-2.222834e-01,1.283354e-01,-4.210911e-03
-2.049025e-01,1.183005e-01,-7.177637e-03
-2.218853e-01,1.281055e-01,1.057782e-02
-2.281130e-01,1.317011e-01,1.362835e-03
-2.057003e-01,1.187611e-01,-9.905297e-03
-2.160787e-01,1.247531e-01,7.315475e-03
-2.318365e-01,1.338509e-01,6.855468e-03
-2.085592e-01,1.204117e-01,-1.091179e-02
-2.110001e-01,1.218210e-01,3.144754e-03
-2.323092e-01,1.341238e-01,1.081143e-02
-2.133168e-01,1.231585e-01,-9.761233e-03
-2.072552e-01,1.196589e-01,-1.333694e-03
-2.295153e-01,1.325107e-01,1.238310e-02
-2.193892e-01,1.266644e-01,-6.371740e-03
-2.052063e-01,1.184759e-01,-5.530864e-03
-2.245028e-01,1.296167e-01,1.158404e-02
-2.256409e-01,1.302738e-01,-1.240973e-03
-2.050845e-01,1.184056e-01,-8.851179e-03
-2.186655e-01,1.262466e-01,8.941552e-03
-2.305067e-01,1.330831e-01,4.480009e-03
-2.070134e-01,1.195192e-01,-1.070290e-02
-2.131616e-01,1.230689e-01,5.105233e-03
-2.325291e-01,1.342507e-01,9.286830e-03
-2.109544e-01,1.217946e-01,-1.056532e-02
-2.087575e-01,1.205262e-01,6.932274e-04
-2.311350e-01,1.334459e-01,1.198408e-02
-2.165383e-01,1.250185e-01,-8.166513e-03
-2.059060e-01,1.188799e-01,-3.704603e-03
-2.269560e-01,1.310331e-01,1.221173e-02
-2.228842e-01,1.286823e-01,-3.718393e-03
-2.048903e-01,1.182935e-01,-7.495704e-03
-2.213254e-01,1.277823e-01,1.032395e-02
-2.285815e-01,1.319716e-01,1.913043e-03
-2.058838e-01,1.188671e-01,-1.008350e-02
-2.155524e-01,1.244493e-01,6.948274e-03
-2.320317e-01,1.339636e-01,7.317542e-03
-2.089353e-01,1.206289e-01,-1.089988e-02
-2.105796e-01,1.215782e-01,2.722932e-03
-2.321737e-01,1.340455e-01,1.106921e-02
-2.138512e-01,1.234670e-01,-9.532399e-03
-2.069835e-01,1.195020e-01,-1.754216e-03
-2.291128e-01,1.322783e-01,1.240313e-02
-2.199986e-01,1.270163e-01,-5.945322e-03
-2.051091e-01,1.184198e-01,-5.893697e-03
-2.239621e-01,1.293046e-01,1.140196e-02
-2.261896e-01,1.305907e-01,-6.996832e-04
-2.051790e-01,1.184601e-01,-9.099525e-03
-2.181123e-01,1.259272e-01,8.618065e-03
-2.308388e-01,1.332749e-01,4.999831e-03
-2.073044e-01,1.196873e-01,-1.078224e-02
-2.126866e-01,1.227947e-01,4.701131e-03
-2.325423e-01,1.342584e-01,9.646672e-03
-2.114241e-01,1.220657e-01,-1.043555e-02
-2.084143e-01,1.203281e-01,2.651961e-04
-2.308387e-01,1.332748e-01,1.211035e-02
-2.171278e-01,1.253588e-01,-7.823251e-03
-2.057274e-01,1.187767e-01,-4.100565e-03
-2.264601e-01,1.307468e-01,1.211418e-02
-2.234794e-01,1.290259e-01,-3.214722e-03
-2.048965e-01,1.182970e-01,-7.802877e-03
-2.207652e-01,1.274588e-01,1.005663e-02
-2.290294e-01,1.322302e-01,2.461240e-03
-2.060861e-01,1.189839e-01,-1.024558e-02
-2.150337e-01,1.241498e-01,6.573428e-03
-2.321952e-01,1.340579e-01,7.764067e-03
-2.093287e-01,1.208560e-01,-1.086794e-02
-2.101723e-01,1.213430e-01,2.298815e-03
-2.320085e-01,1.339501e-01,1.130444e-02
-2.143972e-01,1.237823e-01,-9.283034e-03
-2.067264e-01,1.193536e-01,-2.171658e-03
-2.286903e-01,1.320344e-01,1.240169e-02
-2.206086e-01,1.273684e-01,-5.503398e-03
-2.050294e-01,1.183738e-01,-6.248090e-03
-2.234154e-01,1.289889e-01,1.120373e-02
-2.267236e-01,1.308989e-01,-1.540792e-04
-2.052916e-01,1.185252e-01,-9.334069e-03
-2.175639e-01,1.256106e-01,8.284359e-03
-2.311441e-01,1.334511e-01,5.509876e-03
-2.076135e-01,1.198657e-01,-1.084305e-02
-2.122224e-01,1.225267e-01,4.292348e-03
-2.325241e-01,1.342478e-01,9.986063e-03
-2.119086e-01,1.223455e-01,-1.028490e-02
-2.080853e-01,1.201381e-01,-1.622008e-04
-2.305180e-01,1.330896e-01,1.221386e-02
-2.177231e-01,1.257025e-01,-7.461454e-03
-2.055648e-01,1.186829e-01,-4.490519e-03
-2.259528e-01,1.304539e-01,1.199786e-02
-2.240675e-01,1.293654e-01,-2.700970e-03
-2.049213e-01,1.183114e-01,-8.098649e-03
-2.202040e-01,1.271348e-01,9.776458e-03
-2.294560e-01,1.324765e-01,3.006093e-03
-2.063071e-01,1.191115e-01,-1.039108e-02
-2.145231e-01,1.238550e-01,6.191463e-03
-2.323281e-01,1.341347e-01,8.194102e-03
-2.097388e-01,1.210928e-01,-1.081576e-02
-2.097769e-01,1.211147e-01,1.872968e-03
-2.318141e-01,1.338380e-01,1.151689e-02
-2.149541e-01,1.241038e-01,-9.013339e-03
-2.064861e-01,1.192148e-01,-2.585571e-03
-2.282510e-01,1.317808e-01,1.237923e-02
-2.212176e-01,1.277201e-01,-5.046795e-03
-2.049676e-01,1.183381e-01,-6.593525e-03
-2.228639e-01,1.286705e-01,1.098989e-02
-2.272422e-01,1.311983e-01,3.946097e-04
-2.054232e-01,1.186012e-01,-9.554286e-03
-2.170206e-01,1.252969e-01,7.940986e-03
-2.314210e-01,1.336110e-01,6.008820e-03
-2.079405e-01,1.200545e-01,-1.088497e-02
-2.117693e-01,1.222651e-01,3.879403e-03
-2.324732e-01,1.342185e-01,1.030434e-02
-2.124074e-01,1.226335e-01,-1.011336e-02
-2.077713e-01,1.199568e-01,-5.884681e-04
-2.301739e-01,1.328910e-01,1.229480e-02
-2.183239e-01,1.260494e-01,-7.081584e-03
-2.054200e-01,1.185993e-01,-4.873974e-03
-2.254350e-01,1.301550e-01,1.186328e-02
-2.246470e-01,1.297000e-01,-2.178251e-03
-2.049639e-01,1.183359e-01,-8.382513e-03
-2.196447e-01,1.268119e-01,9.483963e-03
-2.298581e-01,1.327086e-01,3.546100e-03
-2.065468e-01,1.192498e-01,-1.051957e-02
-2.140212e-01,1.235652e-01,5.802898e-03
-2.324291e-01,1.341930e-01,8.606619e-03
-2.101654e-01,1.213390e-01,-1.074313e-02
-2.093954e-01,1.208945e-01,1.445825e-03
-2.315916e-01,1.337095e-01,1.170644e-02
-2.155210e-01,1.244311e-01,-8.723578e-03
-2.062612e-01,1.190850e-01,-2.995397e-03
-2.277941e-01,1.315170e-01,1.233611e-02
-2.218249e-01,1.280707e-01,-4.576341e-03
-2.049237e-01,1.183127e-01,-6.929491e-03
-2.223088e-01,1.283501e-01,1.076103e-02
-2.277444e-01,1.314883e-01,9.450742e-04
-2.055737e-01,1.186880e-01,-9.759694e-03
-2.164829e-01,1.249865e-01,7.588501e-03
-2.316685e-01,1.337538e-01,6.495410e-03
-2.082857e-01,1.202538e-01,-1.090762e-02
-2.113272e-01,1.220098e-01,3.462816e-03
-2.323915e-01,1.341713e-01,1.060106e-02
-2.129197e-01,1.229292e-01,-9.920980e-03
-2.074720e-01,1.197840e-01,-1.013091e-03
-2.298080e-01,1.326797e-01,1.235341e-02
-2.189289e-01,1.263986e-01,-6.684258e-03
-2.052916e-01,1.185252e-01,-5.250400e-03
-2.249079e-01,1.298507e-01,1.171099e-02
-2.252167e-01,1.300289e-01,-1.647730e-03
-2.050255e-01,1.183716e-01,-8.653937e-03
-2.190863e-01,1.264895e-01,9.179755e-03
-2.302367e-01,1.329272e-01,4.080031e-03
-2.068050e-01,1.193989e-01,-1.063060e-02
-2.135287e-01,1.232808e-01,5.408249e-03
-2.324979e-01,1.342327e-01,9.000723e-03
-2.106085e-01,1.215949e-01,-1.064984e-02
-2.090273e-01,1.206820e-01,1.017922e-03
-2.313417e-01,1.335652e-01,1.187303e-02
-2.160963e-01,1.247632e-01,-8.414138e-03
-2.060531e-01,1.189648e-01,-3.400651e-03
-2.273228e-01,1.312449e-01,1.227285e-02
-2.224291e-01,1.284195e-01,-4.092968e-03
-2.048980e-01,1.182979e-01,-7.255470e-03
-2.217501e-01,1.280275e-01,1.051774e-02
-2.282279e-01,1.317674e-01,1.495901e-03
-2.057431e-01,1.187858e-01,-9.949807e-03
-2.159512e-01,1.246795e-01,7.227456e-03
-2.318869e-01,1.338800e-01,6.968521e-03
-2.086488e-01,1.204634e-01,-1.091072e-02
-2.108974e-01,1.217617e-01,3.043053e-03
-2.322790e-01,1.341064e-01,1.087577e-02
-2.134448e-01,1.232324e-01,-9.707822e-03
-2.071882e-01,1.196202e-01,-1.435570e-03
-2.294197e-01,1.324555e-01,1.238992e-02
-2.195363e-01,1.267493e-01,-6.270164e-03
-2.051814e-01,1.184615e-01,-5.619294e-03
-2.243727e-01,1.295416e-01,1.154155e-02
-2.257750e-01,1.303512e-01,-1.110613e-03
-2.051058e-01,1.184179e-01,-8.912432e-03
-2.185314e-01,1.261692e-01,8.864346e-03
-2.305892e-01,1.331307e-01,4.606441e-03
-2.070818e-01,1.195588e-01,-1.072376e-02
-2.130460e-01,1.230022e-01,5.008027e-03
-2.325354e-01,1.342544e-01,9.375637e-03
-2.110665e-01,1.218593e-01,-1.053588e-02
-2.086732e-01,1.204775e-01,5.897615e-04
-2.310654e-01,1.334056e-01,1.201668e-02
-2.166802e-01,1.251004e-01,-8.085284e-03
-2.058613e-01,1.188541e-01,-3.800811e-03
-2.268373e-01,1.309646e-01,1.218990e-02
-2.230287e-01,1.287657e-01,-3.597657e-03
-2.048901e-01,1.182933e-01,-7.570954e-03
-2.211900e-01,1.277041e-01,1.026056e-02
-2.286916e-01,1.320351e-01,2.045746e-03
-2.059312e-01,1.188944e-01,-1.012415e-02
-2.154265e-01,1.243766e-01,6.858363e-03
-2.320737e-01,1.339878e-01,7.426889e-03
-2.090287e-01,1.206828e-01,-1.089401e-02
-2.104804e-01,1.215209e-01,2.620614e-03
-2.321364e-01,1.340240e-01,1.112814e-02
-2.139821e-01,1.235426e-01,-9.474012e-03
-2.069196e-01,1.194651e-01,-1.855381e-03
-2.290123e-01,1.322203e-01,1.240473e-02
-2.201457e-01,1.271012e-01,-5.839943e-03
-2.050881e-01,1.184077e-01,-5.980130e-03
-2.238305e-01,1.292286e-01,1.135552e-02
-2.263196e-01,1.306657e-01,-5.682095e-04
-2.052042e-01,1.184747e-01,-9.157497e-03
-2.179796e-01,1.258506e-01,8.538330e-03
-2.309152e-01,1.333189e-01,5.124036e-03
-2.073772e-01,1.197293e-01,-1.079866e-02
-2.125738e-01,1.227296e-01,4.602739e-03
-2.325411e-01,1.342577e-01,9.730601e-03
-2.115398e-01,1.221326e-01,-1.040106e-02
-2.083335e-01,1.202814e-01,1.618332e-04
-2.307639e-01,1.332316e-01,1.213745e-02
-2.172710e-01,1.254415e-01,-7.737511e-03
-2.056863e-01,1.187530e-01,-4.195365e-03
-2.263386e-01,1.306766e-01,1.208777e-02
-2.236223e-01,1.291084e-01,-3.091446e-03
-2.049011e-01,1.182997e-01,-7.875414e-03
-2.206297e-01,1.273806e-01,9.990078e-03
-2.291349e-01,1.322911e-01,2.593296e-03
-2.061381e-01,1.190139e-01,-1.028226e-02
-2.149097e-01,1.240782e-01,6.481750e-03
-2.322303e-01,1.340782e-01,7.869550e-03
-2.094265e-01,1.209124e-01,-1.085718e-02
-2.100751e-01,1.212869e-01,2.196066e-03
-2.319641e-01,1.339246e-01,1.135787e-02
-2.145307e-01,1.238594e-01,-9.219715e-03
-2.066671e-01,1.193193e-01,-2.272037e-03
-2.285857e-01,1.319740e-01,1.239817e-02
-2.207558e-01,1.274534e-01,-5.394376e-03
-2.050130e-01,1.183643e-01,-6.332407e-03
-2.232825e-01,1.289122e-01,1.115346e-02
-2.268502e-01,1.309720e-01,-2.172507e-05
-2.053216e-01,1.185425e-01,-9.388615e-03
-2.174320e-01,1.255344e-01,8.202248e-03
-2.312138e-01,1.334914e-01,5.631526e-03
-2.076910e-01,1.199105e-01,-1.085490e-02
-2.121119e-01,1.224628e-01,4.192921e-03
-2.325142e-01,1.342422e-01,1.006490e-02
-2.120279e-01,1.224143e-01,-1.024536e-02
-2.080080e-01,1.200935e-01,-2.653311e-04
-2.304372e-01,1.330430e-01,1.223549e-02
-2.178679e-01,1.257861e-01,-7.371278e-03
-2.055284e-01,1.186619e-01,-4.583802e-03
-2.258286e-01,1.303822e-01,1.196699e-02
-2.242085e-01,1.294469e-01,-2.575414e-03
-2.049296e-01,1.183162e-01,-8.168359e-03
-2.200686e-01,1.270567e-01,9.706883e-03
-2.295549e-01,1.325336e-01,3.137052e-03
-2.063636e-01,1.191441e-01,-1.042369e-02
-2.144012e-01,1.237846e-01,6.098142e-03
-2.323554e-01,1.341505e-01,8.295432e-03
-2.098403e-01,1.211513e-01,-1.080009e-02
-2.096835e-01,1.210608e-01,1.769841e-03
-2.317630e-01,1.338084e-01,1.156480e-02
-2.150902e-01,1.241824e-01,-8.945144e-03
-2.064300e-01,1.191824e-01,-2.684993e-03
-2.281420e-01,1.317178e-01,1.237068e-02
-2.213650e-01,1.278052e-01,-4.934309e-03
-2.049553e-01,1.183310e-01,-6.675602e-03
-2.227300e-01,1.285932e-01,1.093594e-02
-2.273654e-01,1.312695e-01,5.275404e-04
-2.054580e-01,1.186212e-01,-9.605294e-03
-2.168898e-01,1.252214e-01,7.856632e-03
-2.314833e-01,1.336470e-01,6.127572e-03
-2.080223e-01,1.201017e-01,-1.089221e-02
-2.116611e-01,1.222026e-01,3.779060e-03
-2.324562e-01,1.342086e-01,1.037803e-02
-2.125300e-01,1.227043e-01,-1.006878e-02
-2.076977e-01,1.199143e-01,-6.912546e-04
-2.300873e-01,1.328410e-01,1.231099e-02
-2.184696e-01,1.261335e-01,-6.987156e-03
-2.053871e-01,1.185803e-01,-4.965599e-03
-2.253084e-01,1.300819e-01,1.182808e-02
-2.247860e-01,1.297803e-01,-2.050691e-03
-2.049772e-01,1.183436e-01,-8.449257e-03
-2.195097e-01,1.267340e-01,9.411498e-03
-2.299520e-01,1.327629e-01,3.675749e-03
-2.066077e-01,1.192850e-01,-1.054800e-02
-2.139016e-01,1.234962e-01,5.708056e-03
-2.324483e-01,1.342041e-01,8.703563e-03
-2.102709e-01,1.214000e-01,-1.072248e-02
-2.093053e-01,1.208425e-01,1.342466e-03
-2.315336e-01,1.336760e-01,1.174880e-02
-2.156592e-01,1.245109e-01,-8.650597e-03
-2.062098e-01,1.190553e-01,-3.093779e-03
-2.276815e-01,1.314520e-01,1.232265e-02
-2.219716e-01,1.281554e-01,-4.460653e-03
-2.049160e-01,1.183083e-01,-7.009199e-03
-2.221740e-01,1.282722e-01,1.070354e-02
-2.278630e-01,1.315567e-01,1.078200e-03
-2.056133e-01,1.187109e-01,-9.807042e-03
-2.163536e-01,1.249118e-01,7.502026e-03
-2.317245e-01,1.337862e-01,6.611048e-03
-2.083717e-01,1.203034e-01,-1.091018e-02
-2.112222e-01,1.219492e-01,3.361646e-03
-2.323672e-01,1.341572e-01,1.066948e-02
-2.130455e-01,1.230019e-01,-9.871367e-03
-2.074020e-01,1.197436e-01,-1.115402e-03
-2.297159e-01,1.326265e-01,1.236424e-02
-2.190757e-01,1.264834e-01,-6.585680e-03
-2.052637e-01,1.185091e-01,-5.340259e-03
-2.247793e-01,1.297764e-01,1.167160e-02
-2.253528e-01,1.301075e-01,-1.518484e-03
-2.050433e-01,1.183818e-01,-8.717606e-03
-2.189519e-01,1.264119e-01,9.104538e-03
-2.303243e-01,1.329778e-01,4.207980e-03
-2.068705e-01,1.194367e-01,-1.065475e-02
-2.134115e-01,1.232132e-01,5.312009e-03
-2.325101e-01,1.342398e-01,9.093125e-03
-2.107177e-01,1.216579e-01,-1.062420e-02
-2.089404e-01,1.206318e-01,9.144633e-04
-2.312772e-01,1.335279e-01,1.190984e-02
-2.162366e-01,1.248443e-01,-8.336434e-03
-2.060051e-01,1.189371e-01,-3.497837e-03
-2.272068e-01,1.311779e-01,1.225459e-02
-2.225748e-01,1.285036e-01,-3.974305e-03
-2.048942e-01,1.182957e-01,-7.332693e-03
