x,y,z
-2.295335e-01,1.325212e-01,-1.667551e-02
-1.720332e-01,9.932343e-02,-3.155032e-02
-1.929432e-01,1.113958e-01,1.302572e-02
-2.673910e-01,1.543782e-01,4.322655e-02
-2.076309e-01,1.198758e-01,-3.138608e-02
-1.716884e-01,9.912436e-02,-2.259432e-02
-2.064350e-01,1.191853e-01,2.312004e-02
-2.705219e-01,1.561859e-01,3.023919e-02
-1.884062e-01,1.087764e-01,-3.928400e-02
-1.753341e-01,1.012292e-01,-1.089134e-02
-2.263728e-01,1.306964e-01,3.315765e-02
-2.540957e-01,1.467022e-01,6.171577e-03
-1.776082e-01,1.025422e-01,-3.873009e-02
-1.814544e-01,1.047628e-01,1.299158e-04
-2.467003e-01,1.424325e-01,4.086138e-02
-2.311754e-01,1.334692e-01,-1.531296e-02
-1.723566e-01,9.951012e-02,-3.200025e-02
-1.923183e-01,1.110350e-01,1.231418e-02
-2.664929e-01,1.538598e-01,4.330800e-02
-2.087387e-01,1.205154e-01,-3.075237e-02
-1.716149e-01,9.908189e-02,-2.311972e-02
-2.056079e-01,1.187077e-01,2.260396e-02
-2.708403e-01,1.563697e-01,3.125783e-02
-1.892087e-01,1.092397e-01,-3.900501e-02
-1.752753e-01,1.011953e-01,-1.133621e-02
-2.256383e-01,1.302723e-01,3.274561e-02
-2.546400e-01,1.470165e-01,6.867206e-03
-1.778808e-01,1.026995e-01,-3.877252e-02
-1.813223e-01,1.046865e-01,-1.429634e-04
-2.462210e-01,1.421558e-01,4.065776e-02
-2.315699e-01,1.336969e-01,-1.493160e-02
-1.725179e-01,9.960328e-02,-3.203479e-02
-1.922934e-01,1.110206e-01,1.218323e-02
-2.662913e-01,1.537433e-01,4.318286e-02
-2.087414e-01,1.205169e-01,-3.068797e-02
-1.717439e-01,9.915639e-02,-2.301140e-02
-2.058253e-01,1.188333e-01,2.265752e-02
-2.705970e-01,1.562293e-01,3.087737e-02
-1.889942e-01,1.091159e-01,-3.900167e-02
-1.754434e-01,1.012923e-01,-1.108863e-02
-2.261154e-01,1.305478e-01,3.290605e-02
-2.540083e-01,1.466517e-01,6.245613e-03
-1.777618e-01,1.026308e-01,-3.853023e-02
-1.817570e-01,1.049375e-01,2.921936e-04
-2.470685e-01,1.426451e-01,4.081543e-02
-2.304576e-01,1.330547e-01,-1.579816e-02
-1.724014e-01,9.953597e-02,-3.163587e-02
-1.928839e-01,1.113616e-01,1.272305e-02
-2.669296e-01,1.541119e-01,4.294216e-02
-2.076382e-01,1.198800e-01,-3.123720e-02
-1.719861e-01,9.929625e-02,-2.234519e-02
-2.069389e-01,1.194762e-01,2.324099e-02
-2.699285e-01,1.558433e-01,2.935826e-02
-1.879480e-01,1.085118e-01,-3.925077e-02
-1.757269e-01,1.014560e-01,-1.033034e-02
-2.274628e-01,1.313257e-01,3.351450e-02
-2.526230e-01,1.458520e-01,4.751155e-03
-1.773516e-01,1.023940e-01,-3.815065e-02
-1.824757e-01,1.053524e-01,1.139531e-03
-2.486514e-01,1.435589e-01,4.120162e-02
-2.286414e-01,1.320062e-01,-1.725889e-02
-1.721129e-01,9.936944e-02,-3.108169e-02
-1.936737e-01,1.118176e-01,1.353445e-02
-2.678813e-01,1.546613e-01,4.269206e-02
-2.062223e-01,1.190625e-01,-3.198313e-02
-1.721860e-01,9.941161e-02,-2.158177e-02
-2.081880e-01,1.201974e-01,2.394077e-02
-2.692139e-01,1.554307e-01,2.773346e-02
-1.868623e-01,1.078850e-01,-3.953818e-02
-1.759255e-01,1.015706e-01,-9.616299e-03
-2.286974e-01,1.320385e-01,3.412299e-02
-2.514808e-01,1.451925e-01,3.479123e-03
-1.769559e-01,1.021655e-01,-3.789879e-02
-1.829647e-01,1.056347e-01,1.786735e-03
-2.498238e-01,1.442358e-01,4.153336e-02
-2.274413e-01,1.313133e-01,-1.824983e-02
-1.718615e-01,9.922427e-02,-3.077483e-02
-1.940853e-01,1.120552e-01,1.402790e-02
-2.684721e-01,1.550024e-01,4.263306e-02
-2.055246e-01,1.186597e-01,-3.239008e-02
-1.721916e-01,9.941488e-02,-2.128301e-02
-2.086474e-01,1.204626e-01,2.424741e-02
-2.690400e-01,1.553303e-01,2.721010e-02
-1.864786e-01,1.076634e-01,-3.969159e-02
-1.758882e-01,1.015491e-01,-9.453577e-03
-2.289367e-01,1.321766e-01,3.430474e-02
-2.514274e-01,1.451617e-01,3.335570e-03
-1.768433e-01,1.021005e-01,-3.797871e-02
-1.828511e-01,1.055691e-01,1.760309e-03
-2.497473e-01,1.441917e-01,4.159674e-02
-2.276886e-01,1.314561e-01,-1.811268e-02
-1.717991e-01,9.918828e-02,-3.093907e-02
-1.938221e-01,1.119032e-01,1.386918e-02
-2.683510e-01,1.549325e-01,4.286988e-02
-2.060354e-01,1.189546e-01,-3.219154e-02
-1.719832e-01,9.929453e-02,-2.167475e-02
-2.079594e-01,1.200654e-01,2.393963e-02
-2.696066e-01,1.556575e-01,2.820348e-02
-1.870423e-01,1.079889e-01,-3.962720e-02
-1.756360e-01,1.014035e-01,-9.953385e-03
-2.280135e-01,1.316436e-01,3.393647e-02
-2.525063e-01,1.457846e-01,4.417779e-03
-1.770892e-01,1.022425e-01,-3.834156e-02
-1.822065e-01,1.051970e-01,1.072811e-03
-2.484554e-01,1.434458e-01,4.133823e-02
-2.292359e-01,1.323494e-01,-1.691443e-02
-1.719853e-01,9.929574e-02,-3.145997e-02
-1.930712e-01,1.114697e-01,1.315817e-02
-2.675503e-01,1.544702e-01,4.319052e-02
-2.074011e-01,1.197431e-01,-3.150885e-02
-1.717195e-01,9.914230e-02,-2.247193e-02
-2.066338e-01,1.193001e-01,2.323353e-02
-2.704202e-01,1.561272e-01,2.998083e-02
-1.882201e-01,1.086689e-01,-3.933873e-02
-1.753637e-01,1.012463e-01,-1.077352e-02
-2.265745e-01,1.308129e-01,3.325947e-02
-2.539164e-01,1.465987e-01,5.963803e-03
-1.775402e-01,1.025029e-01,-3.869520e-02
-1.815272e-01,1.048048e-01,2.320247e-04
-2.468884e-01,1.425411e-01,4.092001e-02
-2.309779e-01,1.333552e-01,-1.548196e-02
-1.723105e-01,9.948349e-02,-3.195220e-02
-1.923832e-01,1.110725e-01,1.239705e-02
-2.666006e-01,1.539219e-01,4.331117e-02
-2.086257e-01,1.204501e-01,-3.082253e-02
-1.716118e-01,9.908010e-02,-2.307533e-02
-2.056738e-01,1.187458e-01,2.265202e-02
-2.708308e-01,1.563642e-01,3.118615e-02
-1.891434e-01,1.092020e-01,-3.903404e-02
-1.752686e-01,1.011914e-01,-1.130986e-02
-2.256767e-01,1.302945e-01,3.277521e-02
-2.546326e-01,1.470122e-01,6.843439e-03
-1.778622e-01,1.026888e-01,-3.878651e-02
-1.813029e-01,1.046753e-01,-1.481336e-04
-2.462055e-01,1.421468e-01,4.066618e-02
-2.316143e-01,1.337226e-01,-1.490401e-02
-1.725109e-01,9.959920e-02,-3.206136e-02
-1.922513e-01,1.109963e-01,1.215542e-02
-2.662613e-01,1.537260e-01,4.321191e-02
-2.088244e-01,1.205648e-01,-3.065238e-02
-1.717134e-01,9.913875e-02,-2.307218e-02
-2.057205e-01,1.187728e-01,2.260814e-02
-2.706693e-01,1.562710e-01,3.102882e-02
-1.890971e-01,1.091752e-01,-3.898153e-02
-1.754049e-01,1.012700e-01,-1.117153e-02
-2.259645e-01,1.304607e-01,3.284318e-02
-2.541768e-01,1.467490e-01,6.422770e-03
-1.778058e-01,1.026562e-01,-3.858274e-02
-1.816587e-01,1.048807e-01,1.840162e-04
-2.468632e-01,1.425265e-01,4.076943e-02
-2.307093e-01,1.332001e-01,-1.559744e-02
-1.724360e-01,9.955600e-02,-3.171862e-02
-1.927640e-01,1.112923e-01,1.260559e-02
-2.667913e-01,1.540320e-01,4.298459e-02
-2.078594e-01,1.200077e-01,-3.112356e-02
-1.719463e-01,9.927324e-02,-2.247131e-02
-2.067303e-01,1.193558e-01,2.312802e-02
-2.700508e-01,1.559139e-01,2.963710e-02
-1.881379e-01,1.086215e-01,-3.920327e-02
-1.756824e-01,1.014303e-01,-1.046239e-02
-2.272305e-01,1.311916e-01,3.340583e-02
-2.528523e-01,1.459843e-01,5.001231e-03
-1.774238e-01,1.024357e-01,-3.820897e-02
-1.823649e-01,1.052884e-01,1.003171e-03
-2.483996e-01,1.434136e-01,4.113730e-02
-2.289180e-01,1.321659e-01,-1.703519e-02
-1.721611e-01,9.939726e-02,-3.116181e-02
-1.935615e-01,1.117528e-01,1.341441e-02
-2.677426e-01,1.545812e-01,4.272460e-02
-2.064200e-01,1.191766e-01,-3.187678e-02
-1.721648e-01,9.939939e-02,-2.168291e-02
-2.080243e-01,1.201029e-01,2.384598e-02
-2.693029e-01,1.554821e-01,2.794039e-02
-1.869998e-01,1.079644e-01,-3.949906e-02
-1.759078e-01,1.015604e-01,-9.700976e-03
-2.285540e-01,1.319557e-01,3.404782e-02
-2.516017e-01,1.452623e-01,3.618950e-03
-1.770041e-01,1.021934e-01,-3.791916e-02
-1.829229e-01,1.056106e-01,1.722552e-03
-2.497104e-01,1.441704e-01,4.149544e-02
-2.275443e-01,1.313727e-01,-1.816052e-02
-1.718912e-01,9.924144e-02,-3.079377e-02
-1.940634e-01,1.120425e-01,1.399004e-02
-2.684225e-01,1.549738e-01,4.262214e-02
-2.055570e-01,1.186784e-01,-3.236393e-02
-1.722065e-01,9.942344e-02,-2.128408e-02
-2.086522e-01,1.204654e-01,2.423927e-02
-2.690153e-01,1.553160e-01,2.718919e-02
-1.864760e-01,1.076620e-01,-3.968026e-02
-1.759112e-01,1.015624e-01,-9.432665e-03
-2.289814e-01,1.322025e-01,3.431367e-02
-2.513503e-01,1.451172e-01,3.268637e-03
-1.768365e-01,1.020966e-01,-3.794267e-02
-1.829118e-01,1.056042e-01,1.815016e-03
-2.498517e-01,1.442520e-01,4.160879e-02
-2.275479e-01,1.313748e-01,-1.821498e-02
-1.717927e-01,9.918454e-02,-3.088273e-02
-1.939062e-01,1.119518e-01,1.393833e-02
-2.684191e-01,1.549718e-01,4.281803e-02
-2.058802e-01,1.188650e-01,-3.226237e-02
-1.720252e-01,9.931879e-02,-2.157343e-02
-2.081323e-01,1.201652e-01,2.402478e-02
-2.694822e-01,1.555856e-01,2.796444e-02
-1.868975e-01,1.079053e-01,-3.965374e-02
-1.756831e-01,1.014307e-01,-9.840264e-03
-2.282173e-01,1.317613e-01,3.402507e-02
-2.522874e-01,1.456582e-01,4.189611e-03
-1.770303e-01,1.022085e-01,-3.827643e-02
-1.823254e-01,1.052656e-01,1.207908e-03
-2.487078e-01,1.435915e-01,4.139633e-02
-2.289435e-01,1.321806e-01,-1.714682e-02
-1.719412e-01,9.927031e-02,-3.136881e-02
-1.932007e-01,1.115445e-01,1.328922e-02
-2.677058e-01,1.545600e-01,4.314899e-02
-2.071676e-01,1.196083e-01,-3.163136e-02
-1.717545e-01,9.916250e-02,-2.234417e-02
-2.068427e-01,1.194207e-01,2.335038e-02
-2.703073e-01,1.560620e-01,2.970684e-02
-1.880268e-01,1.085573e-01,-3.939305e-02
-1.753984e-01,1.012663e-01,-1.064830e-02
-2.267906e-01,1.309376e-01,3.336638e-02
-2.537189e-01,1.464847e-01,5.738491e-03
-1.774688e-01,1.024616e-01,-3.865331e-02
-1.816121e-01,1.048538e-01,3.462826e-04
-2.470996e-01,1.426630e-01,4.098298e-02
-2.307513e-01,1.332243e-01,-1.567358e-02
-1.722610e-01,9.945493e-02,-3.189410e-02
-1.924629e-01,1.111185e-01,1.249357e-02
-2.667262e-01,1.539945e-01,4.330924e-02
-2.084862e-01,1.203696e-01,-3.090613e-02
-1.716140e-01,9.908139e-02,-2.301516e-02
-2.057659e-01,1.187990e-01,2.271413e-02
-2.708041e-01,1.563488e-01,3.107851e-02
-1.890521e-01,1.091493e-01,-3.907009e-02
-1.752677e-01,1.011909e-01,-1.126582e-02
-2.257460e-01,1.303345e-01,3.281929e-02
-2.545954e-01,1.469907e-01,6.785806e-03
-1.778336e-01,1.026723e-01,-3.879299e-02
-1.812985e-01,1.046727e-01,-1.348511e-04
-2.462247e-01,1.421579e-01,4.068398e-02
-2.316190e-01,1.337253e-01,-1.490962e-02
-1.724966e-01,9.959094e-02,-3.207621e-02
-1.922260e-01,1.109817e-01,1.214568e-02
-2.662546e-01,1.537221e-01,4.323796e-02
-2.088771e-01,1.205952e-01,-3.063363e-02
-1.716858e-01,9.912284e-02,-2.311736e-02
-2.056407e-01,1.187267e-01,2.257344e-02
-2.707279e-01,1.563048e-01,3.114778e-02
-1.891759e-01,1.092208e-01,-3.896864e-02
-1.753701e-01,1.012500e-01,-1.123953e-02
-2.258392e-01,1.303883e-01,3.279325e-02
-2.543227e-01,1.468333e-01,6.573673e-03
-1.778413e-01,1.026767e-01,-3.863073e-02
-1.815700e-01,1.048295e-01,8.855899e-05
-2.466791e-01,1.424203e-01,4.073016e-02
-2.309377e-01,1.333319e-01,-1.541627e-02
-1.724652e-01,9.957280e-02,-3.179571e-02
-1.926507e-01,1.112269e-01,1.249782e-02
-2.666616e-01,1.539572e-01,4.302537e-02
-2.080674e-01,1.201278e-01,-3.101749e-02
-1.719063e-01,9.925017e-02,-2.259241e-02
-2.065294e-01,1.192398e-01,2.302031e-02
-2.701689e-01,1.559821e-01,2.990750e-02
-1.883233e-01,1.087285e-01,-3.915747e-02
-1.756371e-01,1.014041e-01,-1.059321e-02
-2.269997e-01,1.310584e-01,3.329921e-02
-2.530835e-01,1.461178e-01,5.252417e-03
-1.774946e-01,1.024766e-01,-3.826951e-02
-1.822494e-01,1.052217e-01,8.644871e-04
-2.481434e-01,1.432657e-01,4.107277e-02
-2.292058e-01,1.323320e-01,-1.680300e-02
-1.722092e-01,9.942501e-02,-3.124690e-02
-1.934419e-01,1.116837e-01,1.328803e-02
-2.675945e-01,1.544958e-01,4.276055e-02
-2.066324e-01,1.192993e-01,-3.176345e-02
-1.721388e-01,9.938441e-02,-2.179427e-02
-2.078431e-01,1.199983e-01,2.374264e-02
-2.694046e-01,1.555408e-01,2.817230e-02
-1.871533e-01,1.080530e-01,-3.945698e-02
-1.758842e-01,1.015468e-01,-9.798558e-03
-2.283872e-01,1.318594e-01,3.396276e-02
-2.517492e-01,1.453474e-01,3.785864e-03
-1.770590e-01,1.022250e-01,-3.794775e-02
-1.828665e-01,1.055780e-01,1.641875e-03
-2.495669e-01,1.440875e-01,4.145123e-02
-2.276831e-01,1.314529e-01,-1.804344e-02
-1.719253e-01,9.926111e-02,-3.082465e-02
-1.940245e-01,1.120201e-01,1.393581e-02
-2.683551e-01,1.549349e-01,4.261924e-02
-2.056204e-01,1.187150e-01,-3.232254e-02
-1.722155e-01,9.942864e-02,-2.130312e-02
-2.086271e-01,1.204509e-01,2.421528e-02
-2.690101e-01,1.553130e-01,2.720809e-02
-1.864977e-01,1.076745e-01,-3.966380e-02
-1.759282e-01,1.015722e-01,-9.429303e-03
-2.289952e-01,1.322104e-01,3.430826e-02
-2.513048e-01,1.450909e-01,3.234849e-03
-1.768392e-01,1.020981e-01,-3.791487e-02
-1.829574e-01,1.056305e-01,1.851386e-03
-2.499238e-01,1.442936e-01,4.161259e-02
-2.274434e-01,1.313145e-01,-1.828811e-02
-1.717926e-01,9.918452e-02,-3.083684e-02
-1.939758e-01,1.119920e-01,1.399190e-02
-2.684716e-01,1.550021e-01,4.277062e-02
-2.057499e-01,1.187898e-01,-3.231949e-02
-1.720649e-01,9.934170e-02,-2.148487e-02
-2.082849e-01,1.202533e-01,2.409777e-02
-2.693674e-01,1.555193e-01,2.775113e-02
-1.867711e-01,1.078323e-01,-3.967422e-02
-1.757289e-01,1.014571e-01,-9.737773e-03
-2.284039e-01,1.318690e-01,3.410382e-02
-2.520815e-01,1.455393e-01,3.978051e-03
-1.769780e-01,1.021783e-01,-3.821236e-02
-1.824407e-01,1.053322e-01,1.336345e-03
-2.489480e-01,1.437302e-01,4.144902e-02
-2.286624e-01,1.320183e-01,-1.736815e-02
-1.719020e-01,9.924768e-02,-3.127870e-02
-1.933290e-01,1.116185e-01,1.341639e-02
-2.678535e-01,1.546453e-01,4.310241e-02
-2.069351e-01,1.194740e-01,-3.175121e-02
-1.717932e-01,9.918485e-02,-2.221366e-02
-2.070574e-01,1.195446e-01,2.346829e-02
-2.701853e-01,1.559916e-01,2.942263e-02
-1.878311e-01,1.084444e-01,-3.944550e-02
-1.754372e-01,1.012887e-01,-1.051809e-02
