=>> PBS: job killed: walltime 259215 exceeded limit 259200
[mpiexec@zarate-0c.cnca] HYDT_bscd_pbs_wait_for_completion (tools/bootstrap/external/pbs_wait.c:67): tm_poll(obit_event) failed with TM error 17002
[mpiexec@zarate-0c.cnca] HYDT_bsci_wait_for_completion (tools/bootstrap/src/bsci_wait.c:23): launcher returned error waiting for completion
[mpiexec@zarate-0c.cnca] HYD_pmci_wait_for_completion (pm/pmiserv/pmiserv_pmci.c:218): launcher returned error waiting for completion
[mpiexec@zarate-0c.cnca] main (ui/mpich/mpiexec.c:344): process manager error waiting for completion
