x,y,z
2.269201e-01,2.710505e-20,-2.449530e-02
2.060237e-01,2.710505e-20,7.918035e-03
2.593886e-01,0,2.315154e-02
2.758082e-01,0,-1.829564e-02
2.099502e-01,0,-1.440373e-02
2.176840e-01,-1.084202e-19,2.090138e-02
2.913984e-01,0,9.564262e-03
2.404063e-01,1.355253e-20,-2.506498e-02
2.055622e-01,0,9.290326e-04
2.442539e-01,0,2.488668e-02
2.886158e-01,1.084202e-19,-1.163384e-02
2.158836e-01,2.168404e-19,-1.960327e-02
2.115114e-01,1.084202e-19,1.592135e-02
2.797644e-01,0,1.656708e-02
2.550151e-01,0,-2.386181e-02
2.057014e-01,-5.421011e-20,-5.981852e-03
2.303905e-01,0,2.491756e-02
2.965950e-01,0,-2.906346e-03
2.238354e-01,0,-2.380583e-02
2.066625e-01,0,9.816915e-03
2.639263e-01,0,2.217039e-02
2.715043e-01,0,-1.992026e-02
2.085037e-01,0,-1.277483e-02
2.196998e-01,1.084202e-19,2.212462e-02
2.938276e-01,0,7.280763e-03
2.365905e-01,0,-2.513631e-02
2.055636e-01,0,2.801014e-03
2.481761e-01,-1.084202e-19,2.460918e-02
2.855446e-01,0,-1.355715e-02
2.141995e-01,0,-1.826140e-02
2.131198e-01,0,1.735128e-02
2.833549e-01,5.421011e-20,1.477531e-02
2.508371e-01,-1.084202e-19,-2.436274e-02
2.055837e-01,0,-4.055028e-03
2.340911e-01,0,2.510906e-02
2.951608e-01,0,-5.628839e-03
2.212064e-01,-5.421011e-20,-2.286025e-02
2.076666e-01,0,1.163414e-02
2.685219e-01,0,2.089800e-02
2.669638e-01,-5.421011e-20,-2.136124e-02
2.072862e-01,0,-1.102801e-02
2.220499e-01,-1.084202e-19,2.320714e-02
2.957374e-01,-2.710505e-20,4.732107e-03
2.328176e-01,0,-2.506649e-02
2.056080e-01,5.421011e-20,4.706459e-03
2.522349e-01,0,2.421192e-02
2.821742e-01,0,-1.539055e-02
2.125698e-01,0,-1.687350e-02
2.147635e-01,0,1.872175e-02
2.866193e-01,0,1.291623e-02
2.468317e-01,1.694066e-21,-2.471526e-02
2.055607e-01,5.421011e-20,-2.161913e-03
2.378839e-01,0,2.512571e-02
2.930506e-01,0,-8.084489e-03
2.189836e-01,-2.710505e-20,-2.172093e-02
2.089763e-01,0,1.334153e-02
2.730010e-01,0,1.938436e-02
2.623711e-01,0,-2.253675e-02
2.064050e-01,0,-9.179069e-03
2.248330e-01,1.084202e-19,2.407054e-02
2.968825e-01,5.421011e-20,1.931985e-03
2.291774e-01,1.084202e-19,-2.480253e-02
2.057818e-01,0,6.640631e-03
2.564791e-01,0,2.364740e-02
2.784623e-01,0,-1.716245e-02
2.109735e-01,0,-1.541703e-02
2.164774e-01,0,2.004997e-02
2.895948e-01,1.084202e-19,1.095051e-02
2.429410e-01,0,-2.495819e-02
2.055623e-01,-5.421011e-20,-2.976152e-04
2.417082e-01,0,2.501544e-02
2.904875e-01,-2.710505e-20,-1.028796e-02
2.170535e-01,0,-2.046643e-02
2.104722e-01,0,1.493087e-02
2.771939e-01,0,1.771702e-02
2.578811e-01,1.084202e-19,-2.342054e-02
2.058840e-01,0,-7.261845e-03
2.280628e-01,0,2.466767e-02
2.970491e-01,0,-9.980231e-04
2.258223e-01,-5.421011e-20,-2.429169e-02
2.062006e-01,0,8.569874e-03
2.609152e-01,0,2.285095e-02
2.743816e-01,1.084202e-19,-1.886262e-02
2.094411e-01,0,-1.386358e-02
2.183387e-01,0,2.132804e-02
2.922694e-01,0,8.815762e-03
2.391070e-01,0,-2.510243e-02
2.055607e-01,0,1.562128e-03
2.455749e-01,0,2.480397e-02
2.876036e-01,0,-1.230043e-02
2.153020e-01,-5.421011e-20,-1.915187e-02
2.120545e-01,0,1.641548e-02
2.810237e-01,1.084202e-19,1.596482e-02
2.535738e-01,0,-2.405211e-02
2.056447e-01,-2.710505e-20,-5.324371e-03
2.316298e-01,0,2.500581e-02
2.962000e-01,-1.084202e-19,-3.858474e-03
2.228916e-01,0,-2.351106e-02
2.069637e-01,0,1.044517e-02
2.654884e-01,0,2.176975e-02
2.699797e-01,0,-2.043502e-02
2.080584e-01,-1.084202e-19,-1.219426e-02
2.204547e-01,0,2.251221e-02
2.945456e-01,0,6.445880e-03
2.353014e-01,-1.084202e-19,-2.513079e-02
2.055701e-01,-1.084202e-19,3.444215e-03
2.495366e-01,0,2.448950e-02
2.844346e-01,-1.084202e-19,-1.418799e-02
2.136418e-01,5.421011e-20,-1.779589e-02
2.136737e-01,1.084202e-19,1.782229e-02
2.844986e-01,0,1.415259e-02
2.494594e-01,-1.084202e-19,-2.449665e-02
2.055698e-01,1.084202e-19,-3.407762e-03
2.353739e-01,0,2.513158e-02
2.945071e-01,0,-6.493889e-03
2.204109e-01,1.084202e-19,-2.249081e-02
2.080825e-01,0,1.222744e-02
2.700663e-01,0,2.040657e-02
2.654002e-01,0,-2.179328e-02
2.069453e-01,-1.084202e-19,-1.040997e-02
2.229431e-01,1.084202e-19,2.352852e-02
2.962255e-01,-6.776264e-21,3.805369e-03
2.315594e-01,0,-2.500149e-02
2.056473e-01,0,5.361455e-03
2.536549e-01,1.084202e-19,2.404194e-02
2.809541e-01,1.355253e-20,-1.599901e-02
2.120234e-01,1.084202e-19,-1.638784e-02
2.153346e-01,0,1.917748e-02
2.876618e-01,0,1.226317e-02
2.455000e-01,0,-2.480896e-02
2.055613e-01,0,-1.526296e-03
2.391806e-01,-1.084202e-19,2.510064e-02
2.922217e-01,0,-8.858747e-03
2.183016e-01,0,-2.130414e-02
2.094691e-01,0,1.389447e-02
2.744634e-01,0,1.883094e-02
2.608287e-01,2.710505e-20,-2.286880e-02
2.061899e-01,0,-8.533186e-03
2.258834e-01,0,2.430401e-02
2.970555e-01,-1.084202e-19,9.417931e-04
2.279971e-01,0,-2.465875e-02
2.058906e-01,0,7.299008e-03
2.579661e-01,6.776264e-21,2.340613e-02
2.771170e-01,0,-1.774996e-02
2.104428e-01,0,-1.490140e-02
2.170886e-01,-1.084202e-19,2.049118e-02
2.905397e-01,0,1.024770e-02
2.416349e-01,0,-2.501853e-02
2.055628e-01,1.084202e-19,3.332585e-04
2.430152e-01,0,2.495443e-02
2.895407e-01,0,-1.098959e-02
2.164438e-01,0,-2.002486e-02
2.110040e-01,1.084202e-19,1.544579e-02
2.785368e-01,0,1.712903e-02
2.563956e-01,1.084202e-19,-2.366020e-02
2.057770e-01,0,-6.603396e-03
2.292451e-01,0,2.480978e-02
2.968692e-01,-5.421011e-20,-1.987519e-03
2.247749e-01,0,-2.405644e-02
2.064182e-01,1.084202e-19,9.215343e-03
2.624584e-01,0,2.251698e-02
2.729170e-01,0,-1.941515e-02
2.089484e-01,-5.421011e-20,-1.330992e-02
2.190231e-01,0,2.174411e-02
2.930955e-01,1.084202e-19,8.039898e-03
2.378108e-01,2.710505e-20,-2.512671e-02
2.055612e-01,1.084202e-19,2.197911e-03
2.469067e-01,0,2.470963e-02
2.865597e-01,0,-1.295273e-02
2.147309e-01,0,-1.869591e-02
2.126012e-01,0,1.690065e-02
2.822418e-01,0,1.535598e-02
2.521556e-01,0,-2.422092e-02
2.056068e-01,0,-4.669544e-03
2.328896e-01,6.776264e-21,2.506945e-02
2.957068e-01,1.084202e-19,-4.783590e-03
2.220004e-01,0,-2.318824e-02
2.073066e-01,-2.710505e-20,1.106258e-02
2.670521e-01,0,2.133587e-02
2.684343e-01,-5.421011e-20,-2.092495e-02
2.076440e-01,5.421011e-20,-1.160024e-02
2.212532e-01,6.776264e-21,2.288044e-02
2.951957e-01,-2.710505e-20,5.579013e-03
2.340185e-01,0,-2.510724e-02
2.055847e-01,-2.710505e-20,4.091723e-03
2.509157e-01,1.084202e-19,2.435469e-02
2.832893e-01,0,-1.481025e-02
2.130886e-01,0,-1.732449e-02
2.142313e-01,0,1.828753e-02
2.856058e-01,-1.084202e-19,1.352125e-02
2.480997e-01,0,-2.461553e-02
2.055629e-01,0,-2.764812e-03
2.366634e-01,-5.421011e-20,2.513613e-02
2.937850e-01,0,-7.326990e-03
2.196585e-01,0,-2.210220e-02
2.085302e-01,-6.776264e-21,1.280719e-02
2.715894e-01,0,1.989052e-02
2.638378e-01,-1.084202e-19,-2.219202e-02
2.066474e-01,0,-9.781093e-03
2.238899e-01,0,2.382163e-02
2.966146e-01,-1.355253e-20,2.851842e-03
2.303212e-01,1.084202e-19,-2.491180e-02
2.057058e-01,0,6.019034e-03
2.550968e-01,0,2.385038e-02
2.796922e-01,0,-1.660090e-02
2.114811e-01,0,-1.589312e-02
2.159162e-01,0,1.962867e-02
2.886719e-01,0,1.159572e-02
2.441793e-01,-5.421011e-20,-2.489102e-02
2.055617e-01,0,-8.933308e-04
2.404794e-01,0,2.506251e-02
2.913483e-01,2.710505e-20,-9.605774e-03
2.176476e-01,0,-2.087702e-02
2.099793e-01,-1.084202e-19,1.443385e-02
2.758877e-01,0,1.826324e-02
2.593030e-01,0,-2.316755e-02
2.060148e-01,5.421011e-20,-7.881066e-03
2.269832e-01,0,2.450589e-02
2.971096e-01,0,-5.646043e-05
2.268567e-01,0,-2.448465e-02
2.060325e-01,-1.084202e-19,7.955001e-03
2.594741e-01,0,2.313543e-02
2.757289e-01,0,-1.832800e-02
2.099211e-01,-2.710505e-20,-1.437357e-02
2.177201e-01,5.421011e-20,2.092573e-02
2.914486e-01,5.421011e-20,9.522662e-03
2.403325e-01,-1.084202e-19,-2.506744e-02
2.055615e-01,0,9.647453e-04
2.443282e-01,1.084202e-19,2.488232e-02
2.885591e-01,1.084202e-19,-1.167193e-02
2.158498e-01,0,-1.957793e-02
2.115423e-01,0,1.594949e-02
2.798364e-01,0,1.653325e-02
2.549327e-01,-1.084202e-19,-2.387320e-02
2.056979e-01,1.084202e-19,-5.944654e-03
2.304597e-01,5.421011e-20,2.492325e-02
2.965752e-01,0,-2.960782e-03
2.237803e-01,0,-2.378999e-02
2.066788e-01,1.084202e-19,9.852651e-03
2.640142e-01,0,2.214868e-02
2.714191e-01,0,-1.994993e-02
2.084782e-01,0,-1.274238e-02
2.197415e-01,2.710505e-20,2.214696e-02
2.938703e-01,0,7.234435e-03
2.365177e-01,1.084202e-19,-2.513643e-02
2.055633e-01,0,2.837245e-03
2.482523e-01,5.421011e-20,2.460280e-02
2.854824e-01,0,-1.359306e-02
2.141679e-01,0,-1.823524e-02
2.131509e-01,0,1.737807e-02
2.834207e-01,0,1.474032e-02
2.507586e-01,-5.421011e-20,-2.437075e-02
2.055825e-01,0,-4.018352e-03
2.341630e-01,0,2.511087e-02
2.951258e-01,-5.421011e-20,-5.678563e-03
2.211608e-01,0,-2.283990e-02
2.076890e-01,0,1.166802e-02
2.686098e-01,0,2.087095e-02
2.668757e-01,-2.710505e-20,-2.138650e-02
2.072657e-01,0,-1.099341e-02
2.220985e-01,0,2.322604e-02
2.957678e-01,0,4.680528e-03
2.327463e-01,2.710505e-20,-2.506342e-02
2.056103e-01,-1.084202e-19,4.743362e-03
2.523147e-01,0,2.420284e-02
2.821067e-01,0,-1.542509e-02
2.125392e-01,-1.084202e-19,-1.684626e-02
2.147951e-01,0,1.874765e-02
2.866791e-01,0,1.287968e-02
2.467556e-01,0,-2.472090e-02
2.055611e-01,1.084202e-19,-2.125914e-03
2.379574e-01,-1.084202e-19,2.512465e-02
2.930048e-01,1.084202e-19,-8.128998e-03
2.189442e-01,-1.084202e-19,-2.169771e-02
2.090030e-01,0,1.337317e-02
2.730843e-01,0,1.935354e-02
2.622838e-01,-1.084202e-19,-2.255641e-02
2.063915e-01,0,-9.142790e-03
2.248905e-01,0,2.408460e-02
2.968956e-01,-2.710505e-20,1.876398e-03
2.291096e-01,0,-2.479520e-02
2.057877e-01,0,6.677832e-03
2.565622e-01,0,2.363452e-02
2.783875e-01,0,-1.719586e-02
2.109437e-01,0,-1.538819e-02
2.165117e-01,1.084202e-19,2.007504e-02
2.896488e-01,0,1.091135e-02
2.428674e-01,0,-2.496188e-02
2.055627e-01,0,-2.619700e-04
2.417822e-01,0,2.501228e-02
2.904355e-01,0,-1.032815e-02
2.170187e-01,0,-2.044163e-02
2.105025e-01,0,1.496025e-02
2.772708e-01,5.421011e-20,1.768403e-02
2.577966e-01,5.421011e-20,-2.343484e-02
2.058767e-01,0,-7.224700e-03
2.281288e-01,1.084202e-19,2.467648e-02
2.970424e-01,1.355253e-20,-1.054228e-03
2.257622e-01,0,-2.427921e-02
2.062120e-01,-1.084202e-19,8.606517e-03
2.610021e-01,0,2.283297e-02
2.742997e-01,5.421011e-20,-1.889425e-02
2.094124e-01,1.084202e-19,-1.383269e-02
2.183771e-01,0,2.135180e-02
2.923173e-01,-5.421011e-20,8.772682e-03
2.390338e-01,0,-2.510416e-02
2.055609e-01,0,1.597963e-03
2.456497e-01,-5.421011e-20,2.479897e-02
2.875455e-01,-5.421011e-20,-1.233764e-02
2.152695e-01,0,-1.912622e-02
2.120850e-01,0,1.644314e-02
2.810935e-01,-5.421011e-20,1.593061e-02
2.534930e-01,0,-2.406220e-02
2.056419e-01,0,-5.287301e-03
2.317009e-01,0,2.501001e-02
2.961744e-01,0,-3.911497e-03
2.228395e-01,0,-2.349358e-02
2.069817e-01,-5.421011e-20,1.048036e-02
2.655768e-01,-5.421011e-20,2.174611e-02
2.698932e-01,0,-2.046338e-02
2.080339e-01,0,-1.216107e-02
2.204985e-01,0,2.253357e-02
