x,y,z
2.331594e-01,0,-1.637643e-02
2.215445e-01,5.421011e-20,9.218531e-03
2.709091e-01,1.084202e-19,1.181504e-02
2.532820e-01,0,-1.696050e-02
2.183538e-01,0,-1.167645e-03
2.483824e-01,0,1.752528e-02
2.750241e-01,0,-9.647425e-03
2.232986e-01,0,-1.119618e-02
2.298126e-01,1.084202e-19,1.527895e-02
2.817390e-01,0,2.899168e-03
2.369453e-01,0,-1.716093e-02
2.201704e-01,0,7.081285e-03
2.662572e-01,0,1.369356e-02
2.583255e-01,0,-1.599397e-02
2.187524e-01,0,-3.491970e-03
2.437157e-01,0,1.768758e-02
2.783918e-01,0,-7.214519e-03
2.254623e-01,0,-1.296938e-02
2.269323e-01,-1.355253e-20,1.389776e-02
2.799384e-01,0,5.679353e-03
2.411187e-01,1.084202e-19,-1.760139e-02
2.191655e-01,-1.084202e-19,4.836026e-03
2.612904e-01,0,1.524945e-02
2.633752e-01,-1.084202e-19,-1.464546e-02
2.195377e-01,0,-5.777726e-03
2.393435e-01,0,1.746233e-02
2.808218e-01,0,-4.546395e-03
2.280709e-01,-1.084202e-19,-1.450366e-02
2.245121e-01,0,1.226067e-02
2.770972e-01,0,8.254987e-03
2.456203e-01,-1.355253e-20,-1.766841e-02
2.185391e-01,1.084202e-19,2.530140e-03
2.562223e-01,1.084202e-19,1.644306e-02
2.682393e-01,0,-1.295087e-02
2.206957e-01,1.084202e-19,-7.984430e-03
2.353237e-01,0,1.687530e-02
2.821444e-01,0,-1.704023e-03
2.311454e-01,0,-1.577053e-02
2.225228e-01,0,1.039787e-02
2.733951e-01,-5.421011e-20,1.058051e-02
2.503919e-01,0,-1.734009e-02
2.183058e-01,8.470329e-22,1.984847e-04
2.512248e-01,0,1.724412e-02
2.726951e-01,8.470329e-22,-1.094898e-02
2.222250e-01,-1.084202e-19,-1.006151e-02
2.317143e-01,5.421011e-20,1.595722e-02
2.822499e-01,0,1.210526e-03
2.346802e-01,-1.084202e-19,-1.674177e-02
2.209291e-01,0,8.347968e-03
2.690310e-01,-2.710505e-20,1.263143e-02
2.553643e-01,0,-1.660744e-02
2.184713e-01,0,-2.134990e-03
2.464134e-01,0,1.764095e-02
2.765241e-01,0,-8.668576e-03
2.241451e-01,0,-1.195911e-02
2.285598e-01,0,1.473857e-02
2.811282e-01,0,4.073378e-03
2.386343e-01,0,-1.738726e-02
2.197084e-01,0,6.159593e-03
2.642208e-01,0,1.438079e-02
2.604306e-01,0,-1.547886e-02
2.190319e-01,0,-4.447333e-03
2.418625e-01,0,1.763983e-02
2.795247e-01,0,-6.133143e-03
2.264889e-01,0,-1.363688e-02
2.258731e-01,-5.421011e-20,1.324778e-02
2.788760e-01,5.421011e-20,6.776550e-03
2.429503e-01,-5.421011e-20,-1.767603e-02
2.188588e-01,0,3.884040e-03
2.591883e-01,0,1.579092e-02
2.654293e-01,0,-1.398179e-02
2.199735e-01,0,-6.705954e-03
2.376290e-01,0,1.726089e-02
2.815130e-01,0,-3.382886e-03
2.292898e-01,0,-1.506350e-02
2.236367e-01,-6.776264e-21,1.151296e-02
2.756542e-01,1.084202e-19,9.252115e-03
2.475712e-01,-2.710505e-20,-1.758100e-02
2.183937e-01,-5.421011e-20,1.564013e-03
2.541317e-01,0,1.682431e-02
2.701506e-01,0,-1.215540e-02
2.212849e-01,1.084202e-19,-8.865222e-03
2.337729e-01,-1.355253e-20,1.653266e-02
2.823393e-01,0,-4.961448e-04
2.325586e-01,1.084202e-19,-1.621119e-02
2.218151e-01,0,9.567206e-03
2.716524e-01,-1.084202e-19,1.146634e-02
2.524362e-01,-2.710505e-20,-1.708505e-02
2.183256e-01,0,-7.709754e-04
2.492005e-01,1.084202e-19,1.745789e-02
2.743718e-01,0,-1.003508e-02
2.229726e-01,0,-1.087344e-02
2.303484e-01,0,1.548624e-02
2.819302e-01,0,2.411931e-03
2.362731e-01,0,-1.705102e-02
2.203781e-01,0,7.453505e-03
2.670760e-01,2.710505e-20,1.339604e-02
2.574636e-01,0,-1.618594e-02
2.186570e-01,0,-3.098819e-03
2.444899e-01,0,1.768788e-02
2.778810e-01,1.084202e-19,-7.645606e-03
2.250641e-01,1.084202e-19,-1.268408e-02
2.273884e-01,1.084202e-19,1.415129e-02
2.803226e-01,-2.710505e-20,5.219544e-03
2.403851e-01,0,-1.755211e-02
2.193100e-01,1.084202e-19,5.223001e-03
2.621469e-01,0,1.500956e-02
2.625244e-01,0,-1.490014e-02
2.193778e-01,0,-5.393602e-03
2.400636e-01,0,1.752690e-02
2.804827e-01,-1.084202e-19,-5.014276e-03
2.275946e-01,0,-1.426107e-02
2.248922e-01,0,1.255568e-02
2.776463e-01,1.355253e-20,7.834103e-03
2.448347e-01,0,-1.768444e-02
2.186182e-01,0,2.924574e-03
2.570825e-01,-5.421011e-20,1.626731e-02
2.674351e-01,0,-1.326148e-02
2.204729e-01,0,-7.617142e-03
2.359793e-01,5.421011e-20,1.699927e-02
2.820037e-01,0,-2.195375e-03
2.305897e-01,0,-1.557531e-02
2.228324e-01,0,1.072880e-02
2.740768e-01,0,1.020411e-02
2.495648e-01,0,-1.742434e-02
2.183173e-01,0,5.954041e-04
2.520633e-01,-1.084202e-19,1.713644e-02
2.719758e-01,0,-1.130946e-02
2.219387e-01,-1.084202e-19,-9.719918e-03
2.322964e-01,0,1.613524e-02
2.823198e-01,0,7.154934e-04
2.340485e-01,0,-1.659885e-02
2.211735e-01,1.084202e-19,8.707497e-03
2.698101e-01,0,1.230331e-02
2.545092e-01,0,-1.676034e-02
2.184149e-01,5.421011e-20,-1.739256e-03
2.472143e-01,0,1.760196e-02
2.759260e-01,1.084202e-19,-9.074791e-03
2.237895e-01,5.421011e-20,-1.165120e-02
2.290627e-01,5.421011e-20,1.496561e-02
2.814024e-01,0,3.595640e-03
2.379349e-01,0,-1.730191e-02
2.198898e-01,0,6.538965e-03
2.650599e-01,5.421011e-20,1.410632e-02
2.595692e-01,5.421011e-20,-1.569761e-02
2.189094e-01,0,-4.057123e-03
2.426145e-01,0,1.766737e-02
2.790813e-01,-1.084202e-19,-6.580638e-03
2.260595e-01,0,-1.336869e-02
2.262974e-01,0,1.351910e-02
2.793322e-01,-1.084202e-19,6.331923e-03
2.421944e-01,1.694066e-21,-1.765336e-02
2.189765e-01,0,4.274862e-03
2.600497e-01,0,1.557697e-02
2.645933e-01,1.694066e-21,-1.426053e-02
2.197872e-01,0,-6.327767e-03
2.383235e-01,0,1.735076e-02
2.812536e-01,-5.421011e-20,-3.862565e-03
2.287806e-01,0,-1.484000e-02
2.239861e-01,5.421011e-20,1.182366e-02
2.762624e-01,1.355253e-20,8.849220e-03
2.467671e-01,0,-1.762512e-02
2.184449e-01,5.421011e-20,1.959968e-03
2.549856e-01,1.084202e-19,1.667651e-02
2.693778e-01,0,-1.248731e-02
2.210363e-01,0,-8.507532e-03
2.343990e-01,2.710505e-20,1.667970e-02
2.822851e-01,0,-9.916586e-04
2.319706e-01,-1.084202e-19,-1.603705e-02
2.220971e-01,0,9.911000e-03
2.723788e-01,0,1.110947e-02
2.515951e-01,0,-1.719793e-02
2.183089e-01,-1.084202e-19,-3.741093e-04
2.500251e-01,0,1.737881e-02
2.736992e-01,-1.084202e-19,-1.041495e-02
2.226587e-01,-1.084202e-19,-1.054496e-02
2.308979e-01,0,1.568521e-02
2.820863e-01,0,1.921715e-03
2.356127e-01,-1.084202e-19,-1.693133e-02
2.205962e-01,6.776264e-21,7.822361e-03
2.678845e-01,-5.421011e-20,1.308941e-02
2.566028e-01,-1.084202e-19,-1.636670e-02
2.185729e-01,1.084202e-19,-2.704746e-03
2.452715e-01,1.084202e-19,1.767692e-02
2.773431e-01,0,-8.069664e-03
2.246789e-01,0,-1.239200e-02
2.278582e-01,0,1.439728e-02
2.806757e-01,0,4.754060e-03
2.396607e-01,1.084202e-19,-1.749220e-02
2.194654e-01,0,5.608045e-03
2.629995e-01,-1.084202e-19,1.475938e-02
2.616694e-01,0,-1.514461e-02
2.192286e-01,0,-5.007453e-03
2.407929e-01,0,1.758092e-02
2.801120e-01,1.084202e-19,-5.476641e-03
2.271323e-01,0,-1.401087e-02
2.252845e-01,0,1.284400e-02
2.781690e-01,1.084202e-19,7.406110e-03
2.440570e-01,0,-1.768911e-02
2.187087e-01,1.084202e-19,3.318151e-03
2.579442e-01,0,1.608028e-02
2.666204e-01,-2.710505e-20,-1.356307e-02
2.202610e-01,1.084202e-19,-7.246369e-03
2.366465e-01,-1.084202e-19,1.711352e-02
2.818279e-01,1.084202e-19,-2.683999e-03
2.300477e-01,0,-1.537170e-02
2.231530e-01,5.421011e-20,1.105410e-02
2.747380e-01,0,9.819890e-03
2.487439e-01,0,-1.749690e-02
2.183404e-01,-3.388132e-21,9.921727e-04
2.529071e-01,0,1.701705e-02
2.712399e-01,-1.084202e-19,-1.166178e-02
2.216631e-01,-2.710505e-20,-9.373375e-03
2.328916e-01,0,1.630444e-02
2.823542e-01,0,2.195508e-04
2.334292e-01,0,-1.644669e-02
2.214288e-01,0,9.062754e-03
2.705754e-01,0,1.196666e-02
2.536572e-01,0,-1.690168e-02
2.183701e-01,5.421011e-20,-1.343056e-03
2.480224e-01,1.084202e-19,1.755138e-02
2.753060e-01,0,-9.473457e-03
2.234467e-01,1.084202e-19,-1.133707e-02
2.295794e-01,5.421011e-20,1.518464e-02
2.816433e-01,0,3.113646e-03
2.372464e-01,0,-1.720639e-02
2.200819e-01,0,6.915596e-03
2.658915e-01,0,1.382226e-02
2.587073e-01,0,-1.590549e-02
2.187979e-01,0,-3.665584e-03
2.433761e-01,0,1.768384e-02
2.786093e-01,-5.421011e-20,-7.021583e-03
2.256423e-01,0,-1.309342e-02
2.267343e-01,-5.421011e-20,1.378325e-02
2.797590e-01,-1.084202e-19,5.880887e-03
2.414464e-01,0,-1.761974e-02
2.191052e-01,-5.421011e-20,4.664252e-03
2.609100e-01,0,1.535227e-02
2.637505e-01,0,-1.452956e-02
2.196116e-01,0,-5.946977e-03
2.390283e-01,0,1.743041e-02
2.809615e-01,-2.710505e-20,-4.337724e-03
2.282853e-01,0,-1.460857e-02
2.243483e-01,1.084202e-19,1.212805e-02
2.768465e-01,0,8.438885e-03
2.459705e-01,0,-1.765767e-02
2.185076e-01,0,2.355393e-03
2.558423e-01,0,1.651720e-02
2.685908e-01,-2.710505e-20,-1.281063e-02
2.207979e-01,0,-8.145741e-03
2.350372e-01,0,1.681740e-02
2.821954e-01,-5.421011e-20,-1.485911e-03
2.313957e-01,1.084202e-19,-1.585418e-02
2.223899e-01,0,1.024970e-02
2.730874e-01,1.084202e-19,1.074453e-02
2.507595e-01,0,-1.729908e-02
2.183038e-01,0,2.285134e-05
2.508559e-01,2.168404e-19,1.728802e-02
2.730070e-01,-2.710505e-20,-1.078695e-02
2.223555e-01,-2.710505e-20,-1.021098e-02
2.314609e-01,0,1.587569e-02
2.822075e-01,5.421011e-20,1.429092e-03
2.349634e-01,0,-1.680202e-02
2.208247e-01,-2.710505e-20,8.187598e-03
2.686819e-01,0,1.277385e-02
2.557435e-01,0,-1.653613e-02
2.185002e-01,0,-2.309896e-03
2.460614e-01,0,1.765453e-02
2.767807e-01,0,-8.486495e-03
2.243057e-01,1.084202e-19,-1.209334e-02
2.283419e-01,0,1.463559e-02
2.809965e-01,0,4.283267e-03
2.389471e-01,0,-1.742174e-02
2.196315e-01,0,5.990935e-03
2.638474e-01,0,1.449911e-02
2.608112e-01,-2.710505e-20,-1.537867e-02
2.190901e-01,0,-4.619497e-03
2.415324e-01,0,1.762415e-02
2.797115e-01,0,-5.933130e-03
2.266836e-01,-1.084202e-19,-1.375320e-02
2.256898e-01,-1.084202e-19,1.312547e-02
2.786651e-01,5.421011e-20,6.971157e-03
2.432879e-01,0,-1.768252e-02
2.188103e-01,0,3.710718e-03
2.588063e-01,0,1.588212e-02
2.657962e-01,0,-1.385545e-02
2.200596e-01,-1.084202e-19,-6.872372e-03
2.373254e-01,0,1.721788e-02
2.816171e-01,-1.084202e-19,-3.169340e-03
2.295194e-01,-2.710505e-20,-1.515983e-02
2.234854e-01,0,1.137355e-02
2.753781e-01,1.084202e-19,9.427957e-03
2.479296e-01,-2.168404e-19,-1.755777e-02
2.183751e-01,0,1.388687e-03
2.537555e-01,0,1.688599e-02
2.704884e-01,-2.168404e-19,-1.200583e-02
2.213983e-01,-5.421011e-20,-9.022097e-03
2.334996e-01,5.421011e-20,1.646468e-02
2.823517e-01,0,-2.766725e-04
2.328226e-01,2.710505e-20,-1.628541e-02
2.216942e-01,0,9.413520e-03
2.713259e-01,3.388132e-21,1.162162e-02
2.528098e-01,-1.084202e-19,-1.703138e-02
2.183367e-01,0,-9.465068e-04
2.488375e-01,0,1.748915e-02
2.746628e-01,-5.421011e-20,-9.864525e-03
2.231156e-01,0,-1.101694e-02
2.301098e-01,0,1.539555e-02
2.818498e-01,0,2.627903e-03
2.365693e-01,0,-1.710085e-02
2.202846e-01,0,7.289230e-03
2.667146e-01,0,1.352882e-02
2.578449e-01,0,-1.610238e-02
2.186975e-01,0,-3.272890e-03
2.441463e-01,1.084202e-19,1.768914e-02
2.781105e-01,0,-7.455733e-03
2.252389e-01,0,-1.281114e-02
2.271851e-01,-1.355253e-20,1.404004e-02
2.801564e-01,0,5.423699e-03
2.407086e-01,0,-1.757523e-02
