x,y,z
2.471396e-01,-1.355253e-20,-3.066004e-03
2.453235e-01,0,2.342569e-03
2.553007e-01,0,1.284878e-03
2.493650e-01,0,-3.342916e-03
2.441371e-01,0,1.283625e-03
2.538939e-01,-2.710505e-20,2.370182e-03
2.516966e-01,-5.421011e-20,-3.123574e-03
2.437090e-01,0,4.296934e-05
2.518489e-01,0,3.091052e-03
2.537724e-01,-1.084202e-19,-2.431816e-03
2.440833e-01,0,-1.203745e-03
2.495229e-01,0,3.343875e-03
2.552323e-01,0,-1.366481e-03
2.452219e-01,0,-2.280143e-03
2.472795e-01,0,3.099660e-03
2.558004e-01,-2.710505e-20,-8.900233e-05
2.470010e-01,0,-3.030296e-03
2.454286e-01,0,2.403446e-03
2.553650e-01,0,1.202352e-03
2.492076e-01,0,-3.339669e-03
2.441943e-01,0,1.362673e-03
2.540124e-01,5.421011e-20,2.306865e-03
2.515432e-01,0,-3.153916e-03
2.437127e-01,0,1.288789e-04
2.519999e-01,-1.084202e-19,3.056371e-03
2.536482e-01,0,-2.491725e-03
2.440334e-01,-1.084202e-19,-1.123079e-03
2.496814e-01,0,3.342543e-03
2.551593e-01,2.710505e-20,-1.447107e-03
2.451231e-01,0,-2.216217e-03
2.474215e-01,0,3.131232e-03
2.557933e-01,5.421011e-20,-1.779397e-04
2.468645e-01,0,-2.992560e-03
2.455357e-01,0,2.462747e-03
2.554253e-01,0,1.118964e-03
2.490510e-01,0,-3.334139e-03
2.442549e-01,0,1.440831e-03
2.541280e-01,5.421011e-20,2.241908e-03
2.513887e-01,0,-3.182061e-03
2.437201e-01,-1.084202e-19,2.147062e-04
2.521495e-01,-1.084202e-19,3.019552e-03
2.535209e-01,0,-2.549870e-03
2.439865e-01,-5.421011e-20,-1.041686e-03
2.498397e-01,0,3.338920e-03
2.550822e-01,0,-1.526694e-03
2.450271e-01,0,-2.150837e-03
2.475655e-01,-1.355253e-20,3.160696e-03
2.557817e-01,-1.084202e-19,-2.667487e-04
2.467304e-01,0,-2.952819e-03
2.456461e-01,-2.710505e-20,2.520415e-03
2.554814e-01,0,1.034771e-03
2.488951e-01,0,-3.326333e-03
2.443190e-01,0,1.518051e-03
2.542405e-01,0,2.175358e-03
2.512333e-01,0,-3.207991e-03
2.437311e-01,0,3.003931e-04
2.522976e-01,0,2.980619e-03
2.533909e-01,0,-2.606211e-03
2.439437e-01,-1.084202e-19,-9.596130e-04
2.499982e-01,1.084202e-19,3.333005e-03
2.550014e-01,0,-1.605188e-03
2.449348e-01,0,-2.084038e-03
2.477109e-01,0,3.188036e-03
2.557657e-01,1.084202e-19,-3.553658e-04
2.465983e-01,-1.084202e-19,-2.911105e-03
2.457592e-01,1.084202e-19,2.576419e-03
2.555333e-01,0,9.498331e-04
2.487403e-01,0,-3.316260e-03
2.443863e-01,0,1.594281e-03
2.543498e-01,1.084202e-19,2.107257e-03
2.510771e-01,0,-3.231690e-03
2.437458e-01,1.084202e-19,3.858867e-04
2.524441e-01,-1.084202e-19,2.939595e-03
2.532586e-01,2.710505e-20,-2.660709e-03
2.439039e-01,-5.421011e-20,-8.769197e-04
2.501569e-01,-1.084202e-19,3.324796e-03
2.549167e-01,0,-1.682530e-03
2.448447e-01,1.084202e-19,-2.015878e-03
2.478577e-01,-1.084202e-19,3.213228e-03
2.557449e-01,0,-4.437282e-04
2.464680e-01,1.084202e-19,-2.867453e-03
2.458747e-01,0,2.630720e-03
2.555802e-01,-2.710505e-20,8.642144e-04
2.485857e-01,1.084202e-19,-3.303935e-03
2.444574e-01,1.084202e-19,1.669471e-03
2.544559e-01,0,2.037655e-03
2.509202e-01,0,-3.253146e-03
2.437642e-01,0,4.711290e-04
2.525889e-01,1.084202e-19,2.896508e-03
2.531238e-01,-5.421011e-20,-2.713327e-03
2.438683e-01,0,-7.936546e-04
2.503156e-01,0,3.314296e-03
2.548283e-01,0,-1.758670e-03
2.447584e-01,0,-1.946393e-03
2.480061e-01,-5.421011e-20,3.236249e-03
2.557192e-01,0,-5.317708e-04
2.463405e-01,0,-2.821887e-03
2.459933e-01,-1.355253e-20,2.683274e-03
2.556228e-01,0,7.779745e-04
2.484323e-01,0,-3.289365e-03
2.445312e-01,5.421011e-20,1.743571e-03
2.545586e-01,0,1.966600e-03
2.507629e-01,0,-3.272347e-03
2.437863e-01,1.084202e-19,5.560670e-04
2.527318e-01,0,2.851386e-03
2.529868e-01,-5.421011e-20,-2.764029e-03
2.438356e-01,5.421011e-20,-7.098769e-04
2.504741e-01,0,3.301510e-03
2.547361e-01,0,-1.833552e-03
2.446749e-01,1.084202e-19,-1.875633e-03
2.481562e-01,-2.710505e-20,3.257080e-03
2.556891e-01,0,-6.194297e-04
2.462154e-01,0,-2.774443e-03
2.461140e-01,1.084202e-19,2.734053e-03
2.556610e-01,-1.084202e-19,6.911749e-04
2.482802e-01,5.421011e-20,-3.272561e-03
2.446092e-01,-2.168404e-19,1.816529e-03
2.546573e-01,-2.710505e-20,1.894144e-03
2.506046e-01,0,-3.289285e-03
2.438119e-01,0,6.406435e-04
2.528728e-01,0,2.804258e-03
2.528476e-01,0,-2.812784e-03
2.438075e-01,0,-6.256364e-04
2.506324e-01,-5.421011e-20,3.286443e-03
2.546399e-01,2.710505e-20,-1.907127e-03
2.445947e-01,-5.421011e-20,-1.803647e-03
2.483075e-01,-1.084202e-19,3.275708e-03
2.556547e-01,0,-7.066426e-04
2.460922e-01,0,-2.725158e-03
2.462372e-01,0,2.783015e-03
2.556951e-01,0,6.038773e-04
2.481295e-01,-2.710505e-20,-3.253537e-03
2.446894e-01,0,1.888305e-03
2.547525e-01,5.421011e-20,1.820336e-03
2.504461e-01,0,-3.303947e-03
2.438413e-01,0,7.248054e-04
2.530117e-01,0,2.755153e-03
2.527063e-01,5.421011e-20,-2.859556e-03
2.437820e-01,0,-5.409923e-04
2.507904e-01,-5.421011e-20,3.269103e-03
2.545401e-01,0,-1.979339e-03
2.445180e-01,0,-1.730479e-03
2.484596e-01,1.084202e-19,3.292118e-03
2.556159e-01,0,-7.933474e-04
2.459720e-01,0,-2.674061e-03
2.463633e-01,0,2.830124e-03
2.557244e-01,0,5.161443e-04
2.479800e-01,0,-3.232312e-03
2.447735e-01,0,1.958838e-03
2.548441e-01,0,1.745227e-03
2.502875e-01,1.084202e-19,-3.316328e-03
2.438741e-01,0,8.084964e-04
2.531482e-01,0,2.704108e-03
2.525631e-01,0,-2.904319e-03
2.437610e-01,0,-4.559957e-04
2.509479e-01,5.421011e-20,3.249498e-03
2.544371e-01,0,-2.050137e-03
2.444443e-01,-5.421011e-20,-1.656183e-03
2.486129e-01,0,3.306293e-03
2.555721e-01,0,-8.794831e-04
2.458542e-01,0,-2.621191e-03
2.464912e-01,1.084202e-19,2.875354e-03
2.557487e-01,0,4.280410e-04
2.478315e-01,0,-3.208907e-03
2.448605e-01,0,2.028094e-03
2.549321e-01,0,1.668869e-03
2.501286e-01,-1.084202e-19,-3.326423e-03
2.439109e-01,0,8.916633e-04
2.532824e-01,0,2.651156e-03
2.524180e-01,0,-2.947040e-03
2.437428e-01,0,-3.707050e-04
2.511048e-01,0,3.227642e-03
2.543306e-01,0,-2.119474e-03
2.443744e-01,-1.084202e-19,-1.580803e-03
2.487673e-01,5.421011e-20,3.318219e-03
2.555239e-01,-5.421011e-20,-9.649857e-04
2.457387e-01,0,-2.566588e-03
2.466214e-01,-5.421011e-20,2.918665e-03
2.557686e-01,1.084202e-19,3.396298e-04
2.476847e-01,5.421011e-20,-3.183335e-03
2.449507e-01,0,2.096016e-03
2.550163e-01,0,1.591316e-03
2.499698e-01,0,-3.334226e-03
2.439508e-01,0,9.742510e-04
2.534142e-01,2.710505e-20,2.596329e-03
2.522713e-01,0,-2.987694e-03
2.437293e-01,0,-2.851729e-04
2.512610e-01,2.710505e-20,3.203543e-03
2.542209e-01,-1.084202e-19,-2.187301e-03
2.443072e-01,5.421011e-20,-1.504395e-03
2.489229e-01,0,3.327886e-03
2.554716e-01,0,-1.049794e-03
2.456266e-01,-1.355253e-20,-2.510282e-03
2.467542e-01,0,2.960026e-03
2.557842e-01,0,2.509740e-04
2.475398e-01,0,-3.155615e-03
2.450441e-01,0,2.162563e-03
2.550966e-01,0,1.512622e-03
2.498112e-01,5.421011e-20,-3.339736e-03
2.439948e-01,1.084202e-19,1.056206e-03
2.535434e-01,-5.421011e-20,2.539666e-03
2.521229e-01,0,-3.026253e-03
2.437183e-01,0,-1.994569e-04
2.514163e-01,-2.710505e-20,3.177217e-03
2.541080e-01,0,-2.253572e-03
2.442442e-01,0,-1.427002e-03
2.490791e-01,-1.084202e-19,3.335285e-03
2.554150e-01,0,-1.133848e-03
2.455164e-01,0,-2.452322e-03
2.468888e-01,-1.084202e-19,2.999414e-03
2.557952e-01,0,1.621365e-04
2.473965e-01,-1.084202e-19,-3.125770e-03
2.451402e-01,0,2.227691e-03
2.551725e-01,0,1.432848e-03
2.496529e-01,5.421011e-20,-3.342951e-03
2.440418e-01,0,1.137475e-03
2.536700e-01,-5.421011e-20,2.481206e-03
2.519730e-01,0,-3.062693e-03
2.437122e-01,0,-1.136112e-04
2.515706e-01,1.355253e-20,3.148680e-03
2.539920e-01,0,-2.318239e-03
2.441837e-01,0,-1.348684e-03
2.492357e-01,0,3.340412e-03
2.553543e-01,0,-1.217087e-03
2.454094e-01,0,-2.392742e-03
2.470253e-01,-1.084202e-19,3.036795e-03
2.558012e-01,0,7.318211e-05
2.472544e-01,0,-3.093829e-03
2.452400e-01,0,2.291349e-03
2.552444e-01,-5.421011e-20,1.352046e-03
2.494949e-01,0,-3.343872e-03
2.440930e-01,1.084202e-19,1.218003e-03
2.537939e-01,0,2.420986e-03
2.518218e-01,0,-3.096992e-03
2.437087e-01,0,-2.769208e-05
2.517239e-01,0,3.117949e-03
2.538726e-01,0,-2.381263e-03
2.441275e-01,0,-1.269484e-03
2.493930e-01,1.084202e-19,3.343255e-03
2.552889e-01,-2.710505e-20,-1.299455e-03
2.453055e-01,0,-2.331581e-03
2.471641e-01,0,3.072140e-03
2.558025e-01,0,-1.582415e-05
2.471145e-01,0,-3.059809e-03
2.453419e-01,0,2.353506e-03
2.553123e-01,0,1.270274e-03
2.493374e-01,0,-3.342501e-03
2.441469e-01,-5.421011e-20,1.297741e-03
2.539150e-01,1.084202e-19,2.359049e-03
2.516693e-01,0,-3.129128e-03
2.437098e-01,-1.694066e-21,5.824494e-05
2.518760e-01,0,3.085041e-03
2.537503e-01,0,-2.442595e-03
2.440741e-01,0,-1.189460e-03
2.495508e-01,0,3.343809e-03
2.552192e-01,0,-1.380889e-03
2.452039e-01,0,-2.268889e-03
2.473049e-01,0,3.105422e-03
2.557994e-01,0,-1.048187e-04
2.469768e-01,0,-3.023734e-03
2.454472e-01,-5.421011e-20,2.414107e-03
2.553762e-01,0,1.187590e-03
2.491799e-01,0,-3.338850e-03
2.442051e-01,0,1.376632e-03
2.540333e-01,0,2.295436e-03
2.515156e-01,0,-3.159081e-03
2.437136e-01,0,1.441445e-04
2.520268e-01,-1.355253e-20,3.049978e-03
2.536253e-01,0,-2.502195e-03
2.440248e-01,-2.710505e-20,-1.108661e-03
2.497091e-01,0,3.342070e-03
2.551457e-01,1.084202e-19,-1.461333e-03
2.451060e-01,0,-2.204699e-03
2.474470e-01,0,3.136626e-03
2.557918e-01,0,-1.937380e-04
2.468406e-01,0,-2.985639e-03
2.455554e-01,1.084202e-19,2.473117e-03
2.554360e-01,0,1.104052e-03
2.490232e-01,-1.084202e-19,-3.332917e-03
2.442659e-01,-1.084202e-19,1.454629e-03
2.541485e-01,-1.084202e-19,2.230192e-03
2.513609e-01,0,-3.186834e-03
2.437221e-01,3.388132e-21,2.299501e-04
2.521761e-01,0,3.012782e-03
2.534976e-01,0,-2.560022e-03
2.439786e-01,0,-1.027143e-03
2.498677e-01,0,3.338038e-03
2.550682e-01,0,-1.540729e-03
2.450104e-01,1.084202e-19,-2.139063e-03
2.475910e-01,0,3.165715e-03
2.557796e-01,-6.776264e-21,-2.825186e-04
2.467065e-01,0,-2.945548e-03
2.456658e-01,0,2.530495e-03
2.554909e-01,0,1.019723e-03
2.488673e-01,0,-3.324710e-03
2.443309e-01,-1.355253e-20,1.531675e-03
2.542606e-01,0,2.163360e-03
2.512053e-01,1.084202e-19,-3.212369e-03
2.437334e-01,0,3.156077e-04
2.523240e-01,1.355253e-20,2.973476e-03
2.533674e-01,1.084202e-19,-2.616037e-03
2.439363e-01,0,-9.449572e-04
2.500266e-01,-1.355253e-20,3.331711e-03
2.549870e-01,0,-1.619021e-03
2.449183e-01,0,-2.072022e-03
2.477369e-01,2.710505e-20,3.192672e-03
2.557622e-01,0,-3.710957e-04
2.465750e-01,0,-2.903487e-03
2.457796e-01,1.355253e-20,2.586197e-03
2.555415e-01,0,9.346616e-04
2.487123e-01,0,-3.314237e-03
2.443986e-01,-1.084202e-19,1.607726e-03
2.543691e-01,0,2.094990e-03
2.510489e-01,5.421011e-20,-3.235671e-03
2.437492e-01,0,4.010595e-04
2.524701e-01,-2.710505e-20,2.932084e-03
