x,y,z
2.442477e-01,0,-6.007357e-03
2.406809e-01,0,4.456540e-03
2.604429e-01,0,2.740210e-03
2.488457e-01,5.421011e-20,-6.569883e-03
2.385246e-01,0,2.198679e-03
2.570210e-01,0,4.970446e-03
2.538178e-01,1.084202e-19,-6.007184e-03
2.379555e-01,0,-3.991626e-04
2.523247e-01,-2.710505e-20,6.296946e-03
2.582377e-01,1.084202e-19,-4.376069e-03
2.390145e-01,-5.421011e-20,-2.935744e-03
2.473792e-01,0,6.515503e-03
2.610824e-01,0,-1.942731e-03
2.416242e-01,0,-5.015550e-03
2.430372e-01,0,5.631716e-03
2.615855e-01,0,8.537965e-04
2.455548e-01,0,-6.291475e-03
2.398680e-01,0,3.832186e-03
2.596015e-01,-1.084202e-19,3.490131e-03
2.503489e-01,-5.421011e-20,-6.519826e-03
2.381807e-01,0,1.430255e-03
2.556864e-01,0,5.480695e-03
2.552610e-01,5.421011e-20,-5.618069e-03
2.381053e-01,0,-1.191840e-03
2.508100e-01,1.084202e-19,6.483737e-03
2.593088e-01,2.710505e-20,-3.706972e-03
2.396476e-01,0,-3.630655e-03
2.459696e-01,0,6.358899e-03
2.615030e-01,0,-1.111365e-03
2.426903e-01,-1.084202e-19,-5.500219e-03
2.419359e-01,0,5.171326e-03
2.612342e-01,5.421011e-20,1.692638e-03
2.469429e-01,1.084202e-19,-6.478525e-03
2.391923e-01,0,3.152193e-03
2.585807e-01,1.084202e-19,4.179860e-03
2.518650e-01,0,-6.364810e-03
2.379852e-01,-1.084202e-19,6.415333e-04
2.542635e-01,0,5.899060e-03
2.566254e-01,0,-5.135044e-03
2.384044e-01,-2.710505e-20,-1.967621e-03
2.493004e-01,0,6.565761e-03
2.602073e-01,0,-2.974089e-03
2.404193e-01,0,-4.273000e-03
2.446362e-01,0,6.103793e-03
2.616931e-01,1.084202e-19,-2.605457e-04
2.438686e-01,0,-5.902425e-03
2.409547e-01,-1.084202e-19,4.634020e-03
2.606598e-01,-5.421011e-20,2.501917e-03
2.483944e-01,-5.421011e-20,-6.564319e-03
2.386583e-01,1.084202e-19,2.426829e-03
2.574047e-01,0,4.798056e-03
2.533674e-01,-1.355253e-20,-6.106091e-03
2.379398e-01,0,-1.562685e-04
2.527825e-01,-5.421011e-20,6.219530e-03
2.578813e-01,5.421011e-20,-4.565347e-03
2.388500e-01,0,-2.715389e-03
2.478202e-01,0,6.543011e-03
2.609103e-01,0,-2.189680e-03
2.413240e-01,0,-4.852880e-03
2.433948e-01,0,5.755347e-03
2.616464e-01,1.084202e-19,5.948401e-04
2.451477e-01,0,-6.215050e-03
2.401011e-01,1.084202e-19,4.028558e-03
2.598777e-01,0,3.267703e-03
2.498888e-01,-5.421011e-20,-6.546181e-03
2.382699e-01,0,1.666787e-03
2.561028e-01,-1.084202e-19,5.334810e-03
2.548289e-01,0,-5.746721e-03
2.380439e-01,1.084202e-19,-9.518597e-04
2.512717e-01,-1.084202e-19,6.437931e-03
2.590002e-01,-1.084202e-19,-3.917894e-03
2.394401e-01,0,-3.424251e-03
2.463911e-01,1.084202e-19,6.417195e-03
2.613991e-01,-2.710505e-20,-1.367128e-03
2.423532e-01,0,-5.361088e-03
2.422590e-01,-1.084202e-19,5.319967e-03
2.613653e-01,5.421011e-20,1.439801e-03
2.465128e-01,0,-6.432153e-03
2.393831e-01,-1.084202e-19,3.364435e-03
2.589087e-01,-1.084202e-19,3.977020e-03
2.514038e-01,-1.355253e-20,-6.423061e-03
2.380288e-01,0,8.830624e-04
2.547043e-01,-1.084202e-19,5.781848e-03
2.562206e-01,-2.710505e-20,-5.291592e-03
2.382979e-01,6.776264e-21,-1.733967e-03
2.497578e-01,-5.421011e-20,6.551921e-03
2.599536e-01,0,-3.203185e-03
2.401700e-01,0,-4.083669e-03
2.450327e-01,0,6.191585e-03
2.616601e-01,-1.084202e-19,-5.206679e-04
2.434987e-01,0,-5.789193e-03
2.412401e-01,0,4.805183e-03
2.608576e-01,2.710505e-20,2.259590e-03
2.479474e-01,0,-6.549113e-03
2.388056e-01,-1.084202e-19,2.651765e-03
2.577774e-01,0,4.618101e-03
2.529129e-01,0,-6.195671e-03
2.379380e-01,-3.388132e-21,8.683027e-05
2.532378e-01,0,6.132642e-03
2.575127e-01,1.355253e-20,-4.747404e-03
2.386989e-01,0,-2.491427e-03
2.482662e-01,0,6.560958e-03
2.607184e-01,0,-2.433089e-03
2.410350e-01,0,-4.683573e-03
2.437620e-01,-2.710505e-20,5.870918e-03
2.616855e-01,0,3.349164e-04
2.447487e-01,-1.084202e-19,-6.129762e-03
2.403469e-01,0,4.219493e-03
2.601368e-01,0,3.040035e-03
2.494308e-01,5.421011e-20,-6.562800e-03
2.383727e-01,0,1.901124e-03
2.565111e-01,0,5.180591e-03
2.543901e-01,2.710505e-20,-5.866496e-03
2.379962e-01,0,-7.106294e-04
2.517332e-01,0,6.382437e-03
2.586756e-01,-1.084202e-19,-4.122582e-03
2.392454e-01,0,-3.213264e-03
2.468195e-01,0,6.466229e-03
2.612741e-01,0,-1.620673e-03
2.420270e-01,0,-5.214526e-03
2.425929e-01,0,5.461244e-03
2.614754e-01,-5.421011e-20,1.184629e-03
2.460895e-01,-1.355253e-20,-6.376486e-03
2.395870e-01,0,3.572177e-03
2.592220e-01,5.421011e-20,3.767845e-03
2.509420e-01,2.710505e-20,-6.471639e-03
2.380863e-01,-5.421011e-20,1.123433e-03
2.551383e-01,0,5.655717e-03
2.558060e-01,1.084202e-19,-5.439886e-03
2.382050e-01,0,-1.498028e-03
2.502172e-01,0,6.528348e-03
2.596826e-01,0,-3.427142e-03
2.399333e-01,0,-3.888821e-03
2.454378e-01,0,6.270554e-03
2.616053e-01,1.084202e-19,-7.799433e-04
2.431383e-01,0,-5.667844e-03
2.415371e-01,0,4.969777e-03
2.610356e-01,2.710505e-20,2.013612e-03
2.475046e-01,0,-6.524333e-03
2.389662e-01,0,2.873182e-03
2.581375e-01,1.084202e-19,4.430858e-03
2.524556e-01,0,-6.275805e-03
2.379498e-01,0,3.298153e-04
2.536898e-01,1.084202e-19,6.036381e-03
2.571315e-01,0,-4.921989e-03
2.385613e-01,0,-2.264164e-03
2.487163e-01,-5.421011e-20,6.569280e-03
2.605071e-01,0,-2.672570e-03
2.407577e-01,0,-4.507871e-03
2.441385e-01,0,5.978240e-03
2.617027e-01,0,7.444779e-05
2.443578e-01,5.421011e-20,-6.035779e-03
2.406051e-01,0,4.404713e-03
2.603779e-01,-6.776264e-21,2.807483e-03
2.489754e-01,-5.421011e-20,-6.569694e-03
2.384891e-01,0,2.132955e-03
2.569087e-01,0,5.018277e-03
2.539455e-01,0,-5.977234e-03
2.379625e-01,0,-4.684667e-04
2.521938e-01,0,6.317306e-03
2.583369e-01,0,-4.320717e-03
2.390639e-01,0,-2.997987e-03
2.472541e-01,2.168404e-19,6.505903e-03
2.611284e-01,0,-1.871590e-03
2.417122e-01,0,-5.060762e-03
2.429369e-01,0,5.594946e-03
2.615641e-01,0,9.275335e-04
2.456725e-01,0,-6.311662e-03
2.398038e-01,0,3.775129e-03
2.595197e-01,0,3.552657e-03
2.504806e-01,0,-6.510508e-03
2.381577e-01,0,1.362327e-03
2.555656e-01,0,5.520818e-03
2.553835e-01,1.355253e-20,-5.579704e-03
2.381257e-01,0,-1.260120e-03
2.506782e-01,-5.421011e-20,6.495039e-03
2.593942e-01,-1.084202e-19,-3.645615e-03
2.397093e-01,0,-3.688734e-03
2.458503e-01,-1.084202e-19,6.340565e-03
2.615289e-01,0,-1.037951e-03
2.427886e-01,-2.168404e-19,-5.538569e-03
2.418456e-01,0,5.127545e-03
2.611934e-01,0,1.764376e-03
2.470668e-01,0,-6.490053e-03
2.391402e-01,0,3.090776e-03
2.584838e-01,0,4.236604e-03
2.519963e-01,0,-6.346406e-03
2.379755e-01,1.084202e-19,5.723682e-04
2.541368e-01,0,5.930879e-03
2.567394e-01,5.421011e-20,-5.088836e-03
2.384372e-01,-5.421011e-20,-2.033906e-03
2.491702e-01,-5.421011e-20,6.567928e-03
2.602770e-01,0,-2.907744e-03
2.404927e-01,5.421011e-20,-4.326034e-03
2.445244e-01,0,6.077119e-03
2.616980e-01,1.084202e-19,-1.861419e-04
2.439761e-01,-1.084202e-19,-5.933255e-03
2.408755e-01,0,4.583950e-03
2.606002e-01,-1.084202e-19,2.570416e-03
2.485231e-01,0,-6.566891e-03
2.386189e-01,1.084202e-19,2.361968e-03
2.572963e-01,0,4.848083e-03
2.534965e-01,0,-6.078785e-03
2.379427e-01,0,-2.256898e-04
2.526521e-01,2.710505e-20,6.242613e-03
2.579847e-01,1.355253e-20,-4.511997e-03
2.388956e-01,0,-2.778718e-03
2.476936e-01,0,6.536129e-03
2.609620e-01,-1.084202e-19,-2.119476e-03
2.414086e-01,0,-4.900038e-03
2.432917e-01,-1.084202e-19,5.720843e-03
2.616313e-01,0,6.689307e-04
2.452632e-01,5.421011e-20,-6.237792e-03
2.400334e-01,1.084202e-19,3.973003e-03
2.598011e-01,0,3.331788e-03
2.500202e-01,-5.421011e-20,-6.539644e-03
2.382429e-01,0,1.599429e-03
2.559848e-01,0,5.377343e-03
2.549529e-01,-1.084202e-19,-5.710872e-03
2.380602e-01,0,-1.020555e-03
2.511397e-01,0,6.452007e-03
2.590896e-01,0,-3.858267e-03
2.394981e-01,0,-3.483693e-03
2.462699e-01,0,6.401482e-03
2.614310e-01,1.084202e-19,-1.294273e-03
2.424483e-01,0,-5.401602e-03
2.421656e-01,0,5.278245e-03
2.613305e-01,0,1.512283e-03
2.466351e-01,0,-6.446352e-03
2.393273e-01,0,3.304251e-03
2.588165e-01,0,4.035624e-03
2.515356e-01,1.084202e-19,-6.407405e-03
2.380150e-01,0,8.141703e-04
2.545788e-01,1.084202e-19,5.816253e-03
2.563372e-01,1.084202e-19,-5.247705e-03
2.383267e-01,-2.710505e-20,-1.800962e-03
2.496270e-01,0,6.556866e-03
2.600280e-01,0,-3.138247e-03
2.402400e-01,0,-4.138329e-03
2.449186e-01,0,6.167400e-03
2.616714e-01,0,-4.464289e-04
2.436034e-01,0,-5.822377e-03
2.411573e-01,0,4.756949e-03
2.608032e-01,0,2.329204e-03
2.480749e-01,0,-6.554432e-03
2.387623e-01,1.084202e-19,2.587853e-03
2.576724e-01,1.084202e-19,4.670262e-03
2.530432e-01,0,-6.171038e-03
2.379369e-01,-2.710505e-20,1.738299e-05
2.531080e-01,0,6.158424e-03
2.576192e-01,1.084202e-19,-4.696149e-03
2.387407e-01,0,-2.555756e-03
2.481383e-01,0,6.556812e-03
2.607754e-01,1.084202e-19,-2.363937e-03
2.411162e-01,2.710505e-20,-4.732604e-03
2.436561e-01,0,5.838737e-03
2.616767e-01,2.710505e-20,4.092403e-04
2.448619e-01,0,-6.155019e-03
2.402755e-01,0,4.165519e-03
2.600647e-01,0,3.105586e-03
2.495615e-01,0,-6.559043e-03
2.383418e-01,0,1.834426e-03
2.563953e-01,-1.084202e-19,5.225484e-03
2.545163e-01,0,-5.833193e-03
2.380085e-01,0,-7.796492e-04
2.516013e-01,-1.084202e-19,6.399279e-03
2.587697e-01,0,-4.064767e-03
2.392998e-01,1.084202e-19,-3.273986e-03
2.466966e-01,0,6.453170e-03
2.613118e-01,0,-1.548494e-03
2.421190e-01,1.084202e-19,-5.257138e-03
2.424964e-01,0,5.421650e-03
2.614465e-01,0,1.257737e-03
2.462099e-01,0,-6.393325e-03
2.395275e-01,0,3.513307e-03
2.591345e-01,-6.776264e-21,3.828222e-03
2.510742e-01,0,-6.458747e-03
2.380685e-01,0,1.054904e-03
2.550153e-01,0,5.692645e-03
2.559253e-01,5.421011e-20,-5.398380e-03
2.382300e-01,0,-1.565644e-03
2.500859e-01,0,6.536074e-03
2.597615e-01,0,-3.363713e-03
2.399997e-01,0,-3.945028e-03
2.453213e-01,0,6.248902e-03
2.616229e-01,-5.421011e-20,-7.059897e-04
2.432402e-01,0,-5.703326e-03
2.414510e-01,5.421011e-20,4.923445e-03
2.609867e-01,0,2.084231e-03
2.476305e-01,1.084202e-19,-6.532388e-03
2.389191e-01,1.084202e-19,2.810307e-03
2.580356e-01,1.084202e-19,4.485077e-03
2.525865e-01,5.421011e-20,-6.253882e-03
2.379450e-01,0,2.604328e-04
2.535609e-01,0,6.064833e-03
2.572414e-01,0,-4.872896e-03
2.385992e-01,0,-2.329405e-03
2.485874e-01,0,6.567887e-03
2.605693e-01,-1.084202e-19,-2.604581e-03
2.408356e-01,0,-4.558701e-03
2.440300e-01,0,5.948436e-03
2.617003e-01,0,1.488845e-04
2.444685e-01,-5.421011e-20,-6.063507e-03
2.405302e-01,0,4.352398e-03
2.603106e-01,0,2.874396e-03
2.491053e-01,-2.710505e-20,-6.568712e-03
2.384544e-01,0,2.067004e-03
2.567962e-01,0,5.065459e-03
2.540731e-01,0,-5.946530e-03
2.379707e-01,0,-5.377206e-04
2.520621e-01,1.084202e-19,6.336896e-03
2.584355e-01,-1.355253e-20,-4.264798e-03
2.391145e-01,0,-3.059905e-03
2.471293e-01,-1.084202e-19,6.495532e-03
2.611717e-01,0,-1.800204e-03
2.418011e-01,-2.168404e-19,-5.105406e-03
2.428375e-01,0,5.557541e-03
