x,y,z
2.262239e-01,0,-2.982597e-02
1.969291e-01,1.355253e-20,3.635853e-03
2.403190e-01,-1.084202e-19,3.008930e-02
3.025028e-01,0,-1.008877e-02
2.165540e-01,0,-2.902582e-02
1.962325e-01,0,8.625185e-03
2.493641e-01,0,3.007276e-02
2.985406e-01,-1.084202e-19,-1.457143e-02
2.125517e-01,0,-2.799957e-02
1.965095e-01,0,1.118368e-02
2.547949e-01,0,2.953020e-02
2.942915e-01,0,-1.702934e-02
2.100351e-01,-3.388132e-21,-2.613735e-02
1.983407e-01,1.084202e-19,1.378885e-02
2.623450e-01,0,2.775817e-02
2.852664e-01,0,-2.035863e-02
2.063712e-01,-1.084202e-19,-2.184999e-02
2.031037e-01,0,1.844747e-02
2.765400e-01,0,2.336686e-02
2.699349e-01,0,-2.555238e-02
2.007171e-01,6.776264e-21,-1.624733e-02
2.080908e-01,0,2.398975e-02
2.898579e-01,0,1.879753e-02
2.587473e-01,0,-2.873061e-02
1.972929e-01,0,-1.265629e-02
2.109055e-01,5.421011e-20,2.706681e-02
2.961148e-01,0,1.625222e-02
2.531326e-01,2.710505e-20,-2.984753e-02
1.961986e-01,1.084202e-19,-1.056072e-02
2.132670e-01,0,2.837100e-02
2.995123e-01,0,1.383109e-02
2.477819e-01,0,-3.015866e-02
1.962501e-01,0,-7.818216e-03
2.179595e-01,0,2.926060e-02
3.035234e-01,0,8.509293e-03
2.376074e-01,0,-3.006385e-02
1.970704e-01,0,-2.183853e-03
2.291158e-01,0,2.992334e-02
3.057909e-01,0,-2.498696e-03
2.236086e-01,0,-2.975544e-02
1.966631e-01,0,4.892926e-03
2.424872e-01,1.355253e-20,3.017394e-02
3.018335e-01,-1.084202e-19,-1.123770e-02
2.155795e-01,0,-2.896810e-02
1.960352e-01,2.710505e-20,9.076361e-03
2.499777e-01,0,3.015954e-02
2.985598e-01,-1.084202e-19,-1.480870e-02
2.123971e-01,0,-2.814908e-02
1.962248e-01,0,1.110578e-02
2.542319e-01,-2.710505e-20,2.975655e-02
2.953125e-01,-1.084202e-19,-1.673137e-02
2.104197e-01,0,-2.673908e-02
1.975893e-01,-1.084202e-19,1.312784e-02
2.600599e-01,1.084202e-19,2.843697e-02
2.883346e-01,0,-1.936806e-02
2.074667e-01,0,-2.328909e-02
2.014751e-01,0,1.700828e-02
2.721970e-01,-1.355253e-20,2.485368e-02
2.742436e-01,0,-2.417382e-02
2.022191e-01,0,-1.768553e-02
2.069462e-01,0,2.262684e-02
2.869272e-01,0,1.983809e-02
2.611378e-01,0,-2.813662e-02
1.979167e-01,0,-1.345711e-02
2.101879e-01,0,2.645918e-02
2.947920e-01,0,1.692817e-02
2.546397e-01,0,-2.965742e-02
1.963333e-01,0,-1.123500e-02
2.122932e-01,0,2.805267e-02
2.983729e-01,5.421011e-20,1.490102e-02
2.501633e-01,0,-3.012791e-02
1.960661e-01,0,-9.147743e-03
2.154914e-01,0,2.893068e-02
3.017350e-01,0,1.133050e-02
2.426585e-01,0,-3.016490e-02
1.966666e-01,0,-4.976342e-03
2.234605e-01,-1.084202e-19,2.973807e-02
3.057496e-01,0,2.642693e-03
2.292880e-01,0,-2.991830e-02
1.970927e-01,0,2.106822e-03
2.374830e-01,0,3.005199e-02
3.035417e-01,0,-8.436438e-03
2.180193e-01,0,-2.925179e-02
1.962794e-01,0,7.801856e-03
2.477903e-01,0,3.013976e-02
2.994473e-01,0,-1.384167e-02
2.132453e-01,-1.084202e-19,-2.832513e-02
1.962609e-01,0,1.061206e-02
2.533235e-01,0,2.979385e-02
2.958468e-01,0,-1.634841e-02
2.107883e-01,0,-2.691646e-02
1.974735e-01,0,1.283290e-02
2.593384e-01,-5.421011e-20,2.856614e-02
2.890659e-01,0,-1.906175e-02
2.077950e-01,-1.355253e-20,-2.359917e-02
2.011673e-01,0,1.665411e-02
2.712077e-01,1.084202e-19,2.514050e-02
2.751787e-01,-1.084202e-19,-2.382432e-02
2.026052e-01,0,-1.797193e-02
2.067718e-01,0,2.231576e-02
2.863255e-01,0,1.999060e-02
2.614753e-01,5.421011e-20,-2.798707e-02
1.980982e-01,0,-1.350273e-02
2.102785e-01,5.421011e-20,2.636556e-02
2.947743e-01,0,1.680206e-02
2.542892e-01,1.084202e-19,-2.960544e-02
1.964482e-01,0,-1.096895e-02
2.128440e-01,-1.084202e-19,2.810936e-02
2.988975e-01,-1.084202e-19,1.425491e-02
2.486640e-01,-1.084202e-19,-3.008790e-02
1.962782e-01,0,-8.241213e-03
2.172590e-01,0,2.912355e-02
3.030077e-01,2.710505e-20,9.284797e-03
2.389024e-01,0,-3.006183e-02
1.970351e-01,0,-2.857424e-03
2.278016e-01,5.421011e-20,2.987079e-02
3.058978e-01,-1.355253e-20,-1.398892e-03
2.247276e-01,5.421011e-20,-2.977712e-02
1.968038e-01,0,4.367879e-03
2.416212e-01,0,3.012183e-02
3.020496e-01,0,-1.079390e-02
2.159430e-01,0,-2.895161e-02
1.961697e-01,0,8.945099e-03
2.499102e-01,-1.084202e-19,3.007800e-02
2.983178e-01,0,-1.480896e-02
2.123433e-01,-1.355253e-20,-2.795593e-02
1.964989e-01,1.084202e-19,1.130470e-02
2.550147e-01,-1.084202e-19,2.952218e-02
2.941649e-01,0,-1.712020e-02
2.099470e-01,0,-2.609822e-02
1.983626e-01,0,1.385504e-02
2.624982e-01,0,2.773276e-02
2.851262e-01,0,-2.042138e-02
2.063048e-01,0,-2.179957e-02
2.031440e-01,-1.084202e-19,1.850739e-02
2.766834e-01,0,2.332917e-02
2.698293e-01,0,-2.559746e-02
2.006650e-01,1.084202e-19,-1.622444e-02
2.080863e-01,0,2.402197e-02
2.898933e-01,0,1.880604e-02
2.587769e-01,5.421011e-20,-2.874607e-02
1.972677e-01,0,-1.269088e-02
2.108256e-01,-1.084202e-19,2.706210e-02
2.960355e-01,0,1.634479e-02
2.533640e-01,0,-2.985458e-02
1.961642e-01,0,-1.070467e-02
2.129950e-01,5.421011e-20,2.833070e-02
2.992485e-01,0,1.414742e-02
2.484913e-01,0,-3.017244e-02
1.961606e-01,0,-8.237651e-03
2.171409e-01,1.084202e-19,2.917785e-02
3.030054e-01,-1.084202e-19,9.444022e-03
2.391977e-01,0,-3.010666e-02
1.969496e-01,0,-3.060645e-03
2.273215e-01,-1.355253e-20,2.989195e-02
3.059895e-01,0,-9.713328e-04
2.251886e-01,0,-2.982972e-02
1.967855e-01,0,4.105900e-03
2.410720e-01,1.084202e-19,3.015246e-02
3.023646e-01,1.084202e-19,-1.048618e-02
2.162356e-01,0,-2.907271e-02
1.960675e-01,0,8.710014e-03
2.492987e-01,-1.084202e-19,3.018132e-02
2.989270e-01,-1.084202e-19,-1.450332e-02
2.126843e-01,1.084202e-19,-2.827040e-02
1.961453e-01,0,1.088177e-02
2.536808e-01,0,2.984616e-02
2.958653e-01,-1.084202e-19,-1.647721e-02
2.107008e-01,0,-2.701138e-02
1.972927e-01,0,1.278314e-02
2.589888e-01,1.084202e-19,2.871407e-02
2.896956e-01,0,-1.889565e-02
2.079918e-01,0,-2.393937e-02
2.007445e-01,-1.084202e-19,1.632313e-02
2.701013e-01,0,2.552296e-02
2.764205e-01,0,-2.343012e-02
2.030328e-01,1.084202e-19,-1.842467e-02
2.063576e-01,-1.084202e-19,2.189065e-02
2.853094e-01,0,2.037386e-02
2.623891e-01,5.421011e-20,-2.777901e-02
1.983072e-01,-1.084202e-19,-1.383751e-02
2.099263e-01,0,2.612841e-02
2.941790e-01,0,1.715065e-02
2.551018e-01,0,-2.953803e-02
1.964664e-01,-1.084202e-19,-1.137421e-02
2.121970e-01,-1.084202e-19,2.794177e-02
2.981769e-01,0,1.498034e-02
2.503137e-01,0,-3.008899e-02
1.961118e-01,-1.084202e-19,-9.190674e-03
2.154668e-01,5.421011e-20,2.889615e-02
3.016827e-01,0,1.134778e-02
2.426827e-01,0,-3.014985e-02
1.966891e-01,0,-4.972912e-03
2.234924e-01,0,2.972715e-02
3.057369e-01,5.421011e-20,2.606714e-03
2.292408e-01,1.355253e-20,-2.990675e-02
1.971079e-01,0,2.141226e-03
2.375707e-01,8.470329e-22,3.004170e-02
3.034822e-01,0,-8.492883e-03
2.179631e-01,-1.084202e-19,-2.922445e-02
1.963083e-01,-2.168404e-19,7.851816e-03
2.479295e-01,0,3.011376e-02
2.993032e-01,1.084202e-19,-1.391425e-02
2.131643e-01,1.084202e-19,-2.824862e-02
1.963497e-01,1.084202e-19,1.071503e-02
2.536515e-01,5.421011e-20,2.971381e-02
2.954282e-01,0,-1.650883e-02
2.106002e-01,-1.084202e-19,-2.668905e-02
1.977418e-01,2.710505e-20,1.310246e-02
2.602258e-01,0,2.832047e-02
2.878977e-01,5.421011e-20,-1.945230e-02
2.073614e-01,0,-2.303723e-02
2.018080e-01,0,1.723262e-02
2.729863e-01,-1.084202e-19,2.455468e-02
2.733478e-01,3.388132e-21,-2.443485e-02
2.019394e-01,0,-1.735217e-02
2.072690e-01,0,2.292066e-02
2.876498e-01,0,1.953629e-02
2.604187e-01,0,-2.826810e-02
1.977983e-01,0,-1.316287e-02
2.105544e-01,0,2.663935e-02
2.953315e-01,1.084202e-19,1.654952e-02
2.537381e-01,0,-2.969679e-02
1.963668e-01,-1.084202e-19,-1.074673e-02
2.131288e-01,0,2.822935e-02
2.992546e-01,-1.084202e-19,1.395057e-02
2.480059e-01,2.710505e-20,-3.010904e-02
1.963083e-01,0,-7.889869e-03
2.178977e-01,1.084202e-19,2.921335e-02
3.034378e-01,-1.084202e-19,8.565742e-03
2.376899e-01,0,-3.004235e-02
1.971040e-01,-5.421011e-20,-2.203901e-03
2.291169e-01,0,2.990293e-02
3.057533e-01,0,-2.505751e-03
2.235940e-01,0,-2.973058e-02
1.967004e-01,5.421011e-20,4.924307e-03
2.425999e-01,0,3.014640e-02
3.017066e-01,0,-1.130582e-02
2.155021e-01,0,-2.889764e-02
1.961205e-01,0,9.175036e-03
2.502951e-01,0,3.008479e-02
2.981714e-01,2.710505e-20,-1.497371e-02
2.122001e-01,1.084202e-19,-2.793338e-02
1.964803e-01,0,1.138068e-02
2.551343e-01,0,2.952653e-02
2.941251e-01,0,-1.716720e-02
2.099057e-01,0,-2.609782e-02
1.983444e-01,-1.084202e-19,1.387111e-02
2.625034e-01,1.084202e-19,2.774485e-02
2.851596e-01,-5.421011e-20,-2.042235e-02
2.063047e-01,0,-2.182320e-02
2.031071e-01,0,1.849119e-02
2.766145e-01,0,2.336202e-02
2.699158e-01,0,-2.557979e-02
2.006822e-01,0,-1.626167e-02
2.080407e-01,0,2.399575e-02
2.898156e-01,0,1.885079e-02
2.588865e-01,1.084202e-19,-2.873707e-02
1.972698e-01,-1.084202e-19,-1.274671e-02
2.107372e-01,0,2.703684e-02
2.959266e-01,0,1.644104e-02
2.535978e-01,0,-2.985331e-02
1.961422e-01,0,-1.084119e-02
2.127489e-01,0,2.828719e-02
2.989981e-01,5.421011e-20,1.443134e-02
2.491358e-01,-1.084202e-19,-3.018151e-02
1.960832e-01,0,-8.616758e-03
2.164104e-01,0,2.909538e-02
3.024948e-01,-1.084202e-19,1.028424e-02
2.407004e-01,-1.084202e-19,-3.014438e-02
1.968183e-01,-1.084202e-19,-3.898362e-03
2.256107e-01,0,2.984483e-02
3.060131e-01,0,5.763816e-04
2.268750e-01,0,-2.988161e-02
1.969167e-01,0,3.278637e-03
2.395900e-01,0,3.011699e-02
3.028750e-01,2.710505e-20,-9.667082e-03
2.169465e-01,1.084202e-19,-2.915717e-02
1.961391e-01,0,8.337598e-03
2.486603e-01,0,3.017564e-02
2.991860e-01,-1.084202e-19,-1.422180e-02
2.129309e-01,0,-2.832126e-02
1.961557e-01,0,1.073846e-02
2.534172e-01,0,2.985647e-02
2.960176e-01,-1.084202e-19,-1.636618e-02
2.108075e-01,1.084202e-19,-2.706164e-02
1.972602e-01,0,1.269829e-02
2.587812e-01,0,2.875046e-02
2.899059e-01,0,-1.880682e-02
2.080869e-01,0,-2.403133e-02
2.006510e-01,0,1.621710e-02
2.697979e-01,0,2.561000e-02
2.767236e-01,1.084202e-19,-2.331807e-02
2.031562e-01,0,-1.852382e-02
2.062869e-01,0,2.178542e-02
2.850884e-01,0,2.043796e-02
2.625381e-01,1.084202e-19,-2.772557e-02
1.983686e-01,1.084202e-19,-1.387204e-02
2.099256e-01,-2.710505e-20,2.608777e-02
2.941331e-01,0,1.714247e-02
2.550681e-01,0,-2.951987e-02
1.964969e-01,0,-1.133389e-02
2.122931e-01,0,2.794516e-02
2.982639e-01,-1.084202e-19,1.486539e-02
2.500407e-01,-1.084202e-19,-3.007903e-02
1.961549e-01,0,-9.021508e-03
2.157984e-01,0,2.893312e-02
3.019376e-01,0,1.096172e-02
2.419388e-01,0,-3.012943e-02
1.967719e-01,0,-4.547411e-03
2.243620e-01,2.710505e-20,2.976276e-02
3.058595e-01,-5.421011e-20,1.751397e-03
2.282136e-01,-5.421011e-20,-2.988090e-02
1.970592e-01,0,2.653646e-03
2.385275e-01,0,3.005500e-02
3.031396e-01,0,-9.065701e-03
2.174527e-01,5.421011e-20,-2.915005e-02
1.962890e-01,0,8.135670e-03
2.484697e-01,-8.470329e-22,3.009284e-02
2.989993e-01,-1.084202e-19,-1.416579e-02
2.129269e-01,1.355253e-20,-2.814174e-02
1.964283e-01,1.084202e-19,1.090681e-02
2.541393e-01,1.084202e-19,2.962873e-02
2.949208e-01,-1.084202e-19,-1.673420e-02
