x,y,z
2.516352e-01,5.421011e-20,1.605434e-02
2.709766e-01,0,-1.035794e-02
2.238523e-01,0,-9.060912e-03
2.341950e-01,0,1.519381e-02
2.801321e-01,0,1.011809e-04
2.344469e-01,-1.084202e-19,-1.526176e-02
2.237335e-01,1.355253e-20,8.917681e-03
2.706832e-01,0,1.050703e-02
2.519821e-01,0,-1.601005e-02
2.203975e-01,0,-1.659777e-04
2.512896e-01,1.355253e-20,1.609649e-02
2.712669e-01,-1.084202e-19,-1.020734e-02
2.239739e-01,1.084202e-19,-9.203222e-03
2.339455e-01,1.084202e-19,1.512418e-02
2.801257e-01,0,3.035207e-04
2.347012e-01,0,-1.532802e-02
2.236161e-01,0,8.773589e-03
2.703871e-01,1.084202e-19,1.065461e-02
2.523303e-01,2.168404e-19,-1.596361e-02
2.204009e-01,0,-3.319436e-04
2.509441e-01,-1.084202e-19,1.613653e-02
2.715542e-01,0,-1.005526e-02
2.240971e-01,0,-9.344634e-03
2.336985e-01,0,1.505287e-02
2.801130e-01,0,5.057946e-04
2.349579e-01,0,-1.539258e-02
2.235014e-01,0,8.628613e-03
2.700876e-01,-1.355253e-20,1.080066e-02
2.526782e-01,0,-1.591510e-02
2.204063e-01,0,-4.978857e-04
2.505997e-01,0,1.617445e-02
2.718375e-01,0,-9.901713e-03
2.242229e-01,0,-9.485091e-03
2.334532e-01,0,1.497994e-02
2.800939e-01,0,7.079590e-04
2.352169e-01,0,-1.545542e-02
2.233883e-01,-1.084202e-19,8.482814e-03
2.697848e-01,0,1.094520e-02
2.530274e-01,5.421011e-20,-1.586444e-02
2.204137e-01,0,-6.637934e-04
2.502566e-01,0,1.621022e-02
2.721175e-01,0,-9.746711e-03
2.243505e-01,0,-9.624608e-03
2.332103e-01,5.421011e-20,1.490537e-02
2.800684e-01,0,9.099701e-04
2.354777e-01,2.710505e-20,-1.551655e-02
2.232779e-01,1.355253e-20,8.336168e-03
2.694795e-01,0,1.108817e-02
2.533775e-01,1.084202e-19,-1.581165e-02
2.204239e-01,0,-8.296517e-04
2.499144e-01,-1.084202e-19,1.624387e-02
2.723940e-01,0,-9.590257e-03
2.244805e-01,0,-9.763142e-03
2.329701e-01,0,1.482915e-02
2.800366e-01,1.084202e-19,1.111785e-03
2.357407e-01,0,-1.557594e-02
2.231689e-01,-1.084202e-19,8.188735e-03
2.691716e-01,0,1.122957e-02
2.537275e-01,-1.084202e-19,-1.575678e-02
2.204352e-01,0,-9.954544e-04
2.495729e-01,-1.084202e-19,1.627540e-02
2.726671e-01,0,-9.432367e-03
2.246126e-01,5.421011e-20,-9.900693e-03
2.327323e-01,0,1.475131e-02
2.799985e-01,0,1.313360e-03
2.360061e-01,-5.421011e-20,-1.563359e-02
2.230627e-01,0,8.040496e-03
2.688611e-01,-1.355253e-20,1.136940e-02
2.540787e-01,-2.710505e-20,-1.569978e-02
2.204496e-01,2.710505e-20,-1.161184e-03
2.492326e-01,0,1.630481e-02
2.729367e-01,0,-9.273054e-03
2.247469e-01,-1.084202e-19,-1.003724e-02
2.324971e-01,0,1.467186e-02
2.799540e-01,-1.084202e-19,1.514654e-03
2.362736e-01,0,-1.568947e-02
2.229580e-01,0,7.891503e-03
2.685473e-01,0,1.150765e-02
2.544302e-01,0,-1.564067e-02
2.204656e-01,0,-1.326832e-03
2.488937e-01,-2.710505e-20,1.633208e-02
2.732023e-01,1.355253e-20,-9.112342e-03
2.248835e-01,2.710505e-20,-1.017275e-02
2.322635e-01,0,1.459085e-02
2.799033e-01,0,1.715624e-03
2.365434e-01,0,-1.574359e-02
2.228558e-01,0,7.741747e-03
2.682314e-01,-1.084202e-19,1.164429e-02
2.547820e-01,0,-1.557948e-02
2.204839e-01,5.421011e-20,-1.492386e-03
2.485560e-01,-1.084202e-19,1.635722e-02
2.734637e-01,5.421011e-20,-8.950241e-03
2.250220e-01,0,-1.030724e-02
2.320326e-01,0,1.450824e-02
2.798463e-01,0,1.916227e-03
2.368155e-01,-1.084202e-19,-1.579591e-02
2.227554e-01,0,7.591270e-03
2.679134e-01,0,1.177930e-02
2.551348e-01,3.388132e-21,-1.551617e-02
2.205047e-01,-1.084202e-19,-1.657831e-03
2.482189e-01,0,1.638027e-02
2.737214e-01,0,-8.786757e-03
2.251632e-01,1.355253e-20,-1.044064e-02
2.318043e-01,1.084202e-19,1.442405e-02
2.797830e-01,0,2.116427e-03
2.370897e-01,0,-1.584644e-02
2.226573e-01,2.710505e-20,7.440073e-03
2.675927e-01,2.710505e-20,1.191269e-02
2.554871e-01,0,-1.545080e-02
2.205269e-01,-1.084202e-19,-1.823163e-03
2.478832e-01,0,1.640120e-02
2.739752e-01,0,-8.621903e-03
2.253059e-01,0,-1.057301e-02
2.315786e-01,0,1.433830e-02
2.797136e-01,0,2.316178e-03
2.373660e-01,0,-1.589518e-02
2.225612e-01,0,7.288185e-03
2.672695e-01,0,1.204445e-02
2.558403e-01,-2.710505e-20,-1.538333e-02
2.205522e-01,0,-1.988358e-03
2.475490e-01,0,1.642001e-02
2.742249e-01,0,-8.455692e-03
2.254518e-01,0,-1.070425e-02
2.313547e-01,-2.710505e-20,1.425103e-02
2.796379e-01,-3.388132e-21,2.515445e-03
2.376444e-01,0,-1.594208e-02
2.224670e-01,0,7.135623e-03
2.669446e-01,0,1.217454e-02
2.561936e-01,0,-1.531379e-02
2.205788e-01,0,-2.153417e-03
2.472161e-01,0,1.643670e-02
2.744707e-01,0,-8.288141e-03
2.255989e-01,5.421011e-20,-1.083442e-02
2.311333e-01,5.421011e-20,1.416222e-02
2.795559e-01,0,2.714189e-03
2.379247e-01,0,-1.598718e-02
2.223752e-01,0,6.982399e-03
2.666177e-01,-3.388132e-21,1.230294e-02
2.565470e-01,0,-1.524219e-02
2.206079e-01,0,-2.318318e-03
2.468845e-01,1.084202e-19,1.645129e-02
2.747123e-01,0,-8.119264e-03
2.257491e-01,-1.084202e-19,-1.096344e-02
2.309147e-01,-1.084202e-19,1.407187e-02
2.794678e-01,0,2.912370e-03
2.382070e-01,0,-1.603044e-02
2.222851e-01,0,6.828546e-03
2.662881e-01,5.421011e-20,1.242968e-02
2.569009e-01,1.084202e-19,-1.516852e-02
2.206392e-01,1.084202e-19,-2.483050e-03
2.465538e-01,0,1.646381e-02
2.749491e-01,0,-7.949090e-03
2.259010e-01,5.421011e-20,-1.109135e-02
2.306987e-01,0,1.398000e-02
2.793737e-01,-2.710505e-20,3.109952e-03
2.384913e-01,0,-1.607184e-02
2.221976e-01,0,6.674059e-03
2.659569e-01,0,1.255472e-02
2.572543e-01,0,-1.509280e-02
2.206723e-01,0,-2.647606e-03
2.462246e-01,0,1.647422e-02
2.751815e-01,5.421011e-20,-7.777617e-03
2.260554e-01,0,-1.121810e-02
2.304843e-01,0,1.388667e-02
2.792735e-01,2.710505e-20,3.306898e-03
2.387777e-01,0,-1.611138e-02
2.221114e-01,0,6.518989e-03
2.656243e-01,0,1.267801e-02
2.576085e-01,-1.084202e-19,-1.501503e-02
2.207084e-01,0,-2.811960e-03
2.458969e-01,0,1.648254e-02
2.754096e-01,0,-7.604862e-03
2.262123e-01,-1.355253e-20,-1.134368e-02
2.302727e-01,0,1.379185e-02
2.791673e-01,0,3.503172e-03
2.390661e-01,0,-1.614905e-02
2.220282e-01,0,6.363313e-03
2.652893e-01,5.421011e-20,1.279962e-02
2.579618e-01,0,-1.493525e-02
2.207454e-01,0,-2.976121e-03
2.455706e-01,0,1.648878e-02
2.756332e-01,0,-7.430841e-03
2.263709e-01,0,-1.146810e-02
2.300639e-01,-1.084202e-19,1.369552e-02
2.790552e-01,0,3.698738e-03
2.393564e-01,5.421011e-20,-1.618484e-02
2.219460e-01,0,6.207099e-03
2.649528e-01,0,1.291946e-02
2.583158e-01,-1.084202e-19,-1.485342e-02
2.207853e-01,-2.710505e-20,-3.140052e-03
2.452459e-01,2.710505e-20,1.649294e-02
2.758522e-01,1.084202e-19,-7.255572e-03
2.265326e-01,0,-1.159129e-02
2.298572e-01,0,1.359775e-02
2.789373e-01,0,3.893564e-03
2.396488e-01,-5.421011e-20,-1.621873e-02
2.218668e-01,0,6.050316e-03
2.646152e-01,0,1.303753e-02
2.586688e-01,0,-1.476960e-02
2.208271e-01,0,-3.303755e-03
2.449228e-01,0,1.649502e-02
2.760667e-01,-1.084202e-19,-7.079072e-03
2.266958e-01,0,-1.171331e-02
2.296527e-01,5.421011e-20,1.349855e-02
2.788135e-01,5.421011e-20,4.087616e-03
2.399430e-01,0,-1.625072e-02
2.217889e-01,0,5.893022e-03
2.642752e-01,0,1.315385e-02
2.590225e-01,1.084202e-19,-1.468375e-02
2.208710e-01,0,-3.467210e-03
2.446008e-01,1.084202e-19,1.649505e-02
2.762765e-01,0,-6.901359e-03
2.268618e-01,-1.084202e-19,-1.183408e-02
2.294510e-01,0,1.339788e-02
2.786839e-01,0,4.280860e-03
2.402392e-01,5.421011e-20,-1.628080e-02
2.217136e-01,0,5.735204e-03
2.639342e-01,-1.084202e-19,1.326838e-02
2.593750e-01,0,-1.459594e-02
2.209174e-01,-1.084202e-19,-3.630397e-03
2.442803e-01,0,1.649303e-02
2.764815e-01,2.168404e-19,-6.722454e-03
2.270302e-01,-2.710505e-20,-1.195362e-02
2.292517e-01,0,1.329579e-02
2.785486e-01,0,4.473264e-03
2.405373e-01,-5.421011e-20,-1.630894e-02
2.216401e-01,0,5.576899e-03
2.635922e-01,-1.355253e-20,1.338109e-02
2.597279e-01,-1.084202e-19,-1.450612e-02
2.209652e-01,0,-3.793318e-03
2.439614e-01,0,1.648896e-02
2.766811e-01,0,-6.542382e-03
2.272005e-01,0,-1.207192e-02
2.290544e-01,-5.421011e-20,1.319231e-02
2.784077e-01,-1.084202e-19,4.664800e-03
2.408371e-01,0,-1.633515e-02
2.215687e-01,-5.421011e-20,5.418118e-03
2.632482e-01,0,1.349202e-02
2.600797e-01,-5.421011e-20,-1.441436e-02
2.210160e-01,-6.776264e-21,-3.955935e-03
2.436441e-01,0,1.648284e-02
2.768759e-01,0,-6.361156e-03
2.273738e-01,-1.084202e-19,-1.218893e-02
2.288599e-01,1.084202e-19,1.308741e-02
2.782612e-01,0,4.855434e-03
2.411388e-01,0,-1.635941e-02
2.214997e-01,-1.084202e-19,5.258874e-03
2.629036e-01,0,1.360108e-02
2.604315e-01,0,-1.432062e-02
2.210679e-01,0,-4.118258e-03
2.433284e-01,1.084202e-19,1.647470e-02
2.770656e-01,0,-6.178797e-03
2.275488e-01,5.421011e-20,-1.230468e-02
2.286679e-01,1.355253e-20,1.298112e-02
2.781091e-01,0,5.045140e-03
2.414424e-01,0,-1.638171e-02
2.214322e-01,5.421011e-20,5.099201e-03
2.625576e-01,2.710505e-20,1.370831e-02
2.607824e-01,0,-1.422494e-02
2.211226e-01,-2.710505e-20,-4.280251e-03
2.430144e-01,-5.421011e-20,1.646453e-02
2.772502e-01,5.421011e-20,-5.995326e-03
2.277265e-01,0,-1.241913e-02
2.284778e-01,-5.421011e-20,1.287347e-02
2.779515e-01,0,5.233886e-03
2.417477e-01,5.421011e-20,-1.640205e-02
2.213676e-01,0,4.939087e-03
2.622105e-01,0,1.381368e-02
2.611328e-01,0,-1.412733e-02
2.211792e-01,1.084202e-19,-4.441907e-03
2.427021e-01,5.421011e-20,1.645234e-02
2.774298e-01,5.421011e-20,-5.810767e-03
2.279070e-01,1.694066e-21,-1.253226e-02
2.282905e-01,1.084202e-19,1.276444e-02
2.777885e-01,1.084202e-19,5.421649e-03
2.420549e-01,0,-1.642040e-02
2.213040e-01,0,4.778589e-03
2.618631e-01,0,1.391715e-02
2.614827e-01,0,-1.402780e-02
2.212377e-01,0,-4.603212e-03
2.423915e-01,0,1.643814e-02
2.776041e-01,0,-5.625144e-03
2.280889e-01,0,-1.264410e-02
2.281056e-01,0,1.265407e-02
2.776200e-01,0,5.608402e-03
2.423638e-01,0,-1.643677e-02
2.212433e-01,0,4.617687e-03
2.615138e-01,0,1.401877e-02
2.618313e-01,0,-1.392638e-02
2.212988e-01,-1.084202e-19,-4.764138e-03
2.420826e-01,0,1.642195e-02
2.777731e-01,0,-5.438481e-03
2.282737e-01,1.084202e-19,-1.275459e-02
2.279227e-01,0,1.254238e-02
2.774460e-01,0,5.794122e-03
2.426744e-01,0,-1.645114e-02
2.211843e-01,-1.084202e-19,4.456421e-03
2.611645e-01,-1.084202e-19,1.411846e-02
2.621797e-01,0,-1.382304e-02
2.213613e-01,0,-4.924689e-03
2.417753e-01,0,1.640377e-02
2.779368e-01,0,-5.250804e-03
2.284612e-01,0,-1.286371e-02
2.277428e-01,0,1.242935e-02
2.772668e-01,0,5.978780e-03
2.429866e-01,0,-1.646350e-02
2.211275e-01,0,4.294794e-03
2.608139e-01,0,1.421625e-02
2.625264e-01,-5.421011e-20,-1.371785e-02
2.214267e-01,0,-5.084820e-03
2.414699e-01,0,1.638361e-02
2.780951e-01,0,-5.062140e-03
2.286504e-01,0,-1.297151e-02
2.275648e-01,0,1.231502e-02
2.770824e-01,0,6.162352e-03
2.433007e-01,-1.694066e-21,-1.647385e-02
2.210730e-01,0,4.132827e-03
2.604630e-01,0,1.431210e-02
2.628725e-01,0,-1.361079e-02
