x,y,z
2.448905e-01,1.355253e-20,2.314727e-02
2.852244e-01,1.084202e-19,-1.118666e-02
2.173567e-01,0,-1.734073e-02
2.161167e-01,0,1.636739e-02
2.830258e-01,1.355253e-20,1.259974e-02
2.477259e-01,1.084202e-19,-2.298222e-02
2.085148e-01,1.084202e-19,-1.379091e-03
2.419533e-01,0,2.335269e-02
2.875256e-01,-1.084202e-19,-9.668397e-03
2.186199e-01,0,-1.845146e-02
2.146016e-01,0,1.528834e-02
2.803593e-01,0,1.424453e-02
2.511720e-01,0,-2.278272e-02
2.083047e-01,1.355253e-20,-3.088690e-03
2.382704e-01,0,2.358275e-02
2.902610e-01,0,-7.619701e-03
2.203086e-01,0,-1.988104e-02
2.126215e-01,-5.421011e-20,1.380722e-02
2.764575e-01,0,1.635880e-02
2.559813e-01,0,-2.234028e-02
2.081329e-01,0,-5.421807e-03
2.334322e-01,0,2.365985e-02
2.931605e-01,0,-4.529541e-03
2.230251e-01,0,-2.159204e-02
2.103478e-01,5.421011e-20,1.161592e-02
2.706135e-01,-1.355253e-20,1.886168e-02
2.625450e-01,-1.084202e-19,-2.122630e-02
2.085348e-01,-1.084202e-19,-8.375935e-03
2.279439e-01,-1.084202e-19,2.315031e-02
2.946990e-01,-4.235165e-22,-2.465703e-04
2.273850e-01,0,-2.304229e-02
2.086442e-01,-1.084202e-19,8.707308e-03
2.633267e-01,-1.355253e-20,2.104765e-02
2.698751e-01,-5.421011e-20,-1.912774e-02
2.101188e-01,0,-1.133348e-02
2.234068e-01,0,2.177377e-02
2.934286e-01,-1.084202e-19,4.121711e-03
2.328540e-01,0,-2.364279e-02
2.081351e-01,0,5.713395e-03
2.566013e-01,0,2.226263e-02
2.759321e-01,1.084202e-19,-1.661457e-02
2.123838e-01,1.084202e-19,-1.361134e-02
2.205368e-01,-2.710505e-20,2.005511e-02
2.905777e-01,0,7.347972e-03
2.378108e-01,1.084202e-19,-2.360375e-02
2.082789e-01,1.084202e-19,3.304348e-03
2.516082e-01,1.084202e-19,2.275259e-02
2.800162e-01,0,-1.444554e-02
2.144138e-01,1.084202e-19,-1.515499e-02
2.187716e-01,-1.084202e-19,1.858685e-02
2.877944e-01,0,9.483343e-03
2.416059e-01,0,-2.337741e-02
2.084976e-01,0,1.540196e-03
2.480515e-01,0,2.296476e-02
2.827747e-01,-2.710505e-20,-1.275917e-02
2.159726e-01,0,-1.626181e-02
2.174848e-01,0,1.744899e-02
2.854570e-01,0,1.103601e-02
2.445930e-01,0,-2.316679e-02
2.085936e-01,1.084202e-19,1.416011e-04
2.451861e-01,0,2.312832e-02
2.849934e-01,0,-1.133618e-02
2.172289e-01,2.710505e-20,-1.723406e-02
2.162576e-01,0,1.647182e-02
2.832710e-01,-5.421011e-20,1.244303e-02
2.474065e-01,0,-2.299942e-02
2.085305e-01,0,-1.221767e-03
2.422923e-01,0,2.332838e-02
2.872617e-01,0,-9.847534e-03
2.184729e-01,0,-1.831986e-02
2.147839e-01,0,1.541713e-02
2.806887e-01,0,1.404913e-02
2.507514e-01,2.710505e-20,-2.281032e-02
2.083306e-01,0,-2.880385e-03
2.387162e-01,0,2.356029e-02
2.899471e-01,5.421011e-20,-7.879356e-03
2.200914e-01,0,-1.971080e-02
2.128557e-01,0,1.399472e-02
2.769587e-01,0,1.610823e-02
2.553831e-01,0,-2.241030e-02
2.081371e-01,5.421011e-20,-5.138052e-03
2.340016e-01,1.084202e-19,2.367020e-02
2.928781e-01,0,-4.922197e-03
2.226635e-01,2.710505e-20,-2.140756e-02
2.105842e-01,-1.084202e-19,1.188932e-02
2.713327e-01,5.421011e-20,1.859211e-02
2.617737e-01,0,-2.139252e-02
2.084405e-01,0,-8.044696e-03
2.285144e-01,0,2.324735e-02
2.946630e-01,0,-7.385283e-04
2.268409e-01,1.355253e-20,-2.292340e-02
2.087690e-01,0,9.037658e-03
2.641160e-01,1.355253e-20,2.085666e-02
2.691204e-01,0,-1.938895e-02
2.098975e-01,-1.084202e-19,-1.104252e-02
2.238089e-01,0,2.195164e-02
2.936787e-01,2.710505e-20,3.699160e-03
2.322685e-01,0,-2.361831e-02
2.081437e-01,0,6.012442e-03
2.572426e-01,0,2.217665e-02
2.753833e-01,5.421011e-20,-1.687502e-02
2.121416e-01,5.421011e-20,-1.340682e-02
2.207776e-01,0,2.023264e-02
2.908964e-01,1.084202e-19,7.063516e-03
2.373371e-01,0,-2.362291e-02
2.082536e-01,0,3.527654e-03
2.520613e-01,1.084202e-19,2.271954e-02
2.796582e-01,1.084202e-19,-1.465237e-02
2.142204e-01,0,-1.501669e-02
2.189285e-01,0,1.872622e-02
2.880691e-01,0,9.291740e-03
2.412493e-01,6.776264e-21,-2.340245e-02
2.084788e-01,0,1.705493e-03
2.483853e-01,0,2.294686e-02
2.825179e-01,-1.084202e-19,-1.292169e-02
2.158248e-01,1.355253e-20,-1.615477e-02
2.176134e-01,0,1.755914e-02
2.856917e-01,0,1.088377e-02
2.442944e-01,6.776264e-21,-2.318683e-02
2.085906e-01,0,2.836026e-04
2.454817e-01,0,2.310983e-02
2.847622e-01,-2.710505e-20,-1.148505e-02
2.171009e-01,-2.710505e-20,-1.712874e-02
2.163957e-01,2.710505e-20,1.657540e-02
2.835124e-01,1.084202e-19,1.228865e-02
2.470937e-01,0,-2.301645e-02
2.085446e-01,1.084202e-19,-1.067816e-03
2.426235e-01,-1.084202e-19,2.330455e-02
2.870034e-01,1.084202e-19,-1.002130e-02
2.183301e-01,-5.421011e-20,-1.819190e-02
2.149609e-01,0,1.554176e-02
2.810041e-01,-1.084202e-19,1.385915e-02
2.503460e-01,0,-2.283572e-02
2.083561e-01,0,-2.679116e-03
2.391483e-01,0,2.353673e-02
2.896376e-01,5.421011e-20,-8.127606e-03
2.198851e-01,1.084202e-19,-1.954453e-02
2.130851e-01,0,1.417422e-02
2.774382e-01,0,1.586316e-02
2.548062e-01,-1.084202e-19,-2.247341e-02
2.081466e-01,-5.421011e-20,-4.862410e-03
2.345602e-01,-5.421011e-20,2.367455e-02
2.925830e-01,0,-5.299455e-03
2.223210e-01,1.084202e-19,-2.122137e-02
2.108244e-01,0,1.215351e-02
2.720319e-01,0,1.832031e-02
2.610153e-01,2.710505e-20,-2.154639e-02
2.083603e-01,0,-7.714763e-03
2.290954e-01,0,2.333330e-02
2.945916e-01,0,-1.226972e-03
2.263124e-01,0,-2.279407e-02
2.089090e-01,1.084202e-19,9.365828e-03
2.649100e-01,2.710505e-20,2.065360e-02
2.683521e-01,2.168404e-19,-1.964396e-02
2.096861e-01,0,-1.074351e-02
2.242319e-01,0,2.212457e-02
2.939077e-01,1.084202e-19,3.262609e-03
2.316774e-01,5.421011e-20,-2.358571e-02
2.081610e-01,0,6.318421e-03
2.579048e-01,-1.355253e-20,2.208168e-02
2.748104e-01,5.421011e-20,-1.713957e-02
2.118972e-01,0,-1.319329e-02
2.210324e-01,6.776264e-21,2.041318e-02
2.912170e-01,0,6.765680e-03
2.368485e-01,0,-2.363985e-02
2.082292e-01,1.084202e-19,3.758864e-03
2.525320e-01,1.084202e-19,2.268315e-02
2.792839e-01,0,-1.486515e-02
2.140211e-01,0,-1.487303e-02
2.190913e-01,-6.776264e-21,1.886968e-02
2.883500e-01,0,9.092981e-03
2.408821e-01,0,-2.342775e-02
2.084581e-01,0,1.875391e-03
2.487283e-01,1.694066e-21,2.292834e-02
2.822549e-01,0,-1.308762e-02
2.156731e-01,0,-1.604590e-02
2.177430e-01,0,1.767143e-02
2.859294e-01,-1.084202e-19,1.072948e-02
2.439919e-01,0,-2.320751e-02
2.085859e-01,0,4.264049e-04
2.457778e-01,1.084202e-19,2.309179e-02
2.845315e-01,0,-1.163366e-02
2.169722e-01,0,-1.702447e-02
2.165312e-01,-2.710505e-20,1.667845e-02
2.837505e-01,0,1.213622e-02
2.467856e-01,0,-2.303348e-02
2.085571e-01,0,-9.168278e-04
2.429469e-01,0,2.328130e-02
2.867501e-01,0,-1.019029e-02
2.181907e-01,0,-1.806736e-02
2.151327e-01,0,1.566265e-02
2.813080e-01,-5.421011e-20,1.367430e-02
2.499541e-01,-1.084202e-19,-2.285929e-02
2.083810e-01,1.084202e-19,-2.484532e-03
2.395671e-01,5.421011e-20,2.351235e-02
2.893328e-01,-5.421011e-20,-8.365140e-03
2.196890e-01,0,-1.938243e-02
2.133090e-01,0,1.434617e-02
2.778951e-01,0,1.562393e-02
2.542502e-01,5.421011e-20,-2.253025e-02
2.081605e-01,0,-4.595062e-03
2.351074e-01,0,2.367359e-02
2.922783e-01,0,-5.661272e-03
2.219965e-01,0,-2.103452e-02
2.110694e-01,0,1.240816e-02
2.727094e-01,0,1.804754e-02
2.602715e-01,-1.084202e-19,-2.168819e-02
2.082947e-01,0,-7.387202e-03
2.296829e-01,0,2.340843e-02
2.944859e-01,0,-1.709675e-03
2.258022e-01,0,-2.265475e-02
2.090640e-01,0,9.690693e-03
2.657060e-01,-5.421011e-20,2.043897e-02
2.675718e-01,5.421011e-20,-1.989157e-02
2.094858e-01,0,-1.043715e-02
2.246756e-01,0,2.229142e-02
2.941126e-01,-5.421011e-20,2.813021e-03
2.310836e-01,0,-2.354427e-02
2.081878e-01,1.084202e-19,6.630710e-03
2.585872e-01,2.710505e-20,2.197700e-02
2.742129e-01,0,-1.740753e-02
2.116508e-01,2.710505e-20,-1.297055e-02
2.213007e-01,0,2.059636e-02
2.915362e-01,1.084202e-19,6.453920e-03
2.363457e-01,5.421011e-20,-2.365404e-02
2.082062e-01,0,3.998190e-03
2.530212e-01,0,2.264294e-02
2.788924e-01,0,-1.508401e-02
2.138155e-01,-5.421011e-20,-1.472362e-02
2.192603e-01,-2.710505e-20,1.901740e-02
2.886357e-01,-1.084202e-19,8.886448e-03
2.405041e-01,1.084202e-19,-2.345312e-02
2.084363e-01,0,2.050294e-03
2.490801e-01,1.084202e-19,2.290908e-02
2.819830e-01,0,-1.325739e-02
2.155173e-01,0,-1.593488e-02
2.178740e-01,0,1.778612e-02
2.861694e-01,0,1.057267e-02
2.436864e-01,-5.421011e-20,-2.322877e-02
2.085794e-01,0,5.704090e-04
2.460749e-01,5.421011e-20,2.307411e-02
2.843004e-01,0,-1.178246e-02
2.168426e-01,0,-1.692097e-02
2.166645e-01,0,1.678129e-02
2.839853e-01,0,1.198534e-02
2.464819e-01,0,-2.305059e-02
2.085679e-01,0,-7.683972e-04
2.432644e-01,0,2.325859e-02
2.865005e-01,-5.421011e-20,-1.035504e-02
2.180545e-01,-5.421011e-20,-1.794602e-02
2.152993e-01,6.776264e-21,1.578017e-02
2.816015e-01,0,1.349430e-02
2.495750e-01,0,-2.288129e-02
2.084050e-01,0,-2.296267e-03
2.399729e-01,0,2.348742e-02
2.890333e-01,0,-8.592643e-03
2.195018e-01,6.776264e-21,-1.922459e-02
2.135278e-01,0,1.451090e-02
2.783319e-01,-1.084202e-19,1.539067e-02
2.537149e-01,0,-2.258146e-02
2.081779e-01,0,-4.336097e-03
2.356422e-01,0,2.366797e-02
2.919669e-01,0,-6.007784e-03
2.216903e-01,0,-2.084782e-02
2.113153e-01,-1.084202e-19,1.265330e-02
2.733638e-01,0,1.777498e-02
2.595445e-01,0,-2.181828e-02
2.082411e-01,-5.421011e-20,-7.063122e-03
2.302759e-01,-2.710505e-20,2.347294e-02
2.943478e-01,0,-2.184570e-03
2.253106e-01,0,-2.250620e-02
2.092339e-01,1.084202e-19,1.001117e-02
2.665008e-01,0,2.021342e-02
2.667834e-01,0,-2.013052e-02
2.092975e-01,0,-1.012420e-02
2.251401e-01,0,2.245116e-02
2.942911e-01,0,2.351640e-03
2.304877e-01,0,-2.349346e-02
2.082255e-01,-3.388132e-21,6.948574e-03
2.592893e-01,0,2.186195e-02
2.735910e-01,0,-1.767808e-02
2.114035e-01,-1.084202e-19,-1.273838e-02
2.215853e-01,0,2.078144e-02
2.918538e-01,0,6.127690e-03
2.358295e-01,0,-2.366497e-02
2.081852e-01,0,4.245789e-03
2.535290e-01,0,2.259846e-02
2.784826e-01,0,-1.530898e-02
2.136044e-01,0,-1.456797e-02
2.194365e-01,0,1.916939e-02
2.889277e-01,-5.421011e-20,8.671463e-03
2.401146e-01,-1.084202e-19,-2.347844e-02
2.084133e-01,-1.084202e-19,2.230600e-03
2.494428e-01,0,2.288880e-02
2.817036e-01,0,-1.343125e-02
2.153571e-01,5.421011e-20,-1.582135e-02
2.180071e-01,0,1.790346e-02
2.864127e-01,-5.421011e-20,1.041285e-02
2.433764e-01,0,-2.325063e-02
2.085713e-01,-2.710505e-20,7.160171e-04
2.463747e-01,0,2.305672e-02
2.840685e-01,0,-1.193186e-02
2.167115e-01,0,-1.681796e-02
2.167960e-01,-2.710505e-20,1.688421e-02
2.842178e-01,5.421011e-20,1.183564e-02
2.461816e-01,0,-2.306788e-02
2.085771e-01,0,-6.221183e-04
2.435766e-01,0,2.323649e-02
2.862558e-01,1.084202e-19,-1.051606e-02
2.179208e-01,0,-1.782768e-02
2.154609e-01,0,1.589470e-02
2.818842e-01,5.421011e-20,1.331889e-02
2.492080e-01,-5.421011e-20,-2.290198e-02
2.084282e-01,0,-2.113940e-03
2.403665e-01,0,2.346217e-02
2.887396e-01,0,-8.810793e-03
2.193223e-01,0,-1.907109e-02
2.137414e-01,0,1.466883e-02
2.787490e-01,-3.388132e-21,1.516349e-02
2.532000e-01,1.084202e-19,-2.262760e-02
2.081981e-01,0,-4.085520e-03
2.361632e-01,0,2.365834e-02
