x,y,z,R
-2.072990e-01,1.196841e-01,5.780731e-03,2.393682e-01
-2.411744e-01,1.392421e-01,1.674847e-02,2.784843e-01
-2.079456e-01,1.200575e-01,-1.693390e-02,2.401149e-01
-2.003640e-01,1.156802e-01,-2.402147e-03,2.313604e-01
-2.349558e-01,1.356518e-01,1.947113e-02,2.713036e-01
-2.198092e-01,1.269069e-01,-1.054938e-02,2.538138e-01
-1.969930e-01,1.137340e-01,-1.008629e-02,2.274680e-01
-2.239111e-01,1.292751e-01,1.651125e-02,2.585502e-01
-2.325602e-01,1.342687e-01,4.863092e-04,2.685374e-01
-1.976558e-01,1.141166e-01,-1.584171e-02,2.282332e-01
-2.127467e-01,1.228293e-01,1.022185e-02,2.456587e-01
-2.406400e-01,1.389335e-01,1.203837e-02,2.778671e-01
-2.028132e-01,1.170943e-01,-1.799696e-02,2.341885e-01
-2.039660e-01,1.177598e-01,2.353988e-03,2.355197e-01
-2.395003e-01,1.382756e-01,1.873619e-02,2.765511e-01
-2.125805e-01,1.227334e-01,-1.493886e-02,2.454668e-01
-1.984774e-01,1.145910e-01,-5.787408e-03,2.291820e-01
-2.305616e-01,1.331148e-01,1.876998e-02,2.662296e-01
-2.253664e-01,1.301154e-01,-6.287075e-03,2.602307e-01
-1.967570e-01,1.135977e-01,-1.283872e-02,2.271954e-01
-2.190222e-01,1.264525e-01,1.414592e-02,2.529050e-01
-2.368904e-01,1.367687e-01,5.626007e-03,2.735374e-01
-1.992549e-01,1.150399e-01,-1.729669e-02,2.300797e-01
-2.086722e-01,1.204769e-01,7.014456e-03,2.409539e-01
-2.413631e-01,1.393510e-01,1.569323e-02,2.787021e-01
-2.064140e-01,1.191732e-01,-1.740689e-02,2.383464e-01
-2.012221e-01,1.161757e-01,-1.124458e-03,2.323513e-01
-2.363871e-01,1.364781e-01,1.948228e-02,2.729563e-01
-2.177889e-01,1.257405e-01,-1.191218e-02,2.514809e-01
-1.972637e-01,1.138903e-01,-8.978345e-03,2.277805e-01
-2.257329e-01,1.303270e-01,1.724549e-02,2.606539e-01
-2.307241e-01,1.332086e-01,-1.404702e-03,2.664172e-01
-1.972698e-01,1.138938e-01,-1.513510e-02,2.277875e-01
-2.143704e-01,1.237668e-01,1.134236e-02,2.475336e-01
-2.399235e-01,1.385199e-01,1.043624e-02,2.770398e-01
-2.016959e-01,1.164492e-01,-1.797097e-02,2.328984e-01
-2.051296e-01,1.184316e-01,3.630222e-03,2.368632e-01
-2.403052e-01,1.387403e-01,1.815122e-02,2.774806e-01
-2.107918e-01,1.217007e-01,-1.579746e-02,2.434014e-01
-1.990982e-01,1.149494e-01,-4.554503e-03,2.298988e-01
-2.322559e-01,1.340930e-01,1.913510e-02,2.681860e-01
-2.233147e-01,1.289308e-01,-7.948962e-03,2.578616e-01
-1.967585e-01,1.135986e-01,-1.186909e-02,2.271971e-01
-2.208102e-01,1.274848e-01,1.507752e-02,2.549697e-01
-2.354193e-01,1.359194e-01,3.742324e-03,2.718387e-01
-1.985683e-01,1.146435e-01,-1.684309e-02,2.292869e-01
-2.101184e-01,1.213119e-01,8.224140e-03,2.426238e-01
-2.413071e-01,1.393187e-01,1.447269e-02,2.786374e-01
-2.049888e-01,1.183504e-01,-1.774043e-02,2.367007e-01
-2.021653e-01,1.167202e-01,1.597103e-04,2.334404e-01
-2.376785e-01,1.372237e-01,1.934394e-02,2.744474e-01
-2.158133e-01,1.245999e-01,-1.314609e-02,2.491998e-01
-1.976311e-01,1.141024e-01,-7.829524e-03,2.282048e-01
-2.275430e-01,1.313720e-01,1.789227e-02,2.627440e-01
-2.287980e-01,1.320966e-01,-3.258912e-03,2.641932e-01
-1.969914e-01,1.137330e-01,-1.434836e-02,2.274661e-01
-2.160491e-01,1.247360e-01,1.242019e-02,2.494720e-01
-2.389801e-01,1.379752e-01,8.727636e-03,2.759505e-01
-2.006953e-01,1.158715e-01,-1.782131e-02,2.317430e-01
-2.063720e-01,1.191489e-01,4.894625e-03,2.382979e-01
-2.408948e-01,1.390807e-01,1.739199e-02,2.781614e-01
-2.090918e-01,1.207192e-01,-1.651323e-02,2.414384e-01
-1.998076e-01,1.153590e-01,-3.300395e-03,2.307180e-01
-2.338708e-01,1.350254e-01,1.937825e-02,2.700507e-01
-2.212587e-01,1.277438e-01,-9.510566e-03,2.554876e-01
-1.968606e-01,1.136575e-01,-1.084353e-02,2.273151e-01
-2.226208e-01,1.285302e-01,1.594263e-02,2.570604e-01
-2.337932e-01,1.349806e-01,1.836957e-03,2.699611e-01
-1.979947e-01,1.143123e-01,-1.628993e-02,2.286245e-01
-2.116339e-01,1.221869e-01,9.405151e-03,2.443738e-01
-2.410036e-01,1.391435e-01,1.309779e-02,2.782869e-01
-2.036751e-01,1.175919e-01,-1.793760e-02,2.351837e-01
-2.031905e-01,1.173121e-01,1.445241e-03,2.346242e-01
-2.388092e-01,1.378765e-01,1.904696e-02,2.757531e-01
-2.138962e-01,1.234930e-01,-1.424480e-02,2.469860e-01
-1.980935e-01,1.143693e-01,-6.645122e-03,2.287386e-01
-2.293253e-01,1.324010e-01,1.844297e-02,2.648021e-01
-2.268051e-01,1.309460e-01,-5.057046e-03,2.618920e-01
-1.968180e-01,1.136329e-01,-1.348849e-02,2.272658e-01
-2.177751e-01,1.257325e-01,1.344952e-02,2.514650e-01
-2.378258e-01,1.373088e-01,6.934669e-03,2.746175e-01
-1.998110e-01,1.153609e-01,-1.755391e-02,2.307218e-01
-2.076921e-01,1.199111e-01,6.142636e-03,2.398221e-01
-2.412544e-01,1.392883e-01,1.645835e-02,2.785765e-01
-2.074879e-01,1.197932e-01,-1.708643e-02,2.395863e-01
-2.006057e-01,1.158198e-01,-2.030621e-03,2.316396e-01
-2.353860e-01,1.359002e-01,1.948923e-02,2.718004e-01
-2.192169e-01,1.265649e-01,-1.095954e-02,2.531299e-01
-1.970621e-01,1.137739e-01,-9.767788e-03,2.275477e-01
-2.244432e-01,1.295824e-01,1.673386e-02,2.591647e-01
-2.320357e-01,1.339659e-01,-6.766098e-05,2.679317e-01
-1.975318e-01,1.140450e-01,-1.564439e-02,2.280900e-01
-2.132140e-01,1.230992e-01,1.055264e-02,2.461983e-01
-2.404554e-01,1.388270e-01,1.158348e-02,2.776540e-01
-2.024754e-01,1.168992e-01,-1.800250e-02,2.337984e-01
-2.042972e-01,1.179510e-01,2.727044e-03,2.359020e-01
-2.397561e-01,1.384233e-01,1.858346e-02,2.768465e-01
-2.120505e-01,1.224274e-01,-1.520389e-02,2.448549e-01
-1.986489e-01,1.146900e-01,-5.430425e-03,2.293800e-01
-2.310625e-01,1.334040e-01,1.888844e-02,2.668080e-01
-2.247700e-01,1.297710e-01,-6.781167e-03,2.595420e-01
-1.967473e-01,1.135921e-01,-1.256212e-02,2.271843e-01
-2.195406e-01,1.267518e-01,1.442399e-02,2.535037e-01
-2.364789e-01,1.365312e-01,5.080380e-03,2.730623e-01
-1.990429e-01,1.149175e-01,-1.717514e-02,2.298350e-01
-2.090862e-01,1.207160e-01,7.369877e-03,2.414319e-01
-2.413723e-01,1.393564e-01,1.535403e-02,2.787128e-01
-2.059870e-01,1.189267e-01,-1.751844e-02,2.378533e-01
-2.014884e-01,1.163294e-01,-7.504588e-04,2.326588e-01
-2.367788e-01,1.367043e-01,1.945780e-02,2.734086e-01
-2.172076e-01,1.254049e-01,-1.228559e-02,2.508098e-01
-1.973608e-01,1.139463e-01,-8.647358e-03,2.278926e-01
-2.262631e-01,1.306331e-01,1.744346e-02,2.612661e-01
-2.301709e-01,1.328892e-01,-1.950015e-03,2.657785e-01
-1.971780e-01,1.138408e-01,-1.491365e-02,2.276816e-01
-2.148546e-01,1.240464e-01,1.166127e-02,2.480927e-01
-2.396713e-01,1.383743e-01,9.948102e-03,2.767486e-01
-2.013920e-01,1.162737e-01,-1.793987e-02,2.325475e-01
-2.054840e-01,1.186362e-01,4.000296e-03,2.372724e-01
-2.405006e-01,1.388531e-01,1.794796e-02,2.777062e-01
-2.102867e-01,1.214091e-01,-1.602091e-02,2.428182e-01
-1.992958e-01,1.150635e-01,-4.190779e-03,2.301269e-01
-2.327358e-01,1.343701e-01,1.921905e-02,2.687401e-01
-2.227151e-01,1.285846e-01,-8.415201e-03,2.571693e-01
-1.967780e-01,1.136098e-01,-1.157557e-02,2.272197e-01
-2.213363e-01,1.277886e-01,1.533695e-02,2.555771e-01
-2.349602e-01,1.356543e-01,3.188006e-03,2.713087e-01
-1.983893e-01,1.145401e-01,-1.669178e-02,2.290802e-01
-2.105527e-01,1.215627e-01,8.571711e-03,2.431254e-01
-2.412443e-01,1.392825e-01,1.408717e-02,2.785649e-01
-2.045943e-01,1.181226e-01,-1.781181e-02,2.362452e-01
-2.024555e-01,1.168877e-01,5.346511e-04,2.337754e-01
-2.380263e-01,1.374245e-01,1.927413e-02,2.748490e-01
-2.152478e-01,1.242734e-01,-1.348064e-02,2.485468e-01
-1.977565e-01,1.141747e-01,-7.487631e-03,2.283495e-01
-2.280663e-01,1.316741e-01,1.806315e-02,2.633483e-01
-2.282225e-01,1.317643e-01,-3.789848e-03,2.635286e-01
-1.969299e-01,1.136975e-01,-1.410491e-02,2.273951e-01
-2.165477e-01,1.250239e-01,1.272561e-02,2.500477e-01
-2.386645e-01,1.377930e-01,8.212549e-03,2.755860e-01
-2.004253e-01,1.157156e-01,-1.775525e-02,2.314312e-01
-2.067493e-01,1.193668e-01,5.260375e-03,2.387335e-01
-2.410242e-01,1.391554e-01,1.713770e-02,2.783108e-01
-2.086140e-01,1.204433e-01,-1.669503e-02,2.408867e-01
-2.000313e-01,1.154881e-01,-2.931536e-03,2.309762e-01
-2.343239e-01,1.352870e-01,1.942472e-02,2.705740e-01
-2.206605e-01,1.273984e-01,-9.945247e-03,2.547968e-01
-1.969090e-01,1.136855e-01,-1.053480e-02,2.273710e-01
-2.231517e-01,1.288367e-01,1.618129e-02,2.576734e-01
-2.332933e-01,1.346920e-01,1.280573e-03,2.693839e-01
-1.978483e-01,1.142277e-01,-1.611094e-02,2.284555e-01
-2.120878e-01,1.224489e-01,9.743450e-03,2.448979e-01
-2.408689e-01,1.390657e-01,1.266991e-02,2.781314e-01
-2.033135e-01,1.173831e-01,-1.796996e-02,2.347662e-01
-2.035051e-01,1.174937e-01,1.819565e-03,2.349874e-01
-2.391049e-01,1.380473e-01,1.892928e-02,2.760946e-01
-2.133501e-01,1.231777e-01,-1.453901e-02,2.463554e-01
-1.982458e-01,1.144573e-01,-6.293836e-03,2.289145e-01
-2.298379e-01,1.326970e-01,1.858415e-02,2.653939e-01
-2.262155e-01,1.306056e-01,-5.568097e-03,2.612112e-01
-1.967864e-01,1.136147e-01,-1.322497e-02,2.272293e-01
-2.182863e-01,1.260276e-01,1.373960e-02,2.520553e-01
-2.374520e-01,1.370930e-01,6.399298e-03,2.741859e-01
-1.995750e-01,1.152247e-01,-1.745469e-02,2.304493e-01
-2.080905e-01,1.201411e-01,6.502849e-03,2.402823e-01
-2.413138e-01,1.393226e-01,1.615368e-02,2.786452e-01
-2.070398e-01,1.195345e-01,-1.722682e-02,2.390690e-01
-2.008542e-01,1.159632e-01,-1.658176e-03,2.319265e-01
-2.358060e-01,1.361427e-01,1.949523e-02,2.722853e-01
-2.186266e-01,1.262241e-01,-1.135931e-02,2.524483e-01
-1.971393e-01,1.138184e-01,-9.445479e-03,2.276369e-01
-2.249741e-01,1.298888e-01,1.694957e-02,2.597777e-01
-2.315020e-01,1.336577e-01,-6.197267e-04,2.673155e-01
-1.974178e-01,1.139792e-01,-1.543979e-02,2.279584e-01
-2.136867e-01,1.233721e-01,1.088011e-02,2.467441e-01
-2.402508e-01,1.387089e-01,1.111827e-02,2.774177e-01
-2.021474e-01,1.167098e-01,-1.799718e-02,2.334197e-01
-2.046353e-01,1.181463e-01,3.099351e-03,2.362925e-01
-2.399952e-01,1.385613e-01,1.841613e-02,2.771226e-01
-2.115277e-01,1.221256e-01,-1.545681e-02,2.442512e-01
-1.988283e-01,1.147936e-01,-5.071322e-03,2.295872e-01
-2.315581e-01,1.336901e-01,1.899714e-02,2.673803e-01
-2.241722e-01,1.294259e-01,-7.267541e-03,2.588518e-01
-1.967456e-01,1.135911e-01,-1.228043e-02,2.271823e-01
-2.200617e-01,1.270527e-01,1.469684e-02,2.541053e-01
-2.360530e-01,1.362852e-01,4.531522e-03,2.725705e-01
-1.988409e-01,1.148008e-01,-1.704467e-02,2.296017e-01
-2.095067e-01,1.209587e-01,7.723112e-03,2.419174e-01
-2.413607e-01,1.393497e-01,1.500098e-02,2.786994e-01
-2.055696e-01,1.186856e-01,-1.761817e-02,2.373713e-01
-2.017619e-01,1.164873e-01,-3.760459e-04,2.329746e-01
-2.371581e-01,1.369233e-01,1.942037e-02,2.738466e-01
-2.166306e-01,1.250718e-01,-1.264784e-02,2.501435e-01
-1.974662e-01,1.140072e-01,-8.313032e-03,2.280143e-01
-2.267908e-01,1.309377e-01,1.763383e-02,2.618754e-01
-2.296106e-01,1.325657e-01,-2.491699e-03,2.651315e-01
-1.970945e-01,1.137925e-01,-1.468561e-02,2.275851e-01
-2.153428e-01,1.243282e-01,1.197647e-02,2.486565e-01
-2.394001e-01,1.382177e-01,9.451436e-03,2.764354e-01
-2.010979e-01,1.161039e-01,-1.789839e-02,2.322079e-01
-2.058448e-01,1.188446e-01,4.369264e-03,2.376891e-01
-2.406766e-01,1.389547e-01,1.772977e-02,2.779094e-01
-2.097894e-01,1.211220e-01,-1.623220e-02,2.422440e-01
-1.995010e-01,1.151820e-01,-3.825390e-03,2.303639e-01
-2.332085e-01,1.346430e-01,1.929237e-02,2.692860e-01
-2.221147e-01,1.282380e-01,-8.872675e-03,2.564760e-01
-1.968063e-01,1.136261e-01,-1.127747e-02,2.272523e-01
-2.218642e-01,1.280934e-01,1.559054e-02,2.561867e-01
-2.344885e-01,1.353820e-01,2.632410e-03,2.707641e-01
-1.982204e-01,1.144426e-01,-1.653215e-02,2.288852e-01
-2.109937e-01,1.218173e-01,8.916657e-03,2.436346e-01
-2.411605e-01,1.392341e-01,1.368885e-02,2.784682e-01
-2.042094e-01,1.179004e-01,-1.787168e-02,2.358007e-01
-2.027529e-01,1.170594e-01,9.095580e-04,2.341189e-01
-2.383586e-01,1.376164e-01,1.919057e-02,2.752328e-01
-2.146876e-01,1.239499e-01,-1.380353e-02,2.478999e-01
-1.978895e-01,1.142516e-01,-7.142839e-03,2.285031e-01
-2.285871e-01,1.319748e-01,1.822565e-02,2.639497e-01
-2.276421e-01,1.314292e-01,-4.315517e-03,2.628585e-01
-1.968773e-01,1.136671e-01,-1.385540e-02,2.273343e-01
-2.170501e-01,1.253139e-01,1.302674e-02,2.506279e-01
-2.383314e-01,1.376007e-01,7.690850e-03,2.752013e-01
-2.001652e-01,1.155654e-01,-1.767932e-02,2.311309e-01
-2.071322e-01,1.195878e-01,5.624700e-03,2.391757e-01
-2.411338e-01,1.392186e-01,1.686862e-02,2.784373e-01
-2.081443e-01,1.201722e-01,-1.686476e-02,2.403443e-01
-2.002624e-01,1.156216e-01,-2.561486e-03,2.312431e-01
-2.347681e-01,1.355434e-01,1.945970e-02,2.710868e-01
-2.200647e-01,1.270544e-01,-1.036997e-02,2.541088e-01
-1.969660e-01,1.137184e-01,-1.022195e-02,2.274367e-01
-2.236831e-01,1.291435e-01,1.641349e-02,2.582869e-01
-2.327829e-01,1.343973e-01,7.248043e-04,2.687945e-01
-1.977115e-01,1.141488e-01,-1.592425e-02,2.282976e-01
-2.125475e-01,1.227144e-01,1.007873e-02,2.454287e-01
-2.407136e-01,1.389761e-01,1.223059e-02,2.779521e-01
-2.029618e-01,1.171800e-01,-1.799119e-02,2.343601e-01
-2.038260e-01,1.176790e-01,2.193495e-03,2.353580e-01
-2.393850e-01,1.382090e-01,1.879732e-02,2.764180e-01
-2.128104e-01,1.228661e-01,-1.482128e-02,2.457323e-01
-1.984061e-01,1.145498e-01,-5.940112e-03,2.290996e-01
-2.303451e-01,1.329898e-01,1.871615e-02,2.659796e-01
-2.256220e-01,1.302629e-01,-6.072528e-03,2.605258e-01
-1.967639e-01,1.136017e-01,-1.295596e-02,2.272034e-01
-2.188005e-01,1.263245e-01,1.402486e-02,2.526490e-01
-2.370623e-01,1.368680e-01,5.859290e-03,2.737359e-01
-1.993490e-01,1.150942e-01,-1.734614e-02,2.301884e-01
-2.084964e-01,1.203755e-01,6.861087e-03,2.407509e-01
-2.413528e-01,1.393451e-01,1.583468e-02,2.786902e-01
-2.065998e-01,1.192804e-01,-1.735538e-02,2.385609e-01
-2.011100e-01,1.161109e-01,-1.284995e-03,2.322218e-01
-2.362150e-01,1.363788e-01,1.948888e-02,2.727576e-01
-2.180399e-01,1.258854e-01,-1.174835e-02,2.517708e-01
-1.972245e-01,1.138676e-01,-9.119497e-03,2.277352e-01
-2.255054e-01,1.301956e-01,1.715811e-02,2.603912e-01
-2.309599e-01,1.333448e-01,-1.169369e-03,2.666895e-01
-1.973122e-01,1.139182e-01,-1.522817e-02,2.278365e-01
-2.141638e-01,1.236475e-01,1.120420e-02,2.472950e-01
-2.400264e-01,1.385793e-01,1.064326e-02,2.771586e-01
-2.018293e-01,1.165262e-01,-1.798115e-02,2.330524e-01
-2.049795e-01,1.183450e-01,3.470885e-03,2.366899e-01
-2.402158e-01,1.386887e-01,1.823400e-02,2.773774e-01
-2.110114e-01,1.218275e-01,-1.569768e-02,2.436550e-01
-1.990155e-01,1.149017e-01,-4.710236e-03,2.298033e-01
-2.320478e-01,1.339729e-01,1.909583e-02,2.679457e-01
-2.235725e-01,1.290796e-01,-7.745971e-03,2.581593e-01
-1.967527e-01,1.135952e-01,-1.199375e-02,2.271905e-01
-2.205852e-01,1.273549e-01,1.496428e-02,2.547098e-01
-2.356129e-01,1.360312e-01,3.980010e-03,2.720624e-01
-1.986479e-01,1.146894e-01,-1.690553e-02,2.293789e-01
-2.099330e-01,1.212049e-01,8.074092e-03,2.424098e-01
-2.413282e-01,1.393309e-01,1.463437e-02,2.786618e-01
-2.051618e-01,1.184502e-01,-1.770613e-02,2.369004e-01
-2.020427e-01,1.166494e-01,-1.360637e-06,2.332988e-01
-2.375251e-01,1.371352e-01,1.936979e-02,2.742703e-01
-2.160582e-01,1.247412e-01,-1.299878e-02,2.494825e-01
-1.975798e-01,1.140728e-01,-7.975502e-03,2.281455e-01
-2.273180e-01,1.312421e-01,1.781631e-02,2.624842e-01
-2.290432e-01,1.322382e-01,-3.029330e-03,2.644764e-01
-1.970204e-01,1.137498e-01,-1.445108e-02,2.274995e-01
-2.158355e-01,1.246127e-01,1.228773e-02,2.492254e-01
-2.391104e-01,1.380504e-01,8.946789e-03,2.761008e-01
-2.008139e-01,1.159399e-01,-1.784668e-02,2.318799e-01
-2.062121e-01,1.190566e-01,4.737029e-03,2.381132e-01
-2.408333e-01,1.390452e-01,1.749669e-02,2.780904e-01
-2.092995e-01,1.208391e-01,-1.643140e-02,2.416783e-01
-1.997138e-01,1.153048e-01,-3.458481e-03,2.306097e-01
-2.336736e-01,1.349115e-01,1.935482e-02,2.698231e-01
-2.215159e-01,1.278923e-01,-9.320860e-03,2.557845e-01
-1.968424e-01,1.136470e-01,-1.097487e-02,2.272941e-01
-2.223938e-01,1.283991e-01,1.583810e-02,2.567983e-01
-2.340049e-01,1.351028e-01,2.076099e-03,2.702056e-01
-1.980603e-01,1.143501e-01,-1.636446e-02,2.287003e-01
-2.114400e-01,1.220749e-01,9.258963e-03,2.441499e-01
-2.410552e-01,1.391733e-01,1.327803e-02,2.783466e-01
-2.038336e-01,1.176834e-01,-1.792022e-02,2.353667e-01
-2.030575e-01,1.172353e-01,1.284300e-03,2.344706e-01
-2.386771e-01,1.378003e-01,1.909314e-02,2.756006e-01
-2.141330e-01,1.236297e-01,-1.411471e-02,2.472594e-01
-1.980304e-01,1.143329e-01,-6.795270e-03,2.286658e-01
-2.291040e-01,1.322732e-01,1.837955e-02,2.645465e-01
-2.270577e-01,1.310918e-01,-4.835467e-03,2.621837e-01
-1.968339e-01,1.136421e-01,-1.359999e-02,2.272842e-01
-2.175564e-01,1.256062e-01,1.332344e-02,2.512125e-01
-2.379811e-01,1.373985e-01,7.163111e-03,2.747969e-01
-1.999152e-01,1.154211e-01,-1.759367e-02,2.308422e-01
-2.075225e-01,1.198132e-01,5.987337e-03,2.396263e-01
-2.412222e-01,1.392697e-01,1.658477e-02,2.785394e-01
-2.076836e-01,1.199062e-01,-1.702236e-02,2.398123e-01
-2.005010e-01,1.157593e-01,-2.190376e-03,2.315186e-01
-2.352027e-01,1.357943e-01,1.948293e-02,2.715886e-01
-2.194711e-01,1.267117e-01,-1.078457e-02,2.534234e-01
-1.970314e-01,1.137562e-01,-9.905114e-03,2.275123e-01
-2.242142e-01,1.294501e-01,1.663906e-02,2.589003e-01
-2.322625e-01,1.340968e-01,1.701877e-04,2.681936e-01
-1.975838e-01,1.140751e-01,-1.573008e-02,2.281501e-01
-2.130129e-01,1.229831e-01,1.041087e-02,2.459661e-01
-2.405375e-01,1.388744e-01,1.178025e-02,2.777488e-01
-2.026198e-01,1.169826e-01,-1.800141e-02,2.339652e-01
-2.041540e-01,1.178684e-01,2.566836e-03,2.357368e-01
