x,y,z,R
-2.054292e-01,1.186046e-01,6.145828e-03,2.372092e-01
-2.440550e-01,1.409052e-01,1.931746e-02,2.818104e-01
-2.068939e-01,1.194503e-01,-1.906075e-02,2.389005e-01
-1.974733e-01,1.140113e-01,-3.630840e-03,2.280226e-01
-2.352863e-01,1.358426e-01,2.167571e-02,2.716853e-01
-2.217114e-01,1.280051e-01,-1.065077e-02,2.560103e-01
-1.940866e-01,1.120560e-01,-1.263996e-02,2.241119e-01
-2.212677e-01,1.277490e-01,1.699437e-02,2.554979e-01
-2.370967e-01,1.368878e-01,3.624441e-03,2.737757e-01
-1.958834e-01,1.130934e-01,-1.892949e-02,2.261867e-01
-2.083705e-01,1.203028e-01,8.741300e-03,2.406055e-01
-2.444082e-01,1.411091e-01,1.695557e-02,2.822182e-01
-2.036482e-01,1.175764e-01,-2.000741e-02,2.351527e-01
-1.992396e-01,1.150310e-01,-9.263313e-04,2.300621e-01
-2.386071e-01,1.377599e-01,2.190846e-02,2.755198e-01
-2.172663e-01,1.254387e-01,-1.373063e-02,2.508775e-01
-1.945260e-01,1.123096e-01,-1.033791e-02,2.246193e-01
-2.252131e-01,1.300269e-01,1.876302e-02,2.600537e-01
-2.332636e-01,1.346748e-01,-5.870811e-04,2.693496e-01
-1.948329e-01,1.124868e-01,-1.759638e-02,2.249736e-01
-2.116152e-01,1.221761e-01,1.123313e-02,2.443522e-01
-2.436735e-01,1.406849e-01,1.388516e-02,2.813699e-01
-2.008677e-01,1.159710e-01,-2.038039e-02,2.319420e-01
-2.013370e-01,1.162420e-01,1.794644e-03,2.324839e-01
-2.413481e-01,1.393424e-01,2.151192e-02,2.786847e-01
-2.130378e-01,1.229974e-01,-1.625031e-02,2.459949e-01
-1.953508e-01,1.127859e-01,-7.873796e-03,2.255717e-01
-2.291706e-01,1.323117e-01,2.020681e-02,2.646234e-01
-2.290043e-01,1.322157e-01,-4.677102e-03,2.644314e-01
-1.942160e-01,1.121306e-01,-1.592449e-02,2.242613e-01
-2.151294e-01,1.242050e-01,1.358619e-02,2.484100e-01
-2.418876e-01,1.396539e-01,1.024544e-02,2.793078e-01
-1.985730e-01,1.146462e-01,-2.021597e-02,2.292924e-01
-2.037599e-01,1.176408e-01,4.493665e-03,2.352816e-01
-2.433081e-01,1.404740e-01,2.039755e-02,2.809480e-01
-2.091292e-01,1.207408e-01,-1.817185e-02,2.414816e-01
-1.965484e-01,1.134773e-01,-5.285322e-03,2.269546e-01
-2.330176e-01,1.345328e-01,2.125679e-02,2.690656e-01
-2.245237e-01,1.296288e-01,-8.485731e-03,2.592577e-01
-1.940115e-01,1.120126e-01,-1.397214e-02,2.240252e-01
-2.188638e-01,1.263611e-01,1.575765e-02,2.527221e-01
-2.391746e-01,1.380875e-01,6.225661e-03,2.761750e-01
-1.967663e-01,1.136031e-01,-1.956060e-02,2.272061e-01
-2.065048e-01,1.192256e-01,7.138027e-03,2.384512e-01
-2.443152e-01,1.410554e-01,1.851301e-02,2.821109e-01
-2.056133e-01,1.187109e-01,-1.948823e-02,2.374218e-01
-1.981018e-01,1.143742e-01,-2.612180e-03,2.287483e-01
-2.365979e-01,1.365999e-01,2.183154e-02,2.731997e-01
-2.200123e-01,1.270241e-01,-1.187792e-02,2.540483e-01
-1.942068e-01,1.121254e-01,-1.179047e-02,2.242507e-01
-2.227523e-01,1.286061e-01,1.769779e-02,2.572122e-01
-2.357098e-01,1.360871e-01,2.027754e-03,2.721743e-01
-1.954334e-01,1.128335e-01,-1.846882e-02,2.256671e-01
-2.095637e-01,1.209917e-01,9.698013e-03,2.419834e-01
-2.442587e-01,1.410228e-01,1.587126e-02,2.820457e-01
-2.025401e-01,1.169366e-01,-2.021426e-02,2.338731e-01
-1.999946e-01,1.154669e-01,1.033971e-04,2.309338e-01
-2.397230e-01,1.384041e-01,2.183764e-02,2.768083e-01
-2.156350e-01,1.244969e-01,-1.475261e-02,2.489938e-01
-1.947937e-01,1.124642e-01,-9.422678e-03,2.249284e-01
-2.267148e-01,1.308939e-01,1.935095e-02,2.617877e-01
-2.316908e-01,1.337667e-01,-2.157911e-03,2.675335e-01
-1.945494e-01,1.123231e-01,-1.700043e-02,2.246463e-01
-2.129150e-01,1.229265e-01,1.214190e-02,2.458531e-01
-2.431162e-01,1.403632e-01,1.256551e-02,2.807264e-01
-1.999418e-01,1.154365e-01,-2.037909e-02,2.308729e-01
-2.022156e-01,1.167492e-01,2.820260e-03,2.334985e-01
-2.421913e-01,1.398292e-01,2.117864e-02,2.796584e-01
-2.115168e-01,1.221193e-01,-1.704862e-02,2.442385e-01
-1.957613e-01,1.130228e-01,-6.907049e-03,2.260456e-01
-2.306468e-01,1.331640e-01,2.065448e-02,2.663280e-01
-2.273244e-01,1.312458e-01,-6.159097e-03,2.624916e-01
-1.940908e-01,1.120584e-01,-1.521587e-02,2.241167e-01
-2.165193e-01,1.250075e-01,1.443168e-02,2.500150e-01
-2.409621e-01,1.391195e-01,8.758358e-03,2.782391e-01
-1.978326e-01,1.142187e-01,-2.002294e-02,2.284374e-01
-2.047611e-01,1.182189e-01,5.502149e-03,2.364377e-01
-2.438084e-01,1.407628e-01,1.977607e-02,2.815257e-01
-2.077496e-01,1.199443e-01,-1.874064e-02,2.398886e-01
-1.970956e-01,1.137932e-01,-4.281700e-03,2.275864e-01
-2.344135e-01,1.353387e-01,2.153497e-02,2.706774e-01
-2.228105e-01,1.286397e-01,-9.824444e-03,2.572795e-01
-1.940390e-01,1.120285e-01,-1.317120e-02,2.240569e-01
-2.203207e-01,1.272022e-01,1.652178e-02,2.544044e-01
-2.379415e-01,1.373756e-01,4.647674e-03,2.747512e-01
-1.962074e-01,1.132804e-01,-1.919570e-02,2.265608e-01
-2.076262e-01,1.198731e-01,8.118090e-03,2.397461e-01
-2.444226e-01,1.411175e-01,1.759935e-02,2.822349e-01
-2.043963e-01,1.180083e-01,-1.983103e-02,2.360166e-01
-1.987791e-01,1.147652e-01,-1.587485e-03,2.295303e-01
-2.378443e-01,1.373195e-01,2.190602e-02,2.746389e-01
-2.183328e-01,1.260545e-01,-1.303056e-02,2.521089e-01
-1.943831e-01,1.122271e-01,-1.091439e-02,2.244543e-01
-2.242479e-01,1.294696e-01,1.836019e-02,2.589391e-01
-2.342430e-01,1.352402e-01,4.329589e-04,2.704805e-01
-1.950475e-01,1.126107e-01,-1.795426e-02,2.252214e-01
-2.107990e-01,1.217049e-01,1.063817e-02,2.434097e-01
-2.439516e-01,1.408455e-01,1.469104e-02,2.816911e-01
-2.015003e-01,1.163362e-01,-2.034063e-02,2.326725e-01
-2.007966e-01,1.159299e-01,1.133241e-03,2.318599e-01
-2.407452e-01,1.389943e-01,2.167145e-02,2.779886e-01
-2.140406e-01,1.235764e-01,-1.569143e-02,2.471528e-01
-1.951152e-01,1.126498e-01,-8.486254e-03,2.252997e-01
-2.282128e-01,1.317587e-01,1.988893e-02,2.635175e-01
-2.300687e-01,1.328302e-01,-3.702089e-03,2.656604e-01
-1.943273e-01,1.121949e-01,-1.635924e-02,2.243899e-01
-2.142520e-01,1.236985e-01,1.302860e-02,2.473969e-01
-2.424132e-01,1.399573e-01,1.117371e-02,2.799146e-01
-1.990861e-01,1.149424e-01,-2.030311e-02,2.298849e-01
-2.031406e-01,1.172833e-01,3.840815e-03,2.345665e-01
-2.429129e-01,1.402458e-01,2.073848e-02,2.804917e-01
-2.100465e-01,1.212704e-01,-1.776017e-02,2.425408e-01
-1.962235e-01,1.132897e-01,-5.924504e-03,2.265794e-01
-2.320998e-01,1.340029e-01,2.104173e-02,2.680058e-01
-2.256239e-01,1.302640e-01,-7.592696e-03,2.605280e-01
-1.940239e-01,1.120197e-01,-1.447010e-02,2.240395e-01
-2.179378e-01,1.258265e-01,1.524862e-02,2.516529e-01
-2.399114e-01,1.385129e-01,7.227789e-03,2.770259e-01
-1.971617e-01,1.138314e-01,-1.976240e-02,2.276627e-01
-2.058076e-01,1.188230e-01,6.501243e-03,2.376461e-01
-2.441647e-01,1.409686e-01,1.904302e-02,2.819371e-01
-2.064297e-01,1.191822e-01,-1.922312e-02,2.383644e-01
-1.976920e-01,1.141375e-01,-3.268139e-03,2.282751e-01
-2.357615e-01,1.361169e-01,2.174033e-02,2.722339e-01
-2.211034e-01,1.276541e-01,-1.109697e-02,2.553082e-01
-1.941233e-01,1.120771e-01,-1.233999e-02,2.241542e-01
-2.217961e-01,1.280540e-01,1.724991e-02,2.561081e-01
-2.366117e-01,1.366078e-01,3.055017e-03,2.732156e-01
-1.957152e-01,1.129962e-01,-1.877149e-02,2.259924e-01
-2.087920e-01,1.205461e-01,9.084465e-03,2.410922e-01
-2.443727e-01,1.410887e-01,1.658002e-02,2.821773e-01
-2.032450e-01,1.173436e-01,-2.009058e-02,2.346872e-01
-1.995038e-01,1.151836e-01,-5.590039e-04,2.303671e-01
-2.390160e-01,1.379959e-01,2.189384e-02,2.759918e-01
-2.166801e-01,1.251003e-01,-1.410476e-02,2.502006e-01
-1.946151e-01,1.123611e-01,-1.001382e-02,2.247221e-01
-2.257490e-01,1.303363e-01,1.897835e-02,2.606725e-01
-2.327089e-01,1.343546e-01,-1.150158e-03,2.687091e-01
-1.947244e-01,1.124242e-01,-1.738909e-02,2.248484e-01
-2.120746e-01,1.224413e-01,1.155986e-02,2.448826e-01
-2.434921e-01,1.405802e-01,1.342315e-02,2.811605e-01
-2.005292e-01,1.157756e-01,-2.038864e-02,2.315512e-01
-2.016453e-01,1.164199e-01,2.161137e-03,2.328399e-01
-2.416620e-01,1.395236e-01,2.140501e-02,2.790473e-01
-2.124897e-01,1.226810e-01,-1.654511e-02,2.453619e-01
-1.954911e-01,1.128668e-01,-7.530705e-03,2.257336e-01
-2.297002e-01,1.326175e-01,2.037323e-02,2.652349e-01
-2.284079e-01,1.318714e-01,-5.211063e-03,2.637427e-01
-1.941644e-01,1.121009e-01,-1.567605e-02,2.242017e-01
-2.156218e-01,1.244893e-01,1.389106e-02,2.489786e-01
-2.415722e-01,1.394717e-01,9.720402e-03,2.789435e-01
-1.983007e-01,1.144890e-01,-2.015502e-02,2.289780e-01
-2.041120e-01,1.178441e-01,4.854556e-03,2.356882e-01
-2.435026e-01,1.405863e-01,2.018853e-02,2.811726e-01
-2.086303e-01,1.204527e-01,-1.838477e-02,2.409055e-01
-1.967377e-01,1.135866e-01,-4.928408e-03,2.271731e-01
-2.335207e-01,1.348232e-01,2.136411e-02,2.696465e-01
-2.239120e-01,1.292756e-01,-8.970747e-03,2.585513e-01
-1.940146e-01,1.120144e-01,-1.368992e-02,2.240288e-01
-2.193814e-01,1.266599e-01,1.603430e-02,2.533198e-01
-2.387463e-01,1.378403e-01,5.664847e-03,2.756805e-01
-1.965594e-01,1.134836e-01,-1.943735e-02,2.269673e-01
-2.069002e-01,1.194539e-01,7.489233e-03,2.389078e-01
-2.443707e-01,1.410875e-01,1.819926e-02,2.821749e-01
-2.051716e-01,1.184559e-01,-1.962021e-02,2.369117e-01
-1.983379e-01,1.145104e-01,-2.247045e-03,2.290209e-01
-2.370509e-01,1.368614e-01,2.186774e-02,2.737228e-01
-2.194102e-01,1.266766e-01,-1.229805e-02,2.533531e-01
-1.942634e-01,1.121580e-01,-1.148076e-02,2.243161e-01
-2.232851e-01,1.289137e-01,1.793905e-02,2.578274e-01
-2.351947e-01,1.357897e-01,1.457851e-03,2.715795e-01
-1.952881e-01,1.127496e-01,-1.829122e-02,2.254993e-01
-2.100003e-01,1.212437e-01,1.003550e-02,2.424874e-01
-2.441667e-01,1.409697e-01,1.546064e-02,2.819395e-01
-2.021609e-01,1.167177e-01,-2.026851e-02,2.334353e-01
-2.002755e-01,1.156291e-01,4.710193e-04,2.312583e-01
-2.400993e-01,1.386214e-01,2.178955e-02,2.772428e-01
-2.150614e-01,1.241658e-01,-1.509731e-02,2.483315e-01
-1.949024e-01,1.125269e-01,-9.090815e-03,2.250539e-01
-2.272509e-01,1.312033e-01,1.954885e-02,2.624067e-01
-2.311171e-01,1.334355e-01,-2.712508e-03,2.668710e-01
-1.944634e-01,1.122735e-01,-1.677661e-02,2.245470e-01
-2.133885e-01,1.231999e-01,1.246096e-02,2.463998e-01
-2.428816e-01,1.402277e-01,1.207653e-02,2.804555e-01
-1.996284e-01,1.152555e-01,-2.036041e-02,2.305110e-01
-2.025404e-01,1.169367e-01,3.185152e-03,2.338735e-01
-2.424634e-01,1.399863e-01,2.103401e-02,2.799726e-01
-2.109859e-01,1.218128e-01,-1.731257e-02,2.436255e-01
-1.959204e-01,1.131147e-01,-6.558098e-03,2.262294e-01
-2.311688e-01,1.334654e-01,2.079984e-02,2.669308e-01
-2.267191e-01,1.308964e-01,-6.676689e-03,2.617927e-01
-1.940601e-01,1.120407e-01,-1.495383e-02,2.240814e-01
-2.170225e-01,1.252980e-01,1.472665e-02,2.505959e-01
-2.406011e-01,1.389111e-01,8.216545e-03,2.778222e-01
-1.975855e-01,1.140760e-01,-1.993752e-02,2.281521e-01
-2.051293e-01,1.184314e-01,5.859884e-03,2.368629e-01
-2.439529e-01,1.408463e-01,1.952728e-02,2.816925e-01
-2.072719e-01,1.196685e-01,-1.892265e-02,2.393370e-01
-1.973030e-01,1.139129e-01,-3.921006e-03,2.278258e-01
-2.349007e-01,1.356200e-01,2.161688e-02,2.712400e-01
-2.222005e-01,1.282875e-01,-1.028643e-02,2.565750e-01
-1.940624e-01,1.120420e-01,-1.287790e-02,2.240840e-01
-2.208453e-01,1.275051e-01,1.678592e-02,2.550102e-01
-2.374774e-01,1.371077e-01,4.080418e-03,2.742153e-01
-1.960243e-01,1.131747e-01,-1.905094e-02,2.263494e-01
-2.080369e-01,1.201102e-01,8.464666e-03,2.402204e-01
-2.444224e-01,1.411173e-01,1.724740e-02,2.822347e-01
-2.039781e-01,1.177668e-01,-1.993310e-02,2.355336e-01
-1.990321e-01,1.149113e-01,-1.220739e-03,2.298225e-01
-2.382714e-01,1.375661e-01,2.191188e-02,2.751322e-01
-2.177393e-01,1.257119e-01,-1.342313e-02,2.514237e-01
-1.944595e-01,1.122713e-01,-1.059570e-02,2.245425e-01
-2.247833e-01,1.297787e-01,1.858605e-02,2.595574e-01
-2.337027e-01,1.349283e-01,-1.338573e-04,2.698566e-01
-1.949251e-01,1.125401e-01,-1.775819e-02,2.250802e-01
-2.112503e-01,1.219654e-01,1.096929e-02,2.439308e-01
-2.438050e-01,1.407609e-01,1.424817e-02,2.815218e-01
-2.011459e-01,1.161316e-01,-2.036663e-02,2.322633e-01
-2.010941e-01,1.161018e-01,1.500401e-03,2.322035e-01
-2.410851e-01,1.391905e-01,2.158811e-02,2.783810e-01
-2.134821e-01,1.232539e-01,-1.600592e-02,2.465079e-01
-1.952432e-01,1.127237e-01,-8.147321e-03,2.254475e-01
-2.287450e-01,1.320660e-01,2.006815e-02,2.641320e-01
-2.294796e-01,1.324901e-01,-4.245120e-03,2.649802e-01
-1.942623e-01,1.121574e-01,-1.612009e-02,2.243148e-01
-2.147370e-01,1.239784e-01,1.333934e-02,2.479569e-01
-2.421285e-01,1.397929e-01,1.066154e-02,2.795859e-01
-1.987978e-01,1.147759e-01,-2.025839e-02,2.295519e-01
-2.034820e-01,1.174804e-01,4.203461e-03,2.349608e-01
-2.431389e-01,1.403763e-01,2.055492e-02,2.807527e-01
-2.095346e-01,1.209749e-01,-1.799307e-02,2.419498e-01
-1.964012e-01,1.133923e-01,-5.570454e-03,2.267846e-01
-2.326108e-01,1.342979e-01,2.116447e-02,2.685958e-01
-2.250132e-01,1.299114e-01,-8.091287e-03,2.598229e-01
-1.940139e-01,1.120140e-01,-1.419548e-02,2.240280e-01
-2.184502e-01,1.261223e-01,1.553276e-02,2.522445e-01
-2.395082e-01,1.382801e-01,6.673137e-03,2.765603e-01
-1.969387e-01,1.137026e-01,-1.965367e-02,2.274053e-01
-2.061922e-01,1.190451e-01,6.855203e-03,2.380902e-01
-2.442563e-01,1.410214e-01,1.875455e-02,2.820429e-01
-2.059734e-01,1.189188e-01,-1.937458e-02,2.378376e-01
-1.979170e-01,1.142674e-01,-2.904474e-03,2.285348e-01
-2.362290e-01,1.363869e-01,2.179503e-02,2.727737e-01
-2.204975e-01,1.273043e-01,-1.153403e-02,2.546085e-01
-1.941668e-01,1.121023e-01,-1.203643e-02,2.242045e-01
-2.223265e-01,1.283603e-01,1.750047e-02,2.567205e-01
-2.361157e-01,1.363215e-01,2.485033e-03,2.726429e-01
-1.955555e-01,1.129040e-01,-1.860633e-02,2.258081e-01
-2.092178e-01,1.207920e-01,9.425785e-03,2.415840e-01
-2.443177e-01,1.410569e-01,1.619174e-02,2.821138e-01
-2.028505e-01,1.171158e-01,-2.016333e-02,2.342316e-01
-1.997741e-01,1.153396e-01,-1.914852e-04,2.306792e-01
-2.394131e-01,1.382252e-01,2.186744e-02,2.764505e-01
-2.160982e-01,1.247643e-01,-1.446850e-02,2.495287e-01
-1.947112e-01,1.124165e-01,-9.686875e-03,2.248331e-01
-2.262855e-01,1.306460e-01,1.918760e-02,2.612920e-01
-2.321465e-01,1.340298e-01,-1.710625e-03,2.680596e-01
-1.946243e-01,1.123664e-01,-1.717577e-02,2.247327e-01
-2.125391e-01,1.227095e-01,1.188393e-02,2.454190e-01
-2.432910e-01,1.404641e-01,1.295106e-02,2.809282e-01
-2.001997e-01,1.155854e-01,-2.038718e-02,2.311707e-01
-2.019594e-01,1.166013e-01,2.527129e-03,2.332027e-01
-2.419621e-01,1.396969e-01,2.128483e-02,2.793938e-01
-2.119471e-01,1.223677e-01,-1.682897e-02,2.447354e-01
-1.956381e-01,1.129517e-01,-7.185440e-03,2.259034e-01
-2.302263e-01,1.329212e-01,2.053233e-02,2.658424e-01
-2.278076e-01,1.315248e-01,-5.739541e-03,2.630495e-01
-1.941204e-01,1.120755e-01,-1.542263e-02,2.241509e-01
-2.161184e-01,1.247760e-01,1.419248e-02,2.495520e-01
-2.412401e-01,1.392800e-01,9.188925e-03,2.785601e-01
-1.980376e-01,1.143370e-01,-2.008519e-02,2.286741e-01
-2.044699e-01,1.180507e-01,5.214377e-03,2.361015e-01
-2.436801e-01,1.406888e-01,1.996540e-02,2.813776e-01
-2.081386e-01,1.201689e-01,-1.858666e-02,2.403378e-01
-1.969335e-01,1.136996e-01,-4.570050e-03,2.273993e-01
-2.340187e-01,1.351107e-01,2.146257e-02,2.702215e-01
-2.233013e-01,1.289230e-01,-9.447716e-03,2.578461e-01
-1.940251e-01,1.120204e-01,-1.340365e-02,2.240409e-01
-2.199016e-01,1.269603e-01,1.630660e-02,2.539205e-01
-2.383048e-01,1.375854e-01,5.101298e-03,2.751707e-01
-1.963605e-01,1.133688e-01,-1.930635e-02,2.267376e-01
-2.073006e-01,1.196851e-01,7.838898e-03,2.393702e-01
-2.444073e-01,1.411086e-01,1.787179e-02,2.822172e-01
-2.047386e-01,1.182059e-01,-1.974141e-02,2.364117e-01
-1.985801e-01,1.146503e-01,-1.881241e-03,2.293005e-01
-2.374950e-01,1.371178e-01,2.189333e-02,2.742356e-01
-2.188112e-01,1.263307e-01,-1.270848e-02,2.526615e-01
-1.943272e-01,1.121949e-01,-1.116774e-02,2.243897e-01
-2.238192e-01,1.292221e-01,1.817496e-02,2.584441e-01
-2.346702e-01,1.354869e-01,8.886535e-04,2.709738e-01
-1.951515e-01,1.126708e-01,-1.810685e-02,2.253415e-01
-2.104413e-01,1.214983e-01,1.037088e-02,2.429966e-01
-2.440552e-01,1.409053e-01,1.503818e-02,2.818107e-01
-2.017906e-01,1.165039e-01,-2.031260e-02,2.330077e-01
-2.005625e-01,1.157948e-01,8.385551e-04,2.315896e-01
-2.404635e-01,1.388317e-01,2.172910e-02,2.776634e-01
-2.144930e-01,1.238376e-01,-1.543132e-02,2.476752e-01
-1.950179e-01,1.125937e-01,-8.756342e-03,2.251873e-01
-2.277847e-01,1.315116e-01,1.974027e-02,2.630231e-01
-2.305379e-01,1.331011e-01,-3.263282e-03,2.662023e-01
-1.943848e-01,1.122281e-01,-1.654720e-02,2.244562e-01
-2.138656e-01,1.234754e-01,1.277719e-02,2.469508e-01
-2.426288e-01,1.400818e-01,1.157884e-02,2.801636e-01
-1.993239e-01,1.150797e-01,-2.033232e-02,2.301594e-01
-2.028713e-01,1.171278e-01,3.549303e-03,2.342556e-01
-2.427196e-01,1.401342e-01,2.087559e-02,2.802684e-01
-2.104619e-01,1.215103e-01,-1.756539e-02,2.430205e-01
-1.960861e-01,1.132104e-01,-6.207238e-03,2.264208e-01
-2.316869e-01,1.337645e-01,2.093731e-02,2.675290e-01
-2.261117e-01,1.305457e-01,-7.187781e-03,2.610913e-01
-1.940370e-01,1.120273e-01,-1.468720e-02,2.240546e-01
-2.175291e-01,1.255905e-01,1.501786e-02,2.511810e-01
-2.402243e-01,1.386936e-01,7.669673e-03,2.773872e-01
-1.973466e-01,1.139381e-01,-1.984371e-02,2.278762e-01
-2.055032e-01,1.186473e-01,6.216350e-03,2.372947e-01
-2.440781e-01,1.409186e-01,1.926424e-02,2.818371e-01
-2.068011e-01,1.193967e-01,-1.909380e-02,2.387934e-01
-1.975166e-01,1.140363e-01,-3.559148e-03,2.280725e-01
-2.353809e-01,1.358972e-01,2.168928e-02,2.717945e-01
-2.215910e-01,1.279356e-01,-1.073982e-02,2.558712e-01
