x,y,z,R
-2.175300e-01,1.255910e-01,1.556683e-03,2.511821e-01
-2.211199e-01,1.276636e-01,2.359120e-03,2.553272e-01
-2.173825e-01,1.255059e-01,-1.278936e-03,2.510117e-01
-2.167232e-01,1.251252e-01,7.582716e-04,2.502504e-01
-2.209452e-01,1.275628e-01,2.812975e-03,2.551255e-01
-2.183335e-01,1.260549e-01,-8.290362e-04,2.521098e-01
-2.161645e-01,1.248026e-01,-3.813650e-05,2.496053e-01
-2.204115e-01,1.272546e-01,2.965586e-03,2.545092e-01
-2.193198e-01,1.266243e-01,-1.411801e-04,2.532487e-01
-2.159243e-01,1.246639e-01,-7.263258e-04,2.493279e-01
-2.196067e-01,1.267900e-01,2.802520e-03,2.535800e-01
-2.201959e-01,1.271301e-01,6.851082e-04,2.542603e-01
-2.160359e-01,1.247284e-01,-1.212231e-03,2.494567e-01
-2.186546e-01,1.262403e-01,2.354986e-03,2.524806e-01
-2.208257e-01,1.274938e-01,1.525115e-03,2.549876e-01
-2.164887e-01,1.249898e-01,-1.425255e-03,2.499796e-01
-2.176923e-01,1.256847e-01,1.690990e-03,2.513694e-01
-2.211097e-01,1.276578e-01,2.250588e-03,2.553155e-01
-2.172277e-01,1.254165e-01,-1.328884e-03,2.508329e-01
-2.168515e-01,1.251993e-01,9.036271e-04,2.503986e-01
-2.210039e-01,1.275967e-01,2.752927e-03,2.551934e-01
-2.181568e-01,1.259529e-01,-9.290032e-04,2.519057e-01
-2.162423e-01,1.248476e-01,9.890443e-05,2.496951e-01
-2.205295e-01,1.273228e-01,2.961715e-03,2.546456e-01
-2.191476e-01,1.265249e-01,-2.772824e-04,2.530499e-01
-2.159417e-01,1.246740e-01,-6.159699e-04,2.493480e-01
-2.197649e-01,1.268813e-01,2.853881e-03,2.537626e-01
-2.200541e-01,1.270483e-01,5.329920e-04,2.540965e-01
-2.159901e-01,1.247020e-01,-1.143936e-03,2.494039e-01
-2.188293e-01,1.263412e-01,2.453002e-03,2.526823e-01
-2.207368e-01,1.274424e-01,1.380170e-03,2.548849e-01
-2.163846e-01,1.249297e-01,-1.409408e-03,2.498594e-01
-2.178585e-01,1.257807e-01,1.821341e-03,2.515613e-01
-2.210870e-01,1.276446e-01,2.134858e-03,2.552893e-01
-2.170786e-01,1.253304e-01,-1.369074e-03,2.506608e-01
-2.169873e-01,1.252777e-01,1.048426e-03,2.505554e-01
-2.210511e-01,1.276239e-01,2.683424e-03,2.552478e-01
-2.179829e-01,1.258525e-01,-1.020825e-03,2.517050e-01
-2.163300e-01,1.248982e-01,2.388296e-04,2.497964e-01
-2.206385e-01,1.273857e-01,2.947662e-03,2.547714e-01
-2.189733e-01,1.264243e-01,-4.082477e-04,2.528486e-01
-2.159704e-01,1.246905e-01,-4.996166e-04,2.493811e-01
-2.199178e-01,1.269696e-01,2.895825e-03,2.539392e-01
-2.199052e-01,1.269623e-01,3.820769e-04,2.539246e-01
-2.159555e-01,1.246820e-01,-1.067212e-03,2.493640e-01
-2.190023e-01,1.264411e-01,2.543604e-03,2.528821e-01
-2.206370e-01,1.273848e-01,1.232242e-03,2.547697e-01
-2.162904e-01,1.248753e-01,-1.383726e-03,2.497507e-01
-2.180278e-01,1.258784e-01,1.947163e-03,2.517568e-01
-2.210520e-01,1.276244e-01,2.012486e-03,2.552489e-01
-2.169362e-01,1.252482e-01,-1.399358e-03,2.504963e-01
-2.171300e-01,1.253601e-01,1.192052e-03,2.507201e-01
-2.210864e-01,1.276443e-01,2.604767e-03,2.552886e-01
-2.178110e-01,1.257533e-01,-1.104154e-03,2.515065e-01
-2.164273e-01,1.249544e-01,3.810382e-04,2.499087e-01
-2.207371e-01,1.274426e-01,2.923422e-03,2.548852e-01
-2.187963e-01,1.263221e-01,-5.335035e-04,2.526442e-01
-2.160101e-01,1.247135e-01,-3.777802e-04,2.494269e-01
-2.200640e-01,1.270540e-01,2.928105e-03,2.541080e-01
-2.197503e-01,1.268729e-01,2.331069e-04,2.537457e-01
-2.159321e-01,1.246685e-01,-9.824258e-04,2.493370e-01
-2.191738e-01,1.265401e-01,2.626370e-03,2.530802e-01
-2.205267e-01,1.273211e-01,1.082044e-03,2.546423e-01
-2.162062e-01,1.248267e-01,-1.348372e-03,2.496534e-01
-2.181998e-01,1.259777e-01,2.067896e-03,2.519554e-01
-2.210049e-01,1.275972e-01,1.884055e-03,2.551945e-01
-2.168015e-01,1.251704e-01,-1.419627e-03,2.503409e-01
-2.172788e-01,1.254460e-01,1.333886e-03,2.508920e-01
-2.211096e-01,1.276577e-01,2.517294e-03,2.553153e-01
-2.176437e-01,1.256567e-01,-1.178579e-03,2.513133e-01
-2.165338e-01,1.250158e-01,5.249218e-04,2.500316e-01
-2.208258e-01,1.274938e-01,2.889088e-03,2.549877e-01
-2.186187e-01,1.262196e-01,-6.524285e-04,2.524391e-01
-2.160607e-01,1.247427e-01,-2.509964e-04,2.494854e-01
-2.202039e-01,1.271348e-01,2.950546e-03,2.542695e-01
-2.195887e-01,1.267796e-01,8.676857e-05,2.535592e-01
-2.159200e-01,1.246615e-01,-8.899774e-04,2.493229e-01
-2.193431e-01,1.266378e-01,2.700898e-03,2.532756e-01
-2.204068e-01,1.272519e-01,9.303395e-04,2.545039e-01
-2.161324e-01,1.247841e-01,-1.303548e-03,2.495682e-01
-2.183735e-01,1.260780e-01,2.183001e-03,2.521560e-01
-2.209458e-01,1.275631e-01,1.750185e-03,2.551263e-01
-2.166751e-01,1.250974e-01,-1.429844e-03,2.501949e-01
-2.174335e-01,1.255353e-01,1.473318e-03,2.510705e-01
-2.211194e-01,1.276633e-01,2.421375e-03,2.553267e-01
-2.174796e-01,1.255619e-01,-1.243854e-03,2.511238e-01
-2.166490e-01,1.250824e-01,6.698677e-04,2.501647e-01
-2.209032e-01,1.275385e-01,2.844751e-03,2.550771e-01
-2.184412e-01,1.261171e-01,-7.644726e-04,2.522342e-01
-2.161222e-01,1.247782e-01,-1.198182e-04,2.495564e-01
-2.203352e-01,1.272106e-01,2.962966e-03,2.544212e-01
-2.194226e-01,1.266837e-01,-5.619093e-05,2.533674e-01
-2.159193e-01,1.246610e-01,-7.902933e-04,2.493221e-01
-2.195082e-01,1.267331e-01,2.766799e-03,2.534662e-01
-2.202782e-01,1.271777e-01,7.778776e-04,2.543553e-01
-2.160692e-01,1.247476e-01,-1.249495e-03,2.494952e-01
-2.185484e-01,1.261790e-01,2.291954e-03,2.523579e-01
-2.208749e-01,1.275222e-01,1.611518e-03,2.550444e-01
-2.165563e-01,1.250288e-01,-1.430040e-03,2.500576e-01
-2.175930e-01,1.256274e-01,1.609744e-03,2.512547e-01
-2.211170e-01,1.276619e-01,2.317470e-03,2.553239e-01
-2.173213e-01,1.254705e-01,-1.299658e-03,2.509410e-01
-2.167725e-01,1.251537e-01,8.152562e-04,2.503074e-01
-2.209692e-01,1.275767e-01,2.790580e-03,2.551533e-01
-2.182638e-01,1.260146e-01,-8.691590e-04,2.520293e-01
-2.161939e-01,1.248196e-01,1.518534e-05,2.496393e-01
-2.204591e-01,1.272821e-01,2.965286e-03,2.545642e-01
-2.192528e-01,1.265857e-01,-1.950759e-04,2.531714e-01
-2.159298e-01,1.246671e-01,-6.838288e-04,2.493342e-01
-2.196692e-01,1.268261e-01,2.823751e-03,2.536522e-01
-2.201414e-01,1.270987e-01,6.254118e-04,2.541974e-01
-2.160168e-01,1.247174e-01,-1.186491e-03,2.494347e-01
-2.187232e-01,1.262799e-01,2.394249e-03,2.525598e-01
-2.207922e-01,1.274744e-01,1.468719e-03,2.549489e-01
-2.164466e-01,1.249655e-01,-1.420229e-03,2.499310e-01
-2.177569e-01,1.257220e-01,1.742570e-03,2.514440e-01
-2.211022e-01,1.276534e-01,2.206062e-03,2.553068e-01
-2.171685e-01,1.253823e-01,-1.345806e-03,2.507646e-01
-2.169038e-01,1.252295e-01,9.604675e-04,2.504590e-01
-2.210240e-01,1.276083e-01,2.726807e-03,2.552166e-01
-2.180887e-01,1.259135e-01,-9.659625e-04,2.518271e-01
-2.162758e-01,1.248669e-01,1.534286e-04,2.497338e-01
-2.205732e-01,1.273480e-01,2.957420e-03,2.546960e-01
-2.190796e-01,1.264857e-01,-3.292419e-04,2.529714e-01
-2.159516e-01,1.246797e-01,-5.710643e-04,2.493594e-01
-2.198259e-01,1.269165e-01,2.871458e-03,2.538331e-01
-2.199970e-01,1.270153e-01,4.736883e-04,2.540307e-01
-2.159754e-01,1.246935e-01,-1.114852e-03,2.493869e-01
-2.188971e-01,1.263803e-01,2.489409e-03,2.527606e-01
-2.206986e-01,1.274204e-01,1.322507e-03,2.548408e-01
-2.163465e-01,1.249077e-01,-1.400508e-03,2.498155e-01
-2.179245e-01,1.258188e-01,1.871215e-03,2.516375e-01
-2.210750e-01,1.276377e-01,2.087675e-03,2.552755e-01
-2.170219e-01,1.252976e-01,-1.382131e-03,2.505953e-01
-2.170424e-01,1.253095e-01,1.104880e-03,2.506189e-01
-2.210668e-01,1.276329e-01,2.653685e-03,2.552659e-01
-2.179149e-01,1.258132e-01,-1.054521e-03,2.516265e-01
-2.163672e-01,1.249197e-01,2.943200e-04,2.498394e-01
-2.206782e-01,1.274086e-01,2.939370e-03,2.548173e-01
-2.189038e-01,1.263842e-01,-4.580573e-04,2.527683e-01
-2.159845e-01,1.246987e-01,-4.525004e-04,2.493975e-01
-2.199756e-01,1.270030e-01,2.909632e-03,2.540060e-01
-2.198450e-01,1.269276e-01,3.234262e-04,2.538552e-01
-2.159452e-01,1.246760e-01,-1.034923e-03,2.493521e-01
-2.190698e-01,1.264800e-01,2.576993e-03,2.529600e-01
-2.205947e-01,1.273604e-01,1.173601e-03,2.547208e-01
-2.162562e-01,1.248556e-01,-1.371012e-03,2.497112e-01
-2.180950e-01,1.259172e-01,1.995111e-03,2.518344e-01
-2.210354e-01,1.276149e-01,1.962863e-03,2.552297e-01
-2.168826e-01,1.252172e-01,-1.408492e-03,2.504345e-01
-2.171875e-01,1.253933e-01,1.247877e-03,2.507865e-01
-2.210967e-01,1.276502e-01,2.571514e-03,2.553005e-01
-2.177452e-01,1.257152e-01,-1.134386e-03,2.514305e-01
-2.164682e-01,1.249779e-01,4.372561e-04,2.499559e-01
-2.207733e-01,1.274636e-01,2.911174e-03,2.549271e-01
-2.187270e-01,1.262821e-01,-5.808810e-04,2.525642e-01
-2.160285e-01,1.247241e-01,-3.286605e-04,2.494482e-01
-2.201199e-01,1.270863e-01,2.938087e-03,2.541726e-01
-2.196871e-01,1.268364e-01,1.753928e-04,2.536729e-01
-2.159263e-01,1.246651e-01,-9.470863e-04,2.493302e-01
-2.192407e-01,1.265787e-01,2.656581e-03,2.531574e-01
-2.204809e-01,1.272947e-01,1.022737e-03,2.545894e-01
-2.161762e-01,1.248094e-01,-1.331919e-03,2.496188e-01
-2.182679e-01,1.260170e-01,2.113703e-03,2.520340e-01
-2.209831e-01,1.275847e-01,1.832211e-03,2.551693e-01
-2.167512e-01,1.251413e-01,-1.424823e-03,2.502827e-01
-2.173387e-01,1.254806e-01,1.388842e-03,2.509611e-01
-2.211145e-01,1.276605e-01,2.480678e-03,2.553211e-01
-2.175786e-01,1.256190e-01,-1.205276e-03,2.512381e-01
-2.165781e-01,1.250414e-01,5.816289e-04,2.500828e-01
-2.208572e-01,1.275120e-01,2.872891e-03,2.550239e-01
-2.185490e-01,1.261794e-01,-6.971847e-04,2.523587e-01
-2.160833e-01,1.247558e-01,-2.000888e-04,2.495115e-01
-2.202560e-01,1.271648e-01,2.956606e-03,2.543297e-01
-2.195243e-01,1.267424e-01,3.031183e-05,2.534848e-01
-2.159185e-01,1.246606e-01,-8.517495e-04,2.493212e-01
-2.194082e-01,1.266754e-01,2.727765e-03,2.533507e-01
-2.203579e-01,1.272237e-01,8.706603e-04,2.544474e-01
-2.161066e-01,1.247692e-01,-1.283446e-03,2.495384e-01
-2.184423e-01,1.261177e-01,2.226459e-03,2.522354e-01
-2.209190e-01,1.275477e-01,1.696371e-03,2.550953e-01
-2.166272e-01,1.250698e-01,-1.431125e-03,2.501395e-01
-2.174953e-01,1.255710e-01,1.527168e-03,2.511420e-01
-2.211201e-01,1.276637e-01,2.381588e-03,2.553275e-01
-2.174169e-01,1.255257e-01,-1.266857e-03,2.510515e-01
-2.166965e-01,1.251098e-01,7.268217e-04,2.502196e-01
-2.209305e-01,1.275543e-01,2.824684e-03,2.551086e-01
-2.183715e-01,1.260768e-01,-8.064045e-04,2.521536e-01
-2.161488e-01,1.247936e-01,-6.734505e-05,2.495871e-01
-2.203851e-01,1.272394e-01,2.965092e-03,2.544788e-01
-2.193568e-01,1.266457e-01,-1.111242e-04,2.532914e-01
-2.159222e-01,1.246627e-01,-7.493534e-04,2.493254e-01
-2.195718e-01,1.267698e-01,2.790198e-03,2.535396e-01
-2.202258e-01,1.271474e-01,7.181009e-04,2.542948e-01
-2.160476e-01,1.247351e-01,-1.225850e-03,2.494703e-01
-2.186168e-01,1.262185e-01,2.332856e-03,2.524370e-01
-2.208435e-01,1.275040e-01,1.556002e-03,2.550081e-01
-2.165121e-01,1.250033e-01,-1.427386e-03,2.500066e-01
-2.176567e-01,1.256642e-01,1.662254e-03,2.513283e-01
-2.211133e-01,1.276598e-01,2.274698e-03,2.553196e-01
-2.172608e-01,1.254356e-01,-1.318899e-03,2.508711e-01
-2.168232e-01,1.251829e-01,8.722146e-04,2.503659e-01
-2.209925e-01,1.275901e-01,2.766731e-03,2.551801e-01
-2.181950e-01,1.259749e-01,-9.080504e-04,2.519499e-01
-2.162246e-01,1.248373e-01,6.899873e-05,2.496747e-01
-2.205046e-01,1.273084e-01,2.963413e-03,2.546168e-01
-2.191851e-01,1.265466e-01,-2.482569e-04,2.530932e-01
-2.159371e-01,1.246713e-01,-6.403628e-04,2.493427e-01
-2.197315e-01,1.268620e-01,2.843567e-03,2.537241e-01
-2.200854e-01,1.270663e-01,5.658189e-04,2.541327e-01
-2.159996e-01,1.247074e-01,-1.159422e-03,2.494149e-01
-2.187912e-01,1.263192e-01,2.432410e-03,2.526383e-01
-2.207568e-01,1.274540e-01,1.411792e-03,2.549080e-01
-2.164063e-01,1.249422e-01,-1.413675e-03,2.498844e-01
-2.178222e-01,1.257597e-01,1.793513e-03,2.515194e-01
-2.210931e-01,1.276482e-01,2.160476e-03,2.552963e-01
-2.171101e-01,1.253486e-01,-1.361224e-03,2.506971e-01
-2.169573e-01,1.252604e-01,1.017187e-03,2.505207e-01
-2.210419e-01,1.276186e-01,2.699245e-03,2.552372e-01
-2.180201e-01,1.258739e-01,-1.001681e-03,2.517479e-01
-2.163104e-01,1.248868e-01,2.083528e-04,2.497737e-01
-2.206159e-01,1.273726e-01,2.951567e-03,2.547453e-01
-2.190110e-01,1.264460e-01,-3.803940e-04,2.528921e-01
-2.159632e-01,1.246864e-01,-5.252642e-04,2.493729e-01
-2.198850e-01,1.269507e-01,2.887559e-03,2.539013e-01
-2.199379e-01,1.269812e-01,4.145765e-04,2.539624e-01
-2.159625e-01,1.246860e-01,-1.084491e-03,2.493721e-01
-2.189649e-01,1.264194e-01,2.524657e-03,2.528389e-01
-2.206594e-01,1.273978e-01,1.264450e-03,2.547955e-01
-2.163101e-01,1.248867e-01,-1.390102e-03,2.497734e-01
-2.179911e-01,1.258572e-01,1.920363e-03,2.517144e-01
-2.210607e-01,1.276294e-01,2.039489e-03,2.552589e-01
-2.169665e-01,1.252657e-01,-1.393650e-03,2.505314e-01
-2.170985e-01,1.253419e-01,1.161118e-03,2.506838e-01
-2.210797e-01,1.276404e-01,2.622537e-03,2.552808e-01
-2.178480e-01,1.257746e-01,-1.086867e-03,2.515492e-01
-2.164058e-01,1.249420e-01,3.501221e-04,2.498839e-01
-2.207166e-01,1.274308e-01,2.929525e-03,2.548616e-01
-2.188349e-01,1.263444e-01,-5.069206e-04,2.526888e-01
-2.160005e-01,1.247079e-01,-4.045707e-04,2.494159e-01
-2.200330e-01,1.270361e-01,2.921955e-03,2.540723e-01
-2.197840e-01,1.268923e-01,2.651182e-04,2.537847e-01
-2.159368e-01,1.246712e-01,-1.001417e-03,2.493423e-01
-2.191373e-01,1.265190e-01,2.609159e-03,2.530379e-01
-2.205516e-01,1.273355e-01,1.114691e-03,2.546711e-01
-2.162239e-01,1.248369e-01,-1.356819e-03,2.496739e-01
-2.181628e-01,1.259564e-01,2.042246e-03,2.519127e-01
-2.210160e-01,1.276037e-01,1.912315e-03,2.552073e-01
-2.168304e-01,1.251871e-01,-1.416081e-03,2.503742e-01
-2.172461e-01,1.254271e-01,1.303392e-03,2.508542e-01
-2.211055e-01,1.276553e-01,2.536939e-03,2.553106e-01
-2.176792e-01,1.256772e-01,-1.163260e-03,2.513543e-01
-2.165105e-01,1.250024e-01,4.936975e-04,2.500048e-01
-2.208073e-01,1.274832e-01,2.897361e-03,2.549663e-01
-2.186570e-01,1.262417e-01,-6.272738e-04,2.524834e-01
-2.160487e-01,1.247358e-01,-2.788126e-04,2.494715e-01
-2.201739e-01,1.271175e-01,2.946531e-03,2.542350e-01
-2.196243e-01,1.268001e-01,1.181658e-04,2.536003e-01
-2.159222e-01,1.246627e-01,-9.105914e-04,2.493255e-01
-2.193067e-01,1.266168e-01,2.685494e-03,2.532336e-01
-2.204336e-01,1.272674e-01,9.632455e-04,2.545348e-01
-2.161480e-01,1.247931e-01,-1.314022e-03,2.495862e-01
-2.183364e-01,1.260566e-01,2.158615e-03,2.521131e-01
-2.209594e-01,1.275710e-01,1.779563e-03,2.551419e-01
-2.167013e-01,1.251126e-01,-1.428497e-03,2.502252e-01
-2.173995e-01,1.255157e-01,1.443395e-03,2.510314e-01
-2.211185e-01,1.276628e-01,2.442819e-03,2.553257e-01
-2.175146e-01,1.255821e-01,-1.230530e-03,2.511642e-01
-2.166238e-01,1.250678e-01,6.384638e-04,2.501356e-01
-2.208878e-01,1.275296e-01,2.855187e-03,2.550593e-01
-2.184797e-01,1.261393e-01,-7.408454e-04,2.522786e-01
-2.161077e-01,1.247698e-01,-1.485399e-04,2.495397e-01
-2.203076e-01,1.271946e-01,2.961136e-03,2.543893e-01
-2.194589e-01,1.267047e-01,-2.559033e-05,2.534094e-01
-2.159189e-01,1.246608e-01,-8.124359e-04,2.493217e-01
-2.194726e-01,1.267126e-01,2.753290e-03,2.534252e-01
-2.203067e-01,1.271942e-01,8.108796e-04,2.543883e-01
-2.160822e-01,1.247551e-01,-1.261948e-03,2.495103e-01
-2.185104e-01,1.261571e-01,2.268934e-03,2.523141e-01
-2.208912e-01,1.275316e-01,1.641880e-03,2.550632e-01
-2.165809e-01,1.250431e-01,-1.430855e-03,2.500861e-01
-2.175582e-01,1.256073e-01,1.580523e-03,2.512145e-01
-2.211186e-01,1.276629e-01,2.340599e-03,2.553258e-01
-2.173553e-01,1.254902e-01,-1.288391e-03,2.509803e-01
-2.167455e-01,1.251381e-01,7.838083e-04,2.502762e-01
-2.209559e-01,1.275690e-01,2.803120e-03,2.551379e-01
-2.183020e-01,1.260367e-01,-8.471664e-04,2.520734e-01
-2.161771e-01,1.248099e-01,-1.431680e-05,2.496198e-01
-2.204328e-01,1.272669e-01,2.965640e-03,2.545338e-01
-2.192897e-01,1.266070e-01,-1.654201e-04,2.532140e-01
-2.159269e-01,1.246655e-01,-7.073998e-04,2.493310e-01
-2.196351e-01,1.268064e-01,2.812212e-03,2.536128e-01
-2.201715e-01,1.271161e-01,6.583467e-04,2.542321e-01
-2.160274e-01,1.247235e-01,-1.200859e-03,2.494469e-01
-2.186851e-01,1.262579e-01,2.372707e-03,2.525158e-01
-2.208112e-01,1.274854e-01,1.499925e-03,2.549708e-01
-2.164696e-01,1.249788e-01,-1.423194e-03,2.499575e-01
-2.177213e-01,1.257014e-01,1.714179e-03,2.514028e-01
-2.211064e-01,1.276558e-01,2.230768e-03,2.553117e-01
-2.172008e-01,1.254009e-01,-1.336660e-03,2.508018e-01
-2.168751e-01,1.252129e-01,9.291106e-04,2.504258e-01
-2.210130e-01,1.276019e-01,2.741399e-03,2.552038e-01
-2.181263e-01,1.259352e-01,-9.457178e-04,2.518705e-01
-2.162568e-01,1.248559e-01,1.232765e-04,2.497119e-01
-2.205496e-01,1.273344e-01,2.959991e-03,2.546687e-01
-2.191176e-01,1.265076e-01,-3.006480e-04,2.530152e-01
-2.159463e-01,1.246766e-01,-5.959570e-04,2.493533e-01
-2.197921e-01,1.268970e-01,2.861932e-03,2.537941e-01
-2.200288e-01,1.270337e-01,5.063991e-04,2.540673e-01
-2.159835e-01,1.246981e-01,-1.131061e-03,2.493962e-01
-2.188594e-01,1.263586e-01,2.469453e-03,2.527171e-01
-2.207198e-01,1.274327e-01,1.354388e-03,2.548653e-01
-2.163677e-01,1.249199e-01,-1.405599e-03,2.498399e-01
-2.178882e-01,1.257978e-01,1.843778e-03,2.515957e-01
-2.210818e-01,1.276416e-01,2.113841e-03,2.552833e-01
-2.170531e-01,1.253157e-01,-1.375112e-03,2.506313e-01
-2.170121e-01,1.252920e-01,1.073748e-03,2.505839e-01
