x,y,z,R
-2.203370e-01,1.272116e-01,-1.116172e-03,2.544232e-01
-2.129052e-01,1.229209e-01,-2.547431e-03,2.458418e-01
-2.205277e-01,1.273217e-01,5.047863e-03,2.546434e-01
-2.223031e-01,1.283468e-01,7.740844e-04,2.566935e-01
-2.131997e-01,1.230909e-01,-3.574645e-03,2.461818e-01
-2.183972e-01,1.260917e-01,3.971554e-03,2.521834e-01
-2.236717e-01,1.291369e-01,2.669583e-03,2.582738e-01
-2.142279e-01,1.236846e-01,-4.001039e-03,2.473691e-01
-2.163316e-01,1.248991e-01,2.467918e-03,2.497982e-01
-2.241899e-01,1.294361e-01,4.244728e-03,2.588722e-01
-2.158869e-01,1.246424e-01,-3.732786e-03,2.492847e-01
-2.146026e-01,1.239009e-01,7.465356e-04,2.478017e-01
-2.237710e-01,1.291943e-01,5.242813e-03,2.583885e-01
-2.179726e-01,1.258466e-01,-2.771570e-03,2.516931e-01
-2.134170e-01,1.232163e-01,-9.696737e-04,2.464327e-01
-2.225142e-01,1.284686e-01,5.529091e-03,2.569373e-01
-2.201914e-01,1.271276e-01,-1.235311e-03,2.542551e-01
-2.129125e-01,1.229251e-01,-2.460191e-03,2.458502e-01
-2.206659e-01,1.274015e-01,5.100451e-03,2.548031e-01
-2.221856e-01,1.282789e-01,6.426146e-04,2.565578e-01
-2.131558e-01,1.230656e-01,-3.522751e-03,2.461312e-01
-2.185420e-01,1.261753e-01,4.059813e-03,2.523506e-01
-2.236038e-01,1.290977e-01,2.548336e-03,2.581955e-01
-2.141373e-01,1.236323e-01,-3.993515e-03,2.472645e-01
-2.164634e-01,1.249752e-01,2.578668e-03,2.499504e-01
-2.241841e-01,1.294328e-01,4.154312e-03,2.588655e-01
-2.157585e-01,1.245682e-01,-3.773311e-03,2.491365e-01
-2.147044e-01,1.239596e-01,8.650230e-04,2.479193e-01
-2.238277e-01,1.292270e-01,5.197100e-03,2.584540e-01
-2.178240e-01,1.257607e-01,-2.856490e-03,2.515215e-01
-2.134772e-01,1.232511e-01,-8.585761e-04,2.465022e-01
-2.226209e-01,1.285302e-01,5.532886e-03,2.570605e-01
-2.200448e-01,1.270429e-01,-1.352859e-03,2.540859e-01
-2.129236e-01,1.229315e-01,-2.370982e-03,2.458629e-01
-2.208027e-01,1.274805e-01,5.150225e-03,2.549610e-01
-2.220657e-01,1.282097e-01,5.112868e-04,2.564194e-01
-2.131161e-01,1.230427e-01,-3.468117e-03,2.460853e-01
-2.186874e-01,1.262592e-01,4.146055e-03,2.525185e-01
-2.235324e-01,1.290565e-01,2.425710e-03,2.581129e-01
-2.140493e-01,1.235814e-01,-3.982827e-03,2.471628e-01
-2.165960e-01,1.250518e-01,2.688357e-03,2.501036e-01
-2.241743e-01,1.294271e-01,4.061294e-03,2.588542e-01
-2.156322e-01,1.244953e-01,-3.810619e-03,2.489906e-01
-2.148081e-01,1.240195e-01,9.834660e-04,2.480390e-01
-2.238803e-01,1.292573e-01,5.148107e-03,2.585147e-01
-2.176760e-01,1.256753e-01,-2.938692e-03,2.513506e-01
-2.135395e-01,1.232871e-01,-7.465165e-04,2.465742e-01
-2.227248e-01,1.285902e-01,5.533370e-03,2.571804e-01
-2.198972e-01,1.269577e-01,-1.468741e-03,2.539155e-01
-2.129376e-01,1.229396e-01,-2.279877e-03,2.458792e-01
-2.209383e-01,1.275588e-01,5.197146e-03,2.551176e-01
-2.219434e-01,1.281391e-01,3.802056e-04,2.562781e-01
-2.130789e-01,1.230211e-01,-3.410836e-03,2.460423e-01
-2.188332e-01,1.263434e-01,4.230220e-03,2.526869e-01
-2.234574e-01,1.290132e-01,2.301804e-03,2.580264e-01
-2.139641e-01,1.235322e-01,-3.968981e-03,2.470645e-01
-2.167304e-01,1.251294e-01,2.796913e-03,2.502587e-01
-2.241603e-01,1.294190e-01,3.965738e-03,2.588380e-01
-2.155082e-01,1.244237e-01,-3.844693e-03,2.488474e-01
-2.149146e-01,1.240810e-01,1.101794e-03,2.481620e-01
-2.239288e-01,1.292854e-01,5.095872e-03,2.585707e-01
-2.175289e-01,1.255904e-01,-3.018127e-03,2.511808e-01
-2.136058e-01,1.233254e-01,-6.335498e-04,2.466508e-01
-2.228258e-01,1.286486e-01,5.530527e-03,2.572971e-01
-2.197485e-01,1.268719e-01,-1.582875e-03,2.537437e-01
-2.129555e-01,1.229499e-01,-2.186922e-03,2.458999e-01
-2.210725e-01,1.276363e-01,5.241168e-03,2.552726e-01
-2.218180e-01,1.280667e-01,2.494349e-04,2.561334e-01
-2.130458e-01,1.230020e-01,-3.350908e-03,2.460040e-01
-2.189782e-01,1.264271e-01,4.312246e-03,2.528542e-01
-2.233782e-01,1.289675e-01,2.176686e-03,2.579350e-01
-2.138825e-01,1.234851e-01,-3.951977e-03,2.469702e-01
-2.168664e-01,1.252079e-01,2.904272e-03,2.504158e-01
-2.241423e-01,1.294086e-01,3.867717e-03,2.588172e-01
-2.153865e-01,1.243535e-01,-3.875518e-03,2.487069e-01
-2.150231e-01,1.241436e-01,1.219940e-03,2.482873e-01
-2.239734e-01,1.293111e-01,5.040421e-03,2.586222e-01
-2.173828e-01,1.255060e-01,-3.094744e-03,2.510120e-01
-2.136743e-01,1.233649e-01,-5.197560e-04,2.467298e-01
-2.229237e-01,1.287051e-01,5.524345e-03,2.574102e-01
-2.195993e-01,1.267857e-01,-1.695163e-03,2.535714e-01
-2.129764e-01,1.229620e-01,-2.092185e-03,2.459240e-01
-2.212053e-01,1.277129e-01,5.282252e-03,2.554258e-01
-2.216904e-01,1.279930e-01,1.191114e-04,2.559860e-01
-2.130157e-01,1.229847e-01,-3.288402e-03,2.459693e-01
-2.191235e-01,1.265110e-01,4.392075e-03,2.530220e-01
-2.232952e-01,1.289196e-01,2.050465e-03,2.578391e-01
-2.138037e-01,1.234396e-01,-3.931866e-03,2.468792e-01
-2.170030e-01,1.252867e-01,3.010367e-03,2.505734e-01
-2.241193e-01,1.293954e-01,3.767269e-03,2.587907e-01
-2.152672e-01,1.242846e-01,-3.903089e-03,2.485692e-01
-2.151341e-01,1.242077e-01,1.337832e-03,2.484155e-01
-2.240141e-01,1.293346e-01,4.981785e-03,2.586692e-01
-2.172377e-01,1.254222e-01,-3.168498e-03,2.508445e-01
-2.137465e-01,1.234066e-01,-4.051922e-04,2.468133e-01
-2.230187e-01,1.287599e-01,5.514814e-03,2.575198e-01
-2.194495e-01,1.266992e-01,-1.805524e-03,2.533984e-01
-2.130011e-01,1.229763e-01,-1.995719e-03,2.459525e-01
-2.213364e-01,1.277886e-01,5.320356e-03,2.555773e-01
-2.215607e-01,1.279181e-01,-1.065678e-05,2.558362e-01
-2.129892e-01,1.229694e-01,-3.223356e-03,2.459387e-01
-2.192689e-01,1.265949e-01,4.469653e-03,2.531899e-01
-2.232089e-01,1.288697e-01,1.923263e-03,2.577394e-01
-2.137277e-01,1.233957e-01,-3.908669e-03,2.467914e-01
-2.171413e-01,1.253666e-01,3.115131e-03,2.507332e-01
-2.240920e-01,1.293796e-01,3.664492e-03,2.587592e-01
-2.151503e-01,1.242171e-01,-3.927407e-03,2.484342e-01
-2.152473e-01,1.242731e-01,1.455403e-03,2.485461e-01
-2.240508e-01,1.293558e-01,4.919999e-03,2.587115e-01
-2.170937e-01,1.253391e-01,-3.239344e-03,2.506782e-01
-2.138210e-01,1.234496e-01,-2.899313e-04,2.468993e-01
-2.231105e-01,1.288129e-01,5.501926e-03,2.576258e-01
-2.192992e-01,1.266125e-01,-1.913877e-03,2.532249e-01
-2.130288e-01,1.229922e-01,-1.897598e-03,2.459844e-01
-2.214658e-01,1.278633e-01,5.355444e-03,2.557267e-01
-2.214290e-01,1.278421e-01,-1.397679e-04,2.556842e-01
-2.129662e-01,1.229561e-01,-3.155818e-03,2.459122e-01
-2.194141e-01,1.266788e-01,4.544921e-03,2.533576e-01
-2.231193e-01,1.288180e-01,1.795181e-03,2.576360e-01
-2.136554e-01,1.233540e-01,-3.882392e-03,2.467080e-01
-2.172805e-01,1.254469e-01,3.218498e-03,2.508939e-01
-2.240607e-01,1.293615e-01,3.559472e-03,2.587231e-01
-2.150353e-01,1.241507e-01,-3.948484e-03,2.483013e-01
-2.153626e-01,1.243396e-01,1.572582e-03,2.486793e-01
-2.240835e-01,1.293747e-01,4.855098e-03,2.587493e-01
-2.169510e-01,1.252567e-01,-3.307240e-03,2.505135e-01
-2.138991e-01,1.234947e-01,-1.740369e-04,2.469895e-01
-2.231990e-01,1.288640e-01,5.485677e-03,2.577280e-01
-2.191487e-01,1.265256e-01,-2.020148e-03,2.530512e-01
-2.130601e-01,1.230103e-01,-1.797867e-03,2.460207e-01
-2.215934e-01,1.279370e-01,5.387480e-03,2.558741e-01
-2.212955e-01,1.277650e-01,-2.681215e-04,2.555301e-01
-2.129465e-01,1.229447e-01,-3.085848e-03,2.458894e-01
-2.195583e-01,1.267621e-01,4.617821e-03,2.535241e-01
-2.230259e-01,1.287641e-01,1.666297e-03,2.575282e-01
-2.135859e-01,1.233139e-01,-3.853084e-03,2.466278e-01
-2.174204e-01,1.255277e-01,3.320403e-03,2.510555e-01
-2.240255e-01,1.293412e-01,3.452289e-03,2.586823e-01
-2.149229e-01,1.240858e-01,-3.966293e-03,2.481716e-01
-2.154802e-01,1.244075e-01,1.689303e-03,2.488151e-01
-2.241115e-01,1.293909e-01,4.787106e-03,2.587817e-01
-2.168097e-01,1.251751e-01,-3.372149e-03,2.503503e-01
-2.139794e-01,1.235411e-01,-5.758343e-05,2.470822e-01
-2.232842e-01,1.289132e-01,5.466065e-03,2.578263e-01
-2.189980e-01,1.264386e-01,-2.124262e-03,2.528772e-01
-2.130944e-01,1.230301e-01,-1.696603e-03,2.460603e-01
-2.217191e-01,1.280096e-01,5.416425e-03,2.560192e-01
-2.211597e-01,1.276866e-01,-3.956448e-04,2.553732e-01
-2.129307e-01,1.229356e-01,-3.013477e-03,2.458712e-01
-2.197023e-01,1.268452e-01,4.688301e-03,2.536904e-01
-2.229289e-01,1.287080e-01,1.536712e-03,2.574161e-01
-2.135195e-01,1.232756e-01,-3.820776e-03,2.465511e-01
-2.175620e-01,1.256095e-01,3.420780e-03,2.512189e-01
-2.239858e-01,1.293182e-01,3.343003e-03,2.586365e-01
-2.148133e-01,1.240225e-01,-3.980833e-03,2.480450e-01
-2.155993e-01,1.244763e-01,1.805494e-03,2.489527e-01
-2.241352e-01,1.294045e-01,4.716071e-03,2.588091e-01
-2.166698e-01,1.250944e-01,-3.434034e-03,2.501887e-01
-2.140632e-01,1.235895e-01,5.936742e-05,2.471789e-01
-2.233660e-01,1.289604e-01,5.443089e-03,2.579208e-01
-2.188472e-01,1.263515e-01,-2.226146e-03,2.527030e-01
-2.131324e-01,1.230521e-01,-1.593859e-03,2.461041e-01
-2.218423e-01,1.280807e-01,5.442247e-03,2.561614e-01
-2.210219e-01,1.276070e-01,-5.222260e-04,2.552141e-01
-2.129176e-01,1.229280e-01,-2.938783e-03,2.458561e-01
-2.198460e-01,1.269281e-01,4.756307e-03,2.538563e-01
-2.228288e-01,1.286503e-01,1.406556e-03,2.573005e-01
-2.134570e-01,1.232395e-01,-3.785474e-03,2.464789e-01
-2.177036e-01,1.256912e-01,3.519567e-03,2.513825e-01
-2.239414e-01,1.292926e-01,3.231694e-03,2.585852e-01
-2.147066e-01,1.239609e-01,-3.992104e-03,2.479218e-01
-2.157212e-01,1.245467e-01,1.921087e-03,2.490934e-01
-2.241548e-01,1.294158e-01,4.642049e-03,2.588316e-01
-2.165312e-01,1.250143e-01,-3.492870e-03,2.500287e-01
-2.141491e-01,1.236391e-01,1.767410e-04,2.472781e-01
-2.234444e-01,1.290057e-01,5.416752e-03,2.580113e-01
-2.186964e-01,1.262644e-01,-2.325729e-03,2.525289e-01
-2.131734e-01,1.230757e-01,-1.489707e-03,2.461515e-01
-2.219635e-01,1.281507e-01,5.464914e-03,2.563013e-01
-2.208826e-01,1.275266e-01,-6.477533e-04,2.550532e-01
-2.129089e-01,1.229230e-01,-2.861786e-03,2.458460e-01
-2.199892e-01,1.270108e-01,4.821787e-03,2.540217e-01
-2.227258e-01,1.285908e-01,1.275934e-03,2.571816e-01
-2.133970e-01,1.232048e-01,-3.747253e-03,2.464096e-01
-2.178462e-01,1.257736e-01,3.616696e-03,2.515471e-01
-2.238932e-01,1.292648e-01,3.118472e-03,2.585296e-01
-2.146019e-01,1.239004e-01,-4.000147e-03,2.478009e-01
-2.158440e-01,1.246176e-01,2.036013e-03,2.492352e-01
-2.241703e-01,1.294248e-01,4.565087e-03,2.588495e-01
-2.163941e-01,1.249352e-01,-3.548629e-03,2.498703e-01
-2.142384e-01,1.236906e-01,2.944751e-04,2.473812e-01
-2.235193e-01,1.290489e-01,5.387060e-03,2.580978e-01
-2.185458e-01,1.261775e-01,-2.422945e-03,2.523550e-01
-2.132179e-01,1.231014e-01,-1.384202e-03,2.462028e-01
-2.220824e-01,1.282193e-01,5.484401e-03,2.564386e-01
-2.207417e-01,1.274453e-01,-7.721315e-04,2.548906e-01
-2.129026e-01,1.229194e-01,-2.782576e-03,2.458388e-01
-2.201314e-01,1.270929e-01,4.884688e-03,2.541858e-01
-2.226197e-01,1.285295e-01,1.144939e-03,2.570591e-01
-2.133406e-01,1.231723e-01,-3.706113e-03,2.463445e-01
-2.179900e-01,1.258566e-01,3.712105e-03,2.517132e-01
-2.238412e-01,1.292347e-01,3.003425e-03,2.584695e-01
-2.144999e-01,1.238416e-01,-4.004942e-03,2.476832e-01
-2.159696e-01,1.246901e-01,2.150204e-03,2.493802e-01
-2.241816e-01,1.294313e-01,4.485237e-03,2.588627e-01
-2.162585e-01,1.248569e-01,-3.601270e-03,2.497139e-01
-2.143298e-01,1.237434e-01,4.124956e-04,2.474868e-01
-2.235906e-01,1.290901e-01,5.354022e-03,2.581801e-01
-2.183953e-01,1.260906e-01,-2.517727e-03,2.521812e-01
-2.132654e-01,1.231289e-01,-1.277415e-03,2.462577e-01
-2.221989e-01,1.282866e-01,5.500678e-03,2.565732e-01
-2.205996e-01,1.273633e-01,-8.952664e-04,2.547265e-01
-2.129008e-01,1.229183e-01,-2.701169e-03,2.458367e-01
-2.202724e-01,1.271743e-01,4.944956e-03,2.543486e-01
-2.225099e-01,1.284662e-01,1.013647e-03,2.569323e-01
-2.132879e-01,1.231418e-01,-3.662095e-03,2.462836e-01
-2.181336e-01,1.259395e-01,3.805733e-03,2.518790e-01
-2.237850e-01,1.292023e-01,2.886628e-03,2.584046e-01
-2.144011e-01,1.237845e-01,-4.006490e-03,2.475691e-01
-2.160961e-01,1.247631e-01,2.263591e-03,2.495262e-01
-2.241887e-01,1.294354e-01,4.402545e-03,2.588708e-01
-2.161249e-01,1.247798e-01,-3.650769e-03,2.495596e-01
-2.144244e-01,1.237980e-01,5.307361e-04,2.475960e-01
-2.236579e-01,1.291290e-01,5.317641e-03,2.582579e-01
-2.182452e-01,1.260039e-01,-2.610013e-03,2.520078e-01
-2.133163e-01,1.231582e-01,-1.169406e-03,2.463165e-01
-2.223130e-01,1.283525e-01,5.513720e-03,2.567049e-01
-2.204563e-01,1.272805e-01,-1.017065e-03,2.545610e-01
-2.129015e-01,1.229187e-01,-2.617658e-03,2.458374e-01
-2.204126e-01,1.272553e-01,5.002547e-03,2.545106e-01
-2.223975e-01,1.284012e-01,8.822030e-04,2.568025e-01
-2.132378e-01,1.231129e-01,-3.615262e-03,2.462258e-01
-2.182779e-01,1.260228e-01,3.897514e-03,2.520456e-01
-2.237242e-01,1.291672e-01,2.768152e-03,2.583344e-01
-2.143054e-01,1.237293e-01,-4.004801e-03,2.474585e-01
-2.162248e-01,1.248374e-01,2.376105e-03,2.496749e-01
-2.241908e-01,1.294366e-01,4.317049e-03,2.588732e-01
-2.159932e-01,1.247037e-01,-3.697100e-03,2.494075e-01
-2.145210e-01,1.238538e-01,6.491266e-04,2.477075e-01
-2.237214e-01,1.291656e-01,5.277932e-03,2.583312e-01
-2.180955e-01,1.259175e-01,-2.699741e-03,2.518350e-01
-2.133703e-01,1.231894e-01,-1.060246e-03,2.463788e-01
-2.224246e-01,1.284169e-01,5.523505e-03,2.568338e-01
-2.203116e-01,1.271970e-01,-1.137445e-03,2.543940e-01
-2.129065e-01,1.229216e-01,-2.532064e-03,2.458432e-01
-2.205519e-01,1.273357e-01,5.057412e-03,2.546713e-01
-2.222824e-01,1.283348e-01,7.507108e-04,2.566696e-01
-2.131917e-01,1.230863e-01,-3.565619e-03,2.461726e-01
-2.184230e-01,1.261066e-01,3.987389e-03,2.522132e-01
-2.236597e-01,1.291300e-01,2.648126e-03,2.582600e-01
-2.142116e-01,1.236751e-01,-3.999934e-03,2.473503e-01
-2.163550e-01,1.249126e-01,2.487681e-03,2.498252e-01
-2.241888e-01,1.294355e-01,4.228836e-03,2.588709e-01
-2.158635e-01,1.246288e-01,-3.740244e-03,2.492577e-01
-2.146207e-01,1.239113e-01,7.676000e-04,2.478227e-01
-2.237811e-01,1.292001e-01,5.234917e-03,2.584001e-01
-2.179463e-01,1.258314e-01,-2.786854e-03,2.516627e-01
-2.134275e-01,1.232224e-01,-9.499954e-04,2.464448e-01
-2.225335e-01,1.284798e-01,5.530009e-03,2.569596e-01
-2.201654e-01,1.271126e-01,-1.256327e-03,2.542251e-01
-2.129141e-01,1.229260e-01,-2.444475e-03,2.458520e-01
-2.206901e-01,1.274155e-01,5.109504e-03,2.548310e-01
-2.221649e-01,1.282669e-01,6.192747e-04,2.565339e-01
-2.131485e-01,1.230614e-01,-3.513236e-03,2.461227e-01
-2.185681e-01,1.261903e-01,4.075294e-03,2.523807e-01
-2.235916e-01,1.290907e-01,2.526643e-03,2.581814e-01
-2.141212e-01,1.236229e-01,-3.991857e-03,2.472458e-01
-2.164866e-01,1.249886e-01,2.598248e-03,2.499772e-01
-2.241827e-01,1.294319e-01,4.137966e-03,2.588639e-01
-2.157359e-01,1.245552e-01,-3.780179e-03,2.491103e-01
-2.147224e-01,1.239700e-01,8.860839e-04,2.479400e-01
-2.238369e-01,1.292323e-01,5.188616e-03,2.584646e-01
-2.177978e-01,1.257456e-01,-2.871295e-03,2.514912e-01
-2.134878e-01,1.232572e-01,-8.387237e-04,2.465145e-01
-2.226397e-01,1.285411e-01,5.533218e-03,2.570822e-01
-2.200183e-01,1.270276e-01,-1.373602e-03,2.540553e-01
-2.129260e-01,1.229329e-01,-2.354924e-03,2.458657e-01
-2.208272e-01,1.274947e-01,5.158778e-03,2.549893e-01
-2.220442e-01,1.281973e-01,4.879669e-04,2.563945e-01
-2.131089e-01,1.230385e-01,-3.458138e-03,2.460770e-01
-2.187131e-01,1.262741e-01,4.161170e-03,2.525481e-01
-2.235197e-01,1.290492e-01,2.403790e-03,2.580984e-01
-2.140341e-01,1.235727e-01,-3.980589e-03,2.471453e-01
-2.166203e-01,1.250658e-01,2.707739e-03,2.501316e-01
-2.241724e-01,1.294260e-01,4.044503e-03,2.588520e-01
-2.156105e-01,1.244828e-01,-3.816891e-03,2.489655e-01
-2.148272e-01,1.240305e-01,1.004512e-03,2.480610e-01
-2.238889e-01,1.292623e-01,5.139052e-03,2.585246e-01
-2.176500e-01,1.256603e-01,-2.953010e-03,2.513205e-01
-2.135511e-01,1.232938e-01,-7.264972e-04,2.465876e-01
-2.227431e-01,1.286008e-01,5.533111e-03,2.572016e-01
-2.198704e-01,1.269422e-01,-1.489183e-03,2.538845e-01
-2.129405e-01,1.229413e-01,-2.263487e-03,2.458825e-01
-2.209628e-01,1.275729e-01,5.205189e-03,2.551459e-01
-2.219209e-01,1.281261e-01,3.569100e-04,2.562521e-01
-2.130729e-01,1.230177e-01,-3.400369e-03,2.460354e-01
-2.188586e-01,1.263581e-01,4.244959e-03,2.527162e-01
-2.234433e-01,1.290051e-01,2.279633e-03,2.580102e-01
-2.139495e-01,1.235238e-01,-3.966182e-03,2.470476e-01
-2.167544e-01,1.251432e-01,2.816089e-03,2.502864e-01
-2.241577e-01,1.294175e-01,3.948498e-03,2.588350e-01
-2.154866e-01,1.244112e-01,-3.850397e-03,2.488225e-01
-2.149335e-01,1.240919e-01,1.122812e-03,2.481839e-01
-2.239371e-01,1.292901e-01,5.086250e-03,2.585803e-01
-2.175030e-01,1.255754e-01,-3.031950e-03,2.511508e-01
-2.136176e-01,1.233322e-01,-6.133811e-04,2.466644e-01
-2.228436e-01,1.286588e-01,5.529676e-03,2.573176e-01
-2.197218e-01,1.268564e-01,-1.602987e-03,2.537128e-01
-2.129591e-01,1.229520e-01,-2.170207e-03,2.459040e-01
-2.210965e-01,1.276501e-01,5.248691e-03,2.553002e-01
-2.217953e-01,1.280536e-01,2.262224e-04,2.561071e-01
-2.130399e-01,1.229987e-01,-3.339987e-03,2.459973e-01
-2.190045e-01,1.264423e-01,4.326600e-03,2.528846e-01
-2.233635e-01,1.289590e-01,2.154313e-03,2.579179e-01
-2.138680e-01,1.234767e-01,-3.948637e-03,2.469535e-01
-2.168904e-01,1.252218e-01,2.923227e-03,2.504435e-01
-2.241381e-01,1.294062e-01,3.850019e-03,2.588124e-01
