x,y,z,R
-2.090717e-01,1.207076e-01,5.356551e-03,2.414152e-01
-2.382680e-01,1.375641e-01,1.432787e-02,2.751282e-01
-2.091614e-01,1.207594e-01,-1.474172e-02,2.415188e-01
-2.031141e-01,1.172680e-01,-1.422665e-03,2.345360e-01
-2.339482e-01,1.350700e-01,1.708681e-02,2.701401e-01
-2.186016e-01,1.262097e-01,-9.887217e-03,2.524194e-01
-1.999208e-01,1.154243e-01,-7.882645e-03,2.308486e-01
-2.255068e-01,1.301964e-01,1.542174e-02,2.603928e-01
-2.289130e-01,1.321630e-01,-1.470532e-03,2.643260e-01
-1.998646e-01,1.153919e-01,-1.296558e-02,2.307837e-01
-2.162194e-01,1.248344e-01,1.080237e-02,2.496687e-01
-2.365419e-01,1.365675e-01,7.991686e-03,2.731351e-01
-2.032417e-01,1.173417e-01,-1.551562e-02,2.346833e-01
-2.082350e-01,1.202245e-01,4.569337e-03,2.404491e-01
-2.380797e-01,1.374554e-01,1.491693e-02,2.749108e-01
-2.101525e-01,1.213316e-01,-1.438883e-02,2.426632e-01
-2.025830e-01,1.169614e-01,-2.225266e-03,2.339227e-01
-2.330931e-01,1.345764e-01,1.709478e-02,2.691527e-01
-2.198364e-01,1.269226e-01,-9.044042e-03,2.538452e-01
-1.997442e-01,1.153224e-01,-8.578363e-03,2.306448e-01
-2.243965e-01,1.295554e-01,1.499921e-02,2.591107e-01
-2.300362e-01,1.328115e-01,-3.365127e-04,2.656230e-01
-2.000802e-01,1.155164e-01,-1.342419e-02,2.310328e-01
-2.151761e-01,1.242320e-01,1.012527e-02,2.484640e-01
-2.370882e-01,1.368829e-01,9.012343e-03,2.737659e-01
-2.038799e-01,1.177101e-01,-1.559310e-02,2.354202e-01
-2.074314e-01,1.197606e-01,3.774253e-03,2.395212e-01
-2.377952e-01,1.372911e-01,1.543541e-02,2.745822e-01
-2.111838e-01,1.219270e-01,-1.397511e-02,2.438541e-01
-2.020922e-01,1.166780e-01,-3.021780e-03,2.333560e-01
-2.321864e-01,1.340529e-01,1.704184e-02,2.681058e-01
-2.210806e-01,1.276409e-01,-8.151148e-03,2.552819e-01
-1.996117e-01,1.152459e-01,-9.253028e-03,2.304918e-01
-2.232800e-01,1.289108e-01,1.453801e-02,2.578215e-01
-2.311141e-01,1.334338e-01,8.077288e-04,2.668675e-01
-2.003443e-01,1.156688e-01,-1.384520e-02,2.313376e-01
-2.141549e-01,1.236424e-01,9.427771e-03,2.472848e-01
-2.375411e-01,1.371444e-01,9.989716e-03,2.742888e-01
-2.045686e-01,1.181077e-01,-1.561656e-02,2.362155e-01
-2.066624e-01,1.193166e-01,2.972866e-03,2.386332e-01
-2.374182e-01,1.370735e-01,1.588256e-02,2.741469e-01
-2.122537e-01,1.225447e-01,-1.350051e-02,2.450894e-01
-2.016406e-01,1.164173e-01,-3.810357e-03,2.328345e-01
-2.312333e-01,1.335026e-01,1.693052e-02,2.670053e-01
-2.223285e-01,1.283614e-01,-7.211759e-03,2.567229e-01
-1.995249e-01,1.151958e-01,-9.904847e-03,2.303916e-01
-2.221620e-01,1.282653e-01,1.404060e-02,2.565306e-01
-2.321408e-01,1.340265e-01,1.956143e-03,2.680531e-01
-2.006579e-01,1.158499e-01,-1.422653e-02,2.316998e-01
-2.131577e-01,1.230666e-01,8.711730e-03,2.461333e-01
-2.378973e-01,1.373501e-01,1.091821e-02,2.747002e-01
-2.053075e-01,1.185343e-01,-1.558446e-02,2.370687e-01
-2.059281e-01,1.188926e-01,2.166807e-03,2.377853e-01
-2.369523e-01,1.368045e-01,1.625822e-02,2.736090e-01
-2.133591e-01,1.231829e-01,-1.296542e-02,2.463658e-01
-2.012308e-01,1.161807e-01,-4.589338e-03,2.323613e-01
-2.302411e-01,1.329297e-01,1.676354e-02,2.658595e-01
-2.235740e-01,1.290805e-01,-6.229574e-03,2.581611e-01
-1.994841e-01,1.151722e-01,-1.053193e-02,2.303445e-01
-2.210464e-01,1.276212e-01,1.350932e-02,2.552424e-01
-2.331099e-01,1.345861e-01,3.102405e-03,2.691721e-01
-2.010215e-01,1.160598e-01,-1.456606e-02,2.321196e-01
-2.121863e-01,1.225058e-01,7.978910e-03,2.450117e-01
-2.381540e-01,1.374983e-01,1.179266e-02,2.749965e-01
-2.060956e-01,1.189893e-01,-1.549549e-02,2.379786e-01
-2.052297e-01,1.184894e-01,1.357680e-03,2.369788e-01
-2.364021e-01,1.364868e-01,1.656289e-02,2.729737e-01
-2.144969e-01,1.238398e-01,-1.237044e-02,2.476797e-01
-2.008618e-01,1.159676e-01,-5.356878e-03,2.319352e-01
-2.292146e-01,1.323371e-01,1.654359e-02,2.646743e-01
-2.248117e-01,1.297951e-01,-5.208600e-03,2.595902e-01
-1.994888e-01,1.151749e-01,-1.113241e-02,2.303499e-01
-2.199369e-01,1.269806e-01,1.294649e-02,2.539613e-01
-2.340134e-01,1.351077e-01,4.239924e-03,2.702154e-01
-2.014349e-01,1.162985e-01,-1.486174e-02,2.325969e-01
-2.112434e-01,1.219615e-01,7.230963e-03,2.439229e-01
-2.383105e-01,1.375887e-01,1.260857e-02,2.751773e-01
-2.069315e-01,1.194720e-01,-1.534848e-02,2.389439e-01
-2.045680e-01,1.181074e-01,5.471132e-04,2.362148e-01
-2.357733e-01,1.361238e-01,1.679762e-02,2.722476e-01
-2.156639e-01,1.245136e-01,-1.171656e-02,2.490272e-01
-2.005356e-01,1.157793e-01,-6.111284e-03,2.315586e-01
-2.281599e-01,1.317282e-01,1.627340e-02,2.634563e-01
-2.260351e-01,1.305015e-01,-4.153317e-03,2.610029e-01
-1.995404e-01,1.152047e-01,-1.170434e-02,2.304094e-01
-2.188381e-01,1.263462e-01,1.235428e-02,2.526924e-01
-2.348469e-01,1.355889e-01,5.362305e-03,2.711778e-01
-2.018988e-01,1.165663e-01,-1.511149e-02,2.331327e-01
-2.103293e-01,1.214337e-01,6.469658e-03,2.428673e-01
-2.383658e-01,1.376206e-01,1.336197e-02,2.752411e-01
-2.078147e-01,1.199819e-01,-1.514238e-02,2.399638e-01
-2.039441e-01,1.177472e-01,-2.632359e-04,2.354943e-01
-2.350717e-01,1.357187e-01,1.696393e-02,2.714374e-01
-2.168554e-01,1.252015e-01,-1.100525e-02,2.504030e-01
-2.002518e-01,1.156155e-01,-6.850743e-03,2.312309e-01
-2.270822e-01,1.311060e-01,1.595566e-02,2.622120e-01
-2.272375e-01,1.311956e-01,-3.068611e-03,2.623912e-01
-1.996391e-01,1.152617e-01,-1.224577e-02,2.305234e-01
-2.177509e-01,1.257185e-01,1.173492e-02,2.514371e-01
-2.356021e-01,1.360250e-01,6.462820e-03,2.720499e-01
-2.024136e-01,1.168636e-01,-1.531336e-02,2.337271e-01
-2.094461e-01,1.209238e-01,5.696565e-03,2.418475e-01
-2.383195e-01,1.375938e-01,1.404960e-02,2.751877e-01
-2.087436e-01,1.205182e-01,-1.487638e-02,2.410363e-01
-2.033573e-01,1.174084e-01,-1.071610e-03,2.348168e-01
-2.343026e-01,1.352747e-01,1.706365e-02,2.705494e-01
-2.180680e-01,1.259016e-01,-1.023820e-02,2.518033e-01
-2.000118e-01,1.154768e-01,-7.573520e-03,2.309537e-01
-2.259877e-01,1.304741e-01,1.559304e-02,2.609481e-01
-2.284120e-01,1.318737e-01,-1.959693e-03,2.637474e-01
-1.997855e-01,1.153462e-01,-1.275465e-02,2.306924e-01
-2.166800e-01,1.251003e-01,1.109042e-02,2.502006e-01
-2.362760e-01,1.364140e-01,7.535140e-03,2.728280e-01
-2.029792e-01,1.171901e-01,-1.546544e-02,2.343802e-01
-2.085950e-01,1.204324e-01,4.913289e-03,2.408648e-01
-2.381739e-01,1.375098e-01,1.466899e-02,2.750196e-01
-2.097155e-01,1.210793e-01,-1.455001e-02,2.421586e-01
-2.028094e-01,1.170921e-01,-1.876350e-03,2.341842e-01
-2.334723e-01,1.347953e-01,1.709895e-02,2.695906e-01
-2.192972e-01,1.266113e-01,-9.417560e-03,2.532226e-01
-1.998156e-01,1.153636e-01,-8.277834e-03,2.307272e-01
-2.248808e-01,1.298350e-01,1.518814e-02,2.596700e-01
-2.295517e-01,1.325317e-01,-8.320715e-04,2.650635e-01
-1.999801e-01,1.154585e-01,-1.322895e-02,2.309171e-01
-2.156279e-01,1.244928e-01,1.042279e-02,2.489856e-01
-2.368614e-01,1.367520e-01,8.572773e-03,2.735040e-01
-2.035954e-01,1.175459e-01,-1.556592e-02,2.350918e-01
-2.077770e-01,1.199601e-01,4.121434e-03,2.399202e-01
-2.379312e-01,1.373696e-01,1.521837e-02,2.747392e-01
-2.107301e-01,1.216651e-01,-1.416275e-02,2.433301e-01
-2.023012e-01,1.167986e-01,-2.675742e-03,2.335973e-01
-2.325872e-01,1.342843e-01,1.707222e-02,2.685686e-01
-2.205378e-01,1.273276e-01,-8.545954e-03,2.546552e-01
-1.996637e-01,1.152759e-01,-8.961887e-03,2.305518e-01
-2.237666e-01,1.291917e-01,1.474348e-02,2.583834e-01
-2.306503e-01,1.331660e-01,3.084716e-04,2.663320e-01
-2.002233e-01,1.155990e-01,-1.366659e-02,2.311979e-01
-2.145966e-01,1.238974e-01,9.733962e-03,2.477948e-01
-2.373559e-01,1.370375e-01,9.569747e-03,2.740750e-01
-2.042625e-01,1.179310e-01,-1.561308e-02,2.358620e-01
-2.069927e-01,1.195073e-01,3.322599e-03,2.390146e-01
-2.375939e-01,1.371749e-01,1.569662e-02,2.743498e-01
-2.117834e-01,1.222732e-01,-1.371466e-02,2.445464e-01
-2.018321e-01,1.165278e-01,-3.467972e-03,2.330556e-01
-2.316540e-01,1.337455e-01,1.698601e-02,2.674910e-01
-2.217850e-01,1.280477e-01,-7.626370e-03,2.560953e-01
-1.995574e-01,1.152145e-01,-9.623885e-03,2.304290e-01
-2.226488e-01,1.285464e-01,1.426153e-02,2.570927e-01
-2.317009e-01,1.337726e-01,1.455901e-03,2.675452e-01
-2.005153e-01,1.157675e-01,-1.406545e-02,2.315351e-01
-2.135887e-01,1.233155e-01,9.025773e-03,2.466310e-01
-2.377540e-01,1.372674e-01,1.052015e-02,2.745347e-01
-2.049796e-01,1.183450e-01,-1.560535e-02,2.366901e-01
-2.062431e-01,1.190745e-01,2.518375e-03,2.381491e-01
-2.371655e-01,1.369276e-01,1.610335e-02,2.738552e-01
-2.128736e-01,1.229026e-01,-1.320586e-02,2.458053e-01
-2.014045e-01,1.162810e-01,-4.251377e-03,2.325619e-01
-2.306776e-01,1.331818e-01,1.684295e-02,2.663636e-01
-2.230320e-01,1.287676e-01,-6.662383e-03,2.575352e-01
-1.994962e-01,1.151792e-01,-1.026197e-02,2.303583e-01
-2.215316e-01,1.279013e-01,1.374472e-02,2.558027e-01
-2.326951e-01,1.343466e-01,2.603823e-03,2.686932e-01
-2.008568e-01,1.159647e-01,-1.442347e-02,2.319295e-01
-2.126064e-01,1.227484e-01,8.300012e-03,2.454967e-01
-2.380550e-01,1.374411e-01,1.141878e-02,2.748823e-01
-2.057463e-01,1.187877e-01,-1.554132e-02,2.375754e-01
-2.055292e-01,1.186624e-01,1.710370e-03,2.373247e-01
-2.366520e-01,1.366311e-01,1.643887e-02,2.732622e-01
-2.139979e-01,1.235518e-01,-1.263683e-02,2.471035e-01
-2.010172e-01,1.160573e-01,-5.024094e-03,2.321146e-01
-2.296649e-01,1.325971e-01,1.664572e-02,2.651942e-01
-2.242745e-01,1.294849e-01,-5.657716e-03,2.589699e-01
-1.994808e-01,1.151703e-01,-1.087427e-02,2.303406e-01
-2.204190e-01,1.272590e-01,1.319536e-02,2.545179e-01
-2.336285e-01,1.348855e-01,3.745994e-03,2.697710e-01
-2.012487e-01,1.161910e-01,-1.473847e-02,2.323819e-01
-2.116503e-01,1.221964e-01,7.558484e-03,2.443928e-01
-2.382547e-01,1.375564e-01,1.226067e-02,2.751129e-01
-2.065614e-01,1.192583e-01,-1.541974e-02,2.385166e-01
-2.048517e-01,1.182712e-01,9.002060e-04,2.365424e-01
-2.360564e-01,1.362872e-01,1.670390e-02,2.725745e-01
-2.151521e-01,1.242181e-01,-1.200853e-02,2.484362e-01
-2.006727e-01,1.158584e-01,-5.784451e-03,2.317169e-01
-2.286218e-01,1.319948e-01,1.639708e-02,2.639897e-01
-2.255046e-01,1.301951e-01,-4.616836e-03,2.603902e-01
-1.995121e-01,1.151884e-01,-1.145888e-02,2.303767e-01
-2.193153e-01,1.266217e-01,1.261567e-02,2.532435e-01
-2.344927e-01,1.353844e-01,4.875735e-03,2.707688e-01
-2.016907e-01,1.164462e-01,-1.500848e-02,2.328923e-01
-2.107238e-01,1.216615e-01,6.802771e-03,2.433229e-01
-2.383536e-01,1.376135e-01,1.304171e-02,2.752271e-01
-2.074243e-01,1.197565e-01,-1.523948e-02,2.395129e-01
-2.042114e-01,1.179015e-01,8.954681e-05,2.358031e-01
-2.353859e-01,1.359001e-01,1.689980e-02,2.718002e-01
-2.163336e-01,1.249003e-01,-1.132202e-02,2.498006e-01
-2.003700e-01,1.156837e-01,-6.530624e-03,2.313674e-01
-2.275539e-01,1.313783e-01,1.609972e-02,2.627566e-01
-2.267167e-01,1.308949e-01,-3.544348e-03,2.617899e-01
-1.995903e-01,1.152335e-01,-1.201384e-02,2.304671e-01
-2.182223e-01,1.259907e-01,1.200790e-02,2.519814e-01
-2.352833e-01,1.358409e-01,5.986620e-03,2.716817e-01
-2.021831e-01,1.167305e-01,-1.523145e-02,2.334609e-01
-2.098271e-01,1.211438e-01,6.034606e-03,2.422875e-01
-2.383517e-01,1.376124e-01,1.375834e-02,2.752248e-01
-2.083333e-01,1.202813e-01,-1.499966e-02,2.405626e-01
-2.036080e-01,1.175531e-01,-7.198682e-04,2.351062e-01
-2.346455e-01,1.354726e-01,1.702827e-02,2.709453e-01
-2.175376e-01,1.255954e-01,-1.057900e-02,2.511907e-01
-2.001111e-01,1.155342e-01,-7.260889e-03,2.310684e-01
-2.264666e-01,1.307505e-01,1.575632e-02,2.615011e-01
-2.279042e-01,1.315805e-01,-2.445308e-03,2.631611e-01
-1.997159e-01,1.153060e-01,-1.253713e-02,2.306121e-01
-2.171445e-01,1.253684e-01,1.137407e-02,2.507369e-01
-2.359927e-01,1.362504e-01,7.071970e-03,2.725009e-01
-2.027266e-01,1.170442e-01,-1.540544e-02,2.340885e-01
-2.089617e-01,1.206441e-01,5.255584e-03,2.412882e-01
-2.382494e-01,1.375533e-01,1.440774e-02,2.751067e-01
-2.092871e-01,1.208319e-01,-1.469960e-02,2.416639e-01
-2.030433e-01,1.172271e-01,-1.526419e-03,2.344543e-01
-2.338411e-01,1.350082e-01,1.709134e-02,2.700164e-01
-2.187602e-01,1.263012e-01,-9.781403e-03,2.526025e-01
-1.998955e-01,1.154097e-01,-7.973460e-03,2.308195e-01
-2.253641e-01,1.301140e-01,1.536952e-02,2.602280e-01
-2.290603e-01,1.322480e-01,-1.325104e-03,2.644960e-01
-1.998893e-01,1.154062e-01,-1.302676e-02,2.308123e-01
-2.160840e-01,1.247562e-01,1.071627e-02,2.495123e-01
-2.366179e-01,1.366114e-01,8.125529e-03,2.732228e-01
-2.033209e-01,1.173874e-01,-1.552861e-02,2.347747e-01
-2.081290e-01,1.201633e-01,4.467280e-03,2.403267e-01
-2.380485e-01,1.374374e-01,1.498777e-02,2.748747e-01
-2.102830e-01,1.214070e-01,-1.433893e-02,2.428139e-01
-2.025176e-01,1.169236e-01,-2.328350e-03,2.338472e-01
-2.329789e-01,1.345105e-01,1.709132e-02,2.690209e-01
-2.199964e-01,1.270150e-01,-8.931654e-03,2.540300e-01
-1.997243e-01,1.153109e-01,-8.666558e-03,2.306218e-01
-2.242523e-01,1.294721e-01,1.494188e-02,2.589442e-01
-2.301777e-01,1.328932e-01,-1.894508e-04,2.657863e-01
-2.001111e-01,1.155342e-01,-1.348063e-02,2.310684e-01
-2.150433e-01,1.241553e-01,1.003644e-02,2.483106e-01
-2.371518e-01,1.369197e-01,9.140891e-03,2.738393e-01
-2.039660e-01,1.177598e-01,-1.559918e-02,2.355197e-01
-2.073298e-01,1.197019e-01,3.671290e-03,2.394039e-01
-2.377517e-01,1.372660e-01,1.549708e-02,2.745320e-01
-2.113197e-01,1.220055e-01,-1.391733e-02,2.440110e-01
-2.020313e-01,1.166428e-01,-3.123903e-03,2.332856e-01
-2.320662e-01,1.339835e-01,1.703071e-02,2.679670e-01
-2.212413e-01,1.277337e-01,-8.032575e-03,2.554675e-01
-1.995984e-01,1.152382e-01,-9.338393e-03,2.304764e-01
-2.231355e-01,1.288274e-01,1.447588e-02,2.576547e-01
-2.312493e-01,1.335118e-01,9.556776e-04,2.670237e-01
-2.003819e-01,1.156906e-01,-1.389664e-02,2.313811e-01
-2.140247e-01,1.235672e-01,9.336478e-03,2.471345e-01
-2.375929e-01,1.371743e-01,1.011230e-02,2.743487e-01
-2.046611e-01,1.181611e-01,-1.561557e-02,2.363223e-01
-2.065652e-01,1.192605e-01,2.869211e-03,2.385209e-01
-2.373629e-01,1.370415e-01,1.593499e-02,2.740831e-01
-2.123944e-01,1.226260e-01,-1.343490e-02,2.452519e-01
-2.015858e-01,1.163856e-01,-3.911385e-03,2.327712e-01
-2.311074e-01,1.334299e-01,1.691207e-02,2.668599e-01
-2.224892e-01,1.284542e-01,-7.087458e-03,2.569084e-01
-1.995170e-01,1.151912e-01,-9.987117e-03,2.303824e-01
-2.220176e-01,1.281819e-01,1.397396e-02,2.563639e-01
-2.322693e-01,1.341007e-01,2.104194e-03,2.682015e-01
-2.007021e-01,1.158754e-01,-1.427269e-02,2.317508e-01
-2.130307e-01,1.229933e-01,8.618172e-03,2.459867e-01
-2.379358e-01,1.373723e-01,1.103407e-02,2.747447e-01
-2.054064e-01,1.185914e-01,-1.557622e-02,2.371828e-01
-2.058358e-01,1.188394e-01,2.062641e-03,2.376788e-01
-2.368862e-01,1.367663e-01,1.630147e-02,2.735326e-01
-2.135041e-01,1.232666e-01,-1.289204e-02,2.465333e-01
-2.011805e-01,1.161516e-01,-4.688954e-03,2.323033e-01
-2.301103e-01,1.328542e-01,1.673810e-02,2.657084e-01
-2.237342e-01,1.291730e-01,-6.100026e-03,2.583460e-01
-1.994817e-01,1.151708e-01,-1.061089e-02,2.303416e-01
-2.209027e-01,1.275382e-01,1.343849e-02,2.550764e-01
-2.332300e-01,1.346554e-01,3.249664e-03,2.693108e-01
-2.010717e-01,1.160888e-01,-1.460670e-02,2.321777e-01
-2.120636e-01,1.224350e-01,7.883259e-03,2.448700e-01
-2.381799e-01,1.375132e-01,1.190123e-02,2.750265e-01
-2.062004e-01,1.190498e-01,-1.547986e-02,2.380997e-01
-2.051426e-01,1.184392e-01,1.253200e-03,2.368783e-01
-2.363253e-01,1.364425e-01,1.659705e-02,2.728850e-01
-2.146457e-01,1.239257e-01,-1.228943e-02,2.478515e-01
-2.008178e-01,1.159422e-01,-5.454938e-03,2.318844e-01
-2.290799e-01,1.322593e-01,1.651152e-02,2.645187e-01
-2.249703e-01,1.298867e-01,-5.074380e-03,2.597733e-01
-1.994929e-01,1.151773e-01,-1.120779e-02,2.303545e-01
-2.197948e-01,1.268986e-01,1.287173e-02,2.537972e-01
-2.341250e-01,1.351722e-01,4.385624e-03,2.703443e-01
-2.014919e-01,1.163314e-01,-1.489655e-02,2.326628e-01
-2.111236e-01,1.218923e-01,7.133556e-03,2.437845e-01
-2.383237e-01,1.375963e-01,1.270930e-02,2.751925e-01
-2.070426e-01,1.195361e-01,-1.532526e-02,2.390722e-01
-2.044856e-01,1.180598e-01,4.425793e-04,2.361197e-01
-2.356868e-01,1.360738e-01,1.682287e-02,2.721477e-01
-2.158164e-01,1.246016e-01,-1.162803e-02,2.492033e-01
-2.004964e-01,1.157567e-01,-6.207485e-03,2.315133e-01
-2.280218e-01,1.316484e-01,1.623504e-02,2.632969e-01
-2.261913e-01,1.305916e-01,-4.015029e-03,2.611833e-01
-1.995507e-01,1.152107e-01,-1.177590e-02,2.304213e-01
-2.186966e-01,1.262645e-01,1.227593e-02,2.525291e-01
-2.349484e-01,1.356475e-01,5.505527e-03,2.712950e-01
-2.019628e-01,1.166033e-01,-1.514021e-02,2.332065e-01
-2.102138e-01,1.213670e-01,6.370608e-03,2.427340e-01
-2.383652e-01,1.376202e-01,1.345436e-02,2.752404e-01
-2.079317e-01,1.200494e-01,-1.511149e-02,2.400989e-01
-2.038659e-01,1.177020e-01,-3.675780e-04,2.354041e-01
-2.349761e-01,1.356635e-01,1.698048e-02,2.713271e-01
-2.170106e-01,1.252911e-01,-1.090945e-02,2.505823e-01
-2.002188e-01,1.155964e-01,-6.944908e-03,2.311927e-01
-2.269419e-01,1.310250e-01,1.591138e-02,2.620499e-01
-2.273905e-01,1.312839e-01,-2.926904e-03,2.625679e-01
-1.996557e-01,1.152713e-01,-1.231323e-02,2.305426e-01
-2.176124e-01,1.256386e-01,1.165317e-02,2.512771e-01
-2.356939e-01,1.360779e-01,6.602800e-03,2.721559e-01
-2.024839e-01,1.169041e-01,-1.533578e-02,2.338083e-01
-2.093351e-01,1.208597e-01,5.596081e-03,2.417193e-01
-2.383061e-01,1.375861e-01,1.413332e-02,2.751722e-01
-2.088663e-01,1.205890e-01,-1.483773e-02,2.411780e-01
