x,y,z,R
-2.264987e-01,1.307691e-01,-1.485959e-02,2.615382e-01
-1.792453e-01,1.034873e-01,-2.442453e-02,2.069747e-01
-2.050608e-01,1.183919e-01,1.683582e-02,2.367838e-01
-2.614770e-01,1.509638e-01,2.647812e-02,3.019276e-01
-1.927715e-01,1.112967e-01,-3.288791e-02,2.225934e-01
-1.843258e-01,1.064206e-01,-5.807397e-03,2.128411e-01
-2.371861e-01,1.369395e-01,3.240051e-02,2.738789e-01
-2.318241e-01,1.338437e-01,-1.038329e-02,2.676874e-01
-1.799508e-01,1.038946e-01,-2.616631e-02,2.077892e-01
-2.021124e-01,1.166897e-01,1.437878e-02,2.333793e-01
-2.614188e-01,1.509302e-01,2.946624e-02,3.018605e-01
-1.961201e-01,1.132300e-01,-3.180048e-02,2.264599e-01
-1.835728e-01,1.059858e-01,-8.019351e-03,2.119716e-01
-2.333077e-01,1.347003e-01,3.077538e-02,2.694006e-01
-2.357903e-01,1.361336e-01,-6.627739e-03,2.722672e-01
-1.809406e-01,1.044661e-01,-2.717179e-02,2.089322e-01
-2.003047e-01,1.156460e-01,1.249824e-02,2.312920e-01
-2.604565e-01,1.503747e-01,3.083898e-02,3.007493e-01
-1.987101e-01,1.147253e-01,-3.064968e-02,2.294507e-01
-1.833710e-01,1.058693e-01,-9.399771e-03,2.117386e-01
-2.308831e-01,1.333004e-01,2.955107e-02,2.666008e-01
-2.380277e-01,1.374254e-01,-4.263148e-03,2.748508e-01
-1.817856e-01,1.049540e-01,-2.756224e-02,2.099080e-01
-1.994965e-01,1.151794e-01,1.140433e-02,2.303587e-01
-2.595133e-01,1.498301e-01,3.118371e-02,2.996602e-01
-2.001645e-01,1.155650e-01,-2.983494e-02,2.311301e-01
-1.835158e-01,1.059529e-01,-9.967522e-03,2.119058e-01
-2.298799e-01,1.327212e-01,2.887457e-02,2.654424e-01
-2.387046e-01,1.378161e-01,-3.347390e-03,2.756323e-01
-1.823443e-01,1.052765e-01,-2.747620e-02,2.105530e-01
-1.995289e-01,1.151981e-01,1.107829e-02,2.303962e-01
-2.589338e-01,1.494955e-01,3.086336e-02,2.989910e-01
-2.004777e-01,1.157458e-01,-2.945679e-02,2.314917e-01
-1.839475e-01,1.062021e-01,-9.790914e-03,2.124043e-01
-2.301729e-01,1.328904e-01,2.872016e-02,2.657807e-01
-2.379702e-01,1.373922e-01,-3.793857e-03,2.747844e-01
-1.826282e-01,1.054404e-01,-2.695513e-02,2.108809e-01
-2.003635e-01,1.156799e-01,1.147750e-02,2.313599e-01
-2.586915e-01,1.493556e-01,2.991809e-02,2.987112e-01
-1.997163e-01,1.153063e-01,-2.947661e-02,2.306125e-01
-1.846963e-01,1.066345e-01,-8.881531e-03,2.132689e-01
-2.317273e-01,1.337878e-01,2.903691e-02,2.675757e-01
-2.358220e-01,1.361519e-01,-5.556314e-03,2.723038e-01
-1.826936e-01,1.054782e-01,-2.596325e-02,2.109564e-01
-2.020612e-01,1.166601e-01,1.259196e-02,2.333201e-01
-2.585500e-01,1.492739e-01,2.816842e-02,2.985478e-01
-1.979660e-01,1.142957e-01,-2.978547e-02,2.285915e-01
-1.858179e-01,1.072820e-01,-7.224970e-03,2.145640e-01
-2.345433e-01,1.354136e-01,2.976097e-02,2.708272e-01
-2.322425e-01,1.340853e-01,-8.541905e-03,2.681706e-01
-1.826057e-01,1.054274e-01,-2.446848e-02,2.108549e-01
-2.046576e-01,1.181591e-01,1.437963e-02,2.363183e-01
-2.580874e-01,1.490068e-01,2.538275e-02,2.980136e-01
-1.954475e-01,1.128417e-01,-3.020744e-02,2.256834e-01
-1.872921e-01,1.081332e-01,-4.914671e-03,2.162663e-01
-2.384064e-01,1.376440e-01,3.075946e-02,2.752880e-01
-2.275336e-01,1.313666e-01,-1.236222e-02,2.627331e-01
-1.824249e-01,1.053231e-01,-2.258192e-02,2.106462e-01
-2.079419e-01,1.200553e-01,1.662823e-02,2.401107e-01
-2.569205e-01,1.483331e-01,2.165151e-02,2.966663e-01
-1.926363e-01,1.112186e-01,-3.054627e-02,2.224372e-01
-1.889171e-01,1.090713e-01,-2.304568e-03,2.181426e-01
-2.426549e-01,1.400969e-01,3.179946e-02,2.801938e-01
-2.225597e-01,1.284949e-01,-1.622880e-02,2.569898e-01
-1.822049e-01,1.051960e-01,-2.063736e-02,2.103921e-01
-2.113250e-01,1.220085e-01,1.890782e-02,2.440171e-01
-2.551670e-01,1.473207e-01,1.769173e-02,2.946414e-01
-1.901210e-01,1.097664e-01,-3.071173e-02,2.195328e-01
-1.903611e-01,1.099050e-01,7.118163e-05,2.198100e-01
-2.463940e-01,1.422557e-01,3.265452e-02,2.845113e-01
-2.183514e-01,1.260652e-01,-1.936622e-02,2.521305e-01
-1.819778e-01,1.050649e-01,-1.902971e-02,2.101299e-01
-2.141207e-01,1.236226e-01,2.078220e-02,2.472453e-01
-2.534502e-01,1.463296e-01,1.443382e-02,2.926591e-01
-1.882524e-01,1.086876e-01,-3.077677e-02,2.173751e-01
-1.913637e-01,1.104839e-01,1.816187e-03,2.209677e-01
-2.490697e-01,1.438005e-01,3.326356e-02,2.876009e-01
-2.154750e-01,1.244045e-01,-2.147096e-02,2.488091e-01
-1.817318e-01,1.049229e-01,-1.799448e-02,2.098458e-01
-2.159212e-01,1.246621e-01,2.204203e-02,2.493243e-01
-2.523455e-01,1.456917e-01,1.240158e-02,2.913835e-01
-1.870594e-01,1.079988e-01,-3.088204e-02,2.159976e-01
-1.918065e-01,1.107395e-01,2.800959e-03,2.214791e-01
-2.506034e-01,1.446860e-01,3.371895e-02,2.893719e-01
-2.140078e-01,1.235575e-01,-2.261054e-02,2.471150e-01
-1.814160e-01,1.047406e-01,-1.760410e-02,2.094811e-01
-2.166031e-01,1.250559e-01,2.267036e-02,2.501117e-01
-2.521506e-01,1.455792e-01,1.172928e-02,2.911585e-01
-1.864383e-01,1.076402e-01,-3.114333e-02,2.152804e-01
-1.916397e-01,1.106432e-01,3.027982e-03,2.212865e-01
-2.510838e-01,1.449633e-01,3.413281e-02,2.899266e-01
-2.138946e-01,1.234921e-01,-2.290573e-02,2.469842e-01
-1.809704e-01,1.044833e-01,-1.788278e-02,2.089666e-01
-2.161274e-01,1.247812e-01,2.269075e-02,2.495625e-01
-2.530009e-01,1.460701e-01,1.246542e-02,2.921403e-01
-1.863236e-01,1.075740e-01,-3.162925e-02,2.151480e-01
-1.908183e-01,1.101690e-01,2.487440e-03,2.203380e-01
-2.504950e-01,1.446233e-01,3.453412e-02,2.892467e-01
-2.151834e-01,1.242362e-01,-2.234793e-02,2.484724e-01
-1.803605e-01,1.041312e-01,-1.887435e-02,2.082623e-01
-2.144245e-01,1.237980e-01,2.207301e-02,2.475960e-01
-2.549429e-01,1.471914e-01,1.472529e-02,2.943827e-01
-1.867783e-01,1.078365e-01,-3.233184e-02,2.156730e-01
-1.893191e-01,1.093035e-01,1.117841e-03,2.186069e-01
-2.486188e-01,1.435401e-01,3.479028e-02,2.870803e-01
-2.180580e-01,1.258958e-01,-2.073669e-02,2.517917e-01
-1.796589e-01,1.037261e-01,-2.059574e-02,2.074523e-01
-2.114889e-01,1.221032e-01,2.072680e-02,2.442063e-01
-2.577402e-01,1.488064e-01,1.854880e-02,2.976127e-01
-1.880489e-01,1.085701e-01,-3.304762e-02,2.171402e-01
-1.873049e-01,1.081405e-01,-1.093381e-03,2.162810e-01
-2.452039e-01,1.415686e-01,3.456234e-02,2.831371e-01
-2.225829e-01,1.285083e-01,-1.777519e-02,2.570166e-01
-1.791825e-01,1.034511e-01,-2.283329e-02,2.069022e-01
-2.077194e-01,1.199268e-01,1.863272e-02,2.398536e-01
-2.604287e-01,1.503586e-01,2.333470e-02,3.007171e-01
-1.904506e-01,1.099567e-01,-3.327057e-02,2.199134e-01
-1.853360e-01,1.070038e-01,-3.857577e-03,2.140076e-01
-2.405702e-01,1.388933e-01,3.353045e-02,2.777866e-01
-2.280981e-01,1.316925e-01,-1.357747e-02,2.633850e-01
-1.793847e-01,1.035678e-01,-2.499538e-02,2.071356e-01
-2.041043e-01,1.178397e-01,1.610178e-02,2.356793e-01
-2.616214e-01,1.510472e-01,2.752120e-02,3.020944e-01
-1.937587e-01,1.118666e-01,-3.262066e-02,2.237333e-01
-1.840375e-01,1.062541e-01,-6.517432e-03,2.125082e-01
-2.359428e-01,1.362216e-01,3.191727e-02,2.724432e-01
-2.331328e-01,1.345993e-01,-9.188900e-03,2.691985e-01
-1.802293e-01,1.040554e-01,-2.652705e-02,2.081109e-01
-2.014815e-01,1.163254e-01,1.376533e-02,2.326508e-01
-2.611845e-01,1.507949e-01,2.999905e-02,3.015899e-01
-1.969668e-01,1.137189e-01,-3.145291e-02,2.274377e-01
-1.834704e-01,1.059267e-01,-8.501685e-03,2.118533e-01
-2.324604e-01,1.342111e-01,3.037182e-02,2.684222e-01
-2.366041e-01,1.366034e-01,-5.799430e-03,2.732069e-01
-1.812082e-01,1.046206e-01,-2.733880e-02,2.092412e-01
-1.999801e-01,1.154586e-01,1.210359e-02,2.309172e-01
-2.601595e-01,1.502031e-01,3.101989e-02,3.004063e-01
-1.992461e-01,1.150348e-01,-3.037366e-02,2.300696e-01
-1.833818e-01,1.058755e-01,-9.641621e-03,2.117511e-01
-2.304570e-01,1.330544e-01,2.930129e-02,2.661089e-01
-2.383716e-01,1.376239e-01,-3.856979e-03,2.752478e-01
-1.819760e-01,1.050639e-01,-2.758254e-02,2.101278e-01
-1.994240e-01,1.151375e-01,1.123504e-02,2.302750e-01
-2.593068e-01,1.497108e-01,3.115297e-02,2.994217e-01
-2.003677e-01,1.156824e-01,-2.968224e-02,2.313647e-01
-1.836099e-01,1.060072e-01,-9.991272e-03,2.120145e-01
-2.298347e-01,1.326951e-01,2.877931e-02,2.653903e-01
-2.386357e-01,1.377764e-01,-3.338980e-03,2.755528e-01
-1.824515e-01,1.053384e-01,-2.737207e-02,2.106768e-01
-1.996848e-01,1.152881e-01,1.111929e-02,2.305762e-01
-2.588357e-01,1.494389e-01,3.066113e-02,2.988777e-01
-2.003667e-01,1.156817e-01,-2.942537e-02,2.313635e-01
-1.841265e-01,1.063055e-01,-9.606333e-03,2.126109e-01
-2.304878e-01,1.330722e-01,2.876492e-02,2.661444e-01
-2.375026e-01,1.371222e-01,-4.165315e-03,2.742444e-01
-1.826667e-01,1.054627e-01,-2.672177e-02,2.109254e-01
-2.007577e-01,1.159075e-01,1.172361e-02,2.318150e-01
-2.586566e-01,1.493355e-01,2.951092e-02,2.986709e-01
-1.993108e-01,1.150721e-01,-2.954194e-02,2.301442e-01
-1.849772e-01,1.067967e-01,-8.483140e-03,2.135933e-01
-2.324072e-01,1.341804e-01,2.920646e-02,2.683607e-01
-2.349399e-01,1.356426e-01,-6.295007e-03,2.712852e-01
-1.826814e-01,1.054712e-01,-2.558594e-02,2.109423e-01
-2.027147e-01,1.170374e-01,1.303980e-02,2.340747e-01
-2.584717e-01,1.492287e-01,2.748323e-02,2.984574e-01
-1.973077e-01,1.139157e-01,-2.990386e-02,2.278313e-01
-1.862087e-01,1.075077e-01,-6.620614e-03,2.150153e-01
-2.355616e-01,1.360016e-01,3.002732e-02,2.720032e-01
-2.309823e-01,1.333577e-01,-9.578518e-03,2.667154e-01
-1.825607e-01,1.054015e-01,-2.395775e-02,2.108029e-01
-2.055472e-01,1.186727e-01,1.499160e-02,2.373454e-01
-2.578319e-01,1.488593e-01,2.439142e-02,2.977187e-01
-1.946460e-01,1.123789e-01,-3.032005e-02,2.247578e-01
-1.877559e-01,1.084009e-01,-4.175794e-03,2.168018e-01
-2.396235e-01,1.383467e-01,3.106460e-02,2.766934e-01
-2.260884e-01,1.305322e-01,-1.350405e-02,2.610644e-01
-1.823641e-01,1.052879e-01,-2.201266e-02,2.105759e-01
-2.089327e-01,1.206274e-01,1.729931e-02,2.412548e-01
-2.564566e-01,1.480653e-01,2.049769e-02,2.961305e-01
-1.918636e-01,1.107725e-01,-3.061087e-02,2.215450e-01
-1.893628e-01,1.093287e-01,-1.578051e-03,2.186573e-01
-2.438128e-01,1.407654e-01,3.206974e-02,2.815307e-01
-2.212403e-01,1.277331e-01,-1.722475e-02,2.554663e-01
-1.821401e-01,1.051586e-01,-2.012853e-02,2.103173e-01
-2.122101e-01,1.225196e-01,1.949985e-02,2.450392e-01
-2.546414e-01,1.470173e-01,1.665450e-02,2.940345e-01
-1.895137e-01,1.094158e-01,-3.073464e-02,2.188316e-01
-1.907008e-01,1.101012e-01,6.450839e-04,2.202024e-01
-2.472796e-01,1.427670e-01,3.285181e-02,2.855339e-01
-2.173826e-01,1.255059e-01,-2.007512e-02,2.510117e-01
-1.819110e-01,1.050263e-01,-1.866963e-02,2.100527e-01
-2.147469e-01,1.239842e-01,2.120856e-02,2.479684e-01
-2.530529e-01,1.461002e-01,1.371635e-02,2.922003e-01
-1.878459e-01,1.084529e-01,-3.079687e-02,2.169058e-01
-1.915503e-01,1.105916e-01,2.176498e-03,2.211833e-01
-2.496222e-01,1.441195e-01,3.340402e-02,2.882389e-01
-2.149136e-01,1.240804e-01,-2.188930e-02,2.481608e-01
-1.816515e-01,1.048765e-01,-1.781586e-02,2.097531e-01
-2.162323e-01,1.248418e-01,2.228496e-02,2.496836e-01
-2.521891e-01,1.456014e-01,1.206871e-02,2.912029e-01
-1.868277e-01,1.078650e-01,-3.093699e-02,2.157300e-01
-1.918224e-01,1.107487e-01,2.942836e-03,2.214974e-01
-2.508463e-01,1.448262e-01,3.383823e-02,2.896524e-01
-2.138379e-01,1.234594e-01,-2.277839e-02,2.469187e-01
-1.813039e-01,1.046758e-01,-1.761409e-02,2.093517e-01
-2.165874e-01,1.250468e-01,2.273821e-02,2.500936e-01
-2.522838e-01,1.456561e-01,1.179255e-02,2.913123e-01
-1.863541e-01,1.075916e-01,-3.125779e-02,2.151831e-01
-1.914736e-01,1.105473e-01,2.953627e-03,2.210946e-01
-2.510303e-01,1.449324e-01,3.425104e-02,2.898649e-01
-2.141141e-01,1.236188e-01,-2.283826e-02,2.472376e-01
-1.808122e-01,1.043920e-01,-1.809140e-02,2.087840e-01
-2.157684e-01,1.245739e-01,2.258244e-02,2.491479e-01
-2.534468e-01,1.463276e-01,1.295038e-02,2.926552e-01
-1.863884e-01,1.076114e-01,-3.181195e-02,2.152228e-01
-1.904570e-01,1.099604e-01,2.183310e-03,2.199208e-01
-2.501037e-01,1.443974e-01,3.463348e-02,2.887949e-01
-2.158349e-01,1.246123e-01,-2.200778e-02,2.492247e-01
-1.801609e-01,1.040160e-01,-1.929511e-02,2.080319e-01
-2.137048e-01,1.233825e-01,2.176620e-02,2.467651e-01
-2.556817e-01,1.476179e-01,1.566756e-02,2.952358e-01
-1.870431e-01,1.079894e-01,-3.255223e-02,2.159788e-01
-1.887786e-01,1.089914e-01,5.664628e-04,2.179827e-01
-2.478026e-01,1.430689e-01,3.479315e-02,2.861378e-01
-2.191940e-01,1.265517e-01,-2.003655e-02,2.531035e-01
-1.794780e-01,1.036217e-01,-2.120307e-02,2.072434e-01
-2.104603e-01,1.215093e-01,2.019859e-02,2.430187e-01
-2.585851e-01,1.492942e-01,1.987498e-02,2.985884e-01
-1.886131e-01,1.088958e-01,-3.318848e-02,2.177916e-01
-1.867033e-01,1.077932e-01,-1.852164e-03,2.155864e-01
-2.439615e-01,1.408513e-01,3.435319e-02,2.817025e-01
-2.241158e-01,1.293933e-01,-1.667143e-02,2.587867e-01
-1.791581e-01,1.034370e-01,-2.349107e-02,2.068739e-01
-2.066196e-01,1.192919e-01,1.792818e-02,2.385838e-01
-2.609654e-01,1.506684e-01,2.466994e-02,3.013369e-01
-1.913397e-01,1.104700e-01,-3.317242e-02,2.209400e-01
-1.848813e-01,1.067413e-01,-4.661328e-03,2.134825e-01
-2.391818e-01,1.380917e-01,3.310124e-02,2.761833e-01
-2.296555e-01,1.325917e-01,-1.227868e-02,2.651833e-01
-1.795806e-01,1.036809e-01,-2.551081e-02,2.073618e-01
-2.032350e-01,1.173378e-01,1.538496e-02,2.346756e-01
-2.616243e-01,1.510489e-01,2.841331e-02,3.020977e-01
-1.947358e-01,1.124308e-01,-3.230958e-02,2.248616e-01
-1.838109e-01,1.061233e-01,-7.168993e-03,2.122465e-01
-2.348002e-01,1.355620e-01,3.144198e-02,2.711239e-01
-2.343060e-01,1.352766e-01,-8.082486e-03,2.705532e-01
-1.805172e-01,1.042216e-01,-2.682742e-02,2.084433e-01
-2.009433e-01,1.160147e-01,1.321000e-02,2.320294e-01
-2.609056e-01,1.506339e-01,3.041159e-02,3.012679e-01
-1.977330e-01,1.141612e-01,-3.111523e-02,2.283224e-01
-1.834061e-01,1.058896e-01,-8.913498e-03,2.117792e-01
-2.317374e-01,1.337937e-01,3.000941e-02,2.675873e-01
-2.372753e-01,1.369910e-01,-5.092632e-03,2.739819e-01
-1.814565e-01,1.047639e-01,-2.745974e-02,2.095279e-01
-1.997326e-01,1.153157e-01,1.177475e-02,2.306313e-01
-2.598812e-01,1.500425e-01,3.113064e-02,3.000850e-01
-1.996857e-01,1.152886e-01,-3.013100e-02,2.305772e-01
-1.834179e-01,1.058964e-01,-9.818909e-03,2.117928e-01
-2.301444e-01,1.328739e-01,2.909698e-02,2.657479e-01
-2.385928e-01,1.377516e-01,-3.567623e-03,2.755032e-01
-1.821416e-01,1.051595e-01,-2.756632e-02,2.103191e-01
-1.994178e-01,1.151339e-01,1.112723e-02,2.302678e-01
-2.591325e-01,1.496102e-01,3.107277e-02,2.992205e-01
-2.004789e-01,1.157466e-01,-2.956573e-02,2.314932e-01
-1.837273e-01,1.060750e-01,-9.955318e-03,2.121500e-01
-2.298933e-01,1.327289e-01,2.872561e-02,2.654579e-01
-2.384538e-01,1.376713e-01,-3.440228e-03,2.753427e-01
-1.825373e-01,1.053880e-01,-2.723232e-02,2.107760e-01
-1.999063e-01,1.154159e-01,1.121912e-02,2.308319e-01
-2.587637e-01,1.493973e-01,3.040637e-02,2.987946e-01
-2.001691e-01,1.155677e-01,-2.942493e-02,2.311353e-01
-1.843334e-01,1.064249e-01,-9.361450e-03,2.128499e-01
-2.309069e-01,1.333142e-01,2.884712e-02,2.666283e-01
-2.369177e-01,1.367845e-01,-4.644072e-03,2.735690e-01
-1.826883e-01,1.054751e-01,-2.644850e-02,2.109502e-01
-2.012248e-01,1.161772e-01,1.202838e-02,2.323544e-01
-2.586224e-01,1.493157e-01,2.903193e-02,2.986315e-01
-1.988267e-01,1.147926e-01,-2.962777e-02,2.295853e-01
-1.852908e-01,1.069777e-01,-8.023326e-03,2.139554e-01
-2.331899e-01,1.346323e-01,2.940769e-02,2.692645e-01
-2.339412e-01,1.350660e-01,-7.130642e-03,2.701320e-01
-1.826579e-01,1.054576e-01,-2.516708e-02,2.109152e-01
-2.034427e-01,1.174577e-01,1.354096e-02,2.349154e-01
-2.583543e-01,1.491609e-01,2.670774e-02,2.983218e-01
-1.965940e-01,1.135036e-01,-3.002655e-02,2.270072e-01
-1.866269e-01,1.077491e-01,-5.966558e-03,2.154982e-01
-2.366581e-01,1.366346e-01,3.031209e-02,2.732692e-01
-2.296416e-01,1.325836e-01,-1.067042e-02,2.651672e-01
-1.825099e-01,1.053721e-01,-2.341949e-02,2.107442e-01
-2.064841e-01,1.192137e-01,1.563427e-02,2.384273e-01
-2.575129e-01,1.486751e-01,2.332990e-02,2.973502e-01
-1.938344e-01,1.119103e-01,-3.042138e-02,2.238206e-01
-1.882245e-01,1.086715e-01,-3.423484e-03,2.173429e-01
-2.408505e-01,1.390551e-01,3.136669e-02,2.781102e-01
-2.246475e-01,1.297003e-01,-1.462769e-02,2.594006e-01
-1.823011e-01,1.052516e-01,-2.144856e-02,2.105032e-01
-2.099145e-01,1.211942e-01,1.796098e-02,2.423884e-01
-2.559538e-01,1.477750e-01,1.934819e-02,2.955499e-01
-1.911291e-01,1.103484e-01,-3.066062e-02,2.206968e-01
-1.897861e-01,1.095731e-01,-8.839935e-04,2.191461e-01
-2.449062e-01,1.413967e-01,3.232023e-02,2.827933e-01
-2.200065e-01,1.270208e-01,-1.814561e-02,2.540417e-01
-1.820752e-01,1.051212e-01,-1.965592e-02,2.102423e-01
-2.130316e-01,1.229939e-01,2.004987e-02,2.459877e-01
-2.541358e-01,1.467254e-01,1.569504e-02,2.934507e-01
-1.889646e-01,1.090987e-01,-3.075230e-02,2.181975e-01
-1.909993e-01,1.102735e-01,1.160704e-03,2.205470e-01
-2.480688e-01,1.432226e-01,3.302934e-02,2.864452e-01
-2.165297e-01,1.250135e-01,-2.069750e-02,2.500269e-01
-1.818421e-01,1.049866e-01,-1.836000e-02,2.099732e-01
-2.152853e-01,1.242950e-01,2.158220e-02,2.485900e-01
-2.527181e-01,1.459069e-01,1.310672e-02,2.918137e-01
-1.874932e-01,1.082493e-01,-3.082358e-02,2.164985e-01
-1.916892e-01,1.106718e-01,2.473714e-03,2.213437e-01
-2.500822e-01,1.443850e-01,3.353491e-02,2.887700e-01
-2.144668e-01,1.238225e-01,-2.223201e-02,2.476450e-01
-1.815635e-01,1.048257e-01,-1.769067e-02,2.096514e-01
-2.164513e-01,1.249682e-01,2.247682e-02,2.499364e-01
-2.521126e-01,1.455573e-01,1.184823e-02,2.911146e-01
-1.866401e-01,1.077567e-01,-3.100701e-02,2.155134e-01
-1.917879e-01,1.107288e-01,3.023056e-03,2.214576e-01
-2.510039e-01,1.449172e-01,3.395627e-02,2.898343e-01
-2.137779e-01,1.234247e-01,-2.287931e-02,2.468494e-01
