x,y,z,R
-2.217211e-01,1.280108e-01,-3.140176e-03,2.560215e-01
-2.075495e-01,1.198288e-01,-5.646426e-03,2.396576e-01
-2.216826e-01,1.279885e-01,8.852822e-03,2.559771e-01
-2.260835e-01,1.305294e-01,1.028277e-03,2.610588e-01
-2.081468e-01,1.201736e-01,-7.770428e-03,2.403472e-01
-2.172042e-01,1.254029e-01,6.432503e-03,2.508059e-01
-2.289901e-01,1.322075e-01,5.176782e-03,2.644150e-01
-2.102924e-01,1.214124e-01,-8.615857e-03,2.428247e-01
-2.131303e-01,1.230508e-01,3.246609e-03,2.461017e-01
-2.296957e-01,1.326149e-01,8.368339e-03,2.652298e-01
-2.138361e-01,1.234584e-01,-7.900474e-03,2.469167e-01
-2.099672e-01,1.212246e-01,-2.527095e-04,2.424492e-01
-2.280790e-01,1.316814e-01,9.973199e-03,2.633629e-01
-2.183626e-01,1.260717e-01,-5.573744e-03,2.521434e-01
-2.080436e-01,1.201140e-01,-3.617215e-03,2.402281e-01
-2.246669e-01,1.297115e-01,9.847387e-03,2.594230e-01
-2.231344e-01,1.288267e-01,-1.934276e-03,2.576534e-01
-2.075656e-01,1.198381e-01,-6.401708e-03,2.396761e-01
-2.203240e-01,1.272041e-01,8.228329e-03,2.544082e-01
-2.271603e-01,1.311511e-01,2.331156e-03,2.623021e-01
-2.086351e-01,1.204555e-01,-8.177291e-03,2.409110e-01
-2.159014e-01,1.246507e-01,5.528296e-03,2.493014e-01
-2.294558e-01,1.324764e-01,6.281272e-03,2.649527e-01
-2.112306e-01,1.219541e-01,-8.572042e-03,2.439081e-01
-2.120590e-01,1.224323e-01,2.200113e-03,2.448647e-01
-2.294383e-01,1.324663e-01,9.037537e-03,2.649325e-01
-2.151302e-01,1.242055e-01,-7.360295e-03,2.484109e-01
-2.092431e-01,1.208066e-01,-1.305653e-03,2.416131e-01
-2.271993e-01,1.311736e-01,1.011237e-02,2.623472e-01
-2.198231e-01,1.269149e-01,-4.586563e-03,2.538299e-01
-2.077398e-01,1.199386e-01,-4.541274e-03,2.398772e-01
-2.234094e-01,1.289855e-01,9.497852e-03,2.579710e-01
-2.244800e-01,1.296036e-01,-6.690511e-04,2.592072e-01
-2.077240e-01,1.199295e-01,-7.064248e-03,2.398590e-01
-2.189592e-01,1.264161e-01,7.504648e-03,2.528323e-01
-2.280755e-01,1.316795e-01,3.604746e-03,2.633589e-01
-2.092649e-01,1.208191e-01,-8.456702e-03,2.416383e-01
-2.146535e-01,1.239302e-01,4.566601e-03,2.478605e-01
-2.297042e-01,1.326198e-01,7.273435e-03,2.652395e-01
-2.122900e-01,1.225657e-01,-8.379219e-03,2.451314e-01
-2.110832e-01,1.218689e-01,1.137353e-03,2.437379e-01
-2.289729e-01,1.321975e-01,9.549131e-03,2.643951e-01
-2.164985e-01,1.249955e-01,-6.674427e-03,2.499909e-01
-2.086395e-01,1.204581e-01,-2.333824e-03,2.409162e-01
-2.261758e-01,1.305827e-01,1.009460e-02,2.611654e-01
-2.212814e-01,1.277568e-01,-3.491910e-03,2.555137e-01
-2.075726e-01,1.198421e-01,-5.399919e-03,2.396842e-01
-2.220918e-01,1.282247e-01,9.021299e-03,2.564495e-01
-2.257278e-01,1.303240e-01,6.301908e-04,2.606480e-01
-2.080262e-01,1.201040e-01,-7.622749e-03,2.402080e-01
-2.176099e-01,1.256371e-01,6.694357e-03,2.512742e-01
-2.288069e-01,1.321017e-01,4.821664e-03,2.642034e-01
-2.100322e-01,1.212622e-01,-8.600250e-03,2.425243e-01
-2.134737e-01,1.232491e-01,3.559991e-03,2.464982e-01
-2.297312e-01,1.326353e-01,8.134574e-03,2.652707e-01
-2.134601e-01,1.232412e-01,-8.035194e-03,2.464825e-01
-2.102107e-01,1.213652e-01,7.077853e-05,2.427304e-01
-2.283152e-01,1.318179e-01,9.898974e-03,2.636357e-01
-2.179224e-01,1.258175e-01,-5.850351e-03,2.516351e-01
-2.081628e-01,1.201828e-01,-3.324850e-03,2.403657e-01
-2.250340e-01,1.299235e-01,9.926871e-03,2.598469e-01
-2.227103e-01,1.285818e-01,-2.308670e-03,2.571636e-01
-2.075458e-01,1.198266e-01,-6.181123e-03,2.396532e-01
-2.207394e-01,1.274440e-01,8.429468e-03,2.548879e-01
-2.268486e-01,1.309711e-01,1.936440e-03,2.619422e-01
-2.084713e-01,1.203610e-01,-8.066532e-03,2.407220e-01
-2.162932e-01,1.248769e-01,5.810146e-03,2.497539e-01
-2.293367e-01,1.324076e-01,5.956046e-03,2.648152e-01
-2.109314e-01,1.217813e-01,-8.601004e-03,2.435627e-01
-2.123754e-01,1.226150e-01,2.520908e-03,2.452300e-01
-2.295390e-01,1.325244e-01,8.850233e-03,2.650488e-01
-2.147276e-01,1.239730e-01,-7.540389e-03,2.479461e-01
-2.094513e-01,1.209267e-01,-9.872429e-04,2.418535e-01
-2.274835e-01,1.313377e-01,1.008688e-02,2.626753e-01
-2.193773e-01,1.266576e-01,-4.899194e-03,2.533151e-01
-2.078182e-01,1.199839e-01,-4.266399e-03,2.399678e-01
-2.237997e-01,1.292108e-01,9.618201e-03,2.584217e-01
-2.240795e-01,1.293724e-01,-1.058923e-03,2.587448e-01
-2.076605e-01,1.198929e-01,-6.873109e-03,2.397857e-01
-2.193744e-01,1.266559e-01,7.734643e-03,2.533117e-01
-2.278154e-01,1.315293e-01,3.221881e-03,2.630586e-01
-2.090588e-01,1.207002e-01,-8.385668e-03,2.414004e-01
-2.150264e-01,1.241456e-01,4.864634e-03,2.482911e-01
-2.296519e-01,1.325896e-01,6.984553e-03,2.651791e-01
-2.119550e-01,1.223723e-01,-8.453878e-03,2.447446e-01
-2.113696e-01,1.220343e-01,1.461784e-03,2.440686e-01
-2.291360e-01,1.322918e-01,9.410454e-03,2.645835e-01
-2.160750e-01,1.247509e-01,-6.898233e-03,2.495019e-01
-2.088099e-01,1.205564e-01,-2.024259e-03,2.411129e-01
-2.265012e-01,1.307705e-01,1.011625e-02,2.615411e-01
-2.208392e-01,1.275016e-01,-3.835388e-03,2.550032e-01
-2.076087e-01,1.198630e-01,-5.146236e-03,2.397259e-01
-2.224977e-01,1.284591e-01,9.179095e-03,2.569183e-01
-2.253603e-01,1.301118e-01,2.327630e-04,2.602237e-01
-2.079189e-01,1.200420e-01,-7.464438e-03,2.400841e-01
-2.180174e-01,1.258724e-01,6.949389e-03,2.517448e-01
-2.286050e-01,1.319852e-01,4.458883e-03,2.639703e-01
-2.097845e-01,1.211191e-01,-8.571383e-03,2.422383e-01
-2.138248e-01,1.234518e-01,3.870364e-03,2.469036e-01
-2.297463e-01,1.326441e-01,7.887304e-03,2.652882e-01
-2.130932e-01,1.230294e-01,-8.155927e-03,2.460588e-01
-2.104646e-01,1.215118e-01,3.950601e-04,2.430235e-01
-2.285342e-01,1.319443e-01,9.809693e-03,2.638886e-01
-2.174841e-01,1.255645e-01,-6.115220e-03,2.511290e-01
-2.082942e-01,1.202587e-01,-3.027901e-03,2.405174e-01
-2.253927e-01,1.301306e-01,9.993290e-03,2.602611e-01
-2.222804e-01,1.283337e-01,-2.676894e-03,2.566673e-01
-2.075392e-01,1.198228e-01,-5.952266e-03,2.396456e-01
-2.211531e-01,1.276828e-01,8.621073e-03,2.553655e-01
-2.265226e-01,1.307829e-01,1.539796e-03,2.615657e-01
-2.083209e-01,1.202741e-01,-7.944218e-03,2.405483e-01
-2.166890e-01,1.251055e-01,6.086336e-03,2.502109e-01
-2.291977e-01,1.323274e-01,5.620988e-03,2.646547e-01
-2.106443e-01,1.216155e-01,-8.616231e-03,2.432310e-01
-2.127004e-01,1.228027e-01,2.839846e-03,2.456053e-01
-2.296203e-01,1.325713e-01,8.648505e-03,2.651427e-01
-2.143325e-01,1.237449e-01,-7.706802e-03,2.474898e-01
-2.096700e-01,1.210530e-01,-6.668801e-04,2.421060e-01
-2.277534e-01,1.314935e-01,1.004669e-02,2.629870e-01
-2.189328e-01,1.264009e-01,-5.201325e-03,2.528018e-01
-2.079090e-01,1.200363e-01,-3.985810e-03,2.400727e-01
-2.241837e-01,1.294325e-01,9.726460e-03,2.588651e-01
-2.236710e-01,1.291365e-01,-1.444892e-03,2.582730e-01
-2.076104e-01,1.198639e-01,-6.672638e-03,2.397278e-01
-2.197893e-01,1.268954e-01,7.956278e-03,2.537909e-01
-2.275388e-01,1.313696e-01,2.834519e-03,2.627392e-01
-2.088650e-01,1.205883e-01,-8.302288e-03,2.411766e-01
-2.154055e-01,1.243644e-01,5.158146e-03,2.487289e-01
-2.295791e-01,1.325475e-01,6.683993e-03,2.650951e-01
-2.116309e-01,1.221852e-01,-8.514531e-03,2.443703e-01
-2.116654e-01,1.222051e-01,1.785507e-03,2.444101e-01
-2.292800e-01,1.323749e-01,9.256809e-03,2.647497e-01
-2.156574e-01,1.245098e-01,-7.108954e-03,2.490197e-01
-2.089919e-01,1.206615e-01,-1.711601e-03,2.413231e-01
-2.268150e-01,1.309517e-01,1.012378e-02,2.619034e-01
-2.203957e-01,1.272455e-01,-4.170040e-03,2.544910e-01
-2.076578e-01,1.198913e-01,-4.885716e-03,2.397825e-01
-2.228998e-01,1.286913e-01,9.325871e-03,2.573825e-01
-2.249819e-01,1.298933e-01,-1.632304e-04,2.597867e-01
-2.078250e-01,1.199878e-01,-7.295787e-03,2.399757e-01
-2.184285e-01,1.261098e-01,7.197197e-03,2.522195e-01
-2.283848e-01,1.318580e-01,4.089149e-03,2.637161e-01
-2.095492e-01,1.209833e-01,-8.529463e-03,2.419666e-01
-2.141832e-01,1.236587e-01,4.177375e-03,2.473174e-01
-2.297410e-01,1.326410e-01,7.626889e-03,2.652820e-01
-2.127356e-01,1.228229e-01,-8.262636e-03,2.456459e-01
-2.107287e-01,1.216643e-01,7.197837e-04,2.433286e-01
-2.287373e-01,1.320616e-01,9.705376e-03,2.641231e-01
-2.170501e-01,1.253140e-01,-6.367904e-03,2.506279e-01
-2.084378e-01,1.203416e-01,-2.726718e-03,2.406833e-01
-2.257423e-01,1.303324e-01,1.004637e-02,2.606648e-01
-2.218455e-01,1.280825e-01,-3.038317e-03,2.561651e-01
-2.075456e-01,1.198265e-01,-5.715478e-03,2.396530e-01
-2.215653e-01,1.279208e-01,8.802780e-03,2.558415e-01
-2.261830e-01,1.305868e-01,1.142012e-03,2.611736e-01
-2.081836e-01,1.201949e-01,-7.810625e-03,2.403897e-01
-2.170892e-01,1.253365e-01,6.356488e-03,2.506730e-01
-2.290391e-01,1.322358e-01,5.276728e-03,2.644716e-01
-2.103689e-01,1.214565e-01,-8.617866e-03,2.429131e-01
-2.130337e-01,1.229951e-01,3.156579e-03,2.459901e-01
-2.296819e-01,1.326069e-01,8.432590e-03,2.652138e-01
-2.139454e-01,1.235214e-01,-7.859413e-03,2.470429e-01
-2.098996e-01,1.211856e-01,-3.449245e-04,2.423712e-01
-2.280091e-01,1.316411e-01,9.991664e-03,2.632822e-01
-2.184890e-01,1.261447e-01,-5.492603e-03,2.522893e-01
-2.080120e-01,1.200958e-01,-3.699845e-03,2.401915e-01
-2.245607e-01,1.296502e-01,9.822323e-03,2.593004e-01
-2.232551e-01,1.288964e-01,-1.826245e-03,2.577927e-01
-2.075735e-01,1.198426e-01,-6.463161e-03,2.396853e-01
-2.202053e-01,1.271356e-01,8.169165e-03,2.542712e-01
-2.272465e-01,1.312008e-01,2.443437e-03,2.624016e-01
-2.086843e-01,1.204839e-01,-8.206773e-03,2.409679e-01
-2.157905e-01,1.245867e-01,5.446783e-03,2.491734e-01
-2.294859e-01,1.324938e-01,6.372281e-03,2.649875e-01
-2.113181e-01,1.220046e-01,-8.561232e-03,2.440092e-01
-2.119704e-01,1.223812e-01,2.108175e-03,2.447623e-01
-2.294056e-01,1.324474e-01,9.088350e-03,2.648948e-01
-2.152461e-01,1.242724e-01,-7.306385e-03,2.485448e-01
-2.091855e-01,1.207733e-01,-1.396204e-03,2.415466e-01
-2.271155e-01,1.311252e-01,1.011697e-02,2.622504e-01
-2.199500e-01,1.269882e-01,-4.495429e-03,2.539764e-01
-2.077197e-01,1.199270e-01,-4.618698e-03,2.398540e-01
-2.232972e-01,1.289207e-01,9.461295e-03,2.578414e-01
-2.245934e-01,1.296690e-01,-5.570265e-04,2.593381e-01
-2.077445e-01,1.199413e-01,-7.117098e-03,2.398826e-01
-2.188409e-01,1.263479e-01,7.437455e-03,2.526957e-01
-2.281469e-01,1.317207e-01,3.713191e-03,2.634413e-01
-2.093262e-01,1.208546e-01,-8.474686e-03,2.417091e-01
-2.145478e-01,1.238693e-01,4.480692e-03,2.477385e-01
-2.297152e-01,1.326261e-01,7.353737e-03,2.652522e-01
-2.123874e-01,1.226219e-01,-8.355330e-03,2.452439e-01
-2.110029e-01,1.218226e-01,1.044603e-03,2.436451e-01
-2.289233e-01,1.321689e-01,9.586004e-03,2.643378e-01
-2.166208e-01,1.250661e-01,-6.608102e-03,2.501322e-01
-2.085933e-01,1.204314e-01,-2.421644e-03,2.408628e-01
-2.260812e-01,1.305280e-01,1.008585e-02,2.610561e-01
-2.214071e-01,1.278294e-01,-3.392258e-03,2.556589e-01
-2.075649e-01,1.198376e-01,-5.471084e-03,2.396752e-01
-2.219753e-01,1.281575e-01,8.974245e-03,2.563150e-01
-2.258306e-01,1.303834e-01,7.438761e-04,2.607667e-01
-2.080591e-01,1.201230e-01,-7.666041e-03,2.402460e-01
-2.174938e-01,1.255701e-01,6.620233e-03,2.511403e-01
-2.288612e-01,1.321331e-01,4.923923e-03,2.642662e-01
-2.101052e-01,1.213043e-01,-8.606069e-03,2.426086e-01
-2.133750e-01,1.231921e-01,3.470754e-03,2.463842e-01
-2.297234e-01,1.326309e-01,8.202756e-03,2.652617e-01
-2.135669e-01,1.233029e-01,-7.998117e-03,2.466058e-01
-2.101400e-01,1.213244e-01,-2.172639e-05,2.426488e-01
-2.282490e-01,1.317796e-01,9.921699e-03,2.635593e-01
-2.180476e-01,1.258899e-01,-5.772535e-03,2.517797e-01
-2.081275e-01,1.201625e-01,-3.408852e-03,2.403250e-01
-2.249301e-01,1.298634e-01,9.905486e-03,2.597269e-01
-2.228320e-01,1.286521e-01,-2.202324e-03,2.573042e-01
-2.075499e-01,1.198290e-01,-6.244999e-03,2.396580e-01
-2.206208e-01,1.273755e-01,8.372970e-03,2.547509e-01
-2.269389e-01,1.310232e-01,2.049415e-03,2.620464e-01
-2.085168e-01,1.203873e-01,-8.099361e-03,2.407745e-01
-2.161810e-01,1.248122e-01,5.730189e-03,2.496243e-01
-2.293726e-01,1.324283e-01,6.049976e-03,2.648567e-01
-2.110156e-01,1.218299e-01,-8.594142e-03,2.436598e-01
-2.122843e-01,1.225624e-01,2.429436e-03,2.451248e-01
-2.295123e-01,1.325090e-01,8.905224e-03,2.650179e-01
-2.148417e-01,1.240389e-01,-7.490338e-03,2.480778e-01
-2.093904e-01,1.208916e-01,-1.078412e-03,2.417832e-01
-2.274039e-01,1.312917e-01,1.009566e-02,2.625834e-01
-2.195049e-01,1.267312e-01,-4.810914e-03,2.534624e-01
-2.077944e-01,1.199701e-01,-4.345519e-03,2.399402e-01
-2.236892e-01,1.291470e-01,9.585041e-03,2.582940e-01
-2.241951e-01,1.294391e-01,-9.478987e-04,2.588782e-01
-2.076772e-01,1.199025e-01,-6.928677e-03,2.398050e-01
-2.192558e-01,1.265874e-01,7.669779e-03,2.531747e-01
-2.278917e-01,1.315733e-01,3.331758e-03,2.631466e-01
-2.091165e-01,1.207335e-01,-8.407223e-03,2.414670e-01
-2.149191e-01,1.240836e-01,4.779946e-03,2.481672e-01
-2.296688e-01,1.325994e-01,7.068284e-03,2.651987e-01
-2.120496e-01,1.224269e-01,-8.433985e-03,2.448537e-01
-2.112867e-01,1.219864e-01,1.369165e-03,2.439729e-01
-2.290908e-01,1.322656e-01,9.451583e-03,2.645313e-01
-2.161955e-01,1.248205e-01,-6.835617e-03,2.496411e-01
-2.087601e-01,1.205277e-01,-2.113023e-03,2.410554e-01
-2.264093e-01,1.307175e-01,1.011149e-02,2.614350e-01
-2.209663e-01,1.275750e-01,-3.738106e-03,2.551500e-01
-2.075972e-01,1.198563e-01,-5.219418e-03,2.397126e-01
-2.223825e-01,1.283926e-01,9.135126e-03,2.567851e-01
-2.254662e-01,1.301730e-01,3.461726e-04,2.603460e-01
-2.079481e-01,1.200589e-01,-7.510737e-03,2.401178e-01
-2.179005e-01,1.258049e-01,6.877259e-03,2.516099e-01
-2.286645e-01,1.320195e-01,4.563256e-03,2.640391e-01
-2.098540e-01,1.211593e-01,-8.580967e-03,2.423186e-01
-2.137240e-01,1.233936e-01,3.782021e-03,2.467872e-01
-2.297446e-01,1.326431e-01,7.959319e-03,2.652862e-01
-2.131972e-01,1.230895e-01,-8.122854e-03,2.461789e-01
-2.103910e-01,1.214693e-01,3.023644e-04,2.429385e-01
-2.284733e-01,1.319091e-01,9.836731e-03,2.638182e-01
-2.176091e-01,1.256367e-01,-6.040772e-03,2.512734e-01
-2.082554e-01,1.202363e-01,-3.113177e-03,2.404726e-01
-2.252911e-01,1.300719e-01,9.975664e-03,2.601437e-01
-2.224033e-01,1.284046e-01,-2.572399e-03,2.568092e-01
-2.075395e-01,1.198230e-01,-6.018473e-03,2.396460e-01
-2.210349e-01,1.276146e-01,8.567334e-03,2.552291e-01
-2.266169e-01,1.308373e-01,1.653240e-03,2.616747e-01
-2.083627e-01,1.202983e-01,-7.980316e-03,2.405966e-01
-2.165754e-01,1.250399e-01,6.008042e-03,2.500797e-01
-2.292393e-01,1.323514e-01,5.717666e-03,2.647027e-01
-2.107252e-01,1.216622e-01,-8.613272e-03,2.433244e-01
-2.126069e-01,1.227487e-01,2.748941e-03,2.454974e-01
-2.295997e-01,1.325594e-01,8.707613e-03,2.651188e-01
-2.144446e-01,1.238096e-01,-7.660662e-03,2.476193e-01
-2.096066e-01,1.210164e-01,-7.585795e-04,2.420328e-01
-2.276777e-01,1.314498e-01,1.005968e-02,2.628995e-01
-2.190594e-01,1.264740e-01,-5.116127e-03,2.529480e-01
-2.078818e-01,1.200206e-01,-4.066528e-03,2.400412e-01
-2.240751e-01,1.293698e-01,9.696788e-03,2.587396e-01
-2.237884e-01,1.292043e-01,-1.335082e-03,2.584086e-01
-2.076232e-01,1.198713e-01,-6.730842e-03,2.397427e-01
-2.196705e-01,1.268268e-01,7.893843e-03,2.536537e-01
-2.276198e-01,1.314164e-01,2.945608e-03,2.628327e-01
-2.089190e-01,1.206194e-01,-8.327362e-03,2.412388e-01
-2.152966e-01,1.243015e-01,5.074782e-03,2.486031e-01
-2.296019e-01,1.325607e-01,6.771011e-03,2.651214e-01
-2.117225e-01,1.222380e-01,-8.498626e-03,2.444760e-01
-2.115800e-01,1.221558e-01,1.693122e-03,2.443116e-01
-2.292407e-01,1.323522e-01,9.302213e-03,2.647043e-01
-2.157760e-01,1.245783e-01,-7.050107e-03,2.491567e-01
-2.089388e-01,1.206309e-01,-1.801212e-03,2.412617e-01
-2.267265e-01,1.309006e-01,1.012308e-02,2.618012e-01
-2.205222e-01,1.273186e-01,-4.075393e-03,2.546371e-01
-2.076425e-01,1.198824e-01,-4.960815e-03,2.397649e-01
-2.227855e-01,1.286253e-01,9.285087e-03,2.572505e-01
-2.250907e-01,1.299562e-01,-5.032088e-05,2.599124e-01
-2.078504e-01,1.200025e-01,-7.345006e-03,2.400050e-01
-2.183109e-01,1.260419e-01,7.127161e-03,2.520837e-01
-2.284494e-01,1.318953e-01,4.195429e-03,2.637907e-01
-2.096151e-01,1.210213e-01,-8.542762e-03,2.420427e-01
-2.140800e-01,1.235991e-01,4.090037e-03,2.471982e-01
-2.297452e-01,1.326435e-01,7.702628e-03,2.652870e-01
-2.128366e-01,1.228812e-01,-8.233596e-03,2.457625e-01
-2.106522e-01,1.216201e-01,6.269992e-04,2.432402e-01
-2.286813e-01,1.320292e-01,9.736722e-03,2.640584e-01
-2.171736e-01,1.253852e-01,-6.296985e-03,2.507705e-01
-2.083954e-01,1.203171e-01,-2.813165e-03,2.406343e-01
-2.256432e-01,1.302751e-01,1.003258e-02,2.605503e-01
-2.219701e-01,1.281545e-01,-2.935807e-03,2.563090e-01
-2.075423e-01,1.198246e-01,-5.783911e-03,2.396492e-01
-2.214478e-01,1.278529e-01,8.751902e-03,2.557059e-01
-2.262811e-01,1.306435e-01,1.255703e-03,2.612870e-01
-2.082214e-01,1.202167e-01,-7.849925e-03,2.404333e-01
-2.169745e-01,1.252703e-01,6.279952e-03,2.505405e-01
-2.290864e-01,1.322631e-01,5.375972e-03,2.645262e-01
-2.104464e-01,1.215013e-01,-8.618777e-03,2.430025e-01
-2.129379e-01,1.229397e-01,3.066340e-03,2.458795e-01
-2.296667e-01,1.325981e-01,8.495717e-03,2.651963e-01
-2.140552e-01,1.235848e-01,-7.817223e-03,2.471697e-01
-2.098331e-01,1.211472e-01,-4.370419e-04,2.422944e-01
-2.279377e-01,1.315999e-01,1.000891e-02,2.631998e-01
-2.186158e-01,1.262179e-01,-5.410511e-03,2.524358e-01
-2.079815e-01,1.200782e-01,-3.782066e-03,2.401564e-01
-2.244541e-01,1.295886e-01,9.796222e-03,2.591772e-01
