x,y,z,R
-2.195036e-01,1.267304e-01,-1.730062e-04,2.534609e-01
-2.156173e-01,1.244867e-01,-9.579190e-04,2.489734e-01
-2.196357e-01,1.268067e-01,3.004858e-03,2.536134e-01
-2.204677e-01,1.272871e-01,7.608768e-04,2.545742e-01
-2.157763e-01,1.245785e-01,-1.477159e-03,2.491571e-01
-2.185629e-01,1.261873e-01,2.477373e-03,2.523747e-01
-2.211436e-01,1.276773e-01,1.697229e-03,2.553547e-01
-2.163114e-01,1.248875e-01,-1.686807e-03,2.497749e-01
-2.174951e-01,1.255708e-01,1.717903e-03,2.511417e-01
-2.214225e-01,1.278383e-01,2.491608e-03,2.556767e-01
-2.171606e-01,1.253777e-01,-1.548803e-03,2.507555e-01
-2.165776e-01,1.250411e-01,8.323391e-04,2.500822e-01
-2.212613e-01,1.277452e-01,3.024599e-03,2.554905e-01
-2.182121e-01,1.259848e-01,-1.073157e-03,2.519696e-01
-2.159283e-01,1.246663e-01,-6.090062e-05,2.493326e-01
-2.206915e-01,1.274163e-01,3.222337e-03,2.548326e-01
-2.193206e-01,1.266248e-01,-3.216415e-04,2.532496e-01
-2.156300e-01,1.244940e-01,-8.433544e-04,2.489881e-01
-2.198086e-01,1.269065e-01,3.065445e-03,2.538131e-01
-2.203197e-01,1.272016e-01,5.971100e-04,2.544033e-01
-2.157210e-01,1.245466e-01,-1.408733e-03,2.490932e-01
-2.187497e-01,1.262952e-01,2.586486e-03,2.525903e-01
-2.210545e-01,1.276259e-01,1.543580e-03,2.552517e-01
-2.161957e-01,1.248207e-01,-1.675126e-03,2.496413e-01
-2.176708e-01,1.256723e-01,1.859684e-03,2.513445e-01
-2.214061e-01,1.278288e-01,2.371656e-03,2.556577e-01
-2.169976e-01,1.252836e-01,-1.597206e-03,2.505673e-01
-2.167186e-01,1.251225e-01,9.874547e-04,2.502451e-01
-2.213194e-01,1.277788e-01,2.955948e-03,2.555576e-01
-2.180240e-01,1.258762e-01,-1.176271e-03,2.517525e-01
-2.160162e-01,1.247170e-01,8.698251e-05,2.494340e-01
-2.208143e-01,1.274872e-01,3.213840e-03,2.549744e-01
-2.191342e-01,1.265172e-01,-4.653314e-04,2.530344e-01
-2.156536e-01,1.245076e-01,-7.224156e-04,2.490153e-01
-2.199759e-01,1.270032e-01,3.116536e-03,2.540063e-01
-2.201642e-01,1.271119e-01,4.341770e-04,2.542237e-01
-2.156777e-01,1.245216e-01,-1.331480e-03,2.490432e-01
-2.189365e-01,1.264031e-01,2.688313e-03,2.528061e-01
-2.209533e-01,1.275675e-01,1.386406e-03,2.551349e-01
-2.160892e-01,1.247591e-01,-1.653308e-03,2.495183e-01
-2.178497e-01,1.257756e-01,1.997182e-03,2.515511e-01
-2.213760e-01,1.278115e-01,2.244472e-03,2.556230e-01
-2.168411e-01,1.251933e-01,-1.635491e-03,2.503865e-01
-2.168660e-01,1.252077e-01,1.141731e-03,2.504153e-01
-2.213654e-01,1.278054e-01,2.877649e-03,2.556107e-01
-2.178385e-01,1.257691e-01,-1.270809e-03,2.515382e-01
-2.161145e-01,1.247737e-01,2.375497e-04,2.495475e-01
-2.209273e-01,1.275525e-01,3.194859e-03,2.551049e-01
-2.189456e-01,1.264083e-01,-6.034342e-04,2.528166e-01
-2.156890e-01,1.245281e-01,-5.955718e-04,2.490562e-01
-2.201372e-01,1.270963e-01,3.157870e-03,2.541925e-01
-2.200009e-01,1.270176e-01,2.727844e-04,2.540352e-01
-2.156454e-01,1.245030e-01,-1.245781e-03,2.490059e-01
-2.191216e-01,1.265099e-01,2.782397e-03,2.530198e-01
-2.208414e-01,1.275029e-01,1.226449e-03,2.550057e-01
-2.159929e-01,1.247035e-01,-1.621470e-03,2.494071e-01
-2.180322e-01,1.258809e-01,2.129857e-03,2.517619e-01
-2.213335e-01,1.277870e-01,2.110643e-03,2.555740e-01
-2.166921e-01,1.251072e-01,-1.663524e-03,2.502145e-01
-2.170210e-01,1.252971e-01,1.294586e-03,2.505942e-01
-2.213989e-01,1.278247e-01,2.790014e-03,2.556495e-01
-2.176562e-01,1.256639e-01,-1.356400e-03,2.513278e-01
-2.162214e-01,1.248355e-01,3.901948e-04,2.496710e-01
-2.210300e-01,1.276117e-01,3.165418e-03,2.552235e-01
-2.187555e-01,1.262986e-01,-7.353529e-04,2.525971e-01
-2.157358e-01,1.245551e-01,-4.633446e-04,2.491102e-01
-2.202920e-01,1.271856e-01,3.189225e-03,2.543713e-01
-2.198314e-01,1.269197e-01,1.136934e-04,2.538395e-01
-2.156248e-01,1.244911e-01,-1.151996e-03,2.489821e-01
-2.193044e-01,1.266154e-01,2.868319e-03,2.532309e-01
-2.207196e-01,1.274325e-01,1.064451e-03,2.548651e-01
-2.159069e-01,1.246539e-01,-1.579797e-03,2.493079e-01
-2.182164e-01,1.259873e-01,2.257148e-03,2.519746e-01
-2.212788e-01,1.277554e-01,1.970765e-03,2.555107e-01
-2.165515e-01,1.250260e-01,-1.681237e-03,2.500521e-01
-2.171819e-01,1.253900e-01,1.445405e-03,2.507801e-01
-2.214191e-01,1.278364e-01,2.693375e-03,2.556728e-01
-2.174781e-01,1.255610e-01,-1.432710e-03,2.511221e-01
-2.163381e-01,1.249029e-01,5.443441e-04,2.498057e-01
-2.211220e-01,1.276648e-01,3.125594e-03,2.553296e-01
-2.185648e-01,1.261885e-01,-8.605223e-04,2.523769e-01
-2.157930e-01,1.245881e-01,-3.262760e-04,2.491762e-01
-2.204394e-01,1.272708e-01,3.210414e-03,2.545415e-01
-2.196565e-01,1.268188e-01,-4.237641e-05,2.536375e-01
-2.156162e-01,1.244861e-01,-1.050523e-03,2.489721e-01
-2.194845e-01,1.267195e-01,2.945698e-03,2.534389e-01
-2.205882e-01,1.273566e-01,9.011421e-04,2.547133e-01
-2.158317e-01,1.246105e-01,-1.528511e-03,2.492210e-01
-2.184032e-01,1.260951e-01,2.378551e-03,2.521903e-01
-2.212112e-01,1.277163e-01,1.825432e-03,2.554326e-01
-2.164182e-01,1.249491e-01,-1.688656e-03,2.498982e-01
-2.173485e-01,1.254862e-01,1.593601e-03,2.509724e-01
-2.214263e-01,1.278405e-01,2.588144e-03,2.556811e-01
-2.173049e-01,1.254610e-01,-1.499451e-03,2.509220e-01
-2.164640e-01,1.249756e-01,6.993956e-04,2.499511e-01
-2.212022e-01,1.277112e-01,3.075502e-03,2.554223e-01
-2.183743e-01,1.260785e-01,-9.784144e-04,2.521569e-01
-2.158615e-01,1.246277e-01,-1.848926e-04,2.492554e-01
-2.205788e-01,1.273513e-01,3.221291e-03,2.547025e-01
-2.194772e-01,1.267152e-01,-1.947256e-04,2.534304e-01
-2.156183e-01,1.244873e-01,-9.418178e-04,2.489745e-01
-2.196612e-01,1.268215e-01,3.014172e-03,2.536430e-01
-2.204469e-01,1.272751e-01,7.372455e-04,2.545502e-01
-2.157673e-01,1.245733e-01,-1.467858e-03,2.491466e-01
-2.185896e-01,1.262028e-01,2.493534e-03,2.524055e-01
-2.211314e-01,1.276703e-01,1.675316e-03,2.553405e-01
-2.162942e-01,1.248775e-01,-1.685753e-03,2.497550e-01
-2.175204e-01,1.255855e-01,1.738588e-03,2.511709e-01
-2.214208e-01,1.278373e-01,2.474774e-03,2.556747e-01
-2.171367e-01,1.253639e-01,-1.556402e-03,2.507278e-01
-2.165973e-01,1.250525e-01,8.547294e-04,2.501051e-01
-2.212706e-01,1.277506e-01,3.015311e-03,2.555012e-01
-2.181848e-01,1.259691e-01,-1.088536e-03,2.519381e-01
-2.159408e-01,1.246735e-01,-3.976164e-05,2.493470e-01
-2.207096e-01,1.274268e-01,3.221755e-03,2.548535e-01
-2.192938e-01,1.266093e-01,-3.426793e-04,2.532187e-01
-2.156326e-01,1.244955e-01,-8.263047e-04,2.489910e-01
-2.198329e-01,1.269206e-01,3.073402e-03,2.538412e-01
-2.202976e-01,1.271889e-01,5.735454e-04,2.543778e-01
-2.157143e-01,1.245427e-01,-1.398126e-03,2.490854e-01
-2.187768e-01,1.263109e-01,2.601629e-03,2.526217e-01
-2.210404e-01,1.276177e-01,1.521113e-03,2.552354e-01
-2.161798e-01,1.248115e-01,-1.672602e-03,2.496229e-01
-2.176961e-01,1.256869e-01,1.879781e-03,2.513738e-01
-2.214025e-01,1.278268e-01,2.353753e-03,2.556536e-01
-2.169744e-01,1.252702e-01,-1.603361e-03,2.505404e-01
-2.167391e-01,1.251344e-01,1.009760e-03,2.502688e-01
-2.213268e-01,1.277831e-01,2.945248e-03,2.555662e-01
-2.179971e-01,1.258607e-01,-1.190437e-03,2.517214e-01
-2.160297e-01,1.247248e-01,1.085360e-04,2.494496e-01
-2.208311e-01,1.274969e-01,3.211747e-03,2.549938e-01
-2.191075e-01,1.265018e-01,-4.855878e-04,2.530036e-01
-2.156582e-01,1.245103e-01,-7.044750e-04,2.490207e-01
-2.199993e-01,1.270167e-01,3.123099e-03,2.540333e-01
-2.201409e-01,1.270984e-01,4.107865e-04,2.541968e-01
-2.156722e-01,1.245184e-01,-1.319644e-03,2.490368e-01
-2.189633e-01,1.264185e-01,2.702366e-03,2.528371e-01
-2.209381e-01,1.275587e-01,1.363509e-03,2.551174e-01
-2.160746e-01,1.247507e-01,-1.649334e-03,2.495014e-01
-2.178761e-01,1.257908e-01,2.016624e-03,2.515817e-01
-2.213709e-01,1.278085e-01,2.225580e-03,2.556171e-01
-2.168191e-01,1.251806e-01,-1.640166e-03,2.503611e-01
-2.168882e-01,1.252205e-01,1.163874e-03,2.504409e-01
-2.213708e-01,1.278085e-01,2.865579e-03,2.556170e-01
-2.178121e-01,1.257539e-01,-1.283707e-03,2.515078e-01
-2.161289e-01,1.247821e-01,2.594364e-04,2.495642e-01
-2.209426e-01,1.275613e-01,3.191253e-03,2.551225e-01
-2.189185e-01,1.263927e-01,-6.228391e-04,2.527854e-01
-2.156949e-01,1.245315e-01,-5.768309e-04,2.490630e-01
-2.201598e-01,1.271093e-01,3.163009e-03,2.542186e-01
-2.199772e-01,1.270039e-01,2.497012e-04,2.540078e-01
-2.156422e-01,1.245011e-01,-1.232741e-03,2.490022e-01
-2.191479e-01,1.265251e-01,2.795294e-03,2.530502e-01
-2.208245e-01,1.274931e-01,1.203203e-03,2.549862e-01
-2.159802e-01,1.246963e-01,-1.616052e-03,2.493925e-01
-2.180584e-01,1.258961e-01,2.148549e-03,2.517921e-01
-2.213264e-01,1.277828e-01,2.090834e-03,2.555657e-01
-2.166716e-01,1.250954e-01,-1.666706e-03,2.501908e-01
-2.170436e-01,1.253102e-01,1.316466e-03,2.506203e-01
-2.214024e-01,1.278267e-01,2.776621e-03,2.556535e-01
-2.176305e-01,1.256490e-01,-1.367975e-03,2.512981e-01
-2.162381e-01,1.248451e-01,4.123462e-04,2.496902e-01
-2.210437e-01,1.276196e-01,3.160309e-03,2.552393e-01
-2.187283e-01,1.262828e-01,-7.538210e-04,2.525657e-01
-2.157432e-01,1.245594e-01,-4.438718e-04,2.491188e-01
-2.203136e-01,1.271981e-01,3.192910e-03,2.543962e-01
-2.198067e-01,1.269054e-01,9.099472e-05,2.538109e-01
-2.156228e-01,1.244899e-01,-1.137833e-03,2.489797e-01
-2.193306e-01,1.266306e-01,2.880011e-03,2.532611e-01
-2.207011e-01,1.274218e-01,1.040963e-03,2.548437e-01
-2.158953e-01,1.246472e-01,-1.572996e-03,2.492945e-01
-2.182434e-01,1.260029e-01,2.275028e-03,2.520058e-01
-2.212696e-01,1.277501e-01,1.950126e-03,2.555001e-01
-2.165314e-01,1.250144e-01,-1.682953e-03,2.500289e-01
-2.172060e-01,1.254039e-01,1.466951e-03,2.508078e-01
-2.214213e-01,1.278377e-01,2.678734e-03,2.556753e-01
-2.174532e-01,1.255467e-01,-1.442916e-03,2.510933e-01
-2.163556e-01,1.249130e-01,5.666553e-04,2.498260e-01
-2.211339e-01,1.276717e-01,3.118996e-03,2.553435e-01
-2.185376e-01,1.261727e-01,-8.779738e-04,2.523454e-01
-2.158025e-01,1.245936e-01,-3.061406e-04,2.491872e-01
-2.204601e-01,1.272827e-01,3.212621e-03,2.545653e-01
-2.196309e-01,1.268040e-01,-6.458722e-05,2.536079e-01
-2.156156e-01,1.244857e-01,-1.035291e-03,2.489714e-01
-2.195105e-01,1.267345e-01,2.956132e-03,2.534689e-01
-2.205684e-01,1.273452e-01,8.775305e-04,2.546904e-01
-2.158222e-01,1.246050e-01,-1.520327e-03,2.492100e-01
-2.184296e-01,1.261104e-01,2.395531e-03,2.522208e-01
-2.212007e-01,1.277103e-01,1.804079e-03,2.554206e-01
-2.163997e-01,1.249384e-01,-1.688874e-03,2.498768e-01
-2.173729e-01,1.255003e-01,1.614714e-03,2.510006e-01
-2.214264e-01,1.278406e-01,2.572294e-03,2.556812e-01
-2.172801e-01,1.254467e-01,-1.508276e-03,2.508935e-01
-2.164824e-01,1.249862e-01,7.217834e-04,2.499724e-01
-2.212128e-01,1.277173e-01,3.067443e-03,2.554346e-01
-2.183471e-01,1.260628e-01,-9.947756e-04,2.521255e-01
-2.158722e-01,1.246338e-01,-1.641901e-04,2.492677e-01
-2.205983e-01,1.273625e-01,3.222003e-03,2.547250e-01
-2.194507e-01,1.266999e-01,-2.163496e-04,2.533999e-01
-2.156199e-01,1.244882e-01,-9.255677e-04,2.489764e-01
-2.196861e-01,1.268358e-01,3.023286e-03,2.536716e-01
-2.204261e-01,1.272631e-01,7.136225e-04,2.545261e-01
-2.157588e-01,1.245684e-01,-1.458361e-03,2.491368e-01
-2.186166e-01,1.262184e-01,2.509554e-03,2.524367e-01
-2.211190e-01,1.276631e-01,1.653323e-03,2.553263e-01
-2.162775e-01,1.248679e-01,-1.684476e-03,2.497357e-01
-2.175455e-01,1.255999e-01,1.759193e-03,2.511999e-01
-2.214188e-01,1.278362e-01,2.457783e-03,2.556724e-01
-2.171126e-01,1.253500e-01,-1.563802e-03,2.507001e-01
-2.166176e-01,1.250642e-01,8.771175e-04,2.501284e-01
-2.212797e-01,1.277559e-01,3.005821e-03,2.555118e-01
-2.181578e-01,1.259535e-01,-1.103738e-03,2.519069e-01
-2.159528e-01,1.246804e-01,-1.856624e-05,2.493608e-01
-2.207278e-01,1.274372e-01,3.220960e-03,2.548745e-01
-2.192668e-01,1.265938e-01,-3.636190e-04,2.531875e-01
-2.156353e-01,1.244971e-01,-8.091225e-04,2.489942e-01
-2.198570e-01,1.269345e-01,3.081157e-03,2.538690e-01
-2.202754e-01,1.271761e-01,5.500039e-04,2.543522e-01
-2.157076e-01,1.245388e-01,-1.387339e-03,2.490777e-01
-2.188042e-01,1.263267e-01,2.616622e-03,2.526533e-01
-2.210261e-01,1.276095e-01,1.498577e-03,2.552190e-01
-2.161638e-01,1.248022e-01,-1.669879e-03,2.496044e-01
-2.177219e-01,1.257018e-01,1.899791e-03,2.514035e-01
-2.213986e-01,1.278245e-01,2.335695e-03,2.556491e-01
-2.169516e-01,1.252570e-01,-1.609299e-03,2.505141e-01
-2.167600e-01,1.251464e-01,1.032047e-03,2.502929e-01
-2.213341e-01,1.277873e-01,2.934352e-03,2.555746e-01
-2.179705e-01,1.258453e-01,-1.204418e-03,2.516907e-01
-2.160437e-01,1.247329e-01,1.301503e-04,2.494658e-01
-2.208478e-01,1.275065e-01,3.209439e-03,2.550131e-01
-2.190801e-01,1.264860e-01,-5.057489e-04,2.529720e-01
-2.156628e-01,1.245130e-01,-6.864189e-04,2.490260e-01
-2.200227e-01,1.270302e-01,3.129460e-03,2.540603e-01
-2.201175e-01,1.270849e-01,3.874345e-04,2.541697e-01
-2.156671e-01,1.245154e-01,-1.307627e-03,2.490309e-01
-2.189898e-01,1.264338e-01,2.716252e-03,2.528676e-01
-2.209225e-01,1.275497e-01,1.340548e-03,2.550994e-01
-2.160604e-01,1.247426e-01,-1.645145e-03,2.494851e-01
-2.179021e-01,1.258059e-01,2.035959e-03,2.516117e-01
-2.213656e-01,1.278055e-01,2.206555e-03,2.556110e-01
-2.167976e-01,1.251681e-01,-1.644621e-03,2.503363e-01
-2.169102e-01,1.252332e-01,1.185982e-03,2.504664e-01
-2.213762e-01,1.278116e-01,2.853319e-03,2.556232e-01
-2.177860e-01,1.257388e-01,-1.296408e-03,2.514776e-01
-2.161439e-01,1.247908e-01,2.813701e-04,2.495815e-01
-2.209578e-01,1.275700e-01,3.187434e-03,2.551401e-01
-2.188913e-01,1.263769e-01,-6.421200e-04,2.527539e-01
-2.157013e-01,1.245352e-01,-5.579743e-04,2.490705e-01
-2.201825e-01,1.271224e-01,3.167942e-03,2.542448e-01
-2.199529e-01,1.269898e-01,2.266506e-04,2.539797e-01
-2.156383e-01,1.244988e-01,-1.219550e-03,2.489977e-01
-2.191745e-01,1.265404e-01,2.808024e-03,2.530809e-01
-2.208075e-01,1.274833e-01,1.179920e-03,2.549666e-01
-2.159670e-01,1.246886e-01,-1.610454e-03,2.493772e-01
-2.180849e-01,1.259114e-01,2.167131e-03,2.518228e-01
-2.213190e-01,1.277786e-01,2.070903e-03,2.555572e-01
-2.166508e-01,1.250834e-01,-1.669687e-03,2.501668e-01
-2.170667e-01,1.253235e-01,1.338307e-03,2.506471e-01
-2.214057e-01,1.278286e-01,2.763045e-03,2.556573e-01
-2.176048e-01,1.256342e-01,-1.379353e-03,2.512684e-01
-2.162542e-01,1.248544e-01,4.345173e-04,2.497089e-01
-2.210573e-01,1.276275e-01,3.154988e-03,2.552550e-01
-2.187011e-01,1.262672e-01,-7.721416e-04,2.525343e-01
-2.157508e-01,1.245638e-01,-4.243008e-04,2.491276e-01
-2.203353e-01,1.272107e-01,3.196385e-03,2.544213e-01
-2.197819e-01,1.268911e-01,6.836554e-05,2.537823e-01
-2.156213e-01,1.244890e-01,-1.123504e-03,2.489780e-01
-2.193571e-01,1.266459e-01,2.891530e-03,2.532917e-01
-2.206824e-01,1.274110e-01,1.017454e-03,2.548221e-01
-2.158841e-01,1.246408e-01,-1.565986e-03,2.492815e-01
-2.182704e-01,1.260185e-01,2.292785e-03,2.520369e-01
-2.212603e-01,1.277447e-01,1.929378e-03,2.554893e-01
-2.165117e-01,1.250031e-01,-1.684449e-03,2.500062e-01
-2.172294e-01,1.254174e-01,1.488432e-03,2.508348e-01
-2.214226e-01,1.278384e-01,2.663898e-03,2.556768e-01
-2.174276e-01,1.255319e-01,-1.452946e-03,2.510637e-01
-2.163737e-01,1.249234e-01,5.889890e-04,2.498468e-01
-2.211458e-01,1.276786e-01,3.112187e-03,2.553572e-01
-2.185104e-01,1.261570e-01,-8.952664e-04,2.523140e-01
-2.158118e-01,1.245990e-01,-2.859227e-04,2.491980e-01
-2.204807e-01,1.272946e-01,3.214617e-03,2.545891e-01
-2.196054e-01,1.267892e-01,-8.671375e-05,2.535785e-01
-2.156153e-01,1.244855e-01,-1.019909e-03,2.489711e-01
-2.195359e-01,1.267491e-01,2.966372e-03,2.534982e-01
-2.205481e-01,1.273335e-01,8.539022e-04,2.546671e-01
-2.158120e-01,1.245991e-01,-1.511970e-03,2.491982e-01
-2.184564e-01,1.261259e-01,2.412380e-03,2.522518e-01
-2.211897e-01,1.277039e-01,1.782616e-03,2.554078e-01
-2.163816e-01,1.249280e-01,-1.688870e-03,2.498560e-01
-2.173978e-01,1.255146e-01,1.635764e-03,2.510293e-01
-2.214264e-01,1.278406e-01,2.556280e-03,2.556812e-01
-2.172554e-01,1.254325e-01,-1.516900e-03,2.508649e-01
-2.165012e-01,1.249970e-01,7.441774e-04,2.499941e-01
-2.212229e-01,1.277231e-01,3.059168e-03,2.554462e-01
-2.183201e-01,1.260471e-01,-1.010967e-03,2.520943e-01
-2.158833e-01,1.246403e-01,-1.434042e-04,2.492806e-01
-2.206177e-01,1.273737e-01,3.222502e-03,2.547474e-01
-2.194245e-01,1.266848e-01,-2.378747e-04,2.533695e-01
-2.156215e-01,1.244891e-01,-9.091817e-04,2.489783e-01
-2.197108e-01,1.268501e-01,3.032206e-03,2.537002e-01
-2.204052e-01,1.272510e-01,6.900092e-04,2.545020e-01
-2.157510e-01,1.245639e-01,-1.448668e-03,2.491278e-01
-2.186439e-01,1.262341e-01,2.525433e-03,2.524682e-01
-2.211065e-01,1.276559e-01,1.631248e-03,2.553118e-01
-2.162603e-01,1.248579e-01,-1.683007e-03,2.497159e-01
-2.175704e-01,1.256144e-01,1.779713e-03,2.512287e-01
-2.214167e-01,1.278350e-01,2.440639e-03,2.556700e-01
-2.170890e-01,1.253364e-01,-1.570985e-03,2.506728e-01
-2.166376e-01,1.250758e-01,8.994922e-04,2.501516e-01
-2.212883e-01,1.277609e-01,2.996117e-03,2.555217e-01
-2.181310e-01,1.259380e-01,-1.118761e-03,2.518760e-01
-2.159650e-01,1.246875e-01,2.694470e-06,2.493749e-01
-2.207459e-01,1.274477e-01,3.219950e-03,2.548954e-01
-2.192400e-01,1.265783e-01,-3.844472e-04,2.531565e-01
-2.156387e-01,1.244991e-01,-7.918039e-04,2.489982e-01
-2.198812e-01,1.269485e-01,3.088717e-03,2.538969e-01
-2.202532e-01,1.271632e-01,5.264880e-04,2.543265e-01
