x,y,z,R
-2.231970e-01,1.288628e-01,-6.436441e-03,2.577257e-01
-1.996617e-01,1.152748e-01,-1.025540e-02,2.305495e-01
-2.213985e-01,1.278245e-01,1.357567e-02,2.556490e-01
-2.326777e-01,1.343366e-01,2.715422e-03,2.686731e-01
-2.010588e-01,1.160814e-01,-1.432520e-02,2.321628e-01
-2.126013e-01,1.227454e-01,8.181917e-03,2.454908e-01
-2.378881e-01,1.373448e-01,1.137405e-02,2.746896e-01
-2.059288e-01,1.188930e-01,-1.538519e-02,2.377861e-01
-2.056236e-01,1.187168e-01,1.667254e-03,2.374337e-01
-2.364713e-01,1.365267e-01,1.629865e-02,2.730535e-01
-2.140922e-01,1.236062e-01,-1.248927e-02,2.472123e-01
-2.011716e-01,1.161465e-01,-4.984641e-03,2.322930e-01
-2.295893e-01,1.325534e-01,1.650807e-02,2.651069e-01
-2.242259e-01,1.294569e-01,-5.601239e-03,2.589138e-01
-1.996517e-01,1.152690e-01,-1.076240e-02,2.305379e-01
-2.204756e-01,1.272916e-01,1.311905e-02,2.545833e-01
-2.334487e-01,1.347817e-01,3.661430e-03,2.695634e-01
-2.013858e-01,1.162701e-01,-1.458527e-02,2.325402e-01
-2.118074e-01,1.222870e-01,7.565895e-03,2.445741e-01
-2.380549e-01,1.374411e-01,1.207237e-02,2.748821e-01
-2.066058e-01,1.192839e-01,-1.528419e-02,2.385678e-01
-2.050590e-01,1.183909e-01,9.940811e-04,2.367817e-01
-2.359827e-01,1.362447e-01,1.652246e-02,2.724894e-01
-2.150489e-01,1.241585e-01,-1.197012e-02,2.483171e-01
-2.008823e-01,1.159794e-01,-5.617057e-03,2.319589e-01
-2.287272e-01,1.320557e-01,1.630651e-02,2.641114e-01
-2.252463e-01,1.300460e-01,-4.740936e-03,2.600921e-01
-1.996738e-01,1.152817e-01,-1.125011e-02,2.305634e-01
-2.195582e-01,1.267620e-01,1.264120e-02,2.535240e-01
-2.341724e-01,1.351995e-01,4.599054e-03,2.703990e-01
-2.017478e-01,1.164791e-01,-1.481408e-02,2.329582e-01
-2.110332e-01,1.218401e-01,6.939911e-03,2.436801e-01
-2.381517e-01,1.374969e-01,1.272882e-02,2.749939e-01
-2.073159e-01,1.196939e-01,-1.514249e-02,2.393878e-01
-2.045202e-01,1.180798e-01,3.204326e-04,2.361596e-01
-2.354406e-01,1.359317e-01,1.669819e-02,2.718633e-01
-2.160246e-01,1.247218e-01,-1.141053e-02,2.494437e-01
-2.006228e-01,1.158296e-01,-6.239782e-03,2.316592e-01
-2.278469e-01,1.315475e-01,1.607070e-02,2.630950e-01
-2.262557e-01,1.306288e-01,-3.858154e-03,2.612575e-01
-1.997288e-01,1.153135e-01,-1.171737e-02,2.306270e-01
-2.186486e-01,1.262368e-01,1.214339e-02,2.524737e-01
-2.348447e-01,1.355877e-01,5.524461e-03,2.711754e-01
-2.021453e-01,1.167086e-01,-1.501045e-02,2.334172e-01
-2.102794e-01,1.214049e-01,6.304936e-03,2.428098e-01
-2.381784e-01,1.375123e-01,1.334130e-02,2.750247e-01
-2.080579e-01,1.201223e-01,-1.495963e-02,2.402446e-01
-2.040071e-01,1.177836e-01,-3.526708e-04,2.355672e-01
-2.348490e-01,1.355901e-01,1.682678e-02,2.711803e-01
-2.170169e-01,1.252948e-01,-1.081139e-02,2.505895e-01
-2.003934e-01,1.156972e-01,-6.851784e-03,2.313944e-01
-2.269515e-01,1.310305e-01,1.580220e-02,2.620611e-01
-2.272483e-01,1.312019e-01,-2.955908e-03,2.624038e-01
-1.998165e-01,1.153641e-01,-1.216306e-02,2.307282e-01
-2.177476e-01,1.257166e-01,1.162690e-02,2.514332e-01
-2.354632e-01,1.359447e-01,6.433919e-03,2.718895e-01
-2.025773e-01,1.169580e-01,-1.517330e-02,2.339161e-01
-2.095471e-01,1.209821e-01,5.661918e-03,2.419642e-01
-2.381354e-01,1.374875e-01,1.390803e-02,2.749751e-01
-2.088317e-01,1.205690e-01,-1.473509e-02,2.411380e-01
-2.035210e-01,1.175029e-01,-1.024299e-03,2.350058e-01
-2.342114e-01,1.352220e-01,1.690933e-02,2.704440e-01
-2.180230e-01,1.258756e-01,-1.017382e-02,2.517512e-01
-2.001939e-01,1.155820e-01,-7.452006e-03,2.311640e-01
-2.260444e-01,1.305068e-01,1.550256e-02,2.610136e-01
-2.282215e-01,1.317637e-01,-2.037161e-03,2.635275e-01
-1.999373e-01,1.154339e-01,-1.258599e-02,2.308678e-01
-2.168576e-01,1.252028e-01,1.109291e-02,2.504056e-01
-2.360246e-01,1.362689e-01,7.323688e-03,2.725377e-01
-2.030451e-01,1.172281e-01,-1.530145e-02,2.344563e-01
-2.088371e-01,1.205722e-01,5.011784e-03,2.411443e-01
-2.380238e-01,1.374231e-01,1.442758e-02,2.748462e-01
-2.096354e-01,1.210331e-01,-1.446862e-02,2.420661e-01
-2.030616e-01,1.172377e-01,-1.693414e-03,2.344753e-01
-2.335313e-01,1.348293e-01,1.694708e-02,2.696587e-01
-2.190405e-01,1.264631e-01,-9.499047e-03,2.529262e-01
-2.000250e-01,1.154845e-01,-8.039439e-03,2.309689e-01
-2.251287e-01,1.299781e-01,1.517326e-02,2.599563e-01
-2.291712e-01,1.323121e-01,-1.105112e-03,2.646242e-01
-2.000920e-01,1.155232e-01,-1.298496e-02,2.310464e-01
-2.159809e-01,1.246966e-01,1.054254e-02,2.493933e-01
-2.365261e-01,1.365584e-01,8.190091e-03,2.731168e-01
-2.035480e-01,1.175185e-01,-1.539391e-02,2.350370e-01
-2.081502e-01,1.201756e-01,4.355450e-03,2.403512e-01
-2.378437e-01,1.373191e-01,1.489883e-02,2.746383e-01
-2.104689e-01,1.215142e-01,-1.415993e-02,2.430285e-01
-2.026290e-01,1.169879e-01,-2.358999e-03,2.339758e-01
-2.328119e-01,1.344140e-01,1.694138e-02,2.688280e-01
-2.200669e-01,1.270557e-01,-8.788546e-03,2.541113e-01
-1.998874e-01,1.154050e-01,-8.613037e-03,2.308100e-01
-2.242056e-01,1.294451e-01,1.481583e-02,2.588903e-01
-2.300934e-01,1.328445e-01,-1.631089e-04,2.656890e-01
-2.002803e-01,1.156319e-01,-1.335877e-02,2.312637e-01
-2.151171e-01,1.241979e-01,9.977018e-03,2.483959e-01
-2.369646e-01,1.368116e-01,9.029527e-03,2.736232e-01
-2.040866e-01,1.178295e-01,-1.544961e-02,2.356589e-01
-2.074867e-01,1.197925e-01,3.693870e-03,2.395850e-01
-2.375975e-01,1.371770e-01,1.532106e-02,2.743539e-01
-2.113301e-01,1.220115e-01,-1.380897e-02,2.440230e-01
-2.022245e-01,1.167543e-01,-3.020073e-03,2.335087e-01
-2.320565e-01,1.339779e-01,1.689364e-02,2.679558e-01
-2.210989e-01,1.276515e-01,-8.044002e-03,2.553030e-01
-1.997809e-01,1.153435e-01,-9.171740e-03,2.306871e-01
-2.232798e-01,1.289106e-01,1.443164e-02,2.578213e-01
-2.309839e-01,1.333586e-01,7.853840e-04,2.667172e-01
-2.005022e-01,1.157600e-01,-1.370622e-02,2.315200e-01
-2.142693e-01,1.237084e-01,9.397351e-03,2.474169e-01
-2.373377e-01,1.370270e-01,9.838559e-03,2.740540e-01
-2.046595e-01,1.181602e-01,-1.546773e-02,2.363205e-01
-2.068466e-01,1.194229e-01,3.028012e-03,2.388458e-01
-2.372881e-01,1.369983e-01,1.569394e-02,2.739967e-01
-2.122174e-01,1.225238e-01,-1.341586e-02,2.450476e-01
-2.018482e-01,1.165371e-01,-3.675608e-03,2.330743e-01
-2.312704e-01,1.335241e-01,1.680540e-02,2.670481e-01
-2.221336e-01,1.282489e-01,-7.267296e-03,2.564978e-01
-1.997057e-01,1.153001e-01,-9.714481e-03,2.306002e-01
-2.223521e-01,1.283750e-01,1.402218e-02,2.567501e-01
-2.318389e-01,1.338522e-01,1.736794e-03,2.677045e-01
-2.007587e-01,1.159081e-01,-1.402606e-02,2.318162e-01
-2.134385e-01,1.232288e-01,8.804618e-03,2.464575e-01
-2.376441e-01,1.372039e-01,1.061401e-02,2.744077e-01
-2.052673e-01,1.185111e-01,-1.544731e-02,2.370222e-01
-2.062317e-01,1.190679e-01,2.358721e-03,2.381358e-01
-2.369155e-01,1.367832e-01,1.601725e-02,2.735665e-01
-2.131293e-01,1.230503e-01,-1.298073e-02,2.461005e-01
-2.014999e-01,1.163360e-01,-4.324542e-03,2.326721e-01
-2.304545e-01,1.330530e-01,1.667815e-02,2.661060e-01
-2.231665e-01,1.288452e-01,-6.460650e-03,2.576905e-01
-1.996628e-01,1.152754e-01,-1.024018e-02,2.305507e-01
-2.214256e-01,1.278401e-01,1.358879e-02,2.556803e-01
-2.326544e-01,1.343231e-01,2.687464e-03,2.686462e-01
-2.010498e-01,1.160761e-01,-1.431707e-02,2.321523e-01
-2.126249e-01,1.227590e-01,8.199915e-03,2.455180e-01
-2.378822e-01,1.373414e-01,1.135287e-02,2.746827e-01
-2.059094e-01,1.188818e-01,-1.538755e-02,2.377637e-01
-2.056405e-01,1.187266e-01,1.687081e-03,2.374532e-01
-2.364850e-01,1.365347e-01,1.629133e-02,2.730694e-01
-2.140642e-01,1.235900e-01,-1.250396e-02,2.471800e-01
-2.011804e-01,1.161516e-01,-4.965862e-03,2.323031e-01
-2.296144e-01,1.325680e-01,1.651347e-02,2.651359e-01
-2.241958e-01,1.294395e-01,-5.626212e-03,2.588790e-01
-1.996514e-01,1.152688e-01,-1.074773e-02,2.305375e-01
-2.205025e-01,1.273072e-01,1.313282e-02,2.546144e-01
-2.334268e-01,1.347690e-01,3.633665e-03,2.695381e-01
-2.013758e-01,1.162643e-01,-1.457805e-02,2.325287e-01
-2.118301e-01,1.223002e-01,7.584220e-03,2.446004e-01
-2.380510e-01,1.374388e-01,1.205238e-02,2.748776e-01
-2.065854e-01,1.192722e-01,-1.528773e-02,2.385443e-01
-2.050755e-01,1.184004e-01,1.013910e-03,2.368008e-01
-2.359977e-01,1.362533e-01,1.651656e-02,2.725066e-01
-2.150206e-01,1.241422e-01,-1.198599e-02,2.482844e-01
-2.008904e-01,1.159841e-01,-5.598558e-03,2.319683e-01
-2.287530e-01,1.320706e-01,1.631294e-02,2.641412e-01
-2.252164e-01,1.300288e-01,-4.766625e-03,2.600575e-01
-1.996729e-01,1.152812e-01,-1.123601e-02,2.305624e-01
-2.195850e-01,1.267775e-01,1.265558e-02,2.535549e-01
-2.341517e-01,1.351876e-01,4.571572e-03,2.703751e-01
-2.017368e-01,1.164728e-01,-1.480779e-02,2.329456e-01
-2.110554e-01,1.218529e-01,6.958514e-03,2.437058e-01
-2.381498e-01,1.374959e-01,1.271010e-02,2.749917e-01
-2.072947e-01,1.196816e-01,-1.514724e-02,2.393633e-01
-2.045356e-01,1.180887e-01,3.402971e-04,2.361773e-01
-2.354571e-01,1.359412e-01,1.669369e-02,2.718825e-01
-2.159955e-01,1.247051e-01,-1.142760e-02,2.494101e-01
-2.006303e-01,1.158339e-01,-6.221588e-03,2.316679e-01
-2.278732e-01,1.315627e-01,1.607812e-02,2.631253e-01
-2.262260e-01,1.306116e-01,-3.884473e-03,2.612232e-01
-1.997265e-01,1.153122e-01,-1.170391e-02,2.306244e-01
-2.186750e-01,1.262521e-01,1.215835e-02,2.525041e-01
-2.348256e-01,1.355766e-01,5.497395e-03,2.711532e-01
-2.021328e-01,1.167015e-01,-1.500515e-02,2.334029e-01
-2.103014e-01,1.214175e-01,6.323769e-03,2.428351e-01
-2.381785e-01,1.375124e-01,1.332389e-02,2.750249e-01
-2.080355e-01,1.201094e-01,-1.496561e-02,2.402188e-01
-2.040220e-01,1.177921e-01,-3.328550e-04,2.355843e-01
-2.348671e-01,1.356006e-01,1.682365e-02,2.712011e-01
-2.169877e-01,1.252779e-01,-1.082958e-02,2.505558e-01
-2.003996e-01,1.157008e-01,-6.833906e-03,2.314015e-01
-2.269782e-01,1.310459e-01,1.581056e-02,2.620918e-01
-2.272195e-01,1.311852e-01,-2.982738e-03,2.623704e-01
-1.998137e-01,1.153625e-01,-1.215025e-02,2.307250e-01
-2.177743e-01,1.257321e-01,1.164237e-02,2.514641e-01
-2.354457e-01,1.359347e-01,6.407383e-03,2.718693e-01
-2.025639e-01,1.169503e-01,-1.516899e-02,2.339007e-01
-2.095687e-01,1.209946e-01,5.680952e-03,2.419891e-01
-2.381376e-01,1.374888e-01,1.389200e-02,2.749776e-01
-2.088085e-01,1.205557e-01,-1.474229e-02,2.411113e-01
-2.035352e-01,1.175111e-01,-1.004556e-03,2.350223e-01
-2.342307e-01,1.352332e-01,1.690754e-02,2.704663e-01
-2.179932e-01,1.258584e-01,-1.019314e-02,2.517169e-01
-2.001991e-01,1.155850e-01,-7.434494e-03,2.311700e-01
-2.260712e-01,1.305223e-01,1.551182e-02,2.610445e-01
-2.281932e-01,1.317474e-01,-2.064436e-03,2.634948e-01
-1.999333e-01,1.154315e-01,-1.257387e-02,2.308631e-01
-2.168836e-01,1.252178e-01,1.110889e-02,2.504356e-01
-2.360090e-01,1.362598e-01,7.297791e-03,2.725197e-01
-2.030311e-01,1.172200e-01,-1.529816e-02,2.344401e-01
-2.088578e-01,1.205841e-01,5.031027e-03,2.411683e-01
-2.380279e-01,1.374255e-01,1.441295e-02,2.748509e-01
-2.096113e-01,1.210192e-01,-1.447708e-02,2.420383e-01
-2.030745e-01,1.172451e-01,-1.673730e-03,2.344902e-01
-2.335517e-01,1.348411e-01,1.694659e-02,2.696823e-01
-2.190105e-01,1.264458e-01,-9.519444e-03,2.528915e-01
-2.000296e-01,1.154871e-01,-8.022322e-03,2.309743e-01
-2.251556e-01,1.299937e-01,1.518339e-02,2.599873e-01
-2.291437e-01,1.322962e-01,-1.132734e-03,2.645923e-01
-2.000868e-01,1.155202e-01,-1.297356e-02,2.310403e-01
-2.160064e-01,1.247113e-01,1.055899e-02,2.494227e-01
-2.365124e-01,1.365505e-01,8.164938e-03,2.731009e-01
-2.035326e-01,1.175096e-01,-1.539171e-02,2.350193e-01
-2.081700e-01,1.201870e-01,4.374881e-03,2.403740e-01
-2.378501e-01,1.373228e-01,1.488565e-02,2.746457e-01
-2.104437e-01,1.214997e-01,-1.416964e-02,2.429995e-01
-2.026414e-01,1.169951e-01,-2.339447e-03,2.339901e-01
-2.328339e-01,1.344267e-01,1.694216e-02,2.688534e-01
-2.200366e-01,1.270382e-01,-8.809972e-03,2.540763e-01
-1.998912e-01,1.154072e-01,-8.596348e-03,2.308145e-01
-2.242329e-01,1.294609e-01,1.482675e-02,2.589218e-01
-2.300666e-01,1.328290e-01,-1.909761e-04,2.656581e-01
-2.002743e-01,1.156284e-01,-1.334812e-02,2.312568e-01
-2.151423e-01,1.242125e-01,9.993893e-03,2.484250e-01
-2.369525e-01,1.368046e-01,9.005199e-03,2.736092e-01
-2.040700e-01,1.178199e-01,-1.544853e-02,2.356398e-01
-2.075060e-01,1.198037e-01,3.713424e-03,2.396073e-01
-2.376056e-01,1.371817e-01,1.530933e-02,2.743634e-01
-2.113041e-01,1.219965e-01,-1.381995e-02,2.439929e-01
-2.022362e-01,1.167611e-01,-3.000679e-03,2.335223e-01
-2.320793e-01,1.339911e-01,1.689563e-02,2.679821e-01
-2.210686e-01,1.276340e-01,-8.066399e-03,2.552680e-01
-1.997834e-01,1.153450e-01,-9.155497e-03,2.306900e-01
-2.233072e-01,1.289265e-01,1.444333e-02,2.578529e-01
-2.309581e-01,1.333437e-01,7.573764e-04,2.666875e-01
-2.004954e-01,1.157561e-01,-1.369636e-02,2.315122e-01
-2.142943e-01,1.237229e-01,9.414608e-03,2.474458e-01
-2.373276e-01,1.370211e-01,9.815178e-03,2.740423e-01
-2.046423e-01,1.181503e-01,-1.546772e-02,2.363006e-01
-2.068651e-01,1.194336e-01,3.047685e-03,2.388672e-01
-2.372979e-01,1.370040e-01,1.568366e-02,2.740080e-01
-2.121906e-01,1.225083e-01,-1.342806e-02,2.450166e-01
-2.018588e-01,1.165432e-01,-3.656374e-03,2.330864e-01
-2.312937e-01,1.335375e-01,1.680857e-02,2.670750e-01
-2.221030e-01,1.282312e-01,-7.290637e-03,2.564624e-01
-1.997074e-01,1.153011e-01,-9.698727e-03,2.306023e-01
-2.223792e-01,1.283907e-01,1.403460e-02,2.567814e-01
-2.318143e-01,1.338380e-01,1.708756e-03,2.676761e-01
-2.007508e-01,1.159035e-01,-1.401703e-02,2.318070e-01
-2.134626e-01,1.232427e-01,8.822271e-03,2.464854e-01
-2.376360e-01,1.371992e-01,1.059166e-02,2.743984e-01
-2.052490e-01,1.185006e-01,-1.544846e-02,2.370012e-01
-2.062491e-01,1.190780e-01,2.378504e-03,2.381559e-01
-2.369274e-01,1.367901e-01,1.600843e-02,2.735802e-01
-2.131020e-01,1.230345e-01,-1.299417e-02,2.460690e-01
-2.015096e-01,1.163416e-01,-4.305512e-03,2.326832e-01
-2.304789e-01,1.330670e-01,1.668244e-02,2.661341e-01
-2.231361e-01,1.288277e-01,-6.484833e-03,2.576553e-01
-1.996635e-01,1.152758e-01,-1.022494e-02,2.305516e-01
-2.214528e-01,1.278558e-01,1.360189e-02,2.557117e-01
-2.326311e-01,1.343096e-01,2.659504e-03,2.686193e-01
-2.010408e-01,1.160710e-01,-1.430891e-02,2.321419e-01
-2.126483e-01,1.227726e-01,8.217914e-03,2.455451e-01
-2.378761e-01,1.373379e-01,1.133165e-02,2.746757e-01
-2.058901e-01,1.188707e-01,-1.538986e-02,2.377415e-01
-2.056576e-01,1.187365e-01,1.706895e-03,2.374729e-01
-2.364988e-01,1.365426e-01,1.628396e-02,2.730853e-01
-2.140363e-01,1.235739e-01,-1.251860e-02,2.471478e-01
-2.011895e-01,1.161568e-01,-4.947085e-03,2.323136e-01
-2.296396e-01,1.325825e-01,1.651885e-02,2.651650e-01
-2.241657e-01,1.294221e-01,-5.651160e-03,2.588443e-01
-1.996513e-01,1.152687e-01,-1.073305e-02,2.305374e-01
-2.205297e-01,1.273229e-01,1.314656e-02,2.546458e-01
-2.334049e-01,1.347564e-01,3.605894e-03,2.695127e-01
-2.013658e-01,1.162586e-01,-1.457078e-02,2.325172e-01
-2.118531e-01,1.223134e-01,7.602524e-03,2.446269e-01
-2.380471e-01,1.374365e-01,1.203236e-02,2.748731e-01
-2.065653e-01,1.192605e-01,-1.529123e-02,2.385210e-01
-2.050918e-01,1.184098e-01,1.033763e-03,2.368196e-01
-2.360126e-01,1.362620e-01,1.651060e-02,2.725239e-01
-2.149923e-01,1.241258e-01,-1.200181e-02,2.482517e-01
-2.008987e-01,1.159889e-01,-5.580054e-03,2.319779e-01
-2.287789e-01,1.320856e-01,1.631935e-02,2.641711e-01
-2.251865e-01,1.300115e-01,-4.792293e-03,2.600230e-01
-1.996719e-01,1.152806e-01,-1.122192e-02,2.305613e-01
-2.196119e-01,1.267930e-01,1.266994e-02,2.535860e-01
-2.341309e-01,1.351755e-01,4.544079e-03,2.703510e-01
-2.017258e-01,1.164664e-01,-1.480146e-02,2.329328e-01
-2.110777e-01,1.218658e-01,6.977100e-03,2.437315e-01
-2.381479e-01,1.374948e-01,1.269134e-02,2.749895e-01
-2.072731e-01,1.196692e-01,-1.515199e-02,2.393383e-01
-2.045510e-01,1.180976e-01,3.601474e-04,2.361952e-01
-2.354737e-01,1.359508e-01,1.668914e-02,2.719016e-01
-2.159665e-01,1.246883e-01,-1.144463e-02,2.493766e-01
-2.006375e-01,1.158381e-01,-6.203377e-03,2.316762e-01
-2.278996e-01,1.315779e-01,1.608551e-02,2.631558e-01
-2.261963e-01,1.305945e-01,-3.910773e-03,2.611890e-01
-1.997245e-01,1.153110e-01,-1.169043e-02,2.306220e-01
-2.187015e-01,1.262674e-01,1.217329e-02,2.525348e-01
-2.348065e-01,1.355656e-01,5.470315e-03,2.711311e-01
-2.021205e-01,1.166943e-01,-1.499981e-02,2.333886e-01
-2.103230e-01,1.214300e-01,6.342613e-03,2.428601e-01
-2.381787e-01,1.375125e-01,1.330646e-02,2.750251e-01
-2.080133e-01,1.200965e-01,-1.497157e-02,2.401930e-01
-2.040369e-01,1.178008e-01,-3.130521e-04,2.356015e-01
-2.348851e-01,1.356110e-01,1.682048e-02,2.712220e-01
-2.169581e-01,1.252608e-01,-1.084777e-02,2.505217e-01
-2.004057e-01,1.157043e-01,-6.816020e-03,2.314086e-01
-2.270049e-01,1.310614e-01,1.581890e-02,2.621227e-01
-2.271906e-01,1.311685e-01,-3.009551e-03,2.623371e-01
-1.998105e-01,1.153607e-01,-1.213741e-02,2.307213e-01
-2.178005e-01,1.257472e-01,1.165783e-02,2.514944e-01
-2.354283e-01,1.359246e-01,6.380830e-03,2.718492e-01
-2.025508e-01,1.169428e-01,-1.516465e-02,2.338856e-01
-2.095899e-01,1.210068e-01,5.700008e-03,2.420136e-01
-2.381397e-01,1.374900e-01,1.387592e-02,2.749801e-01
-2.087855e-01,1.205424e-01,-1.474945e-02,2.410847e-01
-2.035489e-01,1.175190e-01,-9.847748e-04,2.350380e-01
-2.342501e-01,1.352443e-01,1.690572e-02,2.704887e-01
-2.179635e-01,1.258413e-01,-1.021243e-02,2.516826e-01
-2.002046e-01,1.155882e-01,-7.416975e-03,2.311764e-01
-2.260981e-01,1.305378e-01,1.552106e-02,2.610756e-01
