x,y,z,R
-2.151346e-01,1.242080e-01,3.061102e-03,2.484160e-01
-2.267351e-01,1.309056e-01,5.943248e-03,2.618112e-01
-2.147134e-01,1.239649e-01,-5.731483e-03,2.479297e-01
-2.126839e-01,1.227931e-01,5.535099e-04,2.455862e-01
-2.259703e-01,1.304640e-01,7.338440e-03,2.609280e-01
-2.178175e-01,1.257570e-01,-4.274978e-03,2.515140e-01
-2.110573e-01,1.218540e-01,-1.923138e-03,2.437080e-01
-2.239227e-01,1.292818e-01,7.604606e-03,2.585637e-01
-2.211450e-01,1.276781e-01,-1.918059e-03,2.553562e-01
-2.104330e-01,1.214935e-01,-4.052194e-03,2.429871e-01
-2.210500e-01,1.276233e-01,6.796015e-03,2.552466e-01
-2.241084e-01,1.293891e-01,9.550372e-04,2.587781e-01
-2.108990e-01,1.217626e-01,-5.536236e-03,2.435252e-01
-2.178861e-01,1.257966e-01,5.122659e-03,2.515932e-01
-2.261117e-01,1.305456e-01,3.808216e-03,2.610913e-01
-2.124456e-01,1.226555e-01,-6.123964e-03,2.453111e-01
-2.149181e-01,1.240830e-01,2.870578e-03,2.481661e-01
-2.267281e-01,1.309015e-01,6.091063e-03,2.618030e-01
-2.149377e-01,1.240943e-01,-5.655042e-03,2.481887e-01
-2.125237e-01,1.227006e-01,3.537965e-04,2.454013e-01
-2.258511e-01,1.303952e-01,7.400770e-03,2.607904e-01
-2.180777e-01,1.259072e-01,-4.118800e-03,2.518145e-01
-2.109703e-01,1.218038e-01,-2.106883e-03,2.436075e-01
-2.237201e-01,1.291649e-01,7.578009e-03,2.583297e-01
-2.213986e-01,1.278245e-01,-1.704910e-03,2.556491e-01
-2.104295e-01,1.214915e-01,-4.195672e-03,2.429830e-01
-2.208049e-01,1.274818e-01,6.692520e-03,2.549635e-01
-2.243074e-01,1.295039e-01,1.187232e-03,2.590078e-01
-2.109822e-01,1.218106e-01,-5.617588e-03,2.436213e-01
-2.176409e-01,1.256550e-01,4.962807e-03,2.513101e-01
-2.262143e-01,1.306049e-01,4.014610e-03,2.612098e-01
-2.126099e-01,1.227504e-01,-6.126603e-03,2.455008e-01
-2.147050e-01,1.239600e-01,2.678423e-03,2.479200e-01
-2.267123e-01,1.308924e-01,6.232770e-03,2.617848e-01
-2.151656e-01,1.242259e-01,-5.571949e-03,2.484518e-01
-2.123688e-01,1.226112e-01,1.544307e-04,2.452223e-01
-2.257244e-01,1.303220e-01,7.456006e-03,2.606441e-01
-2.183391e-01,1.260582e-01,-3.957099e-03,2.521163e-01
-2.108897e-01,1.217572e-01,-2.288325e-03,2.435145e-01
-2.235127e-01,1.290451e-01,7.544788e-03,2.580902e-01
-2.216503e-01,1.279699e-01,-1.488707e-03,2.559397e-01
-2.104329e-01,1.214935e-01,-4.335014e-03,2.429870e-01
-2.205586e-01,1.273395e-01,6.583788e-03,2.546791e-01
-2.245006e-01,1.296155e-01,1.419057e-03,2.592309e-01
-2.110724e-01,1.218627e-01,-5.693256e-03,2.437254e-01
-2.173961e-01,1.255137e-01,4.799536e-03,2.510274e-01
-2.263073e-01,1.306586e-01,4.217129e-03,2.613171e-01
-2.127800e-01,1.228486e-01,-6.122603e-03,2.456972e-01
-2.144961e-01,1.238394e-01,2.484783e-03,2.476787e-01
-2.266871e-01,1.308779e-01,6.368212e-03,2.617557e-01
-2.153974e-01,1.243598e-01,-5.482207e-03,2.487195e-01
-2.122186e-01,1.225245e-01,-4.442657e-05,2.450490e-01
-2.255898e-01,1.302443e-01,7.504127e-03,2.604886e-01
-2.186016e-01,1.262097e-01,-3.790021e-03,2.524193e-01
-2.108157e-01,1.217145e-01,-2.467315e-03,2.434290e-01
-2.233007e-01,1.289227e-01,7.505027e-03,2.578454e-01
-2.218988e-01,1.281134e-01,-1.269731e-03,2.562267e-01
-2.104436e-01,1.214996e-01,-4.470081e-03,2.429993e-01
-2.203114e-01,1.271968e-01,6.469951e-03,2.543936e-01
-2.246865e-01,1.297228e-01,1.650164e-03,2.594456e-01
-2.111686e-01,1.219182e-01,-5.763171e-03,2.438365e-01
-2.171540e-01,1.253739e-01,4.632975e-03,2.507478e-01
-2.263919e-01,1.307074e-01,4.415599e-03,2.614149e-01
-2.129554e-01,1.229499e-01,-6.111948e-03,2.458997e-01
-2.142911e-01,1.237210e-01,2.289820e-03,2.474420e-01
-2.266523e-01,1.308577e-01,6.497246e-03,2.617155e-01
-2.156330e-01,1.244958e-01,-5.385872e-03,2.489916e-01
-2.120741e-01,1.224411e-01,-2.426286e-04,2.448821e-01
-2.254473e-01,1.301621e-01,7.545130e-03,2.603241e-01
-2.188646e-01,1.263615e-01,-3.617730e-03,2.527231e-01
-2.107476e-01,1.216752e-01,-2.643704e-03,2.433504e-01
-2.230844e-01,1.287978e-01,7.458814e-03,2.575957e-01
-2.221439e-01,1.282549e-01,-1.048243e-03,2.565097e-01
-2.104602e-01,1.215093e-01,-4.600763e-03,2.430185e-01
-2.200630e-01,1.270534e-01,6.351143e-03,2.541069e-01
-2.248665e-01,1.298267e-01,1.880352e-03,2.596534e-01
-2.112721e-01,1.219780e-01,-5.827192e-03,2.439560e-01
-2.169129e-01,1.252347e-01,4.463296e-03,2.504694e-01
-2.264669e-01,1.307507e-01,4.609731e-03,2.615015e-01
-2.131370e-01,1.230547e-01,-6.094555e-03,2.461094e-01
-2.140895e-01,1.236047e-01,2.093696e-03,2.472093e-01
-2.266089e-01,1.308327e-01,6.619800e-03,2.616654e-01
-2.158722e-01,1.246339e-01,-5.283002e-03,2.492678e-01
-2.119353e-01,1.223609e-01,-4.400179e-04,2.447218e-01
-2.252978e-01,1.300758e-01,7.579035e-03,2.601515e-01
-2.191275e-01,1.265133e-01,-3.440419e-03,2.530267e-01
-2.106859e-01,1.216396e-01,-2.817347e-03,2.432792e-01
-2.228641e-01,1.286706e-01,7.406244e-03,2.573413e-01
-2.223861e-01,1.283947e-01,-8.244439e-04,2.567894e-01
-2.104839e-01,1.215230e-01,-4.726910e-03,2.430459e-01
-2.198135e-01,1.269094e-01,6.227503e-03,2.538188e-01
-2.250385e-01,1.299260e-01,2.109242e-03,2.598520e-01
-2.113815e-01,1.220412e-01,-5.885271e-03,2.440824e-01
-2.166745e-01,1.250971e-01,4.290632e-03,2.501941e-01
-2.265332e-01,1.307890e-01,4.799347e-03,2.615781e-01
-2.133236e-01,1.231624e-01,-6.070455e-03,2.463248e-01
-2.138925e-01,1.234909e-01,1.896555e-03,2.469818e-01
-2.265557e-01,1.308020e-01,6.735719e-03,2.616040e-01
-2.161148e-01,1.247739e-01,-5.173667e-03,2.495478e-01
-2.118023e-01,1.222841e-01,-6.364390e-04,2.445683e-01
-2.251414e-01,1.299855e-01,7.605860e-03,2.599709e-01
-2.193907e-01,1.266653e-01,-3.258228e-03,2.533305e-01
-2.106308e-01,1.216078e-01,-2.988094e-03,2.432155e-01
-2.226400e-01,1.285413e-01,7.347414e-03,2.570825e-01
-2.226242e-01,1.285321e-01,-5.986539e-04,2.570643e-01
-2.105147e-01,1.215407e-01,-4.848392e-03,2.430815e-01
-2.195641e-01,1.267654e-01,6.099164e-03,2.535308e-01
-2.252043e-01,1.300218e-01,2.336662e-03,2.600435e-01
-2.114979e-01,1.221084e-01,-5.937280e-03,2.442167e-01
-2.164380e-01,1.249605e-01,4.115147e-03,2.499210e-01
-2.265899e-01,1.308218e-01,4.984196e-03,2.616435e-01
-2.135154e-01,1.232732e-01,-6.039594e-03,2.465464e-01
-2.137002e-01,1.233798e-01,1.698553e-03,2.467597e-01
-2.264937e-01,1.307662e-01,6.844936e-03,2.615324e-01
-2.163604e-01,1.249157e-01,-5.057940e-03,2.498314e-01
-2.116751e-01,1.222107e-01,-8.317401e-04,2.444213e-01
-2.249785e-01,1.298914e-01,7.625626e-03,2.597828e-01
-2.196538e-01,1.268172e-01,-3.071338e-03,2.536343e-01
-2.105825e-01,1.215798e-01,-3.155798e-03,2.431597e-01
-2.224121e-01,1.284097e-01,7.282426e-03,2.568194e-01
-2.228581e-01,1.286672e-01,-3.711092e-04,2.573344e-01
-2.105525e-01,1.215626e-01,-4.965087e-03,2.431251e-01
-2.193141e-01,1.266210e-01,5.966268e-03,2.532421e-01
-2.253614e-01,1.301125e-01,2.562212e-03,2.602249e-01
-2.116205e-01,1.221792e-01,-5.983155e-03,2.443583e-01
-2.162040e-01,1.248254e-01,3.936989e-03,2.496509e-01
-2.266375e-01,1.308492e-01,5.164090e-03,2.616984e-01
-2.137129e-01,1.233872e-01,-6.001942e-03,2.467744e-01
-2.135118e-01,1.232711e-01,1.499854e-03,2.465422e-01
-2.264234e-01,1.307256e-01,6.947382e-03,2.614512e-01
-2.166088e-01,1.250591e-01,-4.935911e-03,2.501183e-01
-2.115531e-01,1.221402e-01,-1.025759e-03,2.442804e-01
-2.248089e-01,1.297935e-01,7.638367e-03,2.595870e-01
-2.199166e-01,1.269689e-01,-2.879936e-03,2.539378e-01
-2.105408e-01,1.215558e-01,-3.320313e-03,2.431116e-01
-2.221808e-01,1.282762e-01,7.211388e-03,2.565523e-01
-2.230884e-01,1.288001e-01,-1.420472e-04,2.576003e-01
-2.105964e-01,1.215879e-01,-5.076885e-03,2.431758e-01
-2.190639e-01,1.264766e-01,5.828960e-03,2.529532e-01
-2.255120e-01,1.301994e-01,2.785738e-03,2.603988e-01
-2.117496e-01,1.222537e-01,-6.022809e-03,2.445073e-01
-2.159731e-01,1.246921e-01,3.756307e-03,2.493843e-01
-2.266757e-01,1.308713e-01,5.338827e-03,2.617426e-01
-2.139153e-01,1.235040e-01,-5.957522e-03,2.470081e-01
-2.133279e-01,1.231649e-01,1.300613e-03,2.463298e-01
-2.263434e-01,1.306794e-01,7.042938e-03,2.613588e-01
-2.168599e-01,1.252041e-01,-4.807668e-03,2.504082e-01
-2.114371e-01,1.220732e-01,-1.218352e-03,2.441465e-01
-2.246331e-01,1.296920e-01,7.644119e-03,2.593839e-01
-2.201787e-01,1.271202e-01,-2.684221e-03,2.542404e-01
-2.105057e-01,1.215355e-01,-3.481494e-03,2.430710e-01
-2.219466e-01,1.281409e-01,7.134413e-03,2.562818e-01
-2.233129e-01,1.289298e-01,8.817132e-05,2.578595e-01
-2.106476e-01,1.216174e-01,-5.183645e-03,2.432349e-01
-2.188147e-01,1.263327e-01,5.687373e-03,2.526654e-01
-2.256535e-01,1.302811e-01,3.006850e-03,2.605622e-01
-2.118850e-01,1.223319e-01,-6.056166e-03,2.446637e-01
-2.157442e-01,1.245600e-01,3.573269e-03,2.491200e-01
-2.267043e-01,1.308878e-01,5.508198e-03,2.617755e-01
-2.141221e-01,1.236234e-01,-5.906339e-03,2.472469e-01
-2.131490e-01,1.230616e-01,1.100978e-03,2.461232e-01
-2.262550e-01,1.306284e-01,7.131569e-03,2.612567e-01
-2.171133e-01,1.253504e-01,-4.673313e-03,2.507008e-01
-2.113272e-01,1.220098e-01,-1.409362e-03,2.440196e-01
-2.244510e-01,1.295868e-01,7.642930e-03,2.591736e-01
-2.204390e-01,1.272705e-01,-2.484453e-03,2.545410e-01
-2.104768e-01,1.215189e-01,-3.639207e-03,2.430377e-01
-2.217098e-01,1.280042e-01,7.051616e-03,2.560084e-01
-2.235334e-01,1.290570e-01,3.193718e-04,2.581141e-01
-2.107060e-01,1.216512e-01,-5.285243e-03,2.433023e-01
-2.185648e-01,1.261885e-01,5.541667e-03,2.523769e-01
-2.257881e-01,1.303588e-01,3.225388e-03,2.607177e-01
-2.120266e-01,1.224136e-01,-6.083158e-03,2.448272e-01
-2.155190e-01,1.244299e-01,3.388010e-03,2.488599e-01
-2.267240e-01,1.308992e-01,5.672059e-03,2.617983e-01
-2.143340e-01,1.237458e-01,-5.848368e-03,2.474916e-01
-2.129751e-01,1.229612e-01,9.011068e-04,2.459225e-01
-2.261585e-01,1.305727e-01,7.213231e-03,2.611453e-01
-2.173689e-01,1.254980e-01,-4.532954e-03,2.509959e-01
-2.112234e-01,1.219499e-01,-1.598636e-03,2.438997e-01
-2.242629e-01,1.294782e-01,7.634853e-03,2.589565e-01
-2.206981e-01,1.274201e-01,-2.280786e-03,2.548402e-01
-2.104548e-01,1.215062e-01,-3.793301e-03,2.430123e-01
-2.214707e-01,1.278662e-01,6.963114e-03,2.557324e-01
-2.237480e-01,1.291810e-01,5.512008e-04,2.583620e-01
-2.107703e-01,1.216883e-01,-5.381597e-03,2.433766e-01
-2.183165e-01,1.260451e-01,5.391971e-03,2.520901e-01
-2.259133e-01,1.304311e-01,3.440983e-03,2.608622e-01
-2.121744e-01,1.224989e-01,-6.103715e-03,2.449978e-01
-2.152967e-01,1.243016e-01,3.200695e-03,2.486032e-01
-2.267333e-01,1.309045e-01,5.830178e-03,2.618091e-01
-2.145507e-01,1.238709e-01,-5.783627e-03,2.477418e-01
-2.128060e-01,1.228636e-01,7.011597e-04,2.457272e-01
-2.260535e-01,1.305121e-01,7.287860e-03,2.610241e-01
-2.176263e-01,1.256466e-01,-4.386710e-03,2.512932e-01
-2.111258e-01,1.218936e-01,-1.786024e-03,2.437871e-01
-2.240693e-01,1.293664e-01,7.619955e-03,2.587329e-01
-2.209560e-01,1.275690e-01,-2.073434e-03,2.551380e-01
-2.104398e-01,1.214975e-01,-3.943638e-03,2.429949e-01
-2.212296e-01,1.277270e-01,6.869028e-03,2.554540e-01
-2.239574e-01,1.293019e-01,7.834215e-04,2.586037e-01
-2.108418e-01,1.217296e-01,-5.472562e-03,2.434592e-01
-2.180685e-01,1.259019e-01,5.238443e-03,2.518038e-01
-2.260310e-01,1.304991e-01,3.653470e-03,2.609982e-01
-2.123284e-01,1.225878e-01,-6.117773e-03,2.451757e-01
-2.150774e-01,1.241750e-01,3.011481e-03,2.483500e-01
-2.267342e-01,1.309051e-01,5.982464e-03,2.618101e-01
-2.147718e-01,1.239986e-01,-5.712145e-03,2.479971e-01
-2.126415e-01,1.227686e-01,5.012944e-04,2.455372e-01
-2.259399e-01,1.304465e-01,7.355413e-03,2.608929e-01
-2.178854e-01,1.257962e-01,-4.234707e-03,2.515924e-01
-2.110345e-01,1.218408e-01,-1.971371e-03,2.436816e-01
-2.238705e-01,1.292517e-01,7.598301e-03,2.585033e-01
-2.212117e-01,1.277166e-01,-1.862652e-03,2.554332e-01
-2.104317e-01,1.214928e-01,-4.090076e-03,2.429856e-01
-2.209859e-01,1.275862e-01,6.769482e-03,2.551725e-01
-2.241611e-01,1.294195e-01,1.015743e-03,2.588389e-01
-2.109205e-01,1.217750e-01,-5.558026e-03,2.435500e-01
-2.178220e-01,1.257596e-01,5.081224e-03,2.515191e-01
-2.261392e-01,1.305615e-01,3.862505e-03,2.611231e-01
-2.124879e-01,1.226800e-01,-6.125295e-03,2.453599e-01
-2.148621e-01,1.240507e-01,2.820512e-03,2.481014e-01
-2.267248e-01,1.308996e-01,6.128693e-03,2.617993e-01
-2.149966e-01,1.241283e-01,-5.633985e-03,2.482567e-01
-2.124823e-01,1.226767e-01,3.016585e-04,2.453535e-01
-2.258186e-01,1.303764e-01,7.415887e-03,2.607529e-01
-2.181458e-01,1.259466e-01,-4.077074e-03,2.518931e-01
-2.109488e-01,1.217914e-01,-2.154527e-03,2.435827e-01
-2.236665e-01,1.291339e-01,7.569965e-03,2.582679e-01
-2.214646e-01,1.278626e-01,-1.648694e-03,2.557253e-01
-2.104299e-01,1.214918e-01,-4.232487e-03,2.429836e-01
-2.207405e-01,1.274446e-01,6.664605e-03,2.548892e-01
-2.243584e-01,1.295334e-01,1.247859e-03,2.590668e-01
-2.110050e-01,1.218238e-01,-5.637917e-03,2.436476e-01
-2.175765e-01,1.256178e-01,4.920467e-03,2.512357e-01
-2.262395e-01,1.306194e-01,4.067919e-03,2.612389e-01
-2.126542e-01,1.227760e-01,-6.126182e-03,2.455519e-01
-2.146502e-01,1.239284e-01,2.627953e-03,2.478567e-01
-2.267065e-01,1.308891e-01,6.268773e-03,2.617782e-01
-2.152256e-01,1.242606e-01,-5.549143e-03,2.485212e-01
-2.123287e-01,1.225881e-01,1.024112e-04,2.451761e-01
-2.256898e-01,1.303021e-01,7.469265e-03,2.606041e-01
-2.184075e-01,1.260976e-01,-3.913958e-03,2.521953e-01
-2.108696e-01,1.217456e-01,-2.335343e-03,2.434913e-01
-2.234579e-01,1.290135e-01,7.535027e-03,2.580270e-01
-2.217154e-01,1.280074e-01,-1.431746e-03,2.560149e-01
-2.104349e-01,1.214947e-01,-4.370731e-03,2.429893e-01
-2.204941e-01,1.273023e-01,6.554526e-03,2.546047e-01
-2.245498e-01,1.296439e-01,1.479535e-03,2.592878e-01
-2.110968e-01,1.218768e-01,-5.712090e-03,2.437536e-01
-2.173328e-01,1.254772e-01,4.756318e-03,2.509543e-01
-2.263301e-01,1.306718e-01,4.269395e-03,2.613435e-01
-2.128252e-01,1.228747e-01,-6.120472e-03,2.457493e-01
-2.144418e-01,1.238081e-01,2.433959e-03,2.476161e-01
-2.266791e-01,1.308732e-01,6.402559e-03,2.617464e-01
-2.154586e-01,1.243951e-01,-5.457670e-03,2.487901e-01
-2.121806e-01,1.225025e-01,-9.629504e-05,2.450051e-01
-2.255535e-01,1.302234e-01,7.515534e-03,2.604467e-01
-2.186701e-01,1.262492e-01,-3.745503e-03,2.524984e-01
-2.107969e-01,1.217037e-01,-2.513668e-03,2.434073e-01
-2.232448e-01,1.288904e-01,7.493571e-03,2.577809e-01
-2.219634e-01,1.281506e-01,-1.212075e-03,2.563012e-01
-2.104469e-01,1.215016e-01,-4.504669e-03,2.430031e-01
-2.202468e-01,1.271595e-01,6.439375e-03,2.543191e-01
-2.247340e-01,1.297503e-01,1.710417e-03,2.595005e-01
-2.111951e-01,1.219335e-01,-5.780468e-03,2.438671e-01
-2.170905e-01,1.253373e-01,4.588932e-03,2.506745e-01
-2.264125e-01,1.307193e-01,4.466759e-03,2.614386e-01
-2.130024e-01,1.229770e-01,-6.108049e-03,2.459540e-01
-2.142379e-01,1.236903e-01,2.238676e-03,2.473806e-01
-2.266417e-01,1.308516e-01,6.529901e-03,2.617033e-01
-2.156952e-01,1.245317e-01,-5.359616e-03,2.490634e-01
-2.120377e-01,1.224200e-01,-2.942981e-04,2.448400e-01
-2.254090e-01,1.301400e-01,7.554679e-03,2.602799e-01
-2.189333e-01,1.264012e-01,-3.571873e-03,2.528024e-01
-2.107308e-01,1.216655e-01,-2.689355e-03,2.433309e-01
-2.230275e-01,1.287650e-01,7.445687e-03,2.575299e-01
-2.222075e-01,1.282915e-01,-9.899719e-04,2.565831e-01
-2.104660e-01,1.215126e-01,-4.634167e-03,2.430252e-01
-2.199977e-01,1.270157e-01,6.319294e-03,2.540314e-01
-2.249122e-01,1.298531e-01,1.940307e-03,2.597063e-01
-2.112998e-01,1.219940e-01,-5.842957e-03,2.439880e-01
-2.168507e-01,1.251988e-01,4.418452e-03,2.503976e-01
-2.264851e-01,1.307612e-01,4.659728e-03,2.615225e-01
-2.131853e-01,1.230826e-01,-6.088907e-03,2.461652e-01
-2.140381e-01,1.235750e-01,2.042264e-03,2.471499e-01
-2.265959e-01,1.308252e-01,6.650735e-03,2.616504e-01
-2.159353e-01,1.246703e-01,-5.255047e-03,2.493406e-01
-2.119000e-01,1.223405e-01,-4.914470e-04,2.446811e-01
-2.252577e-01,1.300526e-01,7.586730e-03,2.601052e-01
-2.191965e-01,1.265532e-01,-3.393259e-03,2.531064e-01
-2.106713e-01,1.216311e-01,-2.862251e-03,2.432623e-01
-2.228060e-01,1.286371e-01,7.391471e-03,2.572742e-01
-2.224487e-01,1.284308e-01,-7.656235e-04,2.568616e-01
-2.104915e-01,1.215273e-01,-4.759107e-03,2.430547e-01
-2.197484e-01,1.268718e-01,6.194412e-03,2.537436e-01
-2.250823e-01,1.299513e-01,2.168825e-03,2.599027e-01
-2.114117e-01,1.220586e-01,-5.899438e-03,2.441172e-01
-2.166122e-01,1.250611e-01,4.245041e-03,2.501223e-01
-2.265490e-01,1.307981e-01,4.848121e-03,2.615962e-01
-2.133731e-01,1.231910e-01,-6.063049e-03,2.463820e-01
-2.138418e-01,1.234616e-01,1.844889e-03,2.469232e-01
-2.265404e-01,1.307932e-01,6.764914e-03,2.615864e-01
-2.161788e-01,1.248109e-01,-5.144031e-03,2.496217e-01
-2.117682e-01,1.222644e-01,-6.875907e-04,2.445289e-01
-2.250995e-01,1.299612e-01,7.611704e-03,2.599225e-01
-2.194595e-01,1.267050e-01,-3.209829e-03,2.534100e-01
-2.106178e-01,1.216003e-01,-3.032216e-03,2.432005e-01
-2.225806e-01,1.285070e-01,7.331019e-03,2.570139e-01
-2.226858e-01,1.285677e-01,-5.393440e-04,2.571354e-01
-2.105237e-01,1.215459e-01,-4.879359e-03,2.430918e-01
-2.194991e-01,1.267278e-01,6.064866e-03,2.534557e-01
-2.252463e-01,1.300460e-01,2.395799e-03,2.600920e-01
-2.115291e-01,1.221264e-01,-5.949871e-03,2.442528e-01
-2.163771e-01,1.249254e-01,4.068836e-03,2.498507e-01
-2.266033e-01,1.308295e-01,5.031696e-03,2.616589e-01
-2.135666e-01,1.233027e-01,-6.030404e-03,2.466055e-01
